"deviceId","device_location_x","device_location_y","rssi_measurement","timeStamp"
"91","344.9588778970658","292.6581154559505","-66","2019-12-30 10:42:46.356"
"92","342.06744888226063","289.95775768568035","-61","2019-12-30 10:42:46.376"
"82","336.67794997772046","290.37762873930166","-57","2019-12-30 10:42:46.376"
"83","333.5928885289728","293.84735946418624","-61","2019-12-30 10:42:46.376"
"73","329.1047352196494","291.0235747975472","-59","2019-12-30 10:42:46.376"
"80","322.68014752229556","287.9094703290091","-63","2019-12-30 10:42:46.376"
"94","342.6236964158645","287.06770810942595","-61","2019-12-30 10:42:46.376"
"93","347.38349460752937","285.47230682214814","-67","2019-12-30 10:42:46.376"
"95","328.8597703029186","284.61151377181204","-48","2019-12-30 10:42:46.376"
"74","351.44000703950286","281.5358071154394","-69","2019-12-30 10:42:46.376"
"71","343.38189457441763","279.316889563453","-62","2019-12-30 10:42:46.376"
"76","322.06563846846717","283.3094557235442","-62","2019-12-30 10:42:46.376"
"77","321.14546910546704","278.70451594072904","-66","2019-12-30 10:42:46.376"
"86","320.39532344430967","294.42063531257196","-66","2019-12-30 10:42:46.376"
"87","317.9069429212813","289.7308954085638","-69","2019-12-30 10:42:46.376"
"79","316.2494733065213","292.4751058553608","-68","2019-12-30 10:42:46.376"
"47","342.1358519539482","289.7835201540159","-63","2019-12-30 10:42:46.376"
"62","339.606403783007","293.18547358384745","-65","2019-12-30 10:42:46.376"
"61","332.8011082583809","292.62046290890123","-63","2019-12-30 10:42:46.376"
"53","325.78011993520266","288.4073729952347","-63","2019-12-30 10:42:46.376"
"51","323.2626168452124","293.38823184056724","-67","2019-12-30 10:42:46.376"
"65","348.8934182654396","284.7880172921584","-68","2019-12-30 10:42:46.376"
"55","342.0269677493132","282.8114048728631","-63","2019-12-30 10:42:46.376"
"49","323.2011041439064","282.63929294471933","-65","2019-12-30 10:42:46.376"
"43","333.9124031740591","281.97101936873344","-53","2019-12-30 10:42:46.376"
"39","330.68906459838234","281.2475501720476","-55","2019-12-30 10:42:46.376"
"42","332.81698039497337","277.75345911418816","-60","2019-12-30 10:42:46.376"
"50","323.16332140619096","293.8518867281737","-68","2019-12-30 10:42:46.376"
"66","318.32191062576794","282.3210179343497","-67","2019-12-30 10:42:46.376"
"60","314.73633735209677","290.48909485069333","-72","2019-12-30 10:42:46.376"
"58","314.1386421952436","283.8249045526093","-69","2019-12-30 10:42:46.376"
"106","345.87983669555626","292.37776681338","-68","2019-12-30 10:42:46.376"
"107","344.8196827562886","296.2083076887747","-69","2019-12-30 10:42:46.376"
"110","334.228194992353","296.4243091060394","-64","2019-12-30 10:42:46.376"
"109","332.528606381668","296.4917880501375","-65","2019-12-30 10:42:46.376"
"101","328.4340881328876","290.84547913083077","-60","2019-12-30 10:42:46.376"
"100","323.8737497774445","289.3511814380101","-64","2019-12-30 10:42:46.376"
"105","347.22524493378336","285.9017662126647","-65","2019-12-30 10:42:46.376"
"121","328.9068766393855","283.55619456170155","-57","2019-12-30 10:42:46.376"
"116","341.98866902026816","281.4372060144022","-63","2019-12-30 10:42:46.376"
"120","325.94935592692235","281.0813748454244","-61","2019-12-30 10:42:46.376"
"112","341.0228152196307","279.00622592600325","-63","2019-12-30 10:42:46.376"
"108","347.16575935144346","278.29868890814606","-68","2019-12-30 10:42:46.376"
"111","333.7082358592711","276.98805136325365","-59","2019-12-30 10:42:46.376"
"114","319.5246602519363","285.59120674631447","-66","2019-12-30 10:42:46.376"
"98","319.12977381344734","295.805445427852","-70","2019-12-30 10:42:46.376"
"113","317.20016218997654","280.6738674861978","-67","2019-12-30 10:42:46.376"
"97","316.4743564263899","280.03594147068367","-70","2019-12-30 10:42:46.376"
"99","315.18035961877524","290.9712509405216","-72","2019-12-30 10:42:46.376"

