"deviceId","device_location_x","device_location_y","rssi_measurement","timeStamp"
"15","370.4536799614373","295.06362242335257","-65","2019-12-30 10:42:46.285"
"16","362.43746484195884","292.4072589931555","-65","2019-12-30 10:42:46.290"
"4","360.8626576499746","295.6748735245109","-67","2019-12-30 10:42:46.290"
"5","360.3066502909166","291.52775077363816","-66","2019-12-30 10:42:46.290"
"3","351.17358253991733","287.79601061813173","-72","2019-12-30 10:42:46.290"
"2","367.0338468981694","286.5568463704725","-52","2019-12-30 10:42:46.290"
"7","350.7635248072916","283.47258021054387","-70","2019-12-30 10:42:46.290"
"20","355.33322862771047","283.29876980659816","-67","2019-12-30 10:42:46.290"
"8","366.84535467630656","282.07732079895595","-45","2019-12-30 10:42:46.290"
"23","365.3188567031776","279.01967856896226","-55","2019-12-30 10:42:46.290"
"6","358.547069628217","278.2782340959533","-65","2019-12-30 10:42:46.290"
"57","366.8068652884763","294.76934912582055","-67","2019-12-30 10:42:46.290"
"56","358.5555869254409","294.8162053892064","-71","2019-12-30 10:42:46.290"
"67","357.53986728641604","285.90678638800625","-64","2019-12-30 10:42:46.290"
"68","355.18962192849796","286.4840435946223","-67","2019-12-30 10:42:46.290"
"69","355.54541976679894","283.5440580337975","-66","2019-12-30 10:42:46.290"
"41","361.8714122279882","282.45660533370676","-62","2019-12-30 10:42:46.290"
"48","359.1832166149242","280.9666071627247","-65","2019-12-30 10:42:46.290"
"40","370.955751550562","278.39872477893584","-58","2019-12-30 10:42:46.290"
"37","361.27158814624426","295.52660818067113","-67","2019-12-30 10:42:46.290"

