"deviceId","device_location_x","device_location_y","rssi_measurement","timeStamp"
"64","348.88710874836016","296.2758388600501","-69","2019-12-30 10:42:46.345"
"47","342.1358519539482","289.7835201540159","-61","2019-12-30 10:42:46.351"
"62","339.606403783007","293.18547358384745","-64","2019-12-30 10:42:46.351"
"61","332.8011082583809","292.62046290890123","-62","2019-12-30 10:42:46.351"
"53","325.78011993520266","288.4073729952347","-63","2019-12-30 10:42:46.351"
"51","323.2626168452124","293.38823184056724","-67","2019-12-30 10:42:46.351"
"65","348.8934182654396","284.7880172921584","-67","2019-12-30 10:42:46.351"
"55","342.0269677493132","282.8114048728631","-57","2019-12-30 10:42:46.351"
"49","323.2011041439064","282.63929294471933","-65","2019-12-30 10:42:46.351"
"43","333.9124031740591","281.97101936873344","-42","2019-12-30 10:42:46.351"
"39","330.68906459838234","281.2475501720476","-54","2019-12-30 10:42:46.351"
"42","332.81698039497337","277.75345911418816","-55","2019-12-30 10:42:46.351"
"50","323.16332140619096","293.8518867281737","-68","2019-12-30 10:42:46.351"
"66","318.32191062576794","282.3210179343497","-67","2019-12-30 10:42:46.351"
"91","344.9588778970658","292.6581154559505","-64","2019-12-30 10:42:46.351"
"92","342.06744888226063","289.95775768568035","-64","2019-12-30 10:42:46.351"
"82","336.67794997772046","290.37762873930166","-59","2019-12-30 10:42:46.351"
"83","333.5928885289728","293.84735946418624","-64","2019-12-30 10:42:46.351"
"73","329.1047352196494","291.0235747975472","-62","2019-12-30 10:42:46.352"
"80","322.68014752229556","287.9094703290091","-66","2019-12-30 10:42:46.352"
"94","342.6236964158645","287.06770810942595","-60","2019-12-30 10:42:46.352"
"93","347.38349460752937","285.47230682214814","-63","2019-12-30 10:42:46.352"
"95","328.8597703029186","284.61151377181204","-59","2019-12-30 10:42:46.352"
"74","351.44000703950286","281.5358071154394","-68","2019-12-30 10:42:46.352"
"71","343.38189457441763","279.316889563453","-62","2019-12-30 10:42:46.352"
"76","322.06563846846717","283.3094557235442","-67","2019-12-30 10:42:46.352"
"77","321.14546910546704","278.70451594072904","-69","2019-12-30 10:42:46.352"
"86","320.39532344430967","294.42063531257196","-69","2019-12-30 10:42:46.352"
"87","317.9069429212813","289.7308954085638","-71","2019-12-30 10:42:46.352"
"3","351.17358253991733","287.79601061813173","-70","2019-12-30 10:42:46.352"
"14","350.30154893994944","289.20837683378625","-69","2019-12-30 10:42:46.352"
"27","337.41702682581746","288.38480838267134","-59","2019-12-30 10:42:46.352"
"10","334.944324981814","292.07661598581285","-63","2019-12-30 10:42:46.352"
"11","332.087512409772","293.50844418975265","-64","2019-12-30 10:42:46.352"
"18","327.1405017692457","295.7463843658928","-66","2019-12-30 10:42:46.352"
"17","326.89244473756446","296.35360645797346","-68","2019-12-30 10:42:46.352"
"26","330.2877207690926","286.9191299782685","-58","2019-12-30 10:42:46.352"
"7","350.7635248072916","283.47258021054387","-67","2019-12-30 10:42:46.352"
"12","329.99202260149104","281.5026705922334","-57","2019-12-30 10:42:46.352"
"30","342.2458651319124","279.33182293113026","-59","2019-12-30 10:42:46.352"
"28","334.65834876065986","275.1970419330823","-59","2019-12-30 10:42:46.352"
"19","323.4155871086309","282.4931290866227","-67","2019-12-30 10:42:46.352"
"22","321.3935424724728","290.77425225979437","-67","2019-12-30 10:42:46.352"
"9","318.8085503524815","278.8217394089685","-70","2019-12-30 10:42:46.352"

