"deviceId","device_location_x","device_location_y","rssi_measurement","timeStamp"
"91","344.9588778970658","292.6581154559505","-70","2019-12-30 10:42:46.356"
"92","342.06744888226063","289.95775768568035","-67","2019-12-30 10:42:46.375"
"82","336.67794997772046","290.37762873930166","-62","2019-12-30 10:42:46.375"
"83","333.5928885289728","293.84735946418624","-67","2019-12-30 10:42:46.375"
"73","329.1047352196494","291.0235747975472","-62","2019-12-30 10:42:46.375"
"80","322.68014752229556","287.9094703290091","-61","2019-12-30 10:42:46.375"
"94","342.6236964158645","287.06770810942595","-64","2019-12-30 10:42:46.375"
"93","347.38349460752937","285.47230682214814","-67","2019-12-30 10:42:46.375"
"95","328.8597703029186","284.61151377181204","-51","2019-12-30 10:42:46.375"
"71","343.38189457441763","279.316889563453","-63","2019-12-30 10:42:46.375"
"76","322.06563846846717","283.3094557235442","-61","2019-12-30 10:42:46.375"
"77","321.14546910546704","278.70451594072904","-61","2019-12-30 10:42:46.375"
"86","320.39532344430967","294.42063531257196","-68","2019-12-30 10:42:46.375"
"87","317.9069429212813","289.7308954085638","-68","2019-12-30 10:42:46.375"
"79","316.2494733065213","292.4751058553608","-72","2019-12-30 10:42:46.375"
"78","313.5103898257199","289.47022117253204","-70","2019-12-30 10:42:46.375"
"47","342.1358519539482","289.7835201540159","-68","2019-12-30 10:42:46.375"
"62","339.606403783007","293.18547358384745","-67","2019-12-30 10:42:46.375"
"61","332.8011082583809","292.62046290890123","-67","2019-12-30 10:42:46.375"
"53","325.78011993520266","288.4073729952347","-64","2019-12-30 10:42:46.375"
"51","323.2626168452124","293.38823184056724","-70","2019-12-30 10:42:46.375"
"65","348.8934182654396","284.7880172921584","-68","2019-12-30 10:42:46.375"
"55","342.0269677493132","282.8114048728631","-66","2019-12-30 10:42:46.375"
"49","323.2011041439064","282.63929294471933","-61","2019-12-30 10:42:46.375"
"43","333.9124031740591","281.97101936873344","-56","2019-12-30 10:42:46.375"
"39","330.68906459838234","281.2475501720476","-54","2019-12-30 10:42:46.375"
"42","332.81698039497337","277.75345911418816","-56","2019-12-30 10:42:46.375"
"50","323.16332140619096","293.8518867281737","-66","2019-12-30 10:42:46.375"
"66","318.32191062576794","282.3210179343497","-67","2019-12-30 10:42:46.375"
"58","314.1386421952436","283.8249045526093","-71","2019-12-30 10:42:46.375"
"52","313.0057656985141","285.75518685053595","-69","2019-12-30 10:42:46.375"
"106","345.87983669555626","292.37776681338","-69","2019-12-30 10:42:46.375"
"110","334.228194992353","296.4243091060394","-69","2019-12-30 10:42:46.375"
"109","332.528606381668","296.4917880501375","-69","2019-12-30 10:42:46.375"
"101","328.4340881328876","290.84547913083077","-62","2019-12-30 10:42:46.375"
"100","323.8737497774445","289.3511814380101","-63","2019-12-30 10:42:46.375"
"105","347.22524493378336","285.9017662126647","-68","2019-12-30 10:42:46.375"
"121","328.9068766393855","283.55619456170155","-56","2019-12-30 10:42:46.375"
"116","341.98866902026816","281.4372060144022","-66","2019-12-30 10:42:46.375"
"120","325.94935592692235","281.0813748454244","-57","2019-12-30 10:42:46.375"
"112","341.0228152196307","279.00622592600325","-62","2019-12-30 10:42:46.375"
"108","347.16575935144346","278.29868890814606","-68","2019-12-30 10:42:46.375"
"111","333.7082358592711","276.98805136325365","-54","2019-12-30 10:42:46.375"
"114","319.5246602519363","285.59120674631447","-67","2019-12-30 10:42:46.375"
"113","317.20016218997654","280.6738674861978","-67","2019-12-30 10:42:46.375"
"97","316.4743564263899","280.03594147068367","-66","2019-12-30 10:42:46.375"
"99","315.18035961877524","290.9712509405216","-69","2019-12-30 10:42:46.375"

