"deviceId","device_location_x","device_location_y","rssi_measurement","timeStamp"
"73","329.1047352196494","291.0235747975472","-68","2019-12-30 10:42:46.356"
"80","322.68014752229556","287.9094703290091","-58","2019-12-30 10:42:46.376"
"95","328.8597703029186","284.61151377181204","-62","2019-12-30 10:42:46.376"
"76","322.06563846846717","283.3094557235442","-51","2019-12-30 10:42:46.376"
"77","321.14546910546704","278.70451594072904","-43","2019-12-30 10:42:46.376"
"86","320.39532344430967","294.42063531257196","-66","2019-12-30 10:42:46.376"
"87","317.9069429212813","289.7308954085638","-60","2019-12-30 10:42:46.376"
"79","316.2494733065213","292.4751058553608","-64","2019-12-30 10:42:46.376"
"78","313.5103898257199","289.47022117253204","-63","2019-12-30 10:42:46.376"
"84","310.7499545705591","283.45077279253854","-62","2019-12-30 10:42:46.376"
"75","305.72922981695666","294.39771541828515","-69","2019-12-30 10:42:46.376"
"85","303.8412731326087","279.7011581623737","-68","2019-12-30 10:42:46.376"
"81","303.59566689170765","287.6394075041561","-67","2019-12-30 10:42:46.376"
"61","332.8011082583809","292.62046290890123","-69","2019-12-30 10:42:46.376"
"53","325.78011993520266","288.4073729952347","-62","2019-12-30 10:42:46.376"
"51","323.2626168452124","293.38823184056724","-66","2019-12-30 10:42:46.376"
"49","323.2011041439064","282.63929294471933","-56","2019-12-30 10:42:46.376"
"43","333.9124031740591","281.97101936873344","-66","2019-12-30 10:42:46.376"
"39","330.68906459838234","281.2475501720476","-66","2019-12-30 10:42:46.376"
"42","332.81698039497337","277.75345911418816","-67","2019-12-30 10:42:46.376"
"50","323.16332140619096","293.8518867281737","-68","2019-12-30 10:42:46.376"
"66","318.32191062576794","282.3210179343497","-53","2019-12-30 10:42:46.376"
"60","314.73633735209677","290.48909485069333","-66","2019-12-30 10:42:46.376"
"58","314.1386421952436","283.8249045526093","-61","2019-12-30 10:42:46.376"
"52","313.0057656985141","285.75518685053595","-61","2019-12-30 10:42:46.376"
"59","312.0724945237982","293.6952863769356","-67","2019-12-30 10:42:46.376"
"46","308.8624955535856","291.21521008518755","-66","2019-12-30 10:42:46.376"
"45","308.8255919038252","292.12407052001953","-67","2019-12-30 10:42:46.376"
"54","308.7314806227299","284.49899137083077","-65","2019-12-30 10:42:46.376"
"44","305.31261952551586","278.18573613609544","-67","2019-12-30 10:42:46.376"
"101","328.4340881328876","290.84547913083077","-68","2019-12-30 10:42:46.376"
"100","323.8737497774445","289.3511814380101","-62","2019-12-30 10:42:46.376"
"121","328.9068766393855","283.55619456170155","-63","2019-12-30 10:42:46.376"
"120","325.94935592692235","281.0813748454244","-58","2019-12-30 10:42:46.376"
"111","333.7082358592711","276.98805136325365","-65","2019-12-30 10:42:46.376"
"114","319.5246602519363","285.59120674631447","-58","2019-12-30 10:42:46.376"
"98","319.12977381344734","295.805445427852","-67","2019-12-30 10:42:46.376"
"113","317.20016218997654","280.6738674861978","-55","2019-12-30 10:42:46.376"
"97","316.4743564263899","280.03594147068367","-55","2019-12-30 10:42:46.376"
"99","315.18035961877524","290.9712509405216","-65","2019-12-30 10:42:46.376"
"103","309.2347913946635","290.95903133624967","-66","2019-12-30 10:42:46.376"
"104","309.19624068917705","290.4456325900608","-68","2019-12-30 10:42:46.376"
"102","307.10831226138805","283.2415613331703","-66","2019-12-30 10:42:46.376"
"115","306.1807653200233","286.06975810100306","-66","2019-12-30 10:42:46.376"
"119","302.8023437011507","281.25643220043264","-69","2019-12-30 10:42:46.376"

"18","327.1405017692457","295.7463843658928","-68","2019-12-30 10:42:47.356"
"17","326.89244473756446","296.35360645797346","-69","2019-12-30 10:42:47.356"
"26","330.2877207690926","286.9191299782685","-68","2019-12-30 10:42:47.356"
"12","329.99202260149104","281.5026705922334","-71","2019-12-30 10:42:47.356"
"19","323.4155871086309","282.4931290866227","-65","2019-12-30 10:42:47.356"
"22","321.3935424724728","290.77425225979437","-63","2019-12-30 10:42:47.356"
"9","318.8085503524815","278.8217394089685","-59","2019-12-30 10:42:47.356"
"29","315.57818948116505","281.8923208668625","-54","2019-12-30 10:42:47.356"
"21","314.1565254331094","293.42560199200364","-58","2019-12-30 10:42:47.356"
"1","307.901607804137","280.5831761233281","-58","2019-12-30 10:42:47.356"
"31","305.3801913763172","291.9835249183548","-59","2019-12-30 10:42:47.356"
"25","303.76974825060387","285.65672119813286","-61","2019-12-30 10:42:47.356"
"24","302.9493620601313","284.7783932382429","-62","2019-12-30 10:42:47.356"
"32","302.2182290900463","295.59048515464315","-68","2019-12-30 10:42:47.356"
"53","325.78011993520266","288.4073729952347","-68","2019-12-30 10:42:47.356"
"51","323.2626168452124","293.38823184056724","-64","2019-12-30 10:42:47.356"
"49","323.2011041439064","282.63929294471933","-64","2019-12-30 10:42:47.356"
"39","330.68906459838234","281.2475501720476","-71","2019-12-30 10:42:47.356"
"50","323.16332140619096","293.8518867281737","-65","2019-12-30 10:42:47.356"
"66","318.32191062576794","282.3210179343497","-58","2019-12-30 10:42:47.356"
"60","314.73633735209677","290.48909485069333","-58","2019-12-30 10:42:47.356"
"58","314.1386421952436","283.8249045526093","-53","2019-12-30 10:42:47.356"
"52","313.0057656985141","285.75518685053595","-51","2019-12-30 10:42:47.356"
"59","312.0724945237982","293.6952863769356","-59","2019-12-30 10:42:47.356"
"46","308.8624955535856","291.21521008518755","-59","2019-12-30 10:42:47.356"
"45","308.8255919038252","292.12407052001953","-60","2019-12-30 10:42:47.356"
"54","308.7314806227299","284.49899137083077","-57","2019-12-30 10:42:47.356"
"44","305.31261952551586","278.18573613609544","-65","2019-12-30 10:42:47.356"
"36","318.14502246921273","275.41052264218956","-64","2019-12-30 10:42:47.356"
"35","305.17781214591844","278.7137212922709","-63","2019-12-30 10:42:47.356"

