"deviceId","device_location_x","device_location_y","rssi_measurement","timeStamp"
"83","333.5928885289728","293.84735946418624","-71","2019-12-30 10:42:46.350"
"73","329.1047352196494","291.0235747975472","-67","2019-12-30 10:42:46.358"
"80","322.68014752229556","287.9094703290091","-57","2019-12-30 10:42:46.358"
"95","328.8597703029186","284.61151377181204","-63","2019-12-30 10:42:46.358"
"76","322.06563846846717","283.3094557235442","-51","2019-12-30 10:42:46.358"
"77","321.14546910546704","278.70451594072904","-59","2019-12-30 10:42:46.358"
"86","320.39532344430967","294.42063531257196","-61","2019-12-30 10:42:46.358"
"87","317.9069429212813","289.7308954085638","-55","2019-12-30 10:42:46.358"
"79","316.2494733065213","292.4751058553608","-58","2019-12-30 10:42:46.358"
"78","313.5103898257199","289.47022117253204","-57","2019-12-30 10:42:46.358"
"84","310.7499545705591","283.45077279253854","-56","2019-12-30 10:42:46.358"
"75","305.72922981695666","294.39771541828515","-67","2019-12-30 10:42:46.358"
"85","303.8412731326087","279.7011581623737","-66","2019-12-30 10:42:46.358"
"81","303.59566689170765","287.6394075041561","-66","2019-12-30 10:42:46.358"
"61","332.8011082583809","292.62046290890123","-68","2019-12-30 10:42:46.358"
"53","325.78011993520266","288.4073729952347","-62","2019-12-30 10:42:46.358"
"51","323.2626168452124","293.38823184056724","-65","2019-12-30 10:42:46.358"
"49","323.2011041439064","282.63929294471933","-60","2019-12-30 10:42:46.358"
"43","333.9124031740591","281.97101936873344","-70","2019-12-30 10:42:46.358"
"39","330.68906459838234","281.2475501720476","-68","2019-12-30 10:42:46.358"
"42","332.81698039497337","277.75345911418816","-71","2019-12-30 10:42:46.358"
"50","323.16332140619096","293.8518867281737","-63","2019-12-30 10:42:46.358"
"66","318.32191062576794","282.3210179343497","-55","2019-12-30 10:42:46.358"
"60","314.73633735209677","290.48909485069333","-61","2019-12-30 10:42:46.358"
"58","314.1386421952436","283.8249045526093","-54","2019-12-30 10:42:46.358"
"52","313.0057656985141","285.75518685053595","-58","2019-12-30 10:42:46.358"
"59","312.0724945237982","293.6952863769356","-65","2019-12-30 10:42:46.358"
"46","308.8624955535856","291.21521008518755","-64","2019-12-30 10:42:46.358"
"45","308.8255919038252","292.12407052001953","-65","2019-12-30 10:42:46.358"
"54","308.7314806227299","284.49899137083077","-61","2019-12-30 10:42:46.358"
"44","305.31261952551586","278.18573613609544","-66","2019-12-30 10:42:46.358"
"101","328.4340881328876","290.84547913083077","-64","2019-12-30 10:42:46.359"
"100","323.8737497774445","289.3511814380101","-59","2019-12-30 10:42:46.359"
"121","328.9068766393855","283.55619456170155","-63","2019-12-30 10:42:46.359"
"120","325.94935592692235","281.0813748454244","-64","2019-12-30 10:42:46.359"
"111","333.7082358592711","276.98805136325365","-69","2019-12-30 10:42:46.359"
"114","319.5246602519363","285.59120674631447","-54","2019-12-30 10:42:46.359"
"98","319.12977381344734","295.805445427852","-66","2019-12-30 10:42:46.359"
"113","317.20016218997654","280.6738674861978","-54","2019-12-30 10:42:46.359"
"97","316.4743564263899","280.03594147068367","-57","2019-12-30 10:42:46.359"
"99","315.18035961877524","290.9712509405216","-61","2019-12-30 10:42:46.359"
"103","309.2347913946635","290.95903133624967","-62","2019-12-30 10:42:46.359"
"104","309.19624068917705","290.4456325900608","-64","2019-12-30 10:42:46.359"
"102","307.10831226138805","283.2415613331703","-62","2019-12-30 10:42:46.359"
"115","306.1807653200233","286.06975810100306","-66","2019-12-30 10:42:46.359"
"119","302.8023437011507","281.25643220043264","-69","2019-12-30 10:42:46.359"

