"deviceId","device_location_x","device_location_y","rssi_measurement","timeStamp"
"63","351.91439992591205","291.7344300035927","-70","2019-12-364 10:30:34.718"
"64","347.5801884775567","296.0913918554427","-69","2019-12-364 10:30:34.729"
"67","346.18175120325577","285.7923046433559","-67","2019-12-364 10:30:34.729"
"47","342.2059966590428","290.18555926759984","-60","2019-12-364 10:30:34.729"
"61","339.820103879452","293.85818562663377","-55","2019-12-364 10:30:34.729"
"62","334.3329179258144","291.38603059545136","-45","2019-12-364 10:30:34.729"
"51","326.2195401334525","291.025248368097","-57","2019-12-364 10:30:34.729"
"50","323.3132484894926","290.94224301916466","-63","2019-12-364 10:30:34.729"
"39","330.2130184276664","282.1942522270555","-66","2019-12-364 10:30:34.730"
"55","344.3980809830302","280.7599543394999","-68","2019-12-364 10:30:34.730"
"49","322.44346800402684","278.31885079132746","-69","2019-12-364 10:30:34.730"
"43","334.172951861374","276.4387245567086","-68","2019-12-364 10:30:34.730"
"42","337.82491455073784","275.30583574386975","-70","2019-12-364 10:30:34.730"
"60","320.5585070217375","292.27802745356905","-65","2019-12-364 10:30:34.730"
"66","317.5595363154236","281.3930690916507","-71","2019-12-364 10:30:34.730"
"59","314.2904593046035","290.46185024259324","-70","2019-12-364 10:30:34.730"
"14","351.16240083239586","295.0936729623986","-69","2019-12-364 10:30:34.730"
"13","347.10957865004355","291.9619813473103","-65","2019-12-364 10:30:34.730"
"11","336.07504133963874","295.52858544064594","-54","2019-12-364 10:30:34.730"
"10","334.43048525051495","293.16534893659986","-52","2019-12-364 10:30:34.730"
"25","325.8875747008084","288.0603590938588","-63","2019-12-364 10:30:34.730"
"18","325.1953689593235","295.9505312417399","-59","2019-12-364 10:30:34.730"
"17","324.52510203339295","296.29410625173796","-62","2019-12-364 10:30:34.730"
"2","348.35734200920734","285.88714291318036","-70","2019-12-364 10:30:34.730"
"27","334.6292936363033","283.3384656815791","-65","2019-12-364 10:30:34.730"
"12","327.2060977065624","281.0618702271755","-68","2019-12-364 10:30:34.730"
"30","342.7303280254047","279.76712649240574","-69","2019-12-364 10:30:34.730"
"28","335.57991265802167","274.8458935397956","-69","2019-12-364 10:30:34.730"
"19","323.3756970012672","278.830218933747","-70","2019-12-364 10:30:34.730"
"21","321.2137220995535","293.3498722868975","-64","2019-12-364 10:30:34.730"
"22","321.0143202198611","294.8572660403773","-67","2019-12-364 10:30:34.730"
"91","349.9964314594681","290.83704962722","-70","2019-12-364 10:30:34.730"
"92","348.26843971907783","294.98357843092185","-69","2019-12-364 10:30:34.730"
"93","347.3273612234548","286.8935223787314","-70","2019-12-364 10:30:34.730"
"73","327.56938262326037","289.8707746696946","-59","2019-12-364 10:30:34.730"
"81","324.9855860402876","288.2402358984303","-64","2019-12-364 10:30:34.730"
"83","336.0671057235875","286.77266595404274","-60","2019-12-364 10:30:34.730"
"82","334.93007177721813","285.350181787863","-60","2019-12-364 10:30:34.730"
"95","329.963548955028","282.77764078313675","-65","2019-12-364 10:30:34.730"
"71","345.005143196287","279.08954320295004","-71","2019-12-364 10:30:34.730"
"77","320.3110895023533","281.74503649619123","-69","2019-12-364 10:30:34.730"
"87","318.6623784979807","295.73841422785904","-65","2019-12-364 10:30:34.730"
"86","318.1879789966203","295.8531455943582","-69","2019-12-364 10:30:34.730"

