"deviceId","device_location_x","device_location_y","rssi_measurement","timeStamp"
"11","336.07504133963874","295.52858544064594","-70","2019-12-364 10:30:34.718"
"10","334.43048525051495","293.16534893659986","-66","2019-12-364 10:30:34.726"
"25","325.8875747008084","288.0603590938588","-56","2019-12-364 10:30:34.726"
"18","325.1953689593235","295.9505312417399","-67","2019-12-364 10:30:34.726"
"17","324.52510203339295","296.29410625173796","-68","2019-12-364 10:30:34.726"
"27","334.6292936363033","283.3384656815791","-62","2019-12-364 10:30:34.726"
"12","327.2060977065624","281.0618702271755","-49","2019-12-364 10:30:34.726"
"30","342.7303280254047","279.76712649240574","-70","2019-12-364 10:30:34.726"
"28","335.57991265802167","274.8458935397956","-64","2019-12-364 10:30:34.726"
"19","323.3756970012672","278.830218933747","-44","2019-12-364 10:30:34.726"
"21","321.2137220995535","293.3498722868975","-63","2019-12-364 10:30:34.726"
"22","321.0143202198611","294.8572660403773","-65","2019-12-364 10:30:34.726"
"9","317.65730473981444","281.5396403760414","-56","2019-12-364 10:30:34.726"
"29","313.7939940543067","278.32318709775865","-63","2019-12-364 10:30:34.726"
"26","313.13554689470135","288.3770555900043","-64","2019-12-364 10:30:34.733"
"1","310.1274561304025","280.4568771537756","-66","2019-12-364 10:30:34.733"
"31","309.69566291520823","289.3058840397405","-67","2019-12-364 10:30:34.733"
"32","306.23816514447975","289.7225001364702","-69","2019-12-364 10:30:34.733"
"24","304.6377448941606","283.3379131059048","-71","2019-12-364 10:30:34.733"
"34","331.98024606597204","296.38784815133135","-68","2019-12-364 10:30:34.733"
"35","328.2929811810226","277.3467676819617","-60","2019-12-364 10:30:34.733"
"36","320.4200959189839","277.2667492720001","-58","2019-12-364 10:30:34.733"
"62","334.3329179258144","291.38603059545136","-68","2019-12-364 10:30:34.733"
"51","326.2195401334525","291.025248368097","-64","2019-12-364 10:30:34.733"
"50","323.3132484894926","290.94224301916466","-63","2019-12-364 10:30:34.733"
"39","330.2130184276664","282.1942522270555","-61","2019-12-364 10:30:34.733"
"49","322.44346800402684","278.31885079132746","-56","2019-12-364 10:30:34.733"
"43","334.172951861374","276.4387245567086","-66","2019-12-364 10:30:34.733"
"42","337.82491455073784","275.30583574386975","-69","2019-12-364 10:30:34.733"
"60","320.5585070217375","292.27802745356905","-66","2019-12-364 10:30:34.733"
"66","317.5595363154236","281.3930690916507","-60","2019-12-364 10:30:34.733"
"59","314.2904593046035","290.46185024259324","-65","2019-12-364 10:30:34.733"
"58","312.7813351001886","282.0003157682521","-65","2019-12-364 10:30:34.733"
"52","309.3799202633071","287.53673279840785","-68","2019-12-364 10:30:34.733"
"54","307.51610247679986","282.55573342610234","-70","2019-12-364 10:30:34.733"
"44","306.2003120124901","283.14757210162645","-68","2019-12-364 10:30:34.734"

