"floorId","partitionId","location_x","location_y","timeStamp"
"12","173","320.52007365222227","285.135746134119",2019-01-07 11:19:48.244
"12","157","321.77607332485326","285.54802500563005",2019-01-07 11:19:48.264
"12","157","323.4128547622444","286.02002325032134",2019-01-07 11:19:48.284
"12","157","324.80978738930133","286.4228563548889",2019-01-07 11:19:48.304
"12","157","326.3831864246336","286.87657703250085",2019-01-07 11:19:48.324
"12","157","328.3635863749327","287.4476644599204",2019-01-07 11:19:48.344
"12","157","330.53640839641815","288.0742405908193",2019-01-07 11:19:48.364
"12","157","331.9443856446383","288.0804250915947",2019-01-07 11:19:48.384
"12","157","331.4942424629524","285.7179835359557",2019-01-07 11:19:48.404
"12","157","331.0738395881195","283.51162506597774",2019-01-07 11:19:48.424
"12","157","330.81105354655205","282.13247129869046",2019-01-07 11:19:48.444
"11","160","330.7120774755255","280.65297864971467",2019-01-07 11:19:48.464
"11","160","332.10464643679995","281.65748569980286",2019-01-07 11:19:48.485
"11","160","333.4980057974891","282.6625628916984",2019-01-07 11:19:48.505
"11","160","335.38561072157023","284.02415611023855",2019-01-07 11:19:48.525
"11","160","336.56112603159903","284.87209502690797",2019-01-07 11:19:48.545
"11","160","338.3818481467038","286.18544341519925",2019-01-07 11:19:48.565
"11","160","340.0690254366033","287.4024614082627",2019-01-07 11:19:48.586
"11","160","340.9336951804658","288.0261769138223",2019-01-07 11:19:48.607
"11","160","339.2594901084967","286.81851621991507",2019-01-07 11:19:48.627
"11","160","337.6005922628465","285.6218971456203",2019-01-07 11:19:48.647
"11","160","335.5850011324452","284.1679831514937",2019-01-07 11:19:48.668
"11","160","333.83580024804024","282.90622544378397",2019-01-07 11:19:48.688
"11","160","332.13616310193925","281.6802197353932",2019-01-07 11:19:48.708
"11","160","330.8843901688618","280.77727361828664",2019-01-07 11:19:48.728
"10","137","331.76360110266484","281.1782060356322",2019-01-07 11:19:48.748
"10","137","332.9141481114123","281.795733136523",2019-01-07 11:19:48.768
"10","137","334.63415282035163","282.7189023015849",2019-01-07 11:19:48.788
"10","137","336.0209410125904","283.4632259019175",2019-01-07 11:19:48.808
"10","137","337.28616268503805","284.1423017375249",2019-01-07 11:19:48.828
"10","137","339.2633723315737","285.20351916853434",2019-01-07 11:19:48.848
"10","137","340.6623223222308","285.95437030756096",2019-01-07 11:19:48.869
"10","137","339.7628191406588","285.47158465192496",2019-01-07 11:19:48.889
"10","137","338.30410183721307","284.68865491453266",2019-01-07 11:19:48.909
"10","137","336.6790380539901","283.8164428978252",2019-01-07 11:19:48.930
"10","137","335.2151305540467","283.0307274533111",2019-01-07 11:19:48.951
"10","137","333.33287784949016","282.0204757669814",2019-01-07 11:19:48.971
"10","137","331.76071544635255","281.17665723235586",2019-01-07 11:19:48.991
"8","117","331.1242512610419","280.80910590036257",2019-01-07 11:19:49.011
"8","117","332.41681768873275","281.4491365007701",2019-01-07 11:19:49.031
"8","117","334.3204123963035","282.3917254753235",2019-01-07 11:19:49.051
"8","117","335.4438071617997","282.9479885894288",2019-01-07 11:19:49.071
"8","117","337.43690115253264","283.9348942650129",2019-01-07 11:19:49.092
"8","117","339.0730578342391","284.7450579215332",2019-01-07 11:19:49.112
"8","117","340.8711725921852","285.6354171661145",2019-01-07 11:19:49.132
"8","188","339.5563980865258","286.14575935406987",2019-01-07 11:19:49.152
"8","188","337.27108161670674","286.52910734520583",2019-01-07 11:19:49.172
"8","188","337.27108161670674","286.52910734520583",2019-01-07 11:19:49.192
"8","188","335.8403500097309","286.7691039035085",2019-01-07 11:19:49.212
"8","188","333.7223940591826","287.12437818157",2019-01-07 11:19:49.232
"8","185","331.6830008016025","287.38070133303586",2019-01-07 11:19:49.252
"8","185","330.29598264796965","287.2655038621321",2019-01-07 11:19:49.272
"8","185","328.65914923913743","287.1295582232849",2019-01-07 11:19:49.292
"8","185","327.1944140304318","287.0079060364374",2019-01-07 11:19:49.312
"8","185","325.35395245851674","286.85504825456565",2019-01-07 11:19:49.332
"8","185","322.9829302696866","286.65812526628713",2019-01-07 11:19:49.352
"8","185","321.16564949417574","286.5071927433691",2019-01-07 11:19:49.373
"8","185","318.907021982367","286.31960458787705",2019-01-07 11:19:49.393
"8","185","316.57493253414265","286.12591512126613",2019-01-07 11:19:49.413
"8","185","314.5233738918217","285.95552487339006",2019-01-07 11:19:49.433
"8","185","312.21767949379796","285.76402762251877",2019-01-07 11:19:49.453
"8","185","310.8660066413925","285.65176572192394",2019-01-07 11:19:49.473
"8","185","308.91749548709714","285.4899339849602",2019-01-07 11:19:49.493
"8","185","307.5634204517294","285.37747257334877",2019-01-07 11:19:49.513
"8","188","305.43166566072216","284.70226170087443",2019-01-07 11:19:49.533
"8","188","304.6679320259074","282.6936807832802",2019-01-07 11:19:49.553
"8","188","303.83936889014427","280.51460154982516",2019-01-07 11:19:49.573
