"floorId","partitionId","location_x","location_y","timeStamp"
"8","193","305.83390470698197","292.7450484174766",2019-01-07 11:25:32.343
"8","193","305.2086909203394","291.5569241209093",2019-01-07 11:25:32.363
"8","193","304.05477226891026","289.36407614583896",2019-01-07 11:25:32.383
"8","188","305.11990703109115","288.7924739061649",2019-01-07 11:25:32.403
"8","188","307.286748535428","288.72661964660296",2019-01-07 11:25:32.423
"8","188","309.35801118525586","288.6636702024974",2019-01-07 11:25:32.443
"8","188","310.9300860274996","288.6158919849837",2019-01-07 11:25:32.463
"8","188","313.0513044375953","288.5514242943444",2019-01-07 11:25:32.485
"8","188","315.18234251981517","288.48665816598566",2019-01-07 11:25:32.505
"8","188","317.42939258318455","288.4183662222391",2019-01-07 11:25:32.525
"8","188","319.6864380470099","288.34977050006916",2019-01-07 11:25:32.545
"8","188","321.8867257679496","288.2828997490725",2019-01-07 11:25:32.565
"8","188","324.13125283936864","288.2146844836462",2019-01-07 11:25:32.585
"8","188","325.6792476501922","288.16763810214184",2019-01-07 11:25:32.605
"8","188","327.95449578470436","288.098489167659",2019-01-07 11:25:32.625
"8","188","329.59716807136937","288.0485653652375",2019-01-07 11:25:32.645
"8","188","331.68328601892836","287.9851644415795",2019-01-07 11:25:32.665
"8","117","333.2697983198451","287.7498781693855",2019-01-07 11:25:32.688
"8","117","335.4559385007988","287.3549025159941",2019-01-07 11:25:32.708
"8","117","336.8949833272941","287.09490653057816",2019-01-07 11:25:32.728
"8","117","339.3368813302838","286.65372244382615",2019-01-07 11:25:32.748
"8","117","340.9522494818978","286.3618696629706",2019-01-07 11:25:32.773
"8","117","342.81340669568823","286.18729595297486",2019-01-07 11:25:32.793
"8","117","344.74688763365856","286.04567812551545",2019-01-07 11:25:32.814
"8","117","346.5900061779355","285.9106788923373",2019-01-07 11:25:32.835
"8","117","348.6690094699354","285.75840227884083",2019-01-07 11:25:32.855
"8","117","350.62627114795157","285.615042630878",2019-01-07 11:25:32.875
"8","117","353.0570459375886","285.43700051109744",2019-01-07 11:25:32.895
"8","117","354.9698559413592","285.29689672638625",2019-01-07 11:25:32.915
"8","167","355.1529833338734","284.7834005716051",2019-01-07 11:25:32.935
