"floorId","partitionId","location_x","location_y","timeStamp"
"12","173","319.9119660148079","285.0751502282009",2019-01-07 11:18:47.061
"12","157","321.95178648290164","285.41199455441483",2019-01-07 11:18:47.081
"12","157","324.24274140679455","285.82237466037446",2019-01-07 11:18:47.101
"12","157","325.55691260216474","286.0577829212619",2019-01-07 11:18:47.121
"12","157","327.7702406899666","286.45425768631407",2019-01-07 11:18:47.141
"12","157","329.2410314317567","286.71772129887376",2019-01-07 11:18:47.161
"12","157","330.9610843254087","287.0258353876283",2019-01-07 11:18:47.181
"12","157","331.72602341348266","285.8996605417139",2019-01-07 11:18:47.201
"12","157","331.4043622952623","284.4829984871742",2019-01-07 11:18:47.222
"12","157","331.1090326057236","283.18230548746334",2019-01-07 11:18:47.242
"12","157","330.74103656731336","281.561574866613",2019-01-07 11:18:47.262
"11","160","331.6435465495339","281.11861081463",2019-01-07 11:18:47.282
"11","160","333.53506924995935","282.1418454167355",2019-01-07 11:18:47.302
"11","160","335.58541932312573","283.2509989790065",2019-01-07 11:18:47.322
"11","160","336.88590964113587","283.9545098027422",2019-01-07 11:18:47.342
"11","160","338.97096320667475","285.08243650170436",2019-01-07 11:18:47.362
"11","160","340.66800213386546","286.00046352354815",2019-01-07 11:18:47.382
"11","158","340.4312477658747","286.3818198839966",2019-01-07 11:18:47.402
"11","158","340.4312477658747","286.3818198839966",2019-01-07 11:18:47.422
"11","158","337.0019321641771","286.5185255214908",2019-01-07 11:18:47.442
"11","158","337.0019321641771","286.5185255214908",2019-01-07 11:18:47.462
"11","158","334.18869362101526","286.630671970851",2019-01-07 11:18:47.482
"11","158","331.70032510386517","286.7680563751514",2019-01-07 11:18:47.502
"11","158","329.51130249739487","287.11279375161683",2019-01-07 11:18:47.522
"11","158","329.51130249739487","287.11279375161683",2019-01-07 11:18:47.542
"11","158","325.8826789585202","287.6842461227686",2019-01-07 11:18:47.562
"11","158","324.12127266093063","287.9616405106228",2019-01-07 11:18:47.583
"11","158","324.12127266093063","287.9616405106228",2019-01-07 11:18:47.603
"11","158","322.2593998925357","288.4889222082626",2019-01-07 11:18:47.624
"11","158","319.0392179904268","288.76198592002373",2019-01-07 11:18:47.644
"11","158","319.0392179904268","288.76198592002373",2019-01-07 11:18:47.664
"11","170","319.552291134753","291.7455037557252",2019-01-07 11:18:47.684
"11","170","320.22462610821765","293.7721261163059",2019-01-07 11:18:47.705
"11","170","320.22462610821765","293.7721261163059",2019-01-07 11:18:47.725
