"deviceId","device_location_x","device_location_y","rssi_measurement","timeStamp"
"86","319.24190634888834","295.167547604427","-68","2019-01-07 11:25:32.325"
"77","318.5031975819978","283.47609962034477","-70","2019-01-07 11:25:32.326"
"81","316.1154119352944","287.54685539212005","-65","2019-01-07 11:25:32.326"
"78","315.6281688772378","295.5495944284796","-65","2019-01-07 11:25:32.326"
"79","308.5654555722072","293.3776658301811","-56","2019-01-07 11:25:32.326"
"85","307.398500472672","284.13701143442614","-58","2019-01-07 11:25:32.326"
"84","305.88043529798387","282.1558047427814","-62","2019-01-07 11:25:32.326"
"75","305.8658557043544","292.4124493923497","-49","2019-01-07 11:25:32.326"
"80","302.298111994348","285.91285131381346","-53","2019-01-07 11:25:32.326"
"59","318.8597256872431","291.5698539010369","-67","2019-01-07 11:25:32.326"
"53","317.7879367913074","286.43403630091393","-68","2019-01-07 11:25:32.326"
"58","312.5131234582129","279.7906001697397","-66","2019-01-07 11:25:32.326"
"60","312.4053212451763","294.62534175319735","-65","2019-01-07 11:25:32.326"
"54","310.2027087790193","278.06073870745104","-68","2019-01-07 11:25:32.326"
"46","309.4421050681562","289.22206990078735","-59","2019-01-07 11:25:32.326"
"44","305.16770173825506","281.6488415867213","-62","2019-01-07 11:25:32.326"
"45","305.0238075474921","293.04654774295597","-57","2019-01-07 11:25:32.326"
"99","318.1036560527022","290.13460022845913","-69","2019-01-07 11:25:32.326"
"98","316.00654357314187","291.7883599421501","-67","2019-01-07 11:25:32.326"
"115","315.6140505779462","285.7223895044275","-67","2019-01-07 11:25:32.326"
"97","315.0522152208146","277.66239860627815","-68","2019-01-07 11:25:32.326"
"102","309.1812592457344","283.9162425948534","-64","2019-01-07 11:25:32.326"
"114","306.3235787571459","286.3003402252354","-59","2019-01-07 11:25:32.326"
"103","305.0232595735489","292.2524655254346","-55","2019-01-07 11:25:32.326"
"104","304.5165861438831","294.31722863248257","-57","2019-01-07 11:25:32.326"
"119","304.27486320724586","283.01172998627305","-59","2019-01-07 11:25:32.326"

