"deviceId","device_location_x","device_location_y","rssi_measurement","timeStamp"
"52","324.54211643227364","287.418366717304","-72","2019-01-07 11:15:46.888"
"51","321.97262678943474","295.2429146100204","-68","2019-01-07 11:15:46.892"
"66","319.6023249819832","281.73334788652403","-68","2019-01-07 11:15:46.892"
"59","318.8597256872431","291.5698539010369","-64","2019-01-07 11:15:46.892"
"53","317.7879367913074","286.43403630091393","-64","2019-01-07 11:15:46.892"
"58","312.5131234582129","279.7906001697397","-63","2019-01-07 11:15:46.892"
"60","312.4053212451763","294.62534175319735","-59","2019-01-07 11:15:46.892"
"54","310.2027087790193","278.06073870745104","-64","2019-01-07 11:15:46.892"
"46","309.4421050681562","289.22206990078735","-49","2019-01-07 11:15:46.892"
"44","305.16770173825506","281.6488415867213","-60","2019-01-07 11:15:46.892"
"45","305.0238075474921","293.04654774295597","-45","2019-01-07 11:15:46.892"
"87","323.49168192771725","289.7913320359703","-68","2019-01-07 11:15:46.892"
"86","319.24190634888834","295.167547604427","-68","2019-01-07 11:15:46.892"
"77","318.5031975819978","283.47609962034477","-66","2019-01-07 11:15:46.892"
"76","317.19090687485016","277.9094392213447","-67","2019-01-07 11:15:46.892"
"81","316.1154119352944","287.54685539212005","-64","2019-01-07 11:15:46.892"
"78","315.6281688772378","295.5495944284796","-67","2019-01-07 11:15:46.892"
"79","308.5654555722072","293.3776658301811","-56","2019-01-07 11:15:46.892"
"85","307.398500472672","284.13701143442614","-60","2019-01-07 11:15:46.892"
"84","305.88043529798387","282.1558047427814","-60","2019-01-07 11:15:46.892"
"75","305.8658557043544","292.4124493923497","-55","2019-01-07 11:15:46.892"
"80","302.298111994348","285.91285131381346","-57","2019-01-07 11:15:46.892"
"17","322.46411034399733","292.399644371","-71","2019-01-07 11:15:46.892"
"19","322.4201970461137","282.04043217395395","-71","2019-01-07 11:15:46.892"
"9","318.0255122106296","280.9593259958677","-69","2019-01-07 11:15:46.892"
"21","316.59276875698566","291.5425447285486","-64","2019-01-07 11:15:46.892"
"22","315.93975658366605","294.01130916221365","-64","2019-01-07 11:15:46.892"
"29","314.011726500203","284.390454790403","-64","2019-01-07 11:15:46.892"
"31","311.45673111790654","292.15044268959656","-59","2019-01-07 11:15:46.892"
"1","310.3825416642465","284.3925076024305","-61","2019-01-07 11:15:46.892"
"32","303.7715902750652","292.4563199896941","-52","2019-01-07 11:15:46.892"
"24","302.4635200514211","283.8786256628637","-58","2019-01-07 11:15:46.892"

