"floorId","partitionId","location_x","location_y","timeStamp"
"8","113","328.4571769467527","291.31328743180137",2019-12-364 10:05:30.462
"8","113","326.26543105707117","290.3416259387724",2019-12-364 10:05:30.483
"8","113","324.27043970958033","289.4571911690261",2019-12-364 10:05:30.503
"8","113","323.0993168572836","288.93800005999276",2019-12-364 10:05:30.523
"8","185","321.7976707015709","288.612503378624",2019-12-364 10:05:30.543
"8","185","319.6791233404276","288.1734460758403",2019-12-364 10:05:30.563
"8","185","317.963864911177","287.8179681888048",2019-12-364 10:05:30.583
"8","185","316.546284053124","287.52418234316826",2019-12-364 10:05:30.603
"8","185","314.5914042671637","287.11904424626636",2019-12-364 10:05:30.623
"8","185","313.0354748816321","286.79658642829963",2019-12-364 10:05:30.643
"8","185","311.40552226811536","286.4587877029647",2019-12-364 10:05:30.663
"8","185","309.2113123360886","286.00404974800244",2019-12-364 10:05:30.684
"8","185","307.6098770997261","285.6721610924282",2019-12-364 10:05:30.704
"8","185","305.62233471527","285.26025385141344",2019-12-364 10:05:30.724
"8","188","305.03241108131743","283.30019802687895",2019-12-364 10:05:30.744
