"floorId","partitionId","location_x","location_y","timeStamp"
"12","186","324.0299417074467","284.56161763697787",2019-12-364 10:05:30.491
"12","157","325.5415821470761","285.3849738334584",2019-12-364 10:05:30.511
"12","157","327.10451248532223","285.68719466407373",2019-12-364 10:05:30.531
"12","157","328.69850793383074","285.9954224952551",2019-12-364 10:05:30.551
"12","157","328.69850793383074","285.9954224952551",2019-12-364 10:05:30.571
"12","157","330.7100782969875","286.38439598378346",2019-12-364 10:05:30.591
"12","149","332.95258580371245","287.0114303262631",2019-12-364 10:05:30.611
"12","149","335.0641111324721","287.8599925550381",2019-12-364 10:05:30.631
"12","149","337.1792276616661","288.7099979855607",2019-12-364 10:05:30.651
"12","157","337.6346813122438","289.75230155347776",2019-12-364 10:05:30.671
"12","157","337.97263803188355","291.84296926634755",2019-12-364 10:05:30.692
"12","157","338.2814573516854","293.75338720894183",2019-12-364 10:05:30.712
