"floorId","partitionId","location_x","location_y","timeStamp"
"8","190","334.83193072602353","276.4164561358003",2019-01-07 11:06:25.731
"8","190","335.87433788983","277.933632256309",2019-01-07 11:06:25.751
"8","190","336.8297459286225","279.3241851152371",2019-01-07 11:06:25.771
"8","190","336.8297459286225","281.0729195648408",2019-01-07 11:06:25.791
"8","190","339.09369772178775","282.6192637733986",2019-01-07 11:06:25.811
"8","190","339.09369772178775","282.6192637733986",2019-01-07 11:06:25.831
"8","190","341.005583328403","285.4019261420157",2019-01-07 11:06:25.852
"8","137","339.80772143061967","285.1008117065641",2019-01-07 11:06:25.873
"8","137","337.81673430868415","284.11666570192705",2019-01-07 11:06:25.893
"8","137","337.81673430868415","284.11666570192705",2019-01-07 11:06:25.913
"8","137","335.94800163349265","283.19295013603397",2019-01-07 11:06:25.933
"8","137","332.458131031786","281.4679052216142",2019-01-07 11:06:25.954
"8","137","330.5","280.5",2019-01-07 11:06:25.974
"10","137","332.5378746151054","281.5578032710963",2019-01-07 11:06:25.994
"10","137","332.5378746151054","281.5578032710963",2019-01-07 11:06:26.014
"10","137","334.41002699566474","282.5295848014551",2019-01-07 11:06:26.034
"10","137","336.5301431121354","283.6300773177676",2019-01-07 11:06:26.054
"10","137","338.35086104755555","284.57516067743813",2019-01-07 11:06:26.074
"10","137","340.14019059327273","285.50395120875896",2019-01-07 11:06:26.094
"10","147","341.4542977269239","286.1036000010619",2019-01-07 11:06:26.125
"10","147","345.6854609453196","285.90934868057724",2019-01-07 11:06:26.145
"10","147","345.6854609453196","285.90934868057724",2019-01-07 11:06:26.165
"10","147","345.6854609453196","285.90934868057724",2019-01-07 11:06:26.188
"10","147","349.30917965696324","285.74298493886636",2019-01-07 11:06:26.208
"10","147","349.30917965696324","285.74298493886636",2019-01-07 11:06:26.228
"10","147","352.30828473049223","285.6052970051387",2019-01-07 11:06:26.249
"10","147","352.30828473049223","285.6052970051387",2019-01-07 11:06:26.283
"10","147","353.73150092641845","285.53995761473374",2019-01-07 11:06:26.303
"10","147","355.28153466768464","285.46879607227004",2019-01-07 11:06:26.323
"10","147","357.3295688734153","285.37477149124436",2019-01-07 11:06:26.343
"10","147","359.3251323869623","285.2831558225478",2019-01-07 11:06:26.364
"10","154","360.77425307894","285.12988853711596",2019-01-07 11:06:26.384
"10","154","360.79510495264515","283.02685450127154",2019-01-07 11:06:26.437
