"floorId","partitionId","location_x","location_y","timeStamp"
"12","148","349.7359451065609","280.4564279893209",2019-01-07 10:57:45.021
"12","148","349.8340036572057","282.89637039114757",2019-01-07 10:57:45.041
"12","148","349.9067336683016","284.70607527451983",2019-01-07 10:57:45.061
"12","142","349.16870875571914","285.4104649662813",2019-01-07 10:57:45.082
"12","142","346.7495991189125","286.0285157463935",2019-01-07 10:57:45.102
"12","142","345.38303850290174","286.37765405825235",2019-01-07 10:57:45.123
"12","142","343.7874360227563","286.7853095619957",2019-01-07 10:57:45.143
"12","142","342.32009602357874","287.16019568430414",2019-01-07 10:57:45.164
"12","157","340.1288361493435","287.48517262866983",2019-01-07 10:57:45.184
"12","157","337.7077103502559","287.62164449506275",2019-01-07 10:57:45.204
"12","157","335.92050139415227","287.7223843004729",2019-01-07 10:57:45.224
"12","157","334.5886043153995","287.7974594908034",2019-01-07 10:57:45.245
"12","157","332.158545777303","287.9344348698866",2019-01-07 10:57:45.265
"12","174","330.83630480284296","287.8217907241827",2019-01-07 10:57:45.285
"12","174","328.9819293946751","287.63432171504735",2019-01-07 10:57:45.305
"12","174","327.1520266897317","287.44932678608166",2019-01-07 10:57:45.326
"12","174","324.96544480864287","287.2282731974526",2019-01-07 10:57:45.346
"12","174","323.0733048008848","287.0369863572382",2019-01-07 10:57:45.366
"12","174","321.12758028003987","286.8402823638794",2019-01-07 10:57:45.386
"12","174","318.65922006384386","286.5907422535646",2019-01-07 10:57:45.406
"12","174","316.78958523610976","286.40173058577807",2019-01-07 10:57:45.426
"12","174","315.15794911278834","286.23677951602104",2019-01-07 10:57:45.446
"12","174","313.49379504607344","286.0685410285166",2019-01-07 10:57:45.466
"12","174","311.4727991068391","285.8642274334776",2019-01-07 10:57:45.486
"12","174","310.22483327279275","285.73806370346216",2019-01-07 10:57:45.506
"12","174","308.68882917522063","285.5827806011673",2019-01-07 10:57:45.526
"12","174","307.05682504203264","285.4177923272688",2019-01-07 10:57:45.546
"12","184","305.21450741830034","284.7761367592647",2019-01-07 10:57:45.567
"12","184","305.89797586765025","282.72992744566204",2019-01-07 10:57:45.587
