"deviceId","device_location_x","device_location_y","rssi_measurement","timeStamp"
"90","368.93718782011774","294.83083605411707","-72","2019-01-07 10:25:00.626"
"89","361.9783655759268","290.47915035913906","-62","2019-01-07 10:25:00.627"
"91","356.0325765106344","290.7981500481567","-61","2019-01-07 10:25:00.627"
"92","347.96050803080703","289.82044579983676","-61","2019-01-07 10:25:00.627"
"94","362.4622611678321","287.8820509810709","-62","2019-01-07 10:25:00.627"
"93","364.2125060901664","287.73123744753843","-62","2019-01-07 10:25:00.627"
"72","365.38246699763147","284.5512286127097","-64","2019-01-07 10:25:00.627"
"74","349.20191782974285","284.4425263411829","-51","2019-01-07 10:25:00.627"
"70","370.60211770197975","282.23195169464304","-68","2019-01-07 10:25:00.627"
"96","352.4738378114762","280.35548517058766","-43","2019-01-07 10:25:00.627"
"71","346.47485410252835","279.58800867538326","-58","2019-01-07 10:25:00.627"
"88","361.4434551036809","279.22958393503836","-59","2019-01-07 10:25:00.627"
"107","346.34538021898965","291.44231795095794","-66","2019-01-07 10:25:00.627"
"106","343.9019069405457","289.6204744189344","-67","2019-01-07 10:25:00.627"
"110","340.7647395497613","295.7275071153574","-70","2019-01-07 10:25:00.627"
"118","364.96242411243867","286.9675165420221","-65","2019-01-07 10:25:00.627"
"105","350.7657428310269","285.6892199279021","-55","2019-01-07 10:25:00.627"
"111","336.6481936768134","284.83925223996886","-68","2019-01-07 10:25:00.627"
"108","347.58217281230156","283.2160335833266","-59","2019-01-07 10:25:00.627"
"112","340.98521943081516","282.1253971425944","-66","2019-01-07 10:25:00.627"
"116","344.2413229419606","278.73458502516837","-64","2019-01-07 10:25:00.627"
"117","365.55979839386566","278.04587741631906","-64","2019-01-07 10:25:00.627"
"67","370.90809906987363","286.06994966834566","-69","2019-01-07 10:25:00.627"
"56","364.84633785786673","296.23394106296155","-68","2019-01-07 10:25:00.627"
"57","363.20449845945586","295.3290964977881","-69","2019-01-07 10:25:00.627"
"64","350.8033413216484","293.4462303304929","-63","2019-01-07 10:25:00.627"
"63","350.20878028811956","295.1341204251482","-66","2019-01-07 10:25:00.627"
"47","342.0693842334243","289.33294658307733","-68","2019-01-07 10:25:00.627"
"43","338.12826492430094","286.4064128010431","-69","2019-01-07 10:25:00.627"
"68","342.77609492231835","285.5240362776183","-65","2019-01-07 10:25:00.627"
"40","369.0602393589971","283.61688896335534","-67","2019-01-07 10:25:00.627"
"41","365.63405745836815","283.1366374160121","-65","2019-01-07 10:25:00.627"
"65","347.03033331533044","282.8586257817132","-59","2019-01-07 10:25:00.627"
"69","353.9235149309057","281.4617163059923","-53","2019-01-07 10:25:00.627"
"48","358.41005874150875","280.9476059727368","-57","2019-01-07 10:25:00.627"
"55","343.2061056218418","280.3807818321324","-62","2019-01-07 10:25:00.627"
"42","338.1799329026603","274.83814606219863","-68","2019-01-07 10:25:00.627"

