"deviceId","device_location_x","device_location_y","rssi_measurement","timeStamp"
"90","368.93718782011774","294.83083605411707","-67","2019-01-07 10:23:31.324"
"89","361.9783655759268","290.47915035913906","-61","2019-01-07 10:23:31.324"
"91","356.0325765106344","290.7981500481567","-57","2019-01-07 10:23:31.324"
"92","347.96050803080703","289.82044579983676","-63","2019-01-07 10:23:31.324"
"94","362.4622611678321","287.8820509810709","-60","2019-01-07 10:23:31.324"
"93","364.2125060901664","287.73123744753843","-62","2019-01-07 10:23:31.324"
"72","365.38246699763147","284.5512286127097","-61","2019-01-07 10:23:31.324"
"74","349.20191782974285","284.4425263411829","-56","2019-01-07 10:23:31.324"
"70","370.60211770197975","282.23195169464304","-67","2019-01-07 10:23:31.324"
"96","352.4738378114762","280.35548517058766","-51","2019-01-07 10:23:31.325"
"71","346.47485410252835","279.58800867538326","-61","2019-01-07 10:23:31.325"
"88","361.4434551036809","279.22958393503836","-56","2019-01-07 10:23:31.325"
"107","346.34538021898965","291.44231795095794","-68","2019-01-07 10:23:31.325"
"106","343.9019069405457","289.6204744189344","-66","2019-01-07 10:23:31.325"
"118","364.96242411243867","286.9675165420221","-61","2019-01-07 10:23:31.325"
"105","350.7657428310269","285.6892199279021","-59","2019-01-07 10:23:31.325"
"108","347.58217281230156","283.2160335833266","-61","2019-01-07 10:23:31.325"
"112","340.98521943081516","282.1253971425944","-67","2019-01-07 10:23:31.325"
"116","344.2413229419606","278.73458502516837","-66","2019-01-07 10:23:31.325"
"117","365.55979839386566","278.04587741631906","-63","2019-01-07 10:23:31.325"
"67","370.90809906987363","286.06994966834566","-70","2019-01-07 10:23:31.325"
"56","364.84633785786673","296.23394106296155","-69","2019-01-07 10:23:31.325"
"57","363.20449845945586","295.3290964977881","-66","2019-01-07 10:23:31.325"
"64","350.8033413216484","293.4462303304929","-66","2019-01-07 10:23:31.325"
"63","350.20878028811956","295.1341204251482","-68","2019-01-07 10:23:31.325"
"47","342.0693842334243","289.33294658307733","-68","2019-01-07 10:23:31.325"
"43","338.12826492430094","286.4064128010431","-70","2019-01-07 10:23:31.325"
"68","342.77609492231835","285.5240362776183","-65","2019-01-07 10:23:31.325"
"40","369.0602393589971","283.61688896335534","-67","2019-01-07 10:23:31.325"
"41","365.63405745836815","283.1366374160121","-62","2019-01-07 10:23:31.325"
"65","347.03033331533044","282.8586257817132","-62","2019-01-07 10:23:31.325"
"69","353.9235149309057","281.4617163059923","-56","2019-01-07 10:23:31.325"
"48","358.41005874150875","280.9476059727368","-55","2019-01-07 10:23:31.325"
"55","343.2061056218418","280.3807818321324","-64","2019-01-07 10:23:31.325"

