"deviceId","floorId","partitionId","location_x","location_y"
"1","8","116","310.04634349922856","284.04925423283754"
"2","8","117","368.9547246631261","286.704421698764"
"3","8","117","360.4060889610278","287.9647311260862"
"4","8","119","353.1201006759289","296.46838558561956"
"5","8","119","357.09480665951895","294.1004721676213"
"6","8","122","356.9195123690168","277.64554542656816"
"7","8","126","347.6080780142655","280.63033826887903"
"8","8","130","367.6677371686632","284.09783773980206"
"9","8","132","320.5457125991809","280.70729039332457"
"10","8","136","332.15660763781597","292.80144922616313"
"11","8","136","332.1448184627744","295.8138468053138"
"12","8","140","329.0350753319316","280.6565125864632"
"13","8","143","344.22009970012886","290.534238934655"
"14","8","143","349.6274185251161","294.8443633000526"
"15","8","152","368.9125070620441","289.71648197643947"
"16","8","152","362.01931705454194","293.8395039655725"
"17","8","113","325.6262994134373","294.43522141789447"
"18","8","113","324.54273447883065","293.06226024280903"
"19","8","156","326.11291605617873","284.27226158201313"
"20","8","167","352.87459210631897","281.79808222689724"
"21","8","169","319.92380830694","290.8112410600747"
"22","8","169","313.21632796209497","295.2952570391606"
"23","8","181","362.5688956589607","277.6016413417404"
"24","8","185","305.4633938937815","283.55110149672544"
"25","8","188","303.1412563118495","286.71903448702767"
"26","8","188","327.34422053391336","287.78977958268365"
"27","8","190","338.06069141050114","278.6140245970464"
"28","8","190","336.25973857491783","274.86738560334373"
"29","8","191","313.46908927670023","279.03289721475585"
"30","8","192","343.55119433449437","282.00734315186986"
"31","8","193","307.939364824476","289.70887075547483"
"32","8","193","308.0233904793109","292.52865808412224"
"33","9","118","340.00135225566254","296.18407793925735"
"34","9","118","334.02915183594865","296.7278659784812"
"35","9","155","324.0596090447222","278.0002617057368"
"36","9","155","309.16220038546373","277.1419781648615"
"37","9","164","360.02024595266255","296.6435221923938"
"38","9","164","370.1368295153687","297.1127203235788"
"39","10","124","330.98929623490596","279.0421889656174"
"40","10","128","369.418299092617","279.20342299198154"
"41","10","133","363.0584304620017","284.6638537060548"
"42","10","137","338.0451804069466","281.1725851591958"
"43","10","137","339.67035150048207","275.3462890660682"
"44","10","138","303.40798405447396","283.75239187409187"
"45","10","139","310.5551672696981","291.596665670967"
"46","10","139","303.62031321651386","295.1224963224812"
"47","10","141","346.19574996196036","289.70153266485755"
"48","10","147","357.0534530333177","277.5679544381139"
"49","10","151","322.0505364840094","280.6102600271233"
"50","10","153","323.7948327128733","294.5302933110183"
"51","10","153","331.44405892017613","296.0865932619336"
"52","10","123","303.00546956080717","287.0628560239709"
"53","10","123","308.2270350396351","286.00462996757756"
"54","10","159","310.7797575204416","280.64546857272165"
"55","10","161","345.72631514673145","278.20760587081423"
"56","10","162","370.46741174882544","290.03710108536575"
"57","10","162","367.8692742575664","294.73813994001404"
"58","10","163","314.09936142887017","278.41694282678714"
"59","10","165","314.6336098016981","295.9007780209397"
"60","10","165","316.8852528046015","291.7743699501586"
"61","10","168","336.40657778877596","293.29165612155214"
"62","10","168","335.2000848324691","295.2546888934332"
"63","10","177","350.3381652982978","293.6366249351207"
"64","10","177","347.9288950020915","296.4105466003551"
"65","10","183","349.58463874919096","283.8181677718533"
"66","10","194","321.1111901740878","284.16646111757643"
"67","10","154","359.47533761837275","286.74528027390977"
"68","10","154","368.3553280560127","287.9523332937028"
"69","10","176","353.78414152602693","277.639172947211"
"70","11","114","367.5092881206074","283.48334966497515"
"71","11","120","344.88779482841096","280.89829344355024"
"72","11","121","366.32373376265053","281.93691809906255"
"73","11","129","330.7583057808535","292.4135651969867"
"74","11","135","349.6922027510668","282.00489113563805"
"75","11","144","304.5370725278182","293.18491005009344"
"76","11","146","325.6613693791124","278.1266375291743"
"77","11","146","323.26242511166384","279.08919043409196"
"78","11","150","313.7829177461605","290.2277964753184"
"79","11","150","307.9498881774968","294.15700564124376"
"80","11","158","313.7480384771917","286.39823684005734"
"81","11","158","314.4987613830175","287.74925576812745"
"82","11","160","340.1396048555935","298.5657662397574"
"83","11","160","339.7112345802946","278.9340347213136"
"84","11","166","310.0286073131679","280.02797992125824"
"85","11","166","308.8094448955557","283.309729782516"
"86","11","170","318.9180454739302","291.6872855625558"
"87","11","170","324.9160676426602","293.7296126452121"
"88","11","171","357.56983956399375","280.78323914574304"
"89","11","172","370.440879012705","290.85555623808773"
"90","11","172","369.96517440469006","290.4136283481172"
"91","11","179","351.64498866181657","295.5739616406535"
"92","11","179","354.29791745543525","292.1209710300197"
"93","11","180","365.05536198370345","287.6530982669548"
"94","11","180","363.78136219917633","286.09938094612653"
"95","11","182","329.3350656562528","278.79308373933105"
"96","11","189","353.296653679278","279.5106625159527"
"97","12","115","313.045933428954","279.5684928125278"
"98","12","125","312.7728853352282","291.73684083564467"
"99","12","125","317.4317317334205","295.9262569325441"
"100","12","127","323.4567193369212","292.3347109266709"
"101","12","127","323.2080300444787","292.0208139528318"
"102","12","131","309.03338437332246","281.9957908117558"
"103","12","134","311.0398709420967","292.56873209573865"
"104","12","134","304.14522256898215","295.04511093760544"
"105","12","142","347.85301413367324","287.22825114473005"
"106","12","145","347.2395962561395","290.52387542755645"
"107","12","145","344.4006581161159","291.64053011248416"
"108","12","148","349.84576645533184","281.7383943935378"
"109","12","149","333.3292772636073","292.8159883711763"
"110","12","149","333.0578155632547","294.80424063047786"
"111","12","157","339.4105299078098","282.34725812630774"
"112","12","157","337.0882322773903","287.1188532411178"
"113","12","173","320.28615036086586","280.36432606083923"
"114","12","174","313.0150439189015","287.654042802369"
"115","12","174","330.27065447565343","288.63736247674046"
"116","12","175","345.5464985246847","278.872344949384"
"117","12","178","358.5420852070272","282.7196829426043"
"118","12","178","362.07754953874655","278.11759460979135"
"119","12","184","302.7882058081092","283.1381445993941"
"120","12","186","326.2635824966142","279.2066936282422"
"121","12","187","326.92216114909974","278.1633545743114"
