"deviceId","device_location_x","device_location_y","rssi_measurement","timeStamp"
"47","346.19574996196036","289.70153266485755","-69","2019-01-07 11:56:28.900"
"61","336.40657778877596","293.29165612155214","-67","2019-01-07 11:56:28.900"
"62","335.2000848324691","295.2546888934332","-68","2019-01-07 11:56:28.900"
"51","331.44405892017613","296.0865932619336","-68","2019-01-07 11:56:28.900"
"50","323.7948327128733","294.5302933110183","-66","2019-01-07 11:56:28.900"
"42","338.0451804069466","281.1725851591958","-59","2019-01-07 11:56:28.900"
"49","322.0505364840094","280.6102600271233","-58","2019-01-07 11:56:28.900"
"39","330.98929623490596","279.0421889656174","-47","2019-01-07 11:56:28.900"
"55","345.72631514673145","278.20760587081423","-70","2019-01-07 11:56:28.900"
"43","339.67035150048207","275.3462890660682","-66","2019-01-07 11:56:28.900"
"66","321.1111901740878","284.16646111757643","-59","2019-01-07 11:56:28.900"
"60","316.8852528046015","291.7743699501586","-68","2019-01-07 11:56:28.900"
"58","314.09936142887017","278.41694282678714","-67","2019-01-07 11:56:28.900"
"54","310.7797575204416","280.64546857272165","-69","2019-01-07 11:56:28.900"
"13","344.22009970012886","290.534238934655","-71","2019-01-07 11:56:28.900"
"10","332.15660763781597","292.80144922616313","-66","2019-01-07 11:56:28.900"
"11","332.1448184627744","295.8138468053138","-66","2019-01-07 11:56:28.900"
"26","327.34422053391336","287.78977958268365","-59","2019-01-07 11:56:28.900"
"17","325.6262994134373","294.43522141789447","-68","2019-01-07 11:56:28.900"
"19","326.11291605617873","284.27226158201313","-57","2019-01-07 11:56:28.900"
"30","343.55119433449437","282.00734315186986","-67","2019-01-07 11:56:28.900"
"12","329.0350753319316","280.6565125864632","-53","2019-01-07 11:56:28.900"
"7","347.6080780142655","280.63033826887903","-68","2019-01-07 11:56:28.900"
"27","338.06069141050114","278.6140245970464","-63","2019-01-07 11:56:28.900"
"28","336.25973857491783","274.86738560334373","-64","2019-01-07 11:56:28.900"
"18","324.54273447883065","293.06226024280903","-64","2019-01-07 11:56:28.900"
"9","320.5457125991809","280.70729039332457","-60","2019-01-07 11:56:28.900"
"21","319.92380830694","290.8112410600747","-65","2019-01-07 11:56:28.900"
"29","313.46908927670023","279.03289721475585","-68","2019-01-07 11:56:28.900"
"1","310.04634349922856","284.04925423283754","-71","2019-01-07 11:56:28.900"
"73","330.7583057808535","292.4135651969867","-63","2019-01-07 11:56:28.900"
"71","344.88779482841096","280.89829344355024","-68","2019-01-07 11:56:28.900"
"83","339.7112345802946","278.9340347213136","-64","2019-01-07 11:56:28.900"
"95","329.3350656562528","278.79308373933105","-55","2019-01-07 11:56:28.900"
"76","325.6613693791124","278.1266375291743","-57","2019-01-07 11:56:28.900"
"87","324.9160676426602","293.7296126452121","-66","2019-01-07 11:56:28.900"
"77","323.26242511166384","279.08919043409196","-60","2019-01-07 11:56:28.900"
"86","318.9180454739302","291.6872855625558","-68","2019-01-07 11:56:28.900"
"81","314.4987613830175","287.74925576812745","-68","2019-01-07 11:56:28.900"
"78","313.7829177461605","290.2277964753184","-71","2019-01-07 11:56:28.900"
"80","313.7480384771917","286.39823684005734","-69","2019-01-07 11:56:28.900"
"84","310.0286073131679","280.02797992125824","-71","2019-01-07 11:56:28.900"

