"floorId","partitionId","location_x","location_y","timeStamp"
"10","141","342.5455253621218","294.15985796751437",18/12/22 05:19:16
"10","141","343.6287639324185","292.379981478916",18/12/22 05:19:16
"10","141","344.75629810513885","290.5273225918101",18/12/22 05:19:16
"10","137","345.6573809140667","288.74634857981755",18/12/22 05:19:16
"10","137","343.74266290527396","287.4640458160897",18/12/22 05:19:16
"10","137","342.28414683608656","286.4872653304663",18/12/22 05:19:16
"10","137","341.08430314716867","285.7231991872843",18/12/22 05:19:16
"10","137","339.63499443770297","285.0079864833256",18/12/22 05:19:16
"10","137","337.45394862901907","283.9316721963151",18/12/22 05:19:16
"10","137","336.11917331152085","283.272980050349",18/12/22 05:19:16
"10","137","334.94772009826227","282.6948849800968",18/12/22 05:19:16
"10","137","333.5746516213797","282.01729571863865",18/12/22 05:19:16
"10","137","332.16184010655206","281.32009384777126",18/12/22 05:19:16
"8","117","330.96206821527494","280.788558940529",18/12/22 05:19:16
"8","117","332.15852331382814","281.53573826214415",18/12/22 05:19:16
"8","117","333.2982035236149","282.2474619925511",18/12/22 05:19:16
"8","117","334.8777497560813","283.23387952201887",18/12/22 05:19:16
"8","117","336.3414345198814","284.1479422312647",18/12/22 05:19:16
"8","117","338.3398827340559","285.3959616368868",18/12/22 05:19:16
"8","117","340.329061257403","286.6381921739485",18/12/22 05:19:16
"8","188","340.51871382415277","287.2990183409518",18/12/22 05:19:16
"8","188","339.18683203375264","287.3821347400498",18/12/22 05:19:16
"8","188","337.80491580236577","287.4683735503075",18/12/22 05:19:16
"8","188","335.9930144047973","287.58144568686794",18/12/22 05:19:16
"8","188","333.62594483046917","287.72916322520405",18/12/22 05:19:16
"8","116","331.7024341040965","287.78839018952095",18/12/22 05:19:16
"8","116","330.3747176846208","287.62094531697704",18/12/22 05:19:16
"8","116","329.07661781981176","287.4572355343579",18/12/22 05:19:16
"8","116","326.9525328120186","287.1893566875008",18/12/22 05:19:16
"8","116","324.82886687211493","286.9215306913641",18/12/22 05:19:16
"8","116","322.35545065117265","286.6095959605823",18/12/22 05:19:16
"8","116","320.4734776443922","286.3722510534703",18/12/22 05:19:16
"8","116","318.82245678589607","286.1640326619801",18/12/22 05:19:16
"8","116","317.2535573850523","285.9661710129449",18/12/22 05:19:16
"8","116","315.36793254449327","285.7283655550462",18/12/22 05:19:16
"8","116","313.6501536602507","285.5117279793474",18/12/22 05:19:16
"8","116","311.74576462543104","285.2715560762724",18/12/22 05:19:16
"8","188","310.42187633923936","283.7681354467892",18/12/22 05:19:16
"8","188","309.6613020398482","282.52837926384984",18/12/22 05:19:17
"8","116","308.4825545955809","280.6069898173171",18/12/22 05:19:17
"8","116","309.0583528784229","280.93920971733826",18/12/22 05:19:17
"8","116","307.5696324132589","279.095337366016",18/12/22 05:19:17
"8","116","308.5248397883939","280.43320054223443",18/12/22 05:19:17
"8","116","310.935973838521","280.6231106695694",18/12/22 05:19:17
"8","116","310.30227611303366","280.5669020646265",18/12/22 05:19:17
"8","116","308.3740827640681","279.76941691927607",18/12/22 05:19:17
"8","116","308.75228562562734","277.66621297255153",18/12/22 05:19:17
"8","116","307.34550286216813","279.25045469287153",18/12/22 05:19:17
"8","116","307.93811439443976","279.48080369651194",18/12/22 05:19:17
"8","116","307.96142269522295","279.6004871058247",18/12/22 05:19:17
"8","116","307.4985094394196","281.5129003708189",18/12/22 05:19:17
"8","116","308.6384723890575","280.4270859554254",18/12/22 05:19:17
"8","116","307.84275432049895","279.143812028599",18/12/22 05:19:17
"8","116","307.84643278831896","279.14083418456374",18/12/22 05:19:17
"8","116","308.3432937360317","279.81296432916673",18/12/22 05:19:17
"8","116","308.87268133438903","281.78038094023015",18/12/22 05:19:17
"8","116","309.4506129313136","283.6388244816713",18/12/22 05:19:17
"8","116","310.07341912778196","284.1102525602427",18/12/22 05:19:17
"8","116","310.50625151793275","282.3106607152966",18/12/22 05:19:17
"8","116","310.49082927627444","282.09723474346293",18/12/22 05:19:17
"8","116","310.5326520544659","282.1266506727173",18/12/22 05:19:17
"8","116","310.56823208286715","282.521789558556",18/12/22 05:19:17
"8","116","310.5720710177857","282.5503211412344",18/12/22 05:19:17
"8","116","310.6756185904046","282.6437760940005",18/12/22 05:19:17
"8","116","310.458498718095","283.39291742789044",18/12/22 05:19:17
"8","116","311.1594849438768","283.961365141564",18/12/22 05:19:17
"8","116","311.1875448029474","282.793167455351",18/12/22 05:19:17
"8","116","311.2782329931073","283.51963923705296",18/12/22 05:19:17
"8","116","309.0161008285705","283.8097193022978",18/12/22 05:19:17
"8","116","311.35792753679715","283.41931546172754",18/12/22 05:19:17
"8","116","310.96841067293207","282.9955940720784",18/12/22 05:19:17
"8","116","311.05538780545703","282.77082810023944",18/12/22 05:19:17
"8","116","311.24063309469983","282.5482754343847",18/12/22 05:19:17
"8","116","309.69699115071603","282.2203843751932",18/12/22 05:19:17
"8","116","310.2251788997455","282.87389757506435",18/12/22 05:19:17
"8","116","307.89890831557426","282.0452865695408",18/12/22 05:19:17
"8","116","307.9271144796022","282.1133156429081",18/12/22 05:19:17
"8","116","308.13083943293503","281.99688731386817",18/12/22 05:19:17
"8","116","309.40141515724326","283.0827017744964",18/12/22 05:19:17
"8","116","307.29289028637","283.5794567281003",18/12/22 05:19:17
"8","116","307.0279307884925","283.8790332511537",18/12/22 05:19:17
"8","116","308.10009325173263","283.0848511904819",18/12/22 05:19:17
"8","116","306.93682052284146","284.684917421986",18/12/22 05:19:17
"8","116","307.9633203229944","284.83506423089756",18/12/22 05:19:17
"8","116","307.97975925218805","284.1125246067869",18/12/22 05:19:17
"8","116","307.6367115780484","284.0889970527939",18/12/22 05:19:17
"8","116","307.83990360463207","283.87690224639863",18/12/22 05:19:17
"8","116","308.8533431431185","282.62583047387625",18/12/22 05:19:17
"8","116","309.38140490355835","280.88990763325387",18/12/22 05:19:18
"8","116","310.44693099383136","281.1069122332428",18/12/22 05:19:18
"8","116","310.3932597139844","282.54474949356415",18/12/22 05:19:18
"8","116","309.7109495829349","282.28040331205534",18/12/22 05:19:18
"8","116","309.53942111103856","282.3454021175914",18/12/22 05:19:18
"8","116","309.6515868594182","281.09384496795843",18/12/22 05:19:18
"8","116","308.71670680133786","281.74838606644215",18/12/22 05:19:18
"8","116","309.10179744674474","281.9305424120771",18/12/22 05:19:18
"8","116","309.5420448020744","281.4765823618001",18/12/22 05:19:18
"8","116","310.1210559792177","281.0417314193803",18/12/22 05:19:18
"8","116","310.2930438710012","280.675930918901",18/12/22 05:19:18
"8","116","308.55880935448783","280.7154330541783",18/12/22 05:19:18
"8","116","307.717585912377","281.15435006078326",18/12/22 05:19:18
"8","116","308.0317440606809","280.3292968420814",18/12/22 05:19:18
"8","116","309.3788884713881","279.2677631497062",18/12/22 05:19:18
"8","116","309.3717107442102","279.2450600815814",18/12/22 05:19:18
"8","116","310.2336705920097","279.5168244397429",18/12/22 05:19:18
"8","116","311.00714980793396","279.35496601081843",18/12/22 05:19:18
"8","116","311.3820238669942","279.48126315717064",18/12/22 05:19:18
"8","116","309.3461063528504","278.4158195510732",18/12/22 05:19:18
"8","116","310.8789715290978","277.83883261527313",18/12/22 05:19:18
"8","116","310.66595063510294","278.80870394284204",18/12/22 05:19:18
"8","116","311.41125900629476","278.88069488030993",18/12/22 05:19:18
"8","116","311.36382236201274","278.8319632404571",18/12/22 05:19:18
"8","116","309.83980967085915","280.4333671655253",18/12/22 05:19:18
"8","116","311.42357920096015","281.98408049233103",18/12/22 05:19:18
"8","116","309.89775055850623","282.198472246853",18/12/22 05:19:18
"8","116","310.14983508237617","282.08985122136306",18/12/22 05:19:18
"8","116","310.03555024473246","282.1457793317181",18/12/22 05:19:18
"8","116","309.0908463057251","280.5263260998487",18/12/22 05:19:18
"8","116","309.1053877687327","280.4313742822355",18/12/22 05:19:18
"8","116","309.0972752978678","280.4383276842359",18/12/22 05:19:18
"8","116","309.3846042719355","279.8049148719359",18/12/22 05:19:18
"8","116","309.5294797494513","279.3014389328534",18/12/22 05:19:18
"8","116","309.6835318052855","278.1207818817973",18/12/22 05:19:18
"8","116","309.97020105439833","280.54973206973307",18/12/22 05:19:18
"8","116","310.3971406410902","280.60146153847694",18/12/22 05:19:18
"8","116","310.8749759700675","280.7787858461345",18/12/22 05:19:18
"8","116","311.05600403379253","279.9960234896352",18/12/22 05:19:18
"8","116","309.4718281382464","279.9060120588656",18/12/22 05:19:18
"8","116","307.4406947665296","279.8618118584909",18/12/22 05:19:18
"8","116","308.9658166713623","281.16988871722856",18/12/22 05:19:18
"8","116","309.2015290427976","280.9796587263926",18/12/22 05:19:18
"8","116","307.78391869554605","280.5340811569744",18/12/22 05:19:18
"8","116","309.7513320110997","281.93779496177694",18/12/22 05:19:18
"8","116","310.8038913188308","281.71438738428435",18/12/22 05:19:18
"8","116","310.6128416339354","281.664193559508",18/12/22 05:19:18
"8","116","308.6460374090091","280.5228695574963",18/12/22 05:19:18
"8","116","310.680650977561","281.5320704906755",18/12/22 05:19:18
"8","116","311.1422638696076","280.33003841105165",18/12/22 05:19:19
"8","116","310.60678213391293","279.9839993207404",18/12/22 05:19:19
"8","116","309.4146128981149","277.8534788395176",18/12/22 05:19:19
"8","116","309.94779085256283","279.38774189000804",18/12/22 05:19:19
"8","116","309.94779085256283","279.38774189000804",18/12/22 05:19:19
"8","116","309.94779085256283","279.38774189000804",18/12/22 05:19:19
"8","116","310.3257704079842","281.35671619010554",18/12/22 05:19:19
"8","116","310.71965173421063","283.4085261293062",18/12/22 05:19:19
"8","116","310.97056115843736","284.7155656262015",18/12/22 05:19:19
"8","188","311.87516393123803","285.23069250243543",18/12/22 05:19:19
"8","188","313.5881694055853","285.26041307328103",18/12/22 05:19:19
"8","188","315.9627767299181","285.3016124075915",18/12/22 05:19:19
"8","188","315.9627767299181","285.3016124075915",18/12/22 05:19:19
"8","188","317.25843628349594","285.32409204477335",18/12/22 05:19:19
"8","188","319.3289137149797","285.36001473860483",18/12/22 05:19:19
"8","188","320.9317804276682","285.3878244067022",18/12/22 05:19:19
"8","188","322.5127459494021","285.41525409008426",18/12/22 05:19:19
"8","188","323.8193166091608","285.4379230344862",18/12/22 05:19:19
"8","188","325.3003327335507","285.4636186001499",18/12/22 05:19:19
"8","188","327.12405314406476","285.49526007034655",18/12/22 05:19:19
"8","188","329.19744815208867","285.53123338400474",18/12/22 05:19:19
"8","188","330.9137293297459","285.561010788161",18/12/22 05:19:19
"8","117","333.023531065288","285.6915186692841",18/12/22 05:19:19
"8","117","334.85300490042215","285.8953056060977",18/12/22 05:19:19
"8","117","336.73372636129284","286.10480106766147",18/12/22 05:19:19
"8","117","338.96040670612655","286.3528332384541",18/12/22 05:19:19
"8","117","338.96040670612655","286.3528332384541",18/12/22 05:19:19
"8","117","340.984641438271","286.5783147881397",18/12/22 05:19:19
"8","117","343.105275870454","286.80323467379924",18/12/22 05:19:19
"8","117","344.4812252161374","286.94785066999447",18/12/22 05:19:19
"8","117","346.1994560196193","287.12844137278336",18/12/22 05:19:19
"8","117","348.5535718491924","287.37586531096883",18/12/22 05:19:19
"8","117","349.9004913906205","287.517430196253",18/12/22 05:19:19
"8","117","352.1811621457502","287.7571348585512",18/12/22 05:19:19
"8","117","353.7730141821011","287.9244428112418",18/12/22 05:19:19
"8","117","355.62916654717105","288.1195294430331",18/12/22 05:19:19
"8","117","357.59436618000115","288.32607723748197",18/12/22 05:19:19
"8","117","359.9096057530811","288.5694151760057",18/12/22 05:19:19
"8","117","362.33002739414627","288.82380803424087",18/12/22 05:19:19
"8","152","363.5191995631178","290.61524731037383",18/12/22 05:19:19
"8","152","364.6223255622236","292.4045941247229",18/12/22 05:19:19
"8","152","365.6543300966856","294.0785769948849",18/12/22 05:19:19
"8","152","366.71774572540744","295.8035108366444",18/12/22 05:19:19
"8","152","368.07300525188157","295.18612474972826",18/12/22 05:19:19
"8","152","370.3044730775609","294.21812841739734",18/12/22 05:19:19
"8","152","369.28529291225306","292.94446530347443",18/12/22 05:19:19
"8","152","370.25423968663983","293.0200469835707",18/12/22 05:19:19
"8","152","370.412174070059","293.2279944259768",18/12/22 05:19:19
"8","152","370.70298835183206","293.2159453112733",18/12/22 05:19:19
"8","152","370.3887564690548","293.47558589591523",18/12/22 05:19:19
"8","152","369.1434632836981","291.5338686274502",18/12/22 05:19:20
"8","152","369.35282753427737","291.2967829700005",18/12/22 05:19:20
"8","152","370.5066971282498","289.2961363630516",18/12/22 05:19:20
"8","152","370.5667544633941","290.3564441809177",18/12/22 05:19:20
"8","152","368.5583286905366","291.4966702761589",18/12/22 05:19:20
"8","152","369.74123419766835","292.41168247493215",18/12/22 05:19:20
"8","152","370.3838880252942","293.48359300725167",18/12/22 05:19:20
"8","152","370.5527264507883","292.6743067855191",18/12/22 05:19:20
"8","152","369.68372106105323","293.8040123866992",18/12/22 05:19:20
"8","152","368.28785023517236","293.6672644858896",18/12/22 05:19:20
"8","152","366.83455314624064","291.734825294497",18/12/22 05:19:20
"8","152","366.15972048655544","291.96935733611224",18/12/22 05:19:20
"8","152","366.47499238367","290.788683480064",18/12/22 05:19:20
"8","152","366.1652851120037","291.3011445233105",18/12/22 05:19:20
"8","152","365.7884848422201","289.8765664080844",18/12/22 05:19:20
"8","152","366.1321097538404","290.07857290373244",18/12/22 05:19:20
"8","152","368.02202956413817","290.0926335433016",18/12/22 05:19:20
"8","152","369.6617391218375","291.8812359688021",18/12/22 05:19:20
"8","152","369.4473570394351","292.2074282319393",18/12/22 05:19:20
"8","152","369.8502437390522","290.83707480501084",18/12/22 05:19:20
"8","152","369.441429575694","291.29743761450663",18/12/22 05:19:20
"8","152","369.1781057016598","293.3431088452333",18/12/22 05:19:20
"8","152","368.7907067659353","292.0384275915853",18/12/22 05:19:20
"8","152","367.87588279651004","292.6656772939334",18/12/22 05:19:20
"8","152","367.672205870124","290.1873773074573",18/12/22 05:19:20
"8","152","368.2543399053419","290.0562347861516",18/12/22 05:19:20
"8","152","367.3822854191934","290.02655572554903",18/12/22 05:19:20
"8","152","368.5974075935745","290.39191217388156",18/12/22 05:19:20
"8","152","367.5576071384405","291.24034881600056",18/12/22 05:19:20
"8","152","367.498778134362","291.3627384265194",18/12/22 05:19:20
"8","152","368.30829771604454","291.6564239642265",18/12/22 05:19:20
"8","152","367.53095589160006","290.3500405779724",18/12/22 05:19:20
"8","152","367.5844999281124","289.3054096192497",18/12/22 05:19:20
"8","152","365.35964400390196","289.92657450658095",18/12/22 05:19:20
"8","152","365.446823076183","289.97766182216105",18/12/22 05:19:20
"8","152","365.2616975130453","289.94786394700685",18/12/22 05:19:20
"8","152","366.23922527678735","289.5372767679054",18/12/22 05:19:20
"8","152","366.8702443522507","289.22847969768833",18/12/22 05:19:20
"8","152","368.61179504653046","289.29332641840335",18/12/22 05:19:20
"8","152","368.8848977266556","289.19634244775204",18/12/22 05:19:20
"8","152","368.7077143148249","290.583341639904",18/12/22 05:19:20
"8","152","368.82092293539904","290.6446524746788",18/12/22 05:19:20
"8","152","368.5303558255929","289.78634055770283",18/12/22 05:19:20
"8","152","368.7366551542261","290.9427591899494",18/12/22 05:19:20
"8","152","368.4585050871198","290.63918291796",18/12/22 05:19:20
"8","152","369.2070161385789","291.5309660352871",18/12/22 05:19:20
"8","152","369.28298855598564","291.2758839853581",18/12/22 05:19:20
"8","152","369.13729874913713","292.0968977166739",18/12/22 05:19:20
"8","152","367.72050137837294","291.07678117416395",18/12/22 05:19:20
"8","152","368.3496792506702","290.618037587693",18/12/22 05:19:20
"8","152","367.95772872285016","290.55725611712364",18/12/22 05:19:21
"8","152","369.0012590699203","290.44141994343767",18/12/22 05:19:21
"8","152","367.0461688843714","289.42789877509153",18/12/22 05:19:21
"8","152","366.31033805803145","290.0740654220466",18/12/22 05:19:21
"8","152","365.80562548675715","291.0307068921309",18/12/22 05:19:21
"8","152","366.2741964301088","291.21906267104924",18/12/22 05:19:21
"8","152","364.4545002371849","292.834275112855",18/12/22 05:19:21
"8","152","363.60212576648377","291.59906829152567",18/12/22 05:19:21
"8","152","365.407418389933","289.90608954320464",18/12/22 05:19:21
"8","152","366.707491825854","292.01676256273987",18/12/22 05:19:21
"8","152","365.3297237132582","293.9937545893506",18/12/22 05:19:21
"8","152","366.21086261760195","291.721841591521",18/12/22 05:19:21
"8","152","365.5953383693447","293.35164553089675",18/12/22 05:19:21
"8","152","365.59409725526115","293.271003566172",18/12/22 05:19:21
"8","152","367.60938087084975","293.3542862016406",18/12/22 05:19:21
"8","152","366.47038870704574","293.1325402781678",18/12/22 05:19:21
"8","152","366.37034411546637","293.67681857633613",18/12/22 05:19:21
"8","152","368.50582387692407","293.55506328608993",18/12/22 05:19:21
"8","152","368.919727432159","293.6641741091663",18/12/22 05:19:21
"8","152","369.1207589322734","293.6858302384277",18/12/22 05:19:21
"8","152","367.5391986031202","294.77763678754826",18/12/22 05:19:21
"8","152","368.31162774255756","294.7757751702506",18/12/22 05:19:21
"8","152","369.24800388346165","295.79118615743306",18/12/22 05:19:21
"8","152","369.24679392202376","295.79186607313085",18/12/22 05:19:21
"8","152","369.1561109631714","295.5215847148926",18/12/22 05:19:21
"8","152","368.28068885697417","296.44873695499257",18/12/22 05:19:21
"8","152","367.7146591164787","295.68056490376364",18/12/22 05:19:21
"8","152","368.8300111712437","295.54404696471175",18/12/22 05:19:21
"8","152","370.05130711865684","295.5205485138385",18/12/22 05:19:21
"8","152","369.3394655918747","295.9889558374333",18/12/22 05:19:21
"8","152","370.0856739594593","295.940594461017",18/12/22 05:19:21
"8","152","368.9995381654926","295.78548433341626",18/12/22 05:19:21
"8","152","367.5866875006658","294.6628331152414",18/12/22 05:19:21
"8","152","365.42850088457857","293.6907360866954",18/12/22 05:19:21
"8","152","364.3823941398907","292.2717500833744",18/12/22 05:19:21
"8","152","364.8159910104791","292.49921670696733",18/12/22 05:19:21
"8","152","364.2239020260623","290.54288105062506",18/12/22 05:19:21
"8","152","363.8572310636372","292.515578936619",18/12/22 05:19:21
"8","152","363.5395164711519","291.9535339890292",18/12/22 05:19:21
"8","152","363.13520703855056","292.347370614297",18/12/22 05:19:21
"8","152","363.24399447153434","289.8524179407001",18/12/22 05:19:21
"8","152","363.38027578136325","289.5923745185268",18/12/22 05:19:21
"8","152","363.91339976272803","290.39639484672045",18/12/22 05:19:21
"8","152","362.9365987017443","290.1202925530777",18/12/22 05:19:21
"8","152","363.38889951359585","290.1477065938567",18/12/22 05:19:21
"8","152","364.6177812998881","290.685367633612",18/12/22 05:19:21
"8","152","364.52265167123306","291.0185827390441",18/12/22 05:19:21
"8","152","362.60011289353764","291.4773048140092",18/12/22 05:19:21
"8","152","362.23287213663895","291.26774664978944",18/12/22 05:19:21
"8","152","362.4178848479367","292.3441324543775",18/12/22 05:19:21
"8","152","362.2387585861915","291.8783120881388",18/12/22 05:19:22
"8","152","361.91579483016704","290.0519974278871",18/12/22 05:19:22
"8","152","362.18680110605504","292.1687326699106",18/12/22 05:19:22
"8","152","362.5788914205644","292.7661771621977",18/12/22 05:19:22
"8","152","363.4694666285272","293.33528470891827",18/12/22 05:19:22
"8","152","364.4632675172496","294.9816441667075",18/12/22 05:19:22
"8","152","366.6181293444673","294.7060207313975",18/12/22 05:19:22
"8","152","366.52660930823106","294.53006775486443",18/12/22 05:19:22
"8","152","367.85747002866","296.4326970905821",18/12/22 05:19:22
"8","152","368.39950784564536","296.28860265613",18/12/22 05:19:22
"8","152","367.9678915459476","294.91963385949623",18/12/22 05:19:22
"8","152","369.0305565510642","296.3865441719913",18/12/22 05:19:22
"8","152","369.5734781786491","295.1555933323856",18/12/22 05:19:22
"8","152","368.2999548858817","295.32171825589734",18/12/22 05:19:22
"8","152","369.6499386684444","295.2305706871306",18/12/22 05:19:22
"8","152","370.549570889575","295.44894920707907",18/12/22 05:19:22
"8","152","370.615216319458","296.0640504740698",18/12/22 05:19:22
"8","152","369.80362613312724","295.6945052077581",18/12/22 05:19:22
"8","152","369.8551950955952","295.6578158637618",18/12/22 05:19:22
"8","152","369.418914501356","296.0189127390336",18/12/22 05:19:22
"8","152","368.5169588214757","296.17752254643773",18/12/22 05:19:22
"8","152","368.4593442075616","294.8896431304578",18/12/22 05:19:22
"8","152","369.8942215298491","294.31190260197656",18/12/22 05:19:22
"8","152","370.6319876621098","294.46626313620357",18/12/22 05:19:22
"8","152","370.6081118445839","296.3758011014533",18/12/22 05:19:22
"8","152","370.654194633752","296.2623269832273",18/12/22 05:19:22
"8","152","370.26485261283324","296.3052857618826",18/12/22 05:19:22
"8","152","370.87277220604574","295.8123330812756",18/12/22 05:19:22
"8","152","370.0563870404794","295.61289420727405",18/12/22 05:19:22
"8","152","369.80252582200535","296.45690361180164",18/12/22 05:19:22
"8","152","368.9636235124676","294.1164808423111",18/12/22 05:19:22
"8","152","368.26872857628376","292.9739787371156",18/12/22 05:19:22
"8","152","367.92532976650386","292.3798422771494",18/12/22 05:19:22
"8","152","368.59874077642354","294.46815793616474",18/12/22 05:19:22
"8","152","368.4272181789867","295.09975727002814",18/12/22 05:19:22
"8","152","367.7446404466716","295.1494616281551",18/12/22 05:19:22
"8","152","365.48950298137237","294.50845917691777",18/12/22 05:19:22
"8","152","365.04930119822166","294.2940913477743",18/12/22 05:19:22
"8","152","364.91640550799644","294.37859718373994",18/12/22 05:19:22
"8","152","366.15518020481227","293.5052195436861",18/12/22 05:19:22
"8","152","364.10777241663266","292.53997159582383",18/12/22 05:19:22
"8","152","362.46911057146565","293.69345590885166",18/12/22 05:19:22
"8","152","361.9274070552138","294.6088671416612",18/12/22 05:19:22
"8","152","362.7777029588662","293.8067664005384",18/12/22 05:19:22
"8","152","362.59051268331285","293.65918777497336",18/12/22 05:19:22
"8","152","364.47289578204374","292.20291775782414",18/12/22 05:19:22
"8","152","366.29110274356475","292.49063230353977",18/12/22 05:19:22
"8","152","365.1225985519818","293.17606508469584",18/12/22 05:19:22
"8","152","364.091859695508","294.6043363202528",18/12/22 05:19:22
"8","152","364.449109654834","293.24716743918816",18/12/22 05:19:23
"8","152","365.67580151838024","292.2557582123943",18/12/22 05:19:23
"8","152","364.29082202670696","294.1586776646761",18/12/22 05:19:23
"8","152","364.2054134474628","294.03288028403705",18/12/22 05:19:23
"8","152","365.1701743631774","294.03097978727175",18/12/22 05:19:23
"8","152","365.39637851462606","292.72156830774617",18/12/22 05:19:23
"8","152","365.3007478003176","290.9170328554708",18/12/22 05:19:23
"8","152","367.1221344786725","292.39862455224",18/12/22 05:19:23
"8","152","367.48786312593523","292.67664178118696",18/12/22 05:19:23
"8","152","367.48786312593523","292.67664178118696",18/12/22 05:19:23
"8","152","367.48786312593523","292.67664178118696",18/12/22 05:19:23
"8","152","366.29650571549155","291.5531784554539",18/12/22 05:19:23
"8","152","365.29345152854506","290.60728716969976",18/12/22 05:19:23
"8","152","363.94802413651576","289.33853413292746",18/12/22 05:19:23
"8","117","361.90555725516475","288.6434700154388",18/12/22 05:19:23
"8","117","361.90555725516475","288.6434700154388",18/12/22 05:19:23
"8","117","360.22969663283476","288.4322952687172",18/12/22 05:19:23
"8","117","358.6990803517426","288.23942272240834",18/12/22 05:19:23
"8","117","356.7597085140548","287.9950429982441",18/12/22 05:19:23
"8","117","354.53387422919474","287.71456621808323",18/12/22 05:19:23
"8","117","352.34825863936425","287.4391573848764",18/12/22 05:19:23
"8","117","350.71091380649904","287.2328360024362",18/12/22 05:19:23
"8","117","348.47010477519734","286.9504722584999",18/12/22 05:19:23
"8","117","347.01474731920246","286.7670830565197",18/12/22 05:19:23
"8","117","344.90943068336003","286.50179267292884",18/12/22 05:19:23
"8","117","342.7244954484885","286.2264695710675",18/12/22 05:19:23
"8","188","340.488284040292","286.0467496323876",18/12/22 05:19:23
"8","188","338.8629625089693","286.04423305044537",18/12/22 05:19:23
"8","188","337.09021658432704","286.0414882025514",18/12/22 05:19:23
"8","188","335.4844618613542","286.0390019170616",18/12/22 05:19:23
"8","188","333.0252020032831","286.0351940988356",18/12/22 05:19:23
"8","113","330.7894781151319","286.4252463616855",18/12/22 05:19:23
"8","113","328.58505112789624","287.12394355196756",18/12/22 05:19:23
"8","113","328.58505112789624","287.12394355196756",18/12/22 05:19:23
"8","113","326.7482137835783","287.7061325284732",18/12/22 05:19:23
"8","113","324.7824072863963","288.32919851531346",18/12/22 05:19:23
"8","113","323.3355777398032","288.78777380262176",18/12/22 05:19:23
"8","188","324.3654397903751","289.52168815250803",18/12/22 05:19:23
"8","188","326.2986737644511","290.6555885219977",18/12/22 05:19:23
"8","113","328.17372183390677","291.7553610933869",18/12/22 05:19:23
"8","113","328.527714300457","290.8363627942903",18/12/22 05:19:23
"8","113","328.4939977464425","291.90343909582816",18/12/22 05:19:23
"8","113","329.20013099713054","289.79195362273987",18/12/22 05:19:23
"8","113","329.21620193628195","289.8607390195605",18/12/22 05:19:23
"8","113","331.02804788738393","291.4731079182664",18/12/22 05:19:23
"8","113","330.80832288185496","291.81274822751266",18/12/22 05:19:23
"8","113","329.112810992905","291.12155479708446",18/12/22 05:19:23
"8","113","329.00523660248655","291.3660457802091",18/12/22 05:19:23
"8","113","327.7108379981982","291.2041184521308",18/12/22 05:19:23
"8","113","328.66028272629626","289.70679843673395",18/12/22 05:19:23
"8","113","329.5685000358409","290.31673515979696",18/12/22 05:19:24
"8","113","329.98270664374775","290.8867220899249",18/12/22 05:19:24
"8","113","330.7565666482774","290.70100332783556",18/12/22 05:19:24
"8","113","330.98350108405253","289.6118541518768",18/12/22 05:19:24
"8","113","330.35305673955565","291.03751711369557",18/12/22 05:19:24
"8","113","330.4273873292969","291.03380455058056",18/12/22 05:19:24
"8","113","330.2506946265549","290.7199272414357",18/12/22 05:19:24
"8","113","330.24610118619904","289.9299427204409",18/12/22 05:19:24
"8","113","330.0340219926331","290.7544913385702",18/12/22 05:19:24
"8","113","330.3454868038506","290.94260419415787",18/12/22 05:19:24
"8","113","330.82341174129044","292.3923275015352",18/12/22 05:19:24
"8","113","330.6661088430562","290.9840136894429",18/12/22 05:19:24
"8","113","330.5876293255257","291.7314398122828",18/12/22 05:19:24
"8","113","329.70095401925084","293.01810067658334",18/12/22 05:19:24
"8","113","328.44051934498833","294.00736529842845",18/12/22 05:19:24
"8","113","328.4414094920301","294.0065053050824",18/12/22 05:19:24
"8","113","327.59410730331956","293.99326512645575",18/12/22 05:19:24
"8","113","327.1597639377782","294.03382304706986",18/12/22 05:19:24
"8","113","327.12215022191606","293.98902863881545",18/12/22 05:19:24
"8","113","327.03117989290973","291.4983382554644",18/12/22 05:19:24
"8","113","325.9980188725229","289.4702962539244",18/12/22 05:19:24
"8","113","325.3162127199799","289.3661575924412",18/12/22 05:19:24
"8","113","324.1964706294567","289.7316048287129",18/12/22 05:19:24
"8","113","322.72235086432494","290.733688246031",18/12/22 05:19:24
"8","113","322.04659036452074","289.9806040596869",18/12/22 05:19:24
"8","113","322.13856379634336","289.9809209575396",18/12/22 05:19:24
"8","113","321.8525687296302","290.13460481178964",18/12/22 05:19:24
"8","113","323.35494843545854","291.07148043492793",18/12/22 05:19:24
"8","113","322.9472595702826","290.6943031704877",18/12/22 05:19:24
"8","113","324.5866986895544","290.1964538508244",18/12/22 05:19:24
"8","113","322.856071601287","290.4194094351483",18/12/22 05:19:24
"8","113","322.7299504883161","291.1112321371533",18/12/22 05:19:24
"8","113","323.05454084362634","290.31665404767455",18/12/22 05:19:24
"8","113","323.0111672744973","291.89699490347607",18/12/22 05:19:24
"8","113","323.0111672744973","291.89699490347607",18/12/22 05:19:24
"8","113","323.0111672744973","291.89699490347607",18/12/22 05:19:24
"8","113","322.7318480698577","289.5391151972583",18/12/22 05:19:24
"8","132","321.6819163533201","287.52998206885025",18/12/22 05:19:24
"8","132","320.4686573647795","285.8935706049067",18/12/22 05:19:24
"8","188","319.64009150452154","284.3939080281505",18/12/22 05:19:24
"8","188","319.07019411874285","282.95868107205746",18/12/22 05:19:24
"8","188","318.43453881285234","281.35784967229404",18/12/22 05:19:24
"8","188","317.7514856235845","279.6376516609572",18/12/22 05:19:24
"8","132","317.2077209565566","278.2682372236143",18/12/22 05:19:24
"8","132","317.8125266037073","279.6555284150217",18/12/22 05:19:24
"8","132","317.7570809979709","280.1436453153021",18/12/22 05:19:24
"8","132","318.7072216811193","280.38211060662474",18/12/22 05:19:24
"8","132","319.8877355339006","279.7653707545756",18/12/22 05:19:24
"8","132","319.6736309649295","281.9435537033151",18/12/22 05:19:24
"8","132","319.41378572139405","280.0455044643868",18/12/22 05:19:24
"8","132","318.8823709201636","280.3168018531659",18/12/22 05:19:25
"8","132","316.9217871461006","279.0395843332783",18/12/22 05:19:25
"8","132","318.3199329080631","280.39217318323557",18/12/22 05:19:25
"8","132","318.3199329080631","280.39217318323557",18/12/22 05:19:25
"8","132","318.3199329080631","280.39217318323557",18/12/22 05:19:25
"8","132","318.9022805169008","282.04446375185324",18/12/22 05:19:25
"8","132","319.7009250281261","284.31045192377945",18/12/22 05:19:25
"8","188","321.1192177899228","285.42472185296555",18/12/22 05:19:25
"8","188","322.67062448405477","285.71845069532185",18/12/22 05:19:25
"8","188","323.93824576626974","285.95845026034857",18/12/22 05:19:25
"8","188","325.25417522623593","286.2075960442107",18/12/22 05:19:25
"8","188","327.31686221915","286.5981259193644",18/12/22 05:19:25
"8","188","329.698797101504","287.0490992058715",18/12/22 05:19:25
"8","188","331.6823578938033","287.42464806579915",18/12/22 05:19:25
"8","117","333.09000056327034","287.5105341460451",18/12/22 05:19:25
"8","117","334.9210428029596","287.5466622693133",18/12/22 05:19:25
"8","117","336.91439578090717","287.5859929305855",18/12/22 05:19:25
"8","117","338.3654626995626","287.61462379631394",18/12/22 05:19:25
"8","117","340.3023180433278","287.6528397080474",18/12/22 05:19:25
"8","117","342.50807683540694","286.7992028990007",18/12/22 05:19:25
"8","117","343.55447926371664","286.03735814527323",18/12/22 05:19:25
"8","192","344.496382383252","284.9852222667802",18/12/22 05:19:25
"8","192","343.4766434994482","283.71172091092836",18/12/22 05:19:25
"8","192","342.4764654586746","282.46264812254253",18/12/22 05:19:25
"8","192","341.71913700207415","281.5168581447119",18/12/22 05:19:25
"8","192","343.3772603835954","280.8348728200771",18/12/22 05:19:25
"8","192","343.6086124843358","280.603581936595",18/12/22 05:19:25
"8","192","343.5649899520222","280.60324142969387",18/12/22 05:19:25
"8","192","345.37792102349","281.4665133541686",18/12/22 05:19:25
"8","192","345.07850608151546","279.5556934450088",18/12/22 05:19:25
"8","192","345.3131071390653","279.68971767753834",18/12/22 05:19:25
"8","192","345.5013613527872","279.29799586492106",18/12/22 05:19:25
"8","192","344.85136652352713","281.1843081075593",18/12/22 05:19:25
"8","192","343.56687024726523","282.0548037621621",18/12/22 05:19:25
"8","192","344.0147016440403","283.57272903738846",18/12/22 05:19:25
"8","192","344.0052794120349","283.61483065531394",18/12/22 05:19:25
"8","192","342.77223245372994","282.51453682682836",18/12/22 05:19:25
"8","192","343.81037711138555","283.0957292729876",18/12/22 05:19:25
"8","192","343.3708985446632","282.6767846506978",18/12/22 05:19:25
"8","192","343.2746304414228","283.3703030765988",18/12/22 05:19:25
"8","192","345.4287223986905","283.5511370816899",18/12/22 05:19:25
"8","192","344.47565304662544","283.039278772892",18/12/22 05:19:25
"8","192","343.10918807803864","282.48356799037043",18/12/22 05:19:25
"8","192","344.0367166372491","281.01316292321786",18/12/22 05:19:25
"8","192","343.95376182624983","281.2452028822186",18/12/22 05:19:25
"8","192","345.90866735007796","282.2254076260793",18/12/22 05:19:25
"8","192","345.9089241080489","282.2374935075267",18/12/22 05:19:25
"8","192","344.30552765483344","282.28783222949784",18/12/22 05:19:25
"8","192","344.3622214017922","282.19988746546903",18/12/22 05:19:25
"8","192","344.3037116769594","282.71806173848825",18/12/22 05:19:25
"8","192","344.2840391622563","282.70143055939263",18/12/22 05:19:26
"8","192","344.712409621089","281.9015111614898",18/12/22 05:19:26
"8","192","342.44705044751186","282.54679684352243",18/12/22 05:19:26
"8","192","342.3461555366025","283.0773660756786",18/12/22 05:19:26
"8","192","343.63964842293143","281.901362466779",18/12/22 05:19:26
"8","192","342.56664251517344","281.032097754469",18/12/22 05:19:26
"8","192","343.2002738463366","279.6195132762574",18/12/22 05:19:26
"8","192","342.3973899634992","279.19679035889965",18/12/22 05:19:26
"8","192","342.6486977209831","277.9013289078295",18/12/22 05:19:26
"8","192","342.2499698007608","280.1306356768515",18/12/22 05:19:26
"8","192","342.34285597018794","280.17726971448616",18/12/22 05:19:26
"8","192","342.8425912307324","279.7740230446805",18/12/22 05:19:26
"8","192","343.00089247957925","279.24568720789966",18/12/22 05:19:26
"8","192","344.63532541542065","277.69788019703634",18/12/22 05:19:26
"8","192","344.1047388078958","278.07347860659837",18/12/22 05:19:26
"8","192","343.2105136502179","279.9834174693312",18/12/22 05:19:26
"8","192","343.8476179402769","278.2074219185712",18/12/22 05:19:26
"8","192","344.63585011664185","278.2586366239431",18/12/22 05:19:26
"8","192","344.9812780647641","278.6699102398634",18/12/22 05:19:26
"8","192","345.1069211923989","280.2184091899646",18/12/22 05:19:26
"8","192","346.31800948474944","282.1125429201052",18/12/22 05:19:26
"8","192","344.21670225795697","282.1950737863696",18/12/22 05:19:26
"8","192","343.9311908806514","281.6940875329985",18/12/22 05:19:26
"8","192","341.9480597009562","281.52010235391634",18/12/22 05:19:26
"8","192","341.9505472969649","281.6036906266468",18/12/22 05:19:26
"8","192","342.24094116821806","280.96762274004664",18/12/22 05:19:26
"8","192","342.90877761812203","282.1216689600074",18/12/22 05:19:26
"8","192","342.1868745156119","280.23711849090114",18/12/22 05:19:26
"8","192","343.1358098569631","277.99318782983977",18/12/22 05:19:26
"8","192","342.12567090990876","278.17838266452225",18/12/22 05:19:26
"8","192","342.1584083825999","278.1660456213401",18/12/22 05:19:26
"8","192","341.8249930650157","278.2813169810604",18/12/22 05:19:26
"8","192","343.350369446031","279.25117795708337",18/12/22 05:19:26
"8","192","342.6994865367431","279.5874542933186",18/12/22 05:19:26
"8","192","341.7138331631398","281.57398653608783",18/12/22 05:19:26
"8","192","341.7526205169339","281.89358514513617",18/12/22 05:19:26
"8","192","341.86631433731526","281.8797220979253",18/12/22 05:19:26
"8","192","341.6734205359019","282.4498249613399",18/12/22 05:19:26
"8","192","342.31167479301223","283.5288058971221",18/12/22 05:19:26
"8","192","342.0116326793893","282.8423912928608",18/12/22 05:19:26
"8","192","342.26227635646285","283.30176120471805",18/12/22 05:19:26
"8","192","342.889984443072","284.2663962378345",18/12/22 05:19:26
"8","192","342.86578869648775","283.59951726607807",18/12/22 05:19:26
"8","192","342.29194376486515","284.46406365647107",18/12/22 05:19:26
"8","192","342.3388124999418","284.71431227834427",18/12/22 05:19:26
"8","192","341.9361090867039","284.6520978004241",18/12/22 05:19:26
"8","192","341.7140276434972","284.19268309156587",18/12/22 05:19:26
"8","192","341.69638415599155","284.2951504566077",18/12/22 05:19:26
"8","192","341.6999453055497","284.2073810581951",18/12/22 05:19:26
"8","192","342.9488827265123","283.9261475731638",18/12/22 05:19:26
"8","192","344.5966179080483","284.29245509578163",18/12/22 05:19:27
"8","192","345.5589112806248","283.0757382883762",18/12/22 05:19:27
"8","192","344.5348782257242","282.8996132290239",18/12/22 05:19:27
"8","192","344.55812090280085","282.37270737170286",18/12/22 05:19:27
"8","192","345.43595246586506","284.4519657369151",18/12/22 05:19:27
"8","192","345.4830853973653","284.43892713329967",18/12/22 05:19:27
"8","192","344.2826921739927","283.9068796222716",18/12/22 05:19:27
"8","192","344.94005721268724","281.6147280817529",18/12/22 05:19:27
"8","192","345.71814132397793","281.44868339860943",18/12/22 05:19:27
"8","192","345.1526263077125","281.60426896572784",18/12/22 05:19:27
"8","192","344.53555028128926","281.91174873968185",18/12/22 05:19:27
"8","192","343.37962377844804","282.2083047120042",18/12/22 05:19:27
"8","192","344.08775189376547","281.72409304165245",18/12/22 05:19:27
"8","192","342.3313085931813","282.9912892749831",18/12/22 05:19:27
"8","192","341.80318753556094","282.3833751532345",18/12/22 05:19:27
"8","192","341.94097807895224","282.476388988137",18/12/22 05:19:27
"8","192","342.8297240541686","282.8788014185975",18/12/22 05:19:27
"8","192","342.3813108147853","281.79670274709025",18/12/22 05:19:27
"8","192","344.2345393712941","283.39193792360663",18/12/22 05:19:27
"8","192","346.07200949197517","284.37144434310954",18/12/22 05:19:27
"8","192","345.1889358536366","282.5073467209718",18/12/22 05:19:27
"8","192","343.32742575152895","282.7367091137846",18/12/22 05:19:27
"8","192","344.24422462647345","283.6316386600012",18/12/22 05:19:27
"8","192","343.898584936491","281.8776117048875",18/12/22 05:19:27
"8","192","343.80615237405874","282.39520724867265",18/12/22 05:19:27
"8","192","345.30763312528467","281.3922640682988",18/12/22 05:19:27
"8","192","346.02811209838563","282.6279731432088",18/12/22 05:19:27
"8","192","343.9366253623304","283.0091179350792",18/12/22 05:19:27
"8","192","344.68889985361193","282.6338328248107",18/12/22 05:19:27
"8","192","345.11831147197034","283.0607879607805",18/12/22 05:19:27
"8","192","343.06935207948584","282.26398248592596",18/12/22 05:19:27
"8","192","344.92279711547843","282.5655548146471",18/12/22 05:19:27
"8","192","345.7514755339092","284.5601692331564",18/12/22 05:19:27
"8","192","344.6681372893711","283.80315229066423",18/12/22 05:19:27
"8","192","344.7749379279524","284.7401476797932",18/12/22 05:19:27
"8","192","344.32017226308926","284.7602285927456",18/12/22 05:19:27
"8","192","344.0368179693961","284.76396714716157",18/12/22 05:19:27
"8","192","342.99881186064925","283.8602456547431",18/12/22 05:19:27
"8","192","343.491702834739","284.67026907693406",18/12/22 05:19:27
"8","192","343.86946586564176","283.9326974066108",18/12/22 05:19:27
"8","192","344.69291052341896","282.5671022183967",18/12/22 05:19:27
"8","192","343.7074470896004","283.1464095003623",18/12/22 05:19:27
"8","192","343.3507911030522","283.23612458929836",18/12/22 05:19:27
"8","192","342.7057769838469","283.18767263009033",18/12/22 05:19:27
"8","192","342.8611149932711","282.7492292319651",18/12/22 05:19:27
"8","192","342.20016271831014","281.1687655153211",18/12/22 05:19:27
"8","192","341.8702430862476","282.0486308689857",18/12/22 05:19:27
"8","192","342.2308802357942","280.8800613866581",18/12/22 05:19:27
"8","192","343.47837648740733","280.3903304557615",18/12/22 05:19:27
"8","192","344.48509243622743","279.7213777512845",18/12/22 05:19:28
"8","192","345.21905324604404","280.4263734396974",18/12/22 05:19:28
"8","192","343.58703149842586","279.6101651332938",18/12/22 05:19:28
"8","192","343.15380504826135","280.0085871835935",18/12/22 05:19:28
"8","192","343.0852884680017","282.19339948363574",18/12/22 05:19:28
"8","192","342.04399203534314","282.43583773438786",18/12/22 05:19:28
"8","192","342.8608498335465","284.4940321365834",18/12/22 05:19:28
"8","192","344.29154928957513","284.06015937741336",18/12/22 05:19:28
"8","192","344.29154928957513","284.06015937741336",18/12/22 05:19:28
"8","192","344.29154928957513","284.06015937741336",18/12/22 05:19:28
"8","117","345.0503638350829","285.26189923887813",18/12/22 05:19:28
"8","117","342.83978863619274","285.99933972537923",18/12/22 05:19:28
"8","117","341.3977977224824","286.4803830671622",18/12/22 05:19:28
"8","188","339.6888734574874","286.58789124731993",18/12/22 05:19:28
"8","188","337.8991588888384","286.67371917669925",18/12/22 05:19:28
"8","188","335.59381421745616","286.7842747720531",18/12/22 05:19:28
"8","188","334.1120659811385","286.8553338030363",18/12/22 05:19:28
"8","156","331.95062001685443","286.9338701045831",18/12/22 05:19:28
"8","156","330.02646893740734","286.3763505687278",18/12/22 05:19:28
"8","156","328.8102391312054","286.02395002997076",18/12/22 05:19:28
"8","156","327.2608665897618","285.5750219445416",18/12/22 05:19:28
"8","188","325.8194058420834","285.04049960015004",18/12/22 05:19:28
"8","188","324.58803495446523","283.98066227657046",18/12/22 05:19:28
"8","156","322.7529456509306","282.40120627712776",18/12/22 05:19:28
"8","156","322.6397697438476","282.3662264002852",18/12/22 05:19:28
"8","156","322.5117756494454","282.378566363061",18/12/22 05:19:28
"8","156","322.4754294530579","282.38140738923863",18/12/22 05:19:28
"8","156","322.75411881776836","282.7458477975275",18/12/22 05:19:28
"8","156","323.91681838816686","283.76441844045354",18/12/22 05:19:28
"8","156","323.8053422189761","283.36798371248784",18/12/22 05:19:28
"8","156","321.90498701982165","282.1232059964109",18/12/22 05:19:28
"8","156","323.0904372708121","283.0460381990622",18/12/22 05:19:28
"8","156","321.98986889885134","283.15529907704257",18/12/22 05:19:28
"8","156","322.23947262016185","282.9560288784604",18/12/22 05:19:28
"8","156","322.2823402990414","282.930340921623",18/12/22 05:19:28
"8","156","322.7004178280135","283.72516248566916",18/12/22 05:19:28
"8","156","322.38380658895034","284.0580845485826",18/12/22 05:19:28
"8","156","322.2734182399094","284.6022541076725",18/12/22 05:19:28
"8","156","322.2599388757008","284.63971452394145",18/12/22 05:19:28
"8","156","321.8794477327766","284.7119797692789",18/12/22 05:19:28
"8","156","321.95642194203225","284.44089335922564",18/12/22 05:19:28
"8","156","323.3389402237294","283.22933065524694",18/12/22 05:19:28
"8","156","324.8584606088616","282.60125987659694",18/12/22 05:19:28
"8","156","324.35745889699757","282.42721228817936",18/12/22 05:19:28
"8","156","323.000235551736","283.82305802891403",18/12/22 05:19:28
"8","156","322.28444340944185","284.2443961660128",18/12/22 05:19:28
"8","156","324.1550637085032","283.34419624731265",18/12/22 05:19:28
"8","156","323.73121768062646","283.857817604817",18/12/22 05:19:28
"8","156","324.5993469719336","283.22183030921514",18/12/22 05:19:28
"8","156","324.9984742758705","283.8019106799742",18/12/22 05:19:28
"8","156","324.27798724263596","282.95194355145964",18/12/22 05:19:29
"8","156","325.0720576092728","281.9617354795505",18/12/22 05:19:29
"8","156","323.4404706108638","281.28843462158267",18/12/22 05:19:29
"8","156","325.40160603943764","281.0962798035566",18/12/22 05:19:29
"8","156","324.9497802822293","283.2468231397959",18/12/22 05:19:29
"8","156","323.97113975373657","283.8140479839554",18/12/22 05:19:29
"8","156","324.74545437841897","284.0587150512466",18/12/22 05:19:29
"8","156","325.1617681269458","283.79914552662177",18/12/22 05:19:29
"8","156","325.61324413226856","283.6564449906568",18/12/22 05:19:29
"8","156","324.1406618252438","282.3045930920716",18/12/22 05:19:29
"8","156","323.93675192571055","281.41418982880566",18/12/22 05:19:29
"8","156","323.4666451769143","280.26552112019806",18/12/22 05:19:29
"8","156","324.546514045145","281.46380329591517",18/12/22 05:19:29
"8","156","325.93205257372324","282.1726829146757",18/12/22 05:19:29
"8","156","326.4648755983521","282.2072501613976",18/12/22 05:19:29
"8","156","325.9769806474839","281.2153429763339",18/12/22 05:19:29
"8","156","324.3324295420765","282.96781232358404",18/12/22 05:19:29
"8","156","323.20957606630753","282.5353265175076",18/12/22 05:19:29
"8","156","322.98381197954797","280.4197407327146",18/12/22 05:19:29
"8","156","324.46033931946647","278.7369985742448",18/12/22 05:19:29
"8","156","326.1187913222266","278.177159140625",18/12/22 05:19:29
"8","156","326.1725268174491","278.0962481631479",18/12/22 05:19:29
"8","156","326.0600171692133","278.1717448522302",18/12/22 05:19:29
"8","156","324.0776130398767","279.1417718506394",18/12/22 05:19:29
"8","156","324.9872772422201","278.33226573045243",18/12/22 05:19:29
"8","156","325.14127454356355","277.92797773065894",18/12/22 05:19:29
"8","156","325.11337631265644","277.9216294179344",18/12/22 05:19:29
"8","156","324.142832093834","278.18209220527876",18/12/22 05:19:29
"8","156","325.87366451859515","278.5489302580612",18/12/22 05:19:29
"8","156","326.102317389723","278.58057543116723",18/12/22 05:19:29
"8","156","324.2612815132434","278.49414435232666",18/12/22 05:19:29
"8","156","324.2915438252587","277.8955564074657",18/12/22 05:19:29
"8","156","323.8444818918501","278.2294471386958",18/12/22 05:19:29
"8","156","323.6468842362291","277.8773241071011",18/12/22 05:19:29
"8","156","324.4639657716562","280.22480075736905",18/12/22 05:19:29
"8","156","324.3836935943803","281.1003413544858",18/12/22 05:19:29
"8","156","325.83837749439056","280.412084318353",18/12/22 05:19:29
"8","156","325.3091586311695","282.09121783166637",18/12/22 05:19:29
"8","156","325.11022749312014","280.74236100815295",18/12/22 05:19:29
"8","156","325.65281527990817","279.9884365695052",18/12/22 05:19:29
"8","156","324.5676904004855","279.0236601738568",18/12/22 05:19:29
"8","156","324.55092574267564","279.12623151498684",18/12/22 05:19:29
"8","156","324.41996910271564","278.120604063938",18/12/22 05:19:29
"8","156","323.4221035234005","279.7128519681261",18/12/22 05:19:29
"8","156","322.2739339961438","280.3127228652811",18/12/22 05:19:29
"8","156","322.90286136515266","279.7638664223065",18/12/22 05:19:29
"8","156","323.9317273557828","280.4521171772144",18/12/22 05:19:29
"8","156","323.6589934527143","278.1533977802656",18/12/22 05:19:29
"8","156","323.12211061233035","278.3161906109701",18/12/22 05:19:29
"8","156","322.8399941496456","279.79223957495276",18/12/22 05:19:29
"8","156","322.4260218091768","282.00219122580825",18/12/22 05:19:30
"8","156","322.40395254391217","282.0053690926271",18/12/22 05:19:30
"8","156","323.9638699125788","281.0820505016305",18/12/22 05:19:30
"8","156","322.6819654577058","279.4996130003023",18/12/22 05:19:30
"8","156","324.59389297608186","280.2272543899099",18/12/22 05:19:30
"8","156","323.9450983783037","282.26092633581953",18/12/22 05:19:30
"8","156","323.63266503503166","281.9688023454004",18/12/22 05:19:30
"8","156","324.15119287503074","283.91345629021174",18/12/22 05:19:30
"8","156","323.8826828637461","282.6872119494891",18/12/22 05:19:30
"8","156","324.618275421192","281.1252503984112",18/12/22 05:19:30
"8","156","324.7193428435752","280.10761024730897",18/12/22 05:19:30
"8","156","325.2935807548724","279.55211055711254",18/12/22 05:19:30
"8","156","324.99532196782644","278.16804664999614",18/12/22 05:19:30
"8","156","325.3967778321413","278.13738577809534",18/12/22 05:19:30
"8","156","324.53582542364194","278.6940036215292",18/12/22 05:19:30
"8","156","325.88313807689883","279.4019891380418",18/12/22 05:19:30
"8","156","325.7212156386565","279.3562238173966",18/12/22 05:19:30
"8","156","325.87373331445264","278.8259403872149",18/12/22 05:19:30
"8","156","325.85933058133077","279.3891586941501",18/12/22 05:19:30
"8","156","325.95186456018786","278.8597554100251",18/12/22 05:19:30
"8","156","324.4329053105768","279.65261812089165",18/12/22 05:19:30
"8","156","322.5151697894925","278.6857585375085",18/12/22 05:19:30
"8","156","323.36911999325326","277.97511300204775",18/12/22 05:19:30
"8","156","323.0859004760334","279.18010456462645",18/12/22 05:19:30
"8","156","324.43265071496955","278.91396418108667",18/12/22 05:19:30
"8","156","325.87383371216134","277.52517420651156",18/12/22 05:19:30
"8","156","323.7992656933922","278.87399214791753",18/12/22 05:19:30
"8","156","324.2625830062072","277.9758302427747",18/12/22 05:19:30
"8","156","326.36512683874315","278.5867638020775",18/12/22 05:19:30
"8","156","326.26140478367347","278.4747065080286",18/12/22 05:19:30
"8","156","325.7524820621083","277.64402764179306",18/12/22 05:19:30
"8","156","325.49902557979954","277.5695477224245",18/12/22 05:19:30
"8","156","323.6202374135912","279.13387247147676",18/12/22 05:19:30
"8","156","325.24577303519135","278.60924792971207",18/12/22 05:19:30
"8","156","325.3569901219383","278.74364760821703",18/12/22 05:19:30
"8","156","325.5353914355831","279.64014212236947",18/12/22 05:19:30
"8","156","324.35678856465324","280.4138964301735",18/12/22 05:19:30
"8","156","324.2807296947254","282.8576509760753",18/12/22 05:19:30
"8","156","324.23460626510894","282.8744863372386",18/12/22 05:19:30
"8","156","326.34899117903655","283.82663013571783",18/12/22 05:19:30
"8","156","326.33862645012346","283.8195580794354",18/12/22 05:19:30
"8","156","325.58638428023085","282.62303734203726",18/12/22 05:19:30
"8","156","325.87168403800206","282.64154794835486",18/12/22 05:19:30
"8","156","326.3318967053144","283.17964800682984",18/12/22 05:19:30
"8","156","326.30100004732793","282.4806349537101",18/12/22 05:19:30
"8","156","324.70472971714054","282.51551578982173",18/12/22 05:19:30
"8","156","323.69335390237023","282.90257150992954",18/12/22 05:19:30
"8","156","323.7908683055454","283.4705103826702",18/12/22 05:19:30
"8","156","323.86674976823787","283.3561485893541",18/12/22 05:19:30
"8","156","324.5961145933683","283.14824119465277",18/12/22 05:19:30
"8","156","324.6952163618182","283.06190077628526",18/12/22 05:19:31
"8","156","324.5409506472841","282.4845344230393",18/12/22 05:19:31
"8","156","324.3817087744843","281.7530181135974",18/12/22 05:19:31
"8","156","324.4327483255944","282.40211877145805",18/12/22 05:19:31
"8","156","323.35438373826815","284.14874601087325",18/12/22 05:19:31
"8","156","323.569796007807","284.6539311491805",18/12/22 05:19:31
"8","156","322.33278291189765","282.8999533212358",18/12/22 05:19:31
"8","156","324.81238286488144","282.9439088383179",18/12/22 05:19:31
"8","156","323.69117255902626","284.2857718558197",18/12/22 05:19:31
"8","156","323.7500670132813","284.10879025515004",18/12/22 05:19:31
"8","156","322.66644748025635","282.3838835785599",18/12/22 05:19:31
"8","156","322.59484995412475","282.7550452186993",18/12/22 05:19:31
"8","156","321.8704821161","282.91044889138493",18/12/22 05:19:31
"8","156","323.5593382197942","283.346374367741",18/12/22 05:19:31
"8","156","325.462230162452","284.76636944759827",18/12/22 05:19:31
"8","156","325.42633206627914","284.7603668743233",18/12/22 05:19:31
"8","156","325.1179857144068","283.2850246670673",18/12/22 05:19:31
"8","156","325.89939559532115","282.43275561921985",18/12/22 05:19:31
"8","156","325.28849852576536","282.72291209060387",18/12/22 05:19:31
"8","156","326.39162632569196","283.0467630591499",18/12/22 05:19:31
"8","156","325.4758121770124","282.8919507677208",18/12/22 05:19:31
"8","156","325.82717448698554","282.6013168841539",18/12/22 05:19:31
"8","156","325.6736042594447","283.0570414437431",18/12/22 05:19:31
"8","156","325.3579174840145","282.430250708737",18/12/22 05:19:31
"8","156","324.48281673063724","282.43262180634224",18/12/22 05:19:31
"8","156","324.9252620352892","282.52072135929274",18/12/22 05:19:31
"8","156","324.9272187208484","282.43388610642785",18/12/22 05:19:31
"8","156","325.7012260012616","282.2149910383034",18/12/22 05:19:31
"8","156","323.4142280802689","281.8838680245737",18/12/22 05:19:31
"8","156","324.07743266063324","279.7876231498206",18/12/22 05:19:31
"8","156","324.74795761838493","278.7819868102331",18/12/22 05:19:31
"8","156","325.27400587337087","278.0137157555519",18/12/22 05:19:31
"8","156","323.39544319738485","279.35823622653555",18/12/22 05:19:31
"8","156","323.22612071103873","279.3743331153822",18/12/22 05:19:31
"8","156","322.3860919792152","281.6576016351908",18/12/22 05:19:31
"8","156","321.873747708411","280.0919227384586",18/12/22 05:19:31
"8","156","323.1940830088764","279.46612401011197",18/12/22 05:19:31
"8","156","322.88071461053306","278.2856356450933",18/12/22 05:19:31
"8","156","324.0954997537188","278.7039208096361",18/12/22 05:19:31
"8","156","324.3276870884198","277.77987991526976",18/12/22 05:19:31
"8","156","324.5074664128909","278.48931927673164",18/12/22 05:19:31
"8","156","325.19326791743526","280.84692574433984",18/12/22 05:19:31
"8","156","325.19326791743526","280.84692574433984",18/12/22 05:19:31
"8","156","325.19326791743526","280.84692574433984",18/12/22 05:19:31
"8","156","324.9898455458104","282.9840510997251",18/12/22 05:19:31
"8","188","324.8615672604279","285.2396871045991",18/12/22 05:19:31
"8","188","327.0897925522476","285.8486470532057",18/12/22 05:19:31
"8","188","328.73330977016997","286.2978099651582",18/12/22 05:19:31
"8","188","330.0081940873237","286.64622782537344",18/12/22 05:19:31
"8","117","332.1003354878701","287.1937752847895",18/12/22 05:19:31
"8","117","334.1494299650631","287.09496179538434",18/12/22 05:19:32
"8","117","336.0350459565936","287.0040317295064",18/12/22 05:19:32
"8","117","337.6441485426946","286.92643597044633",18/12/22 05:19:32
"8","117","339.48927426364145","286.8374584670138",18/12/22 05:19:32
"8","117","341.0426412445969","286.7625504462156",18/12/22 05:19:32
"8","117","343.4557524953659","286.4071024048525",18/12/22 05:19:32
"8","117","345.26805877119244","286.1179364113175",18/12/22 05:19:32
"8","117","346.62788059831325","285.9009674392873",18/12/22 05:19:32
"8","117","348.2629677849141","285.640077976432",18/12/22 05:19:32
"8","117","350.43178183430143","285.29402870333234",18/12/22 05:19:32
"8","126","350.1396028105229","283.58746229084454",18/12/22 05:19:32
"8","126","350.44918904213705","284.2365702362487",18/12/22 05:19:32
"8","126","351.194764193727","282.3486057080109",18/12/22 05:19:32
"8","126","349.4127578287365","282.17379552692097",18/12/22 05:19:32
"8","126","350.54270866133487","281.21067011569414",18/12/22 05:19:32
"8","126","348.82720743235194","281.7068637011318",18/12/22 05:19:32
"8","126","350.95245370718396","282.36865789831774",18/12/22 05:19:32
"8","126","350.567318683584","282.13490609027315",18/12/22 05:19:32
"8","126","351.2659256098316","283.1629441243872",18/12/22 05:19:32
"8","126","350.533046816155","281.00727073977646",18/12/22 05:19:32
"8","126","349.79369807384774","280.2936821674436",18/12/22 05:19:32
"8","126","348.28372962513464","281.2794158560127",18/12/22 05:19:32
"8","126","347.8323755421497","283.0105003403605",18/12/22 05:19:32
"8","126","347.16087310587824","282.50161523839836",18/12/22 05:19:32
"8","126","348.2919242421018","282.0413575028991",18/12/22 05:19:32
"8","126","348.56166564875514","282.4232358773086",18/12/22 05:19:32
"8","126","349.0141916885316","282.32394188589024",18/12/22 05:19:32
"8","126","349.38109871736197","283.09712658785804",18/12/22 05:19:32
"8","126","348.79298608325826","284.78150494279953",18/12/22 05:19:32
"8","126","348.18336845777105","282.6137826353488",18/12/22 05:19:32
"8","126","349.46129842294084","282.7750506414065",18/12/22 05:19:32
"8","126","348.2896952783781","283.45353277423465",18/12/22 05:19:32
"8","126","349.70466429635786","284.06701298630276",18/12/22 05:19:32
"8","126","349.95481837551824","284.3486905161174",18/12/22 05:19:32
"8","126","350.33102205496283","284.62637276021235",18/12/22 05:19:32
"8","126","349.2428712916002","284.7856066636984",18/12/22 05:19:32
"8","126","347.5126845221203","283.45714796712366",18/12/22 05:19:32
"8","126","347.80039971749443","283.70137612093555",18/12/22 05:19:32
"8","126","348.6059795906204","283.88397102450915",18/12/22 05:19:32
"8","126","347.72580605826863","281.9258275931189",18/12/22 05:19:32
"8","126","347.3687113957557","281.27633231187934",18/12/22 05:19:32
"8","126","348.58325664924365","283.2435520785937",18/12/22 05:19:32
"8","126","347.848445997889","284.0105773952751",18/12/22 05:19:32
"8","126","348.60159742553117","284.3333551915965",18/12/22 05:19:32
"8","126","348.5202483631717","284.31645156582596",18/12/22 05:19:32
"8","126","348.98043587568316","283.7655081187285",18/12/22 05:19:32
"8","126","348.9043072795647","283.46659113483344",18/12/22 05:19:32
"8","126","348.901568327881","284.08007463707855",18/12/22 05:19:32
"8","126","349.66758352988086","284.42620866397533",18/12/22 05:19:32
"8","126","350.38012115198944","283.4495145104543",18/12/22 05:19:33
"8","126","349.8463018890082","284.4024572925263",18/12/22 05:19:33
"8","126","349.76783884453704","284.805674366292",18/12/22 05:19:33
"8","126","349.7070840548726","284.63811039310497",18/12/22 05:19:33
"8","126","350.8606333233091","283.7926643420941",18/12/22 05:19:33
"8","126","349.96694022265325","282.7381684796346",18/12/22 05:19:33
"8","126","348.06504184618075","283.41672666992264",18/12/22 05:19:33
"8","126","347.22362232844205","283.97318531863823",18/12/22 05:19:33
"8","126","347.06363737002306","281.84353560506753",18/12/22 05:19:33
"8","126","347.1097307420444","282.58496066912903",18/12/22 05:19:33
"8","126","348.7922969694322","281.45407292248365",18/12/22 05:19:33
"8","126","349.76872856203624","280.34800040854",18/12/22 05:19:33
"8","126","349.09026244913764","279.7838015802074",18/12/22 05:19:33
"8","126","350.0053685093289","278.92312039694184",18/12/22 05:19:33
"8","126","350.10478116101604","281.3476327589424",18/12/22 05:19:33
"8","126","351.2522157501092","282.0295926124454",18/12/22 05:19:33
"8","126","351.0491836463302","282.07940766407836",18/12/22 05:19:33
"8","126","350.3917408446197","282.12570444364326",18/12/22 05:19:33
"8","126","350.3836249914072","282.11677852301176",18/12/22 05:19:33
"8","126","350.42289542346896","282.04097442177414",18/12/22 05:19:33
"8","126","350.49854685015026","282.0240083447678",18/12/22 05:19:33
"8","126","350.9161294611625","282.55753200654095",18/12/22 05:19:33
"8","126","349.5854987666888","284.12539802327353",18/12/22 05:19:33
"8","126","349.52996172996654","283.2797629171033",18/12/22 05:19:33
"8","126","347.575682456136","284.39836328283343",18/12/22 05:19:33
"8","126","347.30920145851707","283.64611793879124",18/12/22 05:19:33
"8","126","348.0968923761669","282.43797513698985",18/12/22 05:19:33
"8","126","349.66544915818963","281.44388803401523",18/12/22 05:19:33
"8","126","348.89518314628606","281.55311070368447",18/12/22 05:19:33
"8","126","349.2129228972713","282.53468606692843",18/12/22 05:19:33
"8","126","348.82153433580766","283.0836969186588",18/12/22 05:19:33
"8","126","347.7160230254197","283.6633711225133",18/12/22 05:19:33
"8","126","349.7070696482405","283.88928842658044",18/12/22 05:19:33
"8","126","349.6848333630063","283.8700190393383",18/12/22 05:19:33
"8","126","349.6835569110685","283.7666805655412",18/12/22 05:19:33
"8","126","350.92233668444146","282.4009958863546",18/12/22 05:19:33
"8","126","349.0152405598735","283.1948359734837",18/12/22 05:19:33
"8","126","349.97357223358216","282.57993234752155",18/12/22 05:19:33
"8","126","349.06854991886917","283.29833731085824",18/12/22 05:19:33
"8","126","349.2881422711178","282.9732894534194",18/12/22 05:19:33
"8","126","349.27671371942824","283.34211262399793",18/12/22 05:19:33
"8","126","349.2572396014178","281.35967217037586",18/12/22 05:19:33
"8","126","349.87560426687315","280.3994987935974",18/12/22 05:19:33
"8","126","350.7742450044656","278.84898939579415",18/12/22 05:19:33
"8","126","349.3589702660313","277.7338252433979",18/12/22 05:19:33
"8","126","349.33091913320874","277.77752420728154",18/12/22 05:19:33
"8","126","350.6596017192042","277.8018318758084",18/12/22 05:19:33
"8","126","349.94682992188945","277.83183279950896",18/12/22 05:19:33
"8","126","349.5068571219994","278.8053183774871",18/12/22 05:19:33
"8","126","351.4217933099838","278.07980623993143",18/12/22 05:19:33
"8","126","351.10169524518824","277.9044468816493",18/12/22 05:19:34
"8","126","348.83535318955495","278.8209547366714",18/12/22 05:19:34
"8","126","350.0544658718769","279.69781096784163",18/12/22 05:19:34
"8","126","351.17677100239587","278.2676017827603",18/12/22 05:19:34
"8","126","351.2017719140575","278.43826340665214",18/12/22 05:19:34
"8","126","351.1739342640964","278.57648813612815",18/12/22 05:19:34
"8","126","349.749865153492","278.13669073590376",18/12/22 05:19:34
"8","126","347.4854637795221","277.5301207350066",18/12/22 05:19:34
"8","126","347.2801119193061","279.1522280460853",18/12/22 05:19:34
"8","126","347.7715438955607","279.14600257621044",18/12/22 05:19:34
"8","126","348.1334627671871","279.7846194057099",18/12/22 05:19:34
"8","126","348.4751141639251","278.73531533800167",18/12/22 05:19:34
"8","126","348.3098697542032","279.0215973425124",18/12/22 05:19:34
"8","126","349.0825038692248","278.4437677275109",18/12/22 05:19:34
"8","126","350.3099303678833","278.4765121845823",18/12/22 05:19:34
"8","126","350.3613885224042","280.5284423520093",18/12/22 05:19:34
"8","126","349.07108103955983","282.04703790418097",18/12/22 05:19:34
"8","126","349.30365446266285","281.5835572500212",18/12/22 05:19:34
"8","126","349.4272966456209","280.6941932115775",18/12/22 05:19:34
"8","126","350.66376108599457","281.228825341709",18/12/22 05:19:34
"8","126","351.2867993387008","281.03866342437556",18/12/22 05:19:34
"8","126","351.3561858356365","283.530968176698",18/12/22 05:19:34
"8","126","350.0165400744416","284.2816841261407",18/12/22 05:19:34
"8","126","347.60088639870304","283.77066211276986",18/12/22 05:19:34
"8","126","347.7546172776418","283.81980319452236",18/12/22 05:19:34
"8","126","347.9170171765837","282.53604118840974",18/12/22 05:19:34
"8","126","347.12229240992485","281.9261755217957",18/12/22 05:19:34
"8","126","347.7182002452477","282.0230372093871",18/12/22 05:19:34
"8","126","346.83428365603316","280.32960111746445",18/12/22 05:19:34
"8","126","349.0866754555088","279.74614456359495",18/12/22 05:19:34
"8","126","349.3920360564818","279.34520340985324",18/12/22 05:19:34
"8","126","347.9002593571318","281.3004274699973",18/12/22 05:19:34
"8","126","347.6600335915118","281.4220361647873",18/12/22 05:19:34
"8","126","347.51356720899946","279.2954580112177",18/12/22 05:19:34
"8","126","347.75361392815256","278.4314708298321",18/12/22 05:19:34
"8","126","347.16046906380046","280.4507453147057",18/12/22 05:19:34
"8","126","347.8301934165948","280.8169977021926",18/12/22 05:19:34
"8","126","350.1975247262898","281.1543717307479",18/12/22 05:19:34
"8","126","350.2220202123612","280.81549667853466",18/12/22 05:19:34
"8","126","349.7434868162898","281.046242376604",18/12/22 05:19:34
"8","126","350.86645433940237","282.98647438700243",18/12/22 05:19:34
"8","126","349.8326884346473","283.01520004564753",18/12/22 05:19:34
"8","126","349.8326884346473","283.01520004564753",18/12/22 05:19:34
"8","126","349.8326884346473","283.01520004564753",18/12/22 05:19:34
"8","126","350.72800815950546","282.5601108113878",18/12/22 05:19:34
"8","126","350.5751246585285","283.05628709236413",18/12/22 05:19:34
"8","126","350.65782025703106","282.60295438369116",18/12/22 05:19:34
"8","126","351.1302590469534","281.4560339635681",18/12/22 05:19:34
"8","126","351.3564468140989","281.5508946938608",18/12/22 05:19:34
"8","126","351.4036425406548","281.78361289902006",18/12/22 05:19:34
"8","126","350.638992623022","282.36467714270805",18/12/22 05:19:35
"8","126","350.42634918489335","282.27579935616956",18/12/22 05:19:35
"8","126","350.3028545892383","283.9691541658966",18/12/22 05:19:35
"8","126","350.77697540636257","281.7529671818654",18/12/22 05:19:35
"8","126","351.0541853011649","281.47554802069817",18/12/22 05:19:35
"8","126","351.075853095187","281.3688885223522",18/12/22 05:19:35
"8","126","350.7880896236811","283.2166279187406",18/12/22 05:19:35
"8","126","349.1151466227058","284.2779095062171",18/12/22 05:19:35
"8","126","347.7195128002688","283.67895473680073",18/12/22 05:19:35
"8","126","347.1786218901148","283.5437604093303",18/12/22 05:19:35
"8","126","347.17399269576714","283.84816577044",18/12/22 05:19:35
"8","126","349.47823124262635","283.437771325904",18/12/22 05:19:35
"8","126","349.62620811961733","282.80527478717676",18/12/22 05:19:35
"8","126","350.4700139944607","281.68622685157584",18/12/22 05:19:35
"8","126","350.4062388757003","281.5899224627855",18/12/22 05:19:35
"8","126","350.34420663863006","281.79849177073345",18/12/22 05:19:35
"8","126","348.52733514845244","281.2993509221632",18/12/22 05:19:35
"8","126","350.7980433175827","280.78326452082183",18/12/22 05:19:35
"8","126","350.82465741283295","280.6679832301778",18/12/22 05:19:35
"8","126","350.53890312651794","280.6729189471242",18/12/22 05:19:35
"8","126","348.7122651042348","282.29620716067825",18/12/22 05:19:35
"8","126","347.93762918492126","280.0820750808347",18/12/22 05:19:35
"8","126","347.667126051812","281.26812804296515",18/12/22 05:19:35
"8","126","347.9494050031652","281.15622711733334",18/12/22 05:19:35
"8","126","349.2167934398815","281.756123135756",18/12/22 05:19:35
"8","126","348.63935391200937","281.0103779774466",18/12/22 05:19:35
"8","126","347.1372213535776","282.76215537833855",18/12/22 05:19:35
"8","126","347.1107378316489","283.4859938733875",18/12/22 05:19:35
"8","126","347.07508878129386","281.61177775473016",18/12/22 05:19:35
"8","126","347.6342686210452","281.35420093458",18/12/22 05:19:35
"8","126","348.5501947947456","281.1670835377298",18/12/22 05:19:35
"8","126","349.0052376261313","279.3412482290382",18/12/22 05:19:35
"8","126","348.20353631733354","280.422263437011",18/12/22 05:19:35
"8","126","348.4139467627359","281.1825923729794",18/12/22 05:19:35
"8","126","349.75587777724917","282.0383671926444",18/12/22 05:19:35
"8","126","349.87568230196536","282.0176907322571",18/12/22 05:19:35
"8","126","349.4695819714342","281.5526285615053",18/12/22 05:19:35
"8","126","350.1657004486678","281.1698099072324",18/12/22 05:19:35
"8","126","350.1609792148565","280.4675410057091",18/12/22 05:19:35
"8","126","350.80155971325127","280.8842119871007",18/12/22 05:19:35
"8","126","351.494877363851","281.3179022718725",18/12/22 05:19:35
"8","126","350.1408238616383","280.88410707966545",18/12/22 05:19:35
"8","126","350.51989311649504","281.4115182721564",18/12/22 05:19:35
"8","126","350.7333392766793","281.53293070845274",18/12/22 05:19:35
"8","126","350.6196077890816","281.99090934565305",18/12/22 05:19:35
"8","126","349.32301518425663","282.7422670391856",18/12/22 05:19:35
"8","126","350.9972151345612","283.11175203311404",18/12/22 05:19:35
"8","126","350.5275946485354","283.0167208936131",18/12/22 05:19:35
"8","126","350.61010576304153","283.96312368745816",18/12/22 05:19:35
"8","126","350.9153319494272","283.5491174509594",18/12/22 05:19:35
"8","126","351.1933188727262","281.84296736053625",18/12/22 05:19:36
"8","126","350.7720995840756","281.9815290795786",18/12/22 05:19:36
"8","126","350.20099157333357","280.3334256729619",18/12/22 05:19:36
"8","126","350.3381206580888","278.5961035636201",18/12/22 05:19:36
"8","126","350.71198101866304","278.6724727898677",18/12/22 05:19:36
"8","126","351.26669540746894","278.82106624954537",18/12/22 05:19:36
"8","126","350.5698441857773","278.2075145466982",18/12/22 05:19:36
"8","126","350.4888455033489","279.34664492732236",18/12/22 05:19:36
"8","126","350.9441319408826","279.4345321140678",18/12/22 05:19:36
"8","126","351.412309425843","280.7306922417063",18/12/22 05:19:36
"8","126","349.2091175001667","280.8466497088009",18/12/22 05:19:36
"8","126","350.45279294119297","281.05957007129206",18/12/22 05:19:36
"8","126","350.27273706116","281.33451382595894",18/12/22 05:19:36
"8","126","350.27754275114347","281.3663217813269",18/12/22 05:19:36
"8","126","351.1897550295075","281.7917104778008",18/12/22 05:19:36
"8","126","351.0063623932074","283.5148511852905",18/12/22 05:19:36
"8","126","351.33590968752975","282.8977244177569",18/12/22 05:19:36
"8","126","351.064844962908","281.90287506518314",18/12/22 05:19:36
"8","126","349.71616401204","282.8244573796045",18/12/22 05:19:36
"8","126","350.04916234751937","283.5066169302733",18/12/22 05:19:36
"8","126","350.31943388034324","283.2895222386882",18/12/22 05:19:36
"8","126","351.1615382817229","284.14113158682613",18/12/22 05:19:36
"8","126","348.8939022888562","284.01960453420907",18/12/22 05:19:36
"8","126","350.81095249143345","284.4363811070194",18/12/22 05:19:36
"8","126","351.056885594009","281.96069225715604",18/12/22 05:19:36
"8","126","350.2981036786829","280.19717674038736",18/12/22 05:19:36
"8","126","349.6119426171855","278.9709663100211",18/12/22 05:19:36
"8","126","349.3281804069519","279.29253620348175",18/12/22 05:19:36
"8","126","347.41951060694595","277.93936722303505",18/12/22 05:19:36
"8","126","346.9051278989787","278.7332624834885",18/12/22 05:19:36
"8","126","346.8598343283","278.70923774220523",18/12/22 05:19:36
"8","126","346.96730035626376","278.636238756071",18/12/22 05:19:36
"8","126","347.83875343791766","279.04038105776823",18/12/22 05:19:36
"8","126","349.064220191094","279.20083100371505",18/12/22 05:19:36
"8","126","349.0401487050595","278.15675951606175",18/12/22 05:19:36
"8","126","350.6110815371539","278.50017917954",18/12/22 05:19:36
"8","126","350.70262035086597","278.75855797414135",18/12/22 05:19:36
"8","126","349.07350422063166","277.8430365285759",18/12/22 05:19:36
"8","126","349.06902475373715","279.7108889342713",18/12/22 05:19:36
"8","126","348.11628958384193","277.5726667685066",18/12/22 05:19:36
"8","126","347.8092916794714","277.9799834555401",18/12/22 05:19:36
"8","126","348.591033456039","277.9683602246999",18/12/22 05:19:36
"8","126","349.4622689253704","279.08113471832894",18/12/22 05:19:36
"8","126","349.6006560814982","280.57771427316817",18/12/22 05:19:36
"8","126","349.1246468705888","282.561038963595",18/12/22 05:19:36
"8","126","350.2777912525268","282.31954868202774",18/12/22 05:19:36
"8","126","350.16496076167186","282.0743559122268",18/12/22 05:19:36
"8","126","349.86730731311525","281.3195126344081",18/12/22 05:19:36
"8","126","350.88824754528326","281.6271548274151",18/12/22 05:19:36
"8","126","349.5548578525504","282.4852391391202",18/12/22 05:19:36
"8","126","348.59714575304696","283.33618391982566",18/12/22 05:19:37
"8","126","348.4718569968916","283.4036766239919",18/12/22 05:19:37
"8","126","348.520340144551","284.5488776154287",18/12/22 05:19:37
"8","126","346.9129072779615","284.21435923715984",18/12/22 05:19:37
"8","126","347.6464347514186","284.2986739006035",18/12/22 05:19:37
"8","126","347.0366074744416","283.59687967832355",18/12/22 05:19:37
"8","126","347.19601378672434","284.6337771607122",18/12/22 05:19:37
"8","126","346.84849912660974","284.18965957745473",18/12/22 05:19:37
"8","126","347.1445470378241","284.34479828375765",18/12/22 05:19:37
"8","126","346.8975750186153","283.30657434666426",18/12/22 05:19:37
"8","126","346.8904858285535","283.515108260651",18/12/22 05:19:37
"8","126","347.3942925967972","284.70742712313887",18/12/22 05:19:37
"8","126","349.31044639677253","284.67787444299023",18/12/22 05:19:37
"8","126","349.2818569887094","284.69698952789264",18/12/22 05:19:37
"8","126","348.8591479276806","284.25878227772057",18/12/22 05:19:37
"8","126","349.0465775223588","284.3483701153396",18/12/22 05:19:37
"8","126","349.0465775223588","284.3483701153396",18/12/22 05:19:37
