"floorId","partitionId","location_x","location_y","timeStamp"
"10","161","344.3697011010909","280.9618239020055",18/12/22 05:18:25
"10","161","344.71306922854404","282.33712033799634",18/12/22 05:18:25
"10","161","345.0187212266765","283.56135191360295",18/12/22 05:18:25
"10","161","345.35944845220814","284.92607071378535",18/12/22 05:18:25
"10","137","343.45447151157833","285.6151392974555",18/12/22 05:18:25
"10","137","341.3535741054705","286.03847057114666",18/12/22 05:18:25
"10","137","340.0841491034258","285.41925031027256",18/12/22 05:18:25
"10","137","338.1945136484565","284.4493582835681",18/12/22 05:18:25
"10","137","338.1945136484565","284.4493582835681",18/12/22 05:18:25
"10","137","336.8858639315804","283.77766844899736",18/12/22 05:18:25
"10","137","335.4070164823716","283.01862132912674",18/12/22 05:18:25
"10","137","333.8453238843249","282.2170523307119",18/12/22 05:18:25
"10","137","331.93756029232935","281.2378556862757",18/12/22 05:18:25
"10","137","330.6934401048861","280.59928688355234",18/12/22 05:18:25
"8","117","331.6854539914806","281.1780133802775",18/12/22 05:18:25
"8","117","332.9188918303216","281.88347083749204",18/12/22 05:18:25
"8","117","334.20240626046746","282.61756930413196",18/12/22 05:18:25
"8","117","335.70476067915246","283.4768320044205",18/12/22 05:18:25
"8","117","337.81252075791457","284.6823528817264",18/12/22 05:18:25
"8","117","339.2798479325998","285.5215819575329",18/12/22 05:18:25
"8","117","340.491763668994","286.2147299758864",18/12/22 05:18:25
"8","190","341.0294358986808","285.90380492643095",18/12/22 05:18:25
"8","190","340.34692939923497","284.0000195295002",18/12/22 05:18:25
"8","190","340.34692939923497","284.0000195295002",18/12/22 05:18:25
"8","190","339.8445123457442","282.5985760994648",18/12/22 05:18:25
"8","190","339.2146171781183","280.8415448877516",18/12/22 05:18:25
"8","190","338.69943998338","279.40450828667736",18/12/22 05:18:25
"8","190","337.95816302243475","277.33678841225174",18/12/22 05:18:25
"8","190","337.64796731983614","278.1043795092057",18/12/22 05:18:25
"8","190","335.49188088233836","278.3656584667871",18/12/22 05:18:25
"8","190","335.31875616371127","278.18487833721025",18/12/22 05:18:25
"8","190","333.9342161059917","277.4166347308527",18/12/22 05:18:25
"8","190","333.59411958888876","277.1668815287176",18/12/22 05:18:25
"8","190","333.48183314614266","277.10675954227963",18/12/22 05:18:25
"8","190","333.816150374095","277.2829305579158",18/12/22 05:18:25
"8","190","334.41647800193175","276.71344162062627",18/12/22 05:18:25
"8","190","335.1066480493739","278.7792128913319",18/12/22 05:18:25
"8","190","334.2015126784801","278.27026715283",18/12/22 05:18:25
"8","190","334.2015126784801","278.27026715283",18/12/22 05:18:25
"8","190","334.2015126784801","278.27026715283",18/12/22 05:18:25
"8","190","335.5086156029311","279.7773786289947",18/12/22 05:18:25
"8","190","337.0745082783123","281.5828790049506",18/12/22 05:18:26
"8","190","338.3803118380168","283.08849229188746",18/12/22 05:18:26
"8","190","339.98335585070083","284.9368287794889",18/12/22 05:18:26
"8","190","340.89912388929883","285.9927246042616",18/12/22 05:18:26
"8","190","341.55251888310295","286.89947208236555",18/12/22 05:18:26
"8","190","343.0319709977812","287.02848280740704",18/12/22 05:18:26
"8","190","344.65888489606124","287.1703524492257",18/12/22 05:18:26
"8","190","346.8146424291766","287.3583381498791",18/12/22 05:18:26
"8","190","348.0943568132454","287.4699314072051",18/12/22 05:18:26
"8","190","350.5789628515396","287.68659325334573",18/12/22 05:18:26
"8","117","352.8930182293938","287.88838279362307",18/12/22 05:18:26
"8","117","354.76002632986905","286.7632903805517",18/12/22 05:18:26
"8","117","354.7144240251919","286.6507766370537",18/12/22 05:18:26
"8","117","354.8326531774993","287.27662321898504",18/12/22 05:18:26
"8","117","355.7379211455493","288.41278919455294",18/12/22 05:18:26
"8","117","355.7036178736202","288.60522583098793",18/12/22 05:18:26
"8","117","355.9167387212682","287.63177998337255",18/12/22 05:18:26
"8","117","353.9172077476456","286.7454393581549",18/12/22 05:18:26
"8","117","353.8286557917786","285.52501154488095",18/12/22 05:18:26
"8","117","355.72029127464754","287.08144151930316",18/12/22 05:18:26
"8","117","354.6875276532536","288.35639744187097",18/12/22 05:18:26
"8","117","354.6180785611107","288.4447653796714",18/12/22 05:18:26
"8","117","353.0406137882478","287.23994422432844",18/12/22 05:18:26
"8","117","353.37594895835247","285.4243829813271",18/12/22 05:18:26
"8","117","353.6929775178775","286.37447871852385",18/12/22 05:18:26
"8","117","352.431998060826","287.9111124300356",18/12/22 05:18:26
"8","117","352.2549138456586","288.56049878470594",18/12/22 05:18:26
"8","117","354.1485292042999","287.44818644890086",18/12/22 05:18:26
"8","117","354.06247737405334","287.5373651177981",18/12/22 05:18:26
"8","117","355.9560476192323","288.1847319606913",18/12/22 05:18:26
"8","117","355.8065485812615","287.84491253506917",18/12/22 05:18:26
"8","117","355.9006749269123","288.6719567123369",18/12/22 05:18:26
"8","117","356.8132877456214","288.37150284119696",18/12/22 05:18:26
"8","117","356.9090075498124","286.6542050292681",18/12/22 05:18:26
"8","117","355.65853745275854","286.67412150050285",18/12/22 05:18:26
"8","117","354.771031543754","285.67101418108876",18/12/22 05:18:26
"8","117","356.80119955170727","285.3941009388117",18/12/22 05:18:26
"8","117","355.95058498614446","285.9936641002813",18/12/22 05:18:26
"8","117","354.34435122804615","286.486531399666",18/12/22 05:18:26
"8","117","354.2576087538806","286.4621249599218",18/12/22 05:18:26
"8","117","352.20403150939194","287.3486675225992",18/12/22 05:18:26
"8","117","353.02436799164946","286.5372507675269",18/12/22 05:18:26
"8","117","351.74300243095985","288.09690994726594",18/12/22 05:18:26
"8","117","352.3817834157943","287.56244980149006",18/12/22 05:18:26
"8","117","352.7630813164369","287.1123253015812",18/12/22 05:18:26
"8","117","351.6416704151662","288.29588846511115",18/12/22 05:18:26
"8","117","351.6416704151662","288.29588846511115",18/12/22 05:18:26
"8","117","352.6422513443214","286.85268385458073",18/12/22 05:18:26
"8","117","353.4024146341508","286.5534160100068",18/12/22 05:18:27
"8","117","353.4024146341508","286.5534160100068",18/12/22 05:18:27
"8","117","353.6608307007122","287.8707463343",18/12/22 05:18:27
"8","117","353.6608307007122","287.8707463343",18/12/22 05:18:27
"8","117","353.84352649084207","286.68338182345246",18/12/22 05:18:27
"8","117","352.86015891925086","285.7962122763764",18/12/22 05:18:27
"8","117","355.2635502832315","285.9428292547422",18/12/22 05:18:27
"8","117","354.5959794382113","286.7873872396201",18/12/22 05:18:27
"8","117","354.5959794382113","286.7873872396201",18/12/22 05:18:27
"8","117","355.05743706849324","287.6530750921506",18/12/22 05:18:27
"8","117","353.3508720660459","287.7108442987496",18/12/22 05:18:27
"8","117","352.72141764863784","287.39639904364026",18/12/22 05:18:27
"8","117","352.72141764863784","287.39639904364026",18/12/22 05:18:27
"8","117","353.08467652501685","286.45635813111465",18/12/22 05:18:27
"8","117","353.08467652501685","286.45635813111465",18/12/22 05:18:27
"8","117","350.7269214015457","287.0692554438066",18/12/22 05:18:27
"8","117","350.7269214015457","287.0692554438066",18/12/22 05:18:27
"8","117","351.696392488975","286.00647028590885",18/12/22 05:18:27
"8","117","352.44862148468644","285.45834860162665",18/12/22 05:18:27
"8","117","352.44862148468644","285.45834860162665",18/12/22 05:18:27
"8","117","352.1290064582868","287.74585051432285",18/12/22 05:18:27
"8","117","352.1290064582868","287.74585051432285",18/12/22 05:18:27
"8","117","351.97855548870587","287.789329057362",18/12/22 05:18:27
"8","117","351.97855548870587","287.789329057362",18/12/22 05:18:27
"8","117","350.6568670631094","287.1700762760944",18/12/22 05:18:27
"8","117","350.6568670631094","287.1700762760944",18/12/22 05:18:27
"8","117","348.9697329208737","288.05962173687755",18/12/22 05:18:27
"8","117","348.590173037365","287.0925528024936",18/12/22 05:18:27
"8","117","348.590173037365","287.0925528024936",18/12/22 05:18:27
"8","117","349.08319727385145","287.9772990337194",18/12/22 05:18:27
"8","117","351.3661630572301","285.97903228999627",18/12/22 05:18:27
"8","117","352.03704060701494","287.34062248018313",18/12/22 05:18:27
"8","117","352.03704060701494","287.34062248018313",18/12/22 05:18:27
"8","117","352.09601345662355","286.7685520613665",18/12/22 05:18:27
"8","117","352.40582483142015","286.8416716560909",18/12/22 05:18:27
"8","117","353.27362607488834","286.88361748166056",18/12/22 05:18:27
"8","117","352.97278145210436","288.4877867401891",18/12/22 05:18:27
"8","117","352.97278145210436","288.4877867401891",18/12/22 05:18:27
"8","117","351.10380437745044","288.113989201002",18/12/22 05:18:27
"8","117","351.10380437745044","288.113989201002",18/12/22 05:18:27
"8","117","350.1618134331547","286.59790977073584",18/12/22 05:18:27
"8","117","350.1618134331547","286.59790977073584",18/12/22 05:18:27
"8","117","349.71886705362624","286.2785622455264",18/12/22 05:18:27
"8","117","350.0409560880306","287.35223855034627",18/12/22 05:18:27
"8","117","350.0409560880306","287.35223855034627",18/12/22 05:18:27
"8","117","352.208290716673","286.89073819600026",18/12/22 05:18:27
"8","117","352.208290716673","286.89073819600026",18/12/22 05:18:27
"8","117","352.8015151927844","286.5655572407465",18/12/22 05:18:27
"8","117","352.8015151927844","286.5655572407465",18/12/22 05:18:27
"8","117","353.7873394028026","285.77328051025535",18/12/22 05:18:28
"8","117","353.7873394028026","285.77328051025535",18/12/22 05:18:28
"8","117","353.71129872357324","286.28752562366174",18/12/22 05:18:28
"8","117","353.71129872357324","286.28752562366174",18/12/22 05:18:28
"8","117","354.58361833499515","286.0907517802941",18/12/22 05:18:28
"8","117","356.500806014382","285.57204217961333",18/12/22 05:18:28
"8","117","356.500806014382","285.57204217961333",18/12/22 05:18:28
"8","117","356.7553348487437","286.20241430851445",18/12/22 05:18:28
"8","117","356.8013178079527","286.66120924133577",18/12/22 05:18:28
"8","117","357.50438396999755","287.6681741356126",18/12/22 05:18:28
"8","117","357.50438396999755","287.6681741356126",18/12/22 05:18:28
"8","117","356.29804291480764","287.5868557609211",18/12/22 05:18:28
"8","117","358.79837475285274","285.5455713892858",18/12/22 05:18:28
"8","117","358.79837475285274","285.5455713892858",18/12/22 05:18:28
"8","117","359.2383586859326","287.63392241178246",18/12/22 05:18:28
"8","117","360.82168091535556","288.02904779948585",18/12/22 05:18:28
"8","117","360.82168091535556","288.02904779948585",18/12/22 05:18:28
"8","117","358.0048605240609","287.1380152363229",18/12/22 05:18:28
"8","117","358.0048605240609","287.1380152363229",18/12/22 05:18:28
"8","117","357.42698688560614","287.4180554476058",18/12/22 05:18:28
"8","117","359.22908064732434","287.27146483228904",18/12/22 05:18:28
"8","117","359.22908064732434","287.27146483228904",18/12/22 05:18:28
"8","117","360.03859221884045","287.9519982313591",18/12/22 05:18:28
"8","117","360.03859221884045","287.9519982313591",18/12/22 05:18:28
"8","117","359.42582879464743","288.3369733432651",18/12/22 05:18:28
"8","117","357.96180496807773","288.3369733432651",18/12/22 05:18:28
"8","117","356.9601999759252","288.35079083131035",18/12/22 05:18:28
"8","117","356.9601999759252","288.35079083131035",18/12/22 05:18:28
"8","117","356.1034003069562","287.8650754500648",18/12/22 05:18:28
"8","117","354.6170771481195","288.5921588599002",18/12/22 05:18:28
"8","117","354.6170771481195","288.5921588599002",18/12/22 05:18:28
"8","117","354.3760049799764","288.1734292090249",18/12/22 05:18:28
"8","117","355.78324836566367","286.8602866765268",18/12/22 05:18:28
"8","117","355.78324836566367","286.8602866765268",18/12/22 05:18:28
"8","117","352.60554411476073","286.91127410671277",18/12/22 05:18:28
"8","117","352.60554411476073","286.91127410671277",18/12/22 05:18:28
"8","117","352.0955282976306","286.79089618523255",18/12/22 05:18:28
"8","117","351.9566947744404","286.7287223215341",18/12/22 05:18:28
"8","117","350.78283817390474","287.1125108547925",18/12/22 05:18:28
"8","117","350.78283817390474","287.1125108547925",18/12/22 05:18:28
"8","117","348.2896355940094","287.89225547999655",18/12/22 05:18:28
"8","117","348.2896355940094","287.89225547999655",18/12/22 05:18:28
"8","117","348.2818156413691","287.5358397970837",18/12/22 05:18:28
"8","117","348.2818156413691","287.5358397970837",18/12/22 05:18:28
"8","117","350.0152247045267","287.8876576357513",18/12/22 05:18:28
"8","117","350.05053558295515","287.91165754262585",18/12/22 05:18:28
"8","117","350.05053558295515","287.91165754262585",18/12/22 05:18:28
"8","117","348.2844042564872","286.4114260670094",18/12/22 05:18:29
"8","117","348.5463108556337","286.3900386461564",18/12/22 05:18:29
"8","117","348.5463108556337","286.3900386461564",18/12/22 05:18:29
"8","117","347.79553139107276","287.93025300090545",18/12/22 05:18:29
"8","117","347.79553139107276","287.93025300090545",18/12/22 05:18:29
"8","117","346.79626278707104","287.2734253913701",18/12/22 05:18:29
"8","117","346.66067937638235","287.1077761951397",18/12/22 05:18:29
"8","117","346.66067937638235","287.1077761951397",18/12/22 05:18:29
"8","117","346.1087613370103","286.72605839059685",18/12/22 05:18:29
"8","117","347.7448305765432","286.94872832408015",18/12/22 05:18:29
"8","117","346.66882698926247","286.8794277189731",18/12/22 05:18:29
"8","117","346.66882698926247","286.8794277189731",18/12/22 05:18:29
"8","117","347.1777590474143","286.68274974684056",18/12/22 05:18:29
"8","117","347.1777590474143","286.68274974684056",18/12/22 05:18:29
"8","117","348.27438367451106","287.5599585689688",18/12/22 05:18:29
"8","117","349.7663395235681","287.7558534838079",18/12/22 05:18:29
"8","117","349.7663395235681","287.7558534838079",18/12/22 05:18:29
"8","117","350.32170437088223","288.29266727235955",18/12/22 05:18:29
"8","117","350.32170437088223","288.29266727235955",18/12/22 05:18:29
"8","117","352.16286205128876","288.3291439020567",18/12/22 05:18:29
"8","117","350.83506447379256","287.1522234006578",18/12/22 05:18:29
"8","117","350.83506447379256","287.1522234006578",18/12/22 05:18:29
"8","117","351.3874638827945","285.73979445112707",18/12/22 05:18:29
"8","117","351.3874638827945","285.73979445112707",18/12/22 05:18:29
"8","117","353.141212919244","285.4702017319001",18/12/22 05:18:29
"8","117","353.141212919244","285.4702017319001",18/12/22 05:18:29
"8","117","353.9174509163534","285.850849488973",18/12/22 05:18:29
"8","117","353.9174509163534","285.850849488973",18/12/22 05:18:29
"8","117","353.8458387248326","285.7310577777015",18/12/22 05:18:29
"8","117","353.8458387248326","285.7310577777015",18/12/22 05:18:29
"8","117","355.55885121625755","285.96952817521895",18/12/22 05:18:29
"8","117","355.55885121625755","285.96952817521895",18/12/22 05:18:29
"8","117","354.1049356907934","287.6342599034144",18/12/22 05:18:29
"8","117","356.25517036725745","288.3623887010733",18/12/22 05:18:29
"8","117","356.25517036725745","288.3623887010733",18/12/22 05:18:29
"8","117","354.42513280983496","287.2751017891567",18/12/22 05:18:29
"8","117","354.42513280983496","287.2751017891567",18/12/22 05:18:29
"8","117","352.5791168823924","287.91021629138226",18/12/22 05:18:29
"8","117","352.5791168823924","287.91021629138226",18/12/22 05:18:29
"8","117","352.9081748657078","287.0775128036348",18/12/22 05:18:29
"8","117","352.70959107729914","286.95623863361277",18/12/22 05:18:29
"8","117","352.70959107729914","286.95623863361277",18/12/22 05:18:29
"8","117","353.58499995325707","285.8438560292178",18/12/22 05:18:29
"8","117","353.58499995325707","285.8438560292178",18/12/22 05:18:30
"8","117","350.89578275793775","288.4088921815275",18/12/22 05:18:30
"8","117","350.89578275793775","288.4088921815275",18/12/22 05:18:30
"8","117","351.42657124722206","287.7455080448348",18/12/22 05:18:30
"8","117","351.42657124722206","287.7455080448348",18/12/22 05:18:30
"8","117","351.1782732749476","287.263362112443",18/12/22 05:18:30
"8","117","351.1782732749476","287.263362112443",18/12/22 05:18:30
"8","117","350.28275355792454","288.2695123891046",18/12/22 05:18:30
"8","117","349.37490019074","288.48811390789825",18/12/22 05:18:30
"8","117","349.37490019074","288.48811390789825",18/12/22 05:18:30
"8","117","348.2094718388578","287.38238325757067",18/12/22 05:18:30
"8","117","349.31305112188255","286.7036738656721",18/12/22 05:18:30
"8","117","350.29731552538726","288.30552466254426",18/12/22 05:18:30
"8","117","350.29731552538726","288.30552466254426",18/12/22 05:18:30
"8","117","350.6528040455647","286.7800045162511",18/12/22 05:18:30
"8","117","350.6528040455647","286.7800045162511",18/12/22 05:18:30
"8","117","349.9994150158181","285.58124726094513",18/12/22 05:18:30
"8","117","349.9994150158181","285.58124726094513",18/12/22 05:18:30
"8","117","352.40412051060713","285.7538299640022",18/12/22 05:18:30
"8","117","353.4678371572346","287.1103451460462",18/12/22 05:18:30
"8","117","352.48598476743933","286.8593047494487",18/12/22 05:18:30
"8","117","352.48598476743933","286.8593047494487",18/12/22 05:18:30
"8","117","352.2278868679921","286.28548497055027",18/12/22 05:18:30
"8","117","352.2278868679921","286.28548497055027",18/12/22 05:18:30
"8","117","353.28287203640525","285.406581086762",18/12/22 05:18:30
"8","117","350.65469417445445","285.7267895702169",18/12/22 05:18:30
"8","117","350.65469417445445","285.7267895702169",18/12/22 05:18:30
"8","117","348.89337733409644","286.81517818050605",18/12/22 05:18:30
"8","117","348.89337733409644","286.81517818050605",18/12/22 05:18:30
"8","117","346.6258780887229","288.3672428223525",18/12/22 05:18:30
"8","117","347.3104358885185","288.56233523896793",18/12/22 05:18:30
"8","117","347.3104358885185","288.56233523896793",18/12/22 05:18:30
"8","117","347.1051013995347","288.158729700735",18/12/22 05:18:30
"8","117","347.1051013995347","288.39227387766186",18/12/22 05:18:30
"8","117","345.9151714716267","287.07575534122753",18/12/22 05:18:30
"8","117","345.9151714716267","287.07575534122753",18/12/22 05:18:30
"8","117","345.08292432383126","285.58955099914346",18/12/22 05:18:30
"8","117","345.08292432383126","285.58955099914346",18/12/22 05:18:30
"8","117","345.2171878401152","287.36674180147475",18/12/22 05:18:30
"8","117","342.7971431382179","286.5231593035387",18/12/22 05:18:30
"8","117","342.7971431382179","286.5231593035387",18/12/22 05:18:30
"8","117","344.1672166253001","288.24873183910836",18/12/22 05:18:30
"8","117","344.78555890273327","286.53197619814654",18/12/22 05:18:30
"8","117","344.7098870854739","286.3128423789942",18/12/22 05:18:30
"8","117","344.7098870854739","286.3128423789942",18/12/22 05:18:30
"8","117","344.78812159941407","286.1591343789713",18/12/22 05:18:30
"8","117","344.78812159941407","286.1591343789713",18/12/22 05:18:30
"8","117","343.3381726927965","286.9621164927895",18/12/22 05:18:30
"8","117","343.3381726927965","286.9621164927895",18/12/22 05:18:31
"8","117","344.1174950454192","287.75060899522737",18/12/22 05:18:31
"8","117","344.1174950454192","287.75060899522737",18/12/22 05:18:31
"8","117","346.58294164030815","288.05372327132613",18/12/22 05:18:31
"8","117","346.58294164030815","288.05372327132613",18/12/22 05:18:31
"8","117","346.11082908048024","285.5140998889644",18/12/22 05:18:31
"8","117","346.11082908048024","285.5140998889644",18/12/22 05:18:31
"8","117","345.3447385180759","286.68038379306245",18/12/22 05:18:31
"8","117","347.01270443961397","287.2805173237173",18/12/22 05:18:31
"8","117","347.01270443961397","287.2805173237173",18/12/22 05:18:31
"8","117","344.9352721601864","288.6133590603754",18/12/22 05:18:31
"8","117","344.9352721601864","288.6133590603754",18/12/22 05:18:31
"8","117","345.5731920890022","288.669786755666",18/12/22 05:18:31
"8","117","345.5731920890022","288.669786755666",18/12/22 05:18:31
"8","117","344.34059998577925","287.3641997488957",18/12/22 05:18:31
"8","117","344.34059998577925","287.3641997488957",18/12/22 05:18:31
"8","117","341.7836276963346","286.3904410177455",18/12/22 05:18:31
"8","117","341.7836276963346","286.3904410177455",18/12/22 05:18:31
"8","117","342.9965783991774","288.07745196250073",18/12/22 05:18:31
"8","117","342.9965783991774","288.07745196250073",18/12/22 05:18:31
"8","117","343.06959600151407","288.06178202975656",18/12/22 05:18:31
"8","117","342.9829925621392","286.91806627920613",18/12/22 05:18:31
"8","117","342.9829925621392","286.91806627920613",18/12/22 05:18:31
"8","117","341.78001646258195","288.2783343612069",18/12/22 05:18:31
"8","117","341.78001646258195","288.2783343612069",18/12/22 05:18:31
"8","117","342.79711231614556","287.30196570700264",18/12/22 05:18:31
"8","117","342.79711231614556","287.30196570700264",18/12/22 05:18:31
"8","117","343.67982717723265","286.04565798784387",18/12/22 05:18:31
"8","117","343.67982717723265","286.04565798784387",18/12/22 05:18:31
"8","117","343.0489055200425","286.65828317683906",18/12/22 05:18:31
"8","117","343.1924285504738","286.4409744755416",18/12/22 05:18:31
"8","117","343.1924285504738","286.4409744755416",18/12/22 05:18:31
"8","117","343.7269404787642","287.8358938252839",18/12/22 05:18:31
"8","117","343.7269404787642","287.8358938252839",18/12/22 05:18:31
"8","117","343.7257997436038","287.8351371153835",18/12/22 05:18:31
"8","117","344.7399801483075","286.41672663381945",18/12/22 05:18:31
"8","117","345.5970102856998","288.42159307764564",18/12/22 05:18:31
"8","117","345.5970102856998","288.42159307764564",18/12/22 05:18:31
"8","117","345.13114277377576","287.75798592557385",18/12/22 05:18:31
"8","117","345.13114277377576","287.75798592557385",18/12/22 05:18:31
"8","117","344.07156586890187","287.5067747589151",18/12/22 05:18:31
"8","117","344.07156586890187","287.5067747589151",18/12/22 05:18:31
"8","117","344.4483421662955","287.6494920506688",18/12/22 05:18:31
"8","117","344.4483421662955","287.6494920506688",18/12/22 05:18:31
"8","117","345.69962531103016","286.0595776445372",18/12/22 05:18:31
"8","117","345.69962531103016","286.0595776445372",18/12/22 05:18:31
"8","117","345.0313688947041","288.0885791222693",18/12/22 05:18:31
"8","117","345.0313688947041","288.0885791222693",18/12/22 05:18:31
"8","117","345.12757984202005","288.4009823300226",18/12/22 05:18:31
"8","117","344.88913191654535","288.25861843374815",18/12/22 05:18:32
"8","117","344.88913191654535","288.25861843374815",18/12/22 05:18:32
"8","117","345.3835751998902","288.34611770575276",18/12/22 05:18:32
"8","117","345.3835751998902","288.34611770575276",18/12/22 05:18:32
"8","117","344.92269562579565","287.3969816604059",18/12/22 05:18:32
"8","117","344.92269562579565","287.3969816604059",18/12/22 05:18:32
"8","117","344.92269562579565","287.3969816604059",18/12/22 05:18:32
"8","117","345.20278178636056","285.9714031744978",18/12/22 05:18:32
"8","117","345.20278178636056","285.9714031744978",18/12/22 05:18:32
"8","192","345.24099609757803","283.81426287020133",18/12/22 05:18:32
"8","192","344.8472071872369","280.6776453031444",18/12/22 05:18:32
"8","192","344.8472071872369","280.6776453031444",18/12/22 05:18:32
"8","192","345.3843426861052","281.80796394105795",18/12/22 05:18:32
"8","192","345.34011547003075","282.07019884111276",18/12/22 05:18:32
"8","192","345.34011547003075","282.07019884111276",18/12/22 05:18:32
"8","192","345.1411359745826","282.2619628657966",18/12/22 05:18:32
"8","192","344.7138845209445","280.9376632267019",18/12/22 05:18:32
"8","192","345.40340276681655","281.10298465144336",18/12/22 05:18:32
"8","192","345.40340276681655","281.10298465144336",18/12/22 05:18:32
"8","192","344.55499914667894","280.15944738361065",18/12/22 05:18:32
"8","192","346.26808108384927","279.9760569590812",18/12/22 05:18:32
"8","192","346.11689687096845","280.3145241220948",18/12/22 05:18:32
"8","192","345.967382261501","280.3145241220948",18/12/22 05:18:32
"8","192","345.66584354350965","281.6659944457748",18/12/22 05:18:32
"8","192","345.66584354350965","281.6659944457748",18/12/22 05:18:32
"8","192","344.91468796192606","281.8537541890291",18/12/22 05:18:32
"8","192","344.91468796192606","281.8537541890291",18/12/22 05:18:32
"8","192","346.1330038298837","283.12419714104175",18/12/22 05:18:32
"8","192","346.1330038298837","283.12419714104175",18/12/22 05:18:32
"8","192","346.2593614127155","282.29788987045055",18/12/22 05:18:32
"8","192","343.2843799761749","279.60447477710426",18/12/22 05:18:32
"8","192","343.2843799761749","279.60447477710426",18/12/22 05:18:32
"8","192","343.56127586345445","278.4611655061679",18/12/22 05:18:32
"8","192","345.7736060440412","278.4786345365214",18/12/22 05:18:32
"8","192","345.7736060440412","278.4786345365214",18/12/22 05:18:32
"8","192","343.9246368380076","278.49892510025006",18/12/22 05:18:32
"8","192","343.9246368380076","278.49892510025006",18/12/22 05:18:32
"8","192","342.54722996641425","279.532389823095",18/12/22 05:18:32
"8","192","344.412495107449","280.438589786191",18/12/22 05:18:32
"8","192","344.412495107449","280.438589786191",18/12/22 05:18:32
"8","192","343.12337492484437","279.32583555144726",18/12/22 05:18:32
"8","192","342.63594736371135","281.06299744595395",18/12/22 05:18:32
"8","192","342.4782912040452","282.43190892793154",18/12/22 05:18:32
"8","192","342.4782912040452","282.43190892793154",18/12/22 05:18:32
"8","192","342.8975128221607","281.3136822551434",18/12/22 05:18:32
"8","192","342.8975128221607","281.3136822551434",18/12/22 05:18:32
"8","192","343.7805089089216","283.0768593247774",18/12/22 05:18:32
"8","192","343.7805089089216","283.0768593247774",18/12/22 05:18:32
"8","192","342.92747130717873","283.113107218326",18/12/22 05:18:32
"8","192","342.92747130717873","283.113107218326",18/12/22 05:18:32
"8","192","342.6156067301219","283.33603231276476",18/12/22 05:18:33
"8","192","342.7900897366138","282.1159664707312",18/12/22 05:18:33
"8","192","342.7900897366138","282.1159664707312",18/12/22 05:18:33
"8","192","342.4237654202154","280.8394929730616",18/12/22 05:18:33
"8","192","342.6838177804916","280.2036996715313",18/12/22 05:18:33
"8","192","342.6838177804916","280.2036996715313",18/12/22 05:18:33
"8","192","341.99993220538965","278.7627827474626",18/12/22 05:18:33
"8","192","342.0460980561512","278.4734842531834",18/12/22 05:18:33
"8","192","342.0460980561512","278.4734842531834",18/12/22 05:18:33
"8","192","341.9732401206843","277.99832292650046",18/12/22 05:18:33
"8","192","344.52428593576815","278.37375599314504",18/12/22 05:18:33
"8","192","344.52428593576815","278.37375599314504",18/12/22 05:18:33
"8","192","345.2185703173452","280.8687357639495",18/12/22 05:18:33
"8","192","343.13414160626576","282.2402280509228",18/12/22 05:18:33
"8","192","343.13414160626576","282.2402280509228",18/12/22 05:18:33
"8","192","343.0698123762137","281.6800327102456",18/12/22 05:18:33
"8","192","343.0698123762137","281.6800327102456",18/12/22 05:18:33
"8","192","343.9448377339723","281.97958781812605",18/12/22 05:18:33
"8","192","343.99648216404614","283.46118390603004",18/12/22 05:18:33
"8","192","343.99648216404614","283.46118390603004",18/12/22 05:18:33
"8","192","345.9617440563823","283.46086514460313",18/12/22 05:18:33
"8","192","345.9617440563823","283.46086514460313",18/12/22 05:18:33
"8","192","345.42053172955104","283.34508326062826",18/12/22 05:18:33
"8","192","345.42053172955104","283.34508326062826",18/12/22 05:18:33
"8","192","345.0563134256266","283.15412259345356",18/12/22 05:18:33
"8","192","345.0563134256266","283.15412259345356",18/12/22 05:18:33
"8","192","345.3555120438139","282.2311611282488",18/12/22 05:18:33
"8","192","345.3555120438139","282.2311611282488",18/12/22 05:18:33
"8","192","344.65455147457357","281.1112838121673",18/12/22 05:18:33
"8","192","344.65455147457357","281.1112838121673",18/12/22 05:18:33
"8","192","343.59946001332884","280.863462199246",18/12/22 05:18:33
"8","192","346.0234442823728","283.39189328027953",18/12/22 05:18:33
"8","192","346.0234442823728","283.39189328027953",18/12/22 05:18:33
"8","192","345.8790116956465","283.2266418094893",18/12/22 05:18:33
"8","192","344.6181711319835","282.14966549508136",18/12/22 05:18:33
"8","192","344.6181711319835","282.14966549508136",18/12/22 05:18:33
"8","192","342.147011531501","279.3879059371593",18/12/22 05:18:33
"8","192","342.147011531501","279.3879059371593",18/12/22 05:18:33
"8","192","341.8588480880061","281.6566842237313",18/12/22 05:18:33
"8","192","341.8588480880061","281.6566842237313",18/12/22 05:18:33
"8","192","341.8588480880061","281.6566842237313",18/12/22 05:18:33
"8","192","343.4485414222418","282.9439327010102",18/12/22 05:18:33
"8","192","343.4485414222418","282.9439327010102",18/12/22 05:18:33
"8","192","345.9126151866605","284.9392075963886",18/12/22 05:18:33
"8","192","345.9126151866605","284.9392075963886",18/12/22 05:18:33
"8","117","344.4969453157757","285.33162118987497",18/12/22 05:18:33
"8","117","344.4969453157757","285.33162118987497",18/12/22 05:18:33
"8","117","342.31297596479607","285.4744036577128",18/12/22 05:18:33
"8","188","338.96755060702253","286.1079870184183",18/12/22 05:18:33
"8","188","338.96755060702253","286.1079870184183",18/12/22 05:18:33
"8","188","335.1579547962533","287.0322412516629",18/12/22 05:18:34
"8","188","333.3068226208995","287.4813484100994",18/12/22 05:18:34
"8","188","333.3068226208995","287.4813484100994",18/12/22 05:18:34
"8","140","330.45409976689757","286.8349834852696",18/12/22 05:18:34
"8","140","330.45409976689757","286.8349834852696",18/12/22 05:18:34
"8","140","327.79863155333857","285.21666666666664",18/12/22 05:18:34
"8","188","327.84075309370405","284.9866634781582",18/12/22 05:18:34
"8","188","328.24435385681244","281.32674696473657",18/12/22 05:18:34
"8","188","328.5110104155883","281.32674696473657",18/12/22 05:18:34
"8","140","328.9214011792563","278.91064579427234",18/12/22 05:18:34
"8","140","327.7450146591954","280.18742932866616",18/12/22 05:18:34
"8","140","327.7450146591954","280.18742932866616",18/12/22 05:18:34
"8","140","328.9989429524468","281.0434188007414",18/12/22 05:18:34
"8","140","328.9989429524468","281.0434188007414",18/12/22 05:18:34
"8","140","329.94308299954963","279.2236914593841",18/12/22 05:18:34
"8","140","329.08632177803787","280.71087536787644",18/12/22 05:18:34
"8","140","329.08632177803787","280.71087536787644",18/12/22 05:18:34
"8","140","329.672027865911","278.87163472983417",18/12/22 05:18:34
"8","140","329.5899337137264","279.9160884801441",18/12/22 05:18:34
"8","140","330.2215050500435","279.95048260764116",18/12/22 05:18:34
"8","140","330.2215050500435","279.95048260764116",18/12/22 05:18:34
"8","140","328.47748705646654","279.7580381406472",18/12/22 05:18:34
"8","140","328.47748705646654","279.7580381406472",18/12/22 05:18:34
"8","140","331.2344955472501","282.4691032963395",18/12/22 05:18:34
"8","140","331.2344955472501","282.4691032963395",18/12/22 05:18:34
"8","140","330.7819305823555","282.39622097512853",18/12/22 05:18:34
"8","140","330.7819305823555","282.39622097512853",18/12/22 05:18:34
"8","140","329.32573172100683","282.76127676281374",18/12/22 05:18:34
"8","140","329.32573172100683","282.76127676281374",18/12/22 05:18:34
"8","140","328.2705567815979","283.27268855181666",18/12/22 05:18:34
"8","140","328.2705567815979","283.27268855181666",18/12/22 05:18:34
"8","140","331.1185248750284","281.7336565966967",18/12/22 05:18:34
"8","140","330.8713649938272","281.16179250307204",18/12/22 05:18:34
"8","140","330.8713649938272","281.16179250307204",18/12/22 05:18:34
"8","140","331.0189724075474","280.6060901304053",18/12/22 05:18:34
"8","140","331.0189724075474","280.6060901304053",18/12/22 05:18:34
"8","140","329.6468651402634","280.0322714837934",18/12/22 05:18:34
"8","140","328.188969678238","277.7624010310239",18/12/22 05:18:34
"8","140","328.188969678238","277.7624010310239",18/12/22 05:18:34
"8","140","327.10798371661133","278.9187950416254",18/12/22 05:18:34
"8","140","327.10798371661133","278.9187950416254",18/12/22 05:18:34
"8","140","326.92492697283694","281.00120087596565",18/12/22 05:18:34
"8","140","326.92492697283694","281.00120087596565",18/12/22 05:18:34
"8","140","328.507839370382","283.50728344426307",18/12/22 05:18:34
"8","140","328.507839370382","283.50728344426307",18/12/22 05:18:34
"8","140","328.5089659216244","283.5097787275225",18/12/22 05:18:34
"8","140","328.12980635273414","280.5748821727767",18/12/22 05:18:34
"8","140","328.12980635273414","280.5748821727767",18/12/22 05:18:34
"8","140","327.2819597051735","281.2926159851717",18/12/22 05:18:34
"8","140","327.2819597051735","281.2926159851717",18/12/22 05:18:35
"8","140","328.676559665336","281.87831243524164",18/12/22 05:18:35
"8","140","327.1587254915638","283.2538447448985",18/12/22 05:18:35
"8","140","327.1587254915638","283.2538447448985",18/12/22 05:18:35
"8","140","327.65026803589336","282.5429106051649",18/12/22 05:18:35
"8","140","327.88459477601566","280.92069926784325",18/12/22 05:18:35
"8","140","327.88459477601566","280.92069926784325",18/12/22 05:18:35
"8","140","329.91550818804376","281.36562659637036",18/12/22 05:18:35
"8","140","329.91550818804376","281.36562659637036",18/12/22 05:18:35
"8","140","330.0636173848072","281.2739548569157",18/12/22 05:18:35
"8","140","329.7376419499413","282.9431241199929",18/12/22 05:18:35
"8","140","329.7376419499413","282.9431241199929",18/12/22 05:18:35
"8","140","330.302398514056","284.01174295974516",18/12/22 05:18:35
"8","140","330.302398514056","284.01174295974516",18/12/22 05:18:35
"8","140","328.41274986937583","282.6148560559171",18/12/22 05:18:35
"8","140","328.41274986937583","282.6148560559171",18/12/22 05:18:35
"8","140","329.36236255402434","283.57587364468293",18/12/22 05:18:35
"8","140","329.36236255402434","283.57587364468293",18/12/22 05:18:35
"8","140","329.3917190137072","284.69767826717595",18/12/22 05:18:35
"8","140","328.9081423206473","281.70602532351654",18/12/22 05:18:35
"8","140","328.9081423206473","281.70602532351654",18/12/22 05:18:35
"8","140","329.55955759582594","282.95751815497283",18/12/22 05:18:35
"8","140","329.34387794093726","282.8838235486179",18/12/22 05:18:35
"8","140","329.34387794093726","282.8838235486179",18/12/22 05:18:35
"8","140","328.03136811264113","282.37097586360755",18/12/22 05:18:35
"8","140","328.03136811264113","282.37097586360755",18/12/22 05:18:35
"8","140","328.03136811264113","282.37097586360755",18/12/22 05:18:35
"8","140","328.03136811264113","282.37097586360755",18/12/22 05:18:35
"8","188","328.3771945384003","285.3317299476887",18/12/22 05:18:35
"8","188","328.3771945384003","285.3317299476887",18/12/22 05:18:35
"8","117","332.4780448232279","285.78009843713767",18/12/22 05:18:35
"8","117","332.4780448232279","285.78009843713767",18/12/22 05:18:35
"8","117","336.8261979961889","285.7022592095678",18/12/22 05:18:35
"8","117","336.8261979961889","285.7022592095678",18/12/22 05:18:35
"8","117","340.03210395818394","285.64486812102587",18/12/22 05:18:35
"8","117","342.3321431239218","285.7707134385545",18/12/22 05:18:35
"8","117","342.3321431239218","285.7707134385545",18/12/22 05:18:35
"8","117","346.4987985669924","286.375853355807",18/12/22 05:18:35
"8","117","346.4987985669924","286.375853355807",18/12/22 05:18:35
"8","117","348.4708841311128","286.9742303413988",18/12/22 05:18:35
"8","117","350.61888824037607","286.9742303413988",18/12/22 05:18:35
"8","117","352.1477574170689","287.1962740836076",18/12/22 05:18:35
"8","117","352.1477574170689","287.1962740836076",18/12/22 05:18:35
"8","117","354.3282424912329","287.51295459040216",18/12/22 05:18:35
"8","117","358.47799013458416","288.11563892075463",18/12/22 05:18:35
"8","117","358.47799013458416","288.11563892075463",18/12/22 05:18:35
"8","117","361.6434504551156","288.57537129426254",18/12/22 05:18:35
"8","117","363.0220852489775","288.77559590041915",18/12/22 05:18:35
"8","117","363.0220852489775","288.77559590041915",18/12/22 05:18:35
"8","152","366.2879950849907","289.0971962318949",18/12/22 05:18:35
"8","152","366.2879950849907","289.0971962318949",18/12/22 05:18:36
"8","152","367.887375714169","290.6888518741136",18/12/22 05:18:36
"8","152","368.3494646899018","289.9038549685658",18/12/22 05:18:36
"8","152","368.3494646899018","289.9038549685658",18/12/22 05:18:36
"8","152","368.8798383647546","292.01432906038167",18/12/22 05:18:36
"8","152","368.8798383647546","292.01432906038167",18/12/22 05:18:36
"8","152","368.93740077686914","290.7106563945603",18/12/22 05:18:36
"8","152","369.9821046010756","291.811534763246",18/12/22 05:18:36
"8","152","369.9821046010756","291.811534763246",18/12/22 05:18:36
"8","152","370.757219245893","290.3467294958622",18/12/22 05:18:36
"8","152","370.757219245893","290.3467294958622",18/12/22 05:18:36
"8","152","370.6548653539344","291.8585281567344",18/12/22 05:18:36
"8","152","370.82314144264535","292.91004042388835",18/12/22 05:18:36
"8","152","370.82314144264535","292.91004042388835",18/12/22 05:18:36
"8","152","370.78238471944445","292.75664016133635",18/12/22 05:18:36
"8","152","370.78238471944445","292.75664016133635",18/12/22 05:18:36
"8","152","370.52116770354405","293.39352511226474",18/12/22 05:18:36
"8","152","370.52116770354405","293.39352511226474",18/12/22 05:18:36
"8","152","370.1380927043805","295.13305907241636",18/12/22 05:18:36
"8","152","370.1380927043805","295.13305907241636",18/12/22 05:18:36
"8","152","369.48071936226154","294.6340948201869",18/12/22 05:18:36
"8","152","369.48071936226154","294.6340948201869",18/12/22 05:18:36
"8","152","370.82335692915666","294.06408460992014",18/12/22 05:18:36
"8","152","370.82335692915666","294.06408460992014",18/12/22 05:18:36
"8","152","369.28262862895485","294.01002421303906",18/12/22 05:18:36
"8","152","369.28262862895485","294.01002421303906",18/12/22 05:18:36
"8","152","368.3965578857158","295.7027698193259",18/12/22 05:18:36
"8","152","368.3965578857158","295.7027698193259",18/12/22 05:18:36
"8","152","368.60420749318916","294.5634736832662",18/12/22 05:18:36
"8","152","367.49731565842734","295.2976029884171",18/12/22 05:18:36
"8","152","367.49731565842734","295.2976029884171",18/12/22 05:18:36
"8","152","365.50961864584485","295.05872690039666",18/12/22 05:18:36
"8","152","365.224240976531","294.5226616543126",18/12/22 05:18:36
"8","152","366.98610652065497","294.2341577185176",18/12/22 05:18:36
"8","152","366.98610652065497","294.2341577185176",18/12/22 05:18:36
"8","152","367.7267955614557","292.7766219653193",18/12/22 05:18:36
"8","152","367.7267955614557","292.7766219653193",18/12/22 05:18:36
"8","152","367.3941045050325","294.9073043236159",18/12/22 05:18:36
"8","152","367.3941045050325","294.9073043236159",18/12/22 05:18:36
"8","152","367.51691603570805","296.3032843876506",18/12/22 05:18:36
"8","152","367.51691603570805","296.3032843876506",18/12/22 05:18:36
"8","152","366.48909281465194","295.13413352026373",18/12/22 05:18:36
"8","152","366.48909281465194","295.13413352026373",18/12/22 05:18:36
"8","152","365.28027355611533","295.65214866189194",18/12/22 05:18:36
"8","152","365.28027355611533","295.65214866189194",18/12/22 05:18:36
"8","152","364.38424408703673","296.3996851233809",18/12/22 05:18:36
"8","152","364.2418194000262","296.26958003055006",18/12/22 05:18:36
"8","152","364.2418194000262","296.26958003055006",18/12/22 05:18:36
"8","152","365.6577366164081","295.51838782347744",18/12/22 05:18:36
"8","152","365.6577366164081","295.51838782347744",18/12/22 05:18:36
"8","152","367.71744938198725","296.51594716823234",18/12/22 05:18:37
"8","152","369.0318460158919","296.22913384893553",18/12/22 05:18:37
"8","152","369.0318460158919","296.22913384893553",18/12/22 05:18:37
"8","152","367.5417548759983","294.57589105168944",18/12/22 05:18:37
"8","152","366.61517103378776","294.9631401346224",18/12/22 05:18:37
"8","152","366.61517103378776","294.9631401346224",18/12/22 05:18:37
"8","152","368.6438743359041","296.18570684270145",18/12/22 05:18:37
"8","152","368.6438743359041","295.6815427694796",18/12/22 05:18:37
"8","152","366.4033119223664","296.4382762073144",18/12/22 05:18:37
"8","152","366.19248343183386","294.48743237501253",18/12/22 05:18:37
"8","152","366.19248343183386","294.48743237501253",18/12/22 05:18:37
"8","152","365.8811644879106","292.85592377930476",18/12/22 05:18:37
"8","152","365.8811644879106","292.85592377930476",18/12/22 05:18:37
"8","152","363.92092630327255","292.74387753944256",18/12/22 05:18:37
"8","152","367.50568881243953","293.93120403661413",18/12/22 05:18:37
"8","152","367.50568881243953","293.93120403661413",18/12/22 05:18:37
"8","152","365.84107035131404","292.67737434770186",18/12/22 05:18:37
"8","152","364.7952993515915","293.67222896365257",18/12/22 05:18:37
"8","152","364.7952993515915","293.67222896365257",18/12/22 05:18:37
"8","152","363.6191461928859","293.6288657620939",18/12/22 05:18:37
"8","152","363.6191461928859","293.6288657620939",18/12/22 05:18:37
"8","152","363.2727325140635","292.66461579101383",18/12/22 05:18:37
"8","152","364.6207146826767","293.4600857391919",18/12/22 05:18:37
"8","152","364.6207146826767","293.4600857391919",18/12/22 05:18:37
"8","152","366.255858703239","293.6912375660044",18/12/22 05:18:37
"8","152","366.255858703239","293.6912375660044",18/12/22 05:18:37
"8","152","368.7055621573417","291.05559958992063",18/12/22 05:18:37
"8","152","368.7055621573417","291.05559958992063",18/12/22 05:18:37
"8","152","369.00093238855686","292.8290369962179",18/12/22 05:18:37
"8","152","369.00093238855686","292.8290369962179",18/12/22 05:18:37
"8","152","370.8929454616096","289.5291344920043",18/12/22 05:18:37
"8","152","370.8929454616096","289.5291344920043",18/12/22 05:18:37
"8","152","371.08806614850306","289.82035475271846",18/12/22 05:18:37
"8","152","369.8813894537411","291.98563898591425",18/12/22 05:18:37
"8","152","369.8813894537411","291.98563898591425",18/12/22 05:18:37
"8","152","369.9424555384428","292.04488282808165",18/12/22 05:18:37
"8","152","370.28255758311496","294.06273669488417",18/12/22 05:18:37
"8","152","370.28255758311496","294.06273669488417",18/12/22 05:18:37
"8","152","368.70330159494836","295.00322637907254",18/12/22 05:18:37
"8","152","370.7916776020766","295.4371533656907",18/12/22 05:18:37
"8","152","370.5249164367306","296.332484711871",18/12/22 05:18:37
"8","152","370.755810665306","295.67425856631354",18/12/22 05:18:37
"8","152","370.755810665306","295.67425856631354",18/12/22 05:18:37
"8","152","370.43214451095923","295.7359805932558",18/12/22 05:18:37
"8","152","370.8670284070435","296.4605865520724",18/12/22 05:18:37
"8","152","370.8670284070435","295.5745789251488",18/12/22 05:18:37
"8","152","370.82688697830525","295.5745789251488",18/12/22 05:18:37
"8","152","370.20398040766423","295.16846837322333",18/12/22 05:18:37
"8","152","370.20398040766423","295.16846837322333",18/12/22 05:18:38
"8","152","370.65394344584803","296.1275828128863",18/12/22 05:18:38
"8","152","371.08689608258146","296.28883994203613",18/12/22 05:18:38
"8","152","371.08689608258146","296.28883994203613",18/12/22 05:18:38
"8","152","369.73021750469167","296.4564582704098",18/12/22 05:18:38
"8","152","370.84659754952224","294.71661222942845",18/12/22 05:18:38
"8","152","370.84659754952224","294.71661222942845",18/12/22 05:18:38
"8","152","370.476056065474","296.11779078783206",18/12/22 05:18:38
"8","152","370.476056065474","296.11779078783206",18/12/22 05:18:38
"8","152","370.23277344501537","295.38081148375954",18/12/22 05:18:38
"8","152","370.23277344501537","295.38081148375954",18/12/22 05:18:38
"8","152","370.19513020896227","295.4519397514073",18/12/22 05:18:38
"8","152","369.6971063805805","294.7043048995295",18/12/22 05:18:38
"8","152","369.6971063805805","294.7043048995295",18/12/22 05:18:38
"8","152","371.0307812888849","295.7364911031475",18/12/22 05:18:38
"8","152","371.0307812888849","295.7364911031475",18/12/22 05:18:38
"8","152","370.85724634542225","294.74921464987915",18/12/22 05:18:38
"8","152","370.85724634542225","294.74921464987915",18/12/22 05:18:38
"8","152","369.784258620886","295.208532871586",18/12/22 05:18:38
"8","152","367.49955333205094","294.25219187075663",18/12/22 05:18:38
"8","152","367.49955333205094","294.25219187075663",18/12/22 05:18:38
"8","152","368.01736520467995","293.1750205020973",18/12/22 05:18:38
"8","152","367.9360922372966","290.82866585472675",18/12/22 05:18:38
"8","152","367.9360922372966","290.82866585472675",18/12/22 05:18:38
"8","152","366.24571890142096","292.00420198871166",18/12/22 05:18:38
"8","152","366.24571890142096","292.00420198871166",18/12/22 05:18:38
"8","152","365.84612556819906","291.6972073769452",18/12/22 05:18:38
"8","152","366.3518380411874","293.77356130570786",18/12/22 05:18:38
"8","152","366.3518380411874","293.77356130570786",18/12/22 05:18:38
"8","152","366.5252805164021","293.56406834354686",18/12/22 05:18:38
"8","152","367.2869902503338","292.30848762770995",18/12/22 05:18:38
"8","152","367.34561264923343","292.3485243551004",18/12/22 05:18:38
"8","152","367.9441671491209","293.4450467725298",18/12/22 05:18:38
"8","152","368.3372648894402","292.1510066252666",18/12/22 05:18:38
"8","152","370.9007635236584","291.82093543469597",18/12/22 05:18:38
"8","152","370.58688703876567","292.5503945663964",18/12/22 05:18:38
"8","152","370.58688703876567","292.5503945663964",18/12/22 05:18:38
"8","152","368.44759686128305","292.4351211061482",18/12/22 05:18:38
"8","152","368.44759686128305","292.4351211061482",18/12/22 05:18:38
"8","152","369.83326529196256","294.12233550476293",18/12/22 05:18:38
"8","152","368.0225143550653","295.0974110091549",18/12/22 05:18:38
"8","152","368.0225143550653","295.0974110091549",18/12/22 05:18:38
"8","152","370.57400819838733","296.2355570693389",18/12/22 05:18:38
"8","152","369.4447039691837","296.1551077614891",18/12/22 05:18:38
"8","152","369.4447039691837","296.1551077614891",18/12/22 05:18:38
"8","152","369.5346950937629","295.9217788593976",18/12/22 05:18:38
"8","152","369.5346950937629","295.9217788593976",18/12/22 05:18:38
"8","152","369.9871843095368","296.2990481466105",18/12/22 05:18:38
"8","152","370.42330253176897","295.98575156950045",18/12/22 05:18:38
"8","152","370.42330253176897","295.98575156950045",18/12/22 05:18:38
"8","152","369.8454310738823","296.42619158666554",18/12/22 05:18:39
"8","152","369.8454310738823","296.42619158666554",18/12/22 05:18:39
"8","152","369.8386952120305","296.4312335244562",18/12/22 05:18:39
"8","152","370.88672335317983","296.36153208011035",18/12/22 05:18:39
"8","152","370.88672335317983","296.36153208011035",18/12/22 05:18:39
"8","152","369.8303246828195","295.7660404383686",18/12/22 05:18:39
"8","152","370.6722688528494","294.87446704083953",18/12/22 05:18:39
"8","152","370.6722688528494","294.87446704083953",18/12/22 05:18:39
"8","152","368.02970028395623","292.7159383166584",18/12/22 05:18:39
"8","152","368.02970028395623","292.7159383166584",18/12/22 05:18:39
"8","152","367.37548780891746","292.45078678024606",18/12/22 05:18:39
"8","152","367.37548780891746","292.45078678024606",18/12/22 05:18:39
"8","152","369.13535728538386","292.76108883581446",18/12/22 05:18:39
"8","152","369.13535728538386","292.76108883581446",18/12/22 05:18:39
"8","152","367.24769698130734","293.205157073098",18/12/22 05:18:39
"8","152","368.97409643094426","292.5173470411134",18/12/22 05:18:39
"8","152","368.97409643094426","292.5173470411134",18/12/22 05:18:39
"8","152","367.227432216995","292.8203606126631",18/12/22 05:18:39
"8","152","367.227432216995","292.8203606126631",18/12/22 05:18:39
"8","152","366.8010545203848","295.0216156383374",18/12/22 05:18:39
"8","152","369.26057420311014","294.38380435424375",18/12/22 05:18:39
"8","152","369.26057420311014","294.38380435424375",18/12/22 05:18:39
"8","152","368.93431094944293","292.8767159101055",18/12/22 05:18:39
"8","152","368.9263176864786","292.94534021719033",18/12/22 05:18:39
"8","152","368.1305571811827","294.61226703961165",18/12/22 05:18:39
"8","152","368.1305571811827","294.61226703961165",18/12/22 05:18:39
"8","152","369.65395829756125","295.0231118779613",18/12/22 05:18:39
"8","152","369.65395829756125","295.0231118779613",18/12/22 05:18:39
"8","152","367.6033497316526","295.45879546276126",18/12/22 05:18:39
"8","152","367.6033497316526","295.45879546276126",18/12/22 05:18:39
"8","152","366.09674035070447","294.64897249358296",18/12/22 05:18:39
"8","152","366.09674035070447","294.64897249358296",18/12/22 05:18:39
"8","152","367.0723145451088","292.7796500346274",18/12/22 05:18:39
"8","152","368.0274982554419","293.3096307432297",18/12/22 05:18:39
"8","152","368.0274982554419","293.3096307432297",18/12/22 05:18:39
"8","152","370.1583067344763","295.44105528672105",18/12/22 05:18:39
"8","152","370.1583067344763","295.44105528672105",18/12/22 05:18:39
"8","152","370.15438775983927","294.22268870870334",18/12/22 05:18:39
"8","152","369.03098414092096","293.2307001349038",18/12/22 05:18:39
"8","152","369.03098414092096","293.2307001349038",18/12/22 05:18:39
"8","152","370.16186071485373","291.34004888195847",18/12/22 05:18:39
"8","152","370.7663851282844","291.11040265482984",18/12/22 05:18:39
"8","152","369.65502972460075","291.46622219409016",18/12/22 05:18:39
"8","152","369.65502972460075","291.46622219409016",18/12/22 05:18:39
"8","152","368.386852066331","293.72763642367653",18/12/22 05:18:39
"8","152","368.386852066331","293.72763642367653",18/12/22 05:18:39
"8","152","368.0045381092334","291.65110612894335",18/12/22 05:18:39
"8","152","368.0045381092334","291.65110612894335",18/12/22 05:18:39
"8","152","368.52617408588196","289.96244265549296",18/12/22 05:18:40
"8","152","368.52617408588196","289.96244265549296",18/12/22 05:18:40
"8","152","368.48451634041095","292.0611121688208",18/12/22 05:18:40
"8","152","368.48451634041095","292.0611121688208",18/12/22 05:18:40
"8","152","368.5893114078088","293.8100796043172",18/12/22 05:18:40
"8","152","368.17110786463786","293.7155855945597",18/12/22 05:18:40
"8","152","368.17110786463786","293.7155855945597",18/12/22 05:18:40
"8","152","365.5593554343136","293.1671132538201",18/12/22 05:18:40
"8","152","365.5593554343136","293.1671132538201",18/12/22 05:18:40
"8","152","366.41679507452363","293.6250296623688",18/12/22 05:18:40
"8","152","366.50103624001855","293.6250296623688",18/12/22 05:18:40
"8","152","367.0429090822993","295.88130961291375",18/12/22 05:18:40
"8","152","367.0429090822993","295.88130961291375",18/12/22 05:18:40
"8","152","368.75823171260885","293.15177280846893",18/12/22 05:18:40
"8","152","368.75823171260885","293.15177280846893",18/12/22 05:18:40
"8","152","367.02096651872415","293.6972193676309",18/12/22 05:18:40
"8","152","367.02096651872415","293.6972193676309",18/12/22 05:18:40
"8","152","367.02096651872415","292.4883170621891",18/12/22 05:18:40
"8","152","369.7370262636151","290.98444552939867",18/12/22 05:18:40
"8","152","369.7370262636151","290.98444552939867",18/12/22 05:18:40
"8","152","369.77373727248664","290.88159419659735",18/12/22 05:18:40
"8","152","369.77373727248664","290.88159419659735",18/12/22 05:18:40
"8","152","370.4515634374662","293.2530195737602",18/12/22 05:18:40
"8","152","370.3181924499751","294.0202198670463",18/12/22 05:18:40
"8","152","370.3181924499751","294.0202198670463",18/12/22 05:18:40
"8","152","368.8761909059724","295.2181222140791",18/12/22 05:18:40
"8","152","368.8761909059724","295.2181222140791",18/12/22 05:18:40
"8","152","368.9209123086725","295.9917067271118",18/12/22 05:18:40
"8","152","368.9209123086725","295.9917067271118",18/12/22 05:18:40
"8","152","369.6048168474236","295.60684864529435",18/12/22 05:18:40
"8","152","369.6048168474236","295.60684864529435",18/12/22 05:18:40
"8","152","369.9969106710364","294.9184027176357",18/12/22 05:18:40
"8","152","369.93034962539775","295.10814680875075",18/12/22 05:18:40
"8","152","369.93034962539775","295.10814680875075",18/12/22 05:18:40
"8","152","370.14269129745077","293.1000144203731",18/12/22 05:18:40
"8","152","370.14269129745077","293.1000144203731",18/12/22 05:18:40
"8","152","369.7542479089436","291.9272599727555",18/12/22 05:18:40
"8","152","370.8285235012791","292.5897463412885",18/12/22 05:18:40
"8","152","370.8285235012791","292.5897463412885",18/12/22 05:18:40
"8","152","370.1512364552898","291.48769967188207",18/12/22 05:18:40
"8","152","370.1512364552898","291.48769967188207",18/12/22 05:18:40
"8","152","370.079890658026","291.5155404931594",18/12/22 05:18:40
"8","152","370.02577775275483","294.03334224873436",18/12/22 05:18:40
"8","152","370.02577775275483","294.03334224873436",18/12/22 05:18:40
"8","152","370.7907523405186","295.7233090738568",18/12/22 05:18:40
"8","152","370.7907523405186","295.7233090738568",18/12/22 05:18:40
"8","152","368.59384698567777","296.3412423044061",18/12/22 05:18:40
"8","152","368.59384698567777","296.3412423044061",18/12/22 05:18:40
"8","152","367.8950773115328","295.25580062885155",18/12/22 05:18:41
"8","152","367.8950773115328","295.25580062885155",18/12/22 05:18:41
"8","152","366.26538124690825","295.38129329935606",18/12/22 05:18:41
"8","152","366.1344583374547","294.79754903240143",18/12/22 05:18:41
"8","152","366.1344583374547","294.79754903240143",18/12/22 05:18:41
"8","152","368.1832353799436","291.90518274027266",18/12/22 05:18:41
"8","152","368.03182837221823","292.2122615570517",18/12/22 05:18:41
"8","152","368.03182837221823","292.2122615570517",18/12/22 05:18:41
"8","152","365.82236181008426","293.52063520713534",18/12/22 05:18:41
"8","152","365.82236181008426","293.52063520713534",18/12/22 05:18:41
"8","152","363.7925903226027","292.98579820756737",18/12/22 05:18:41
"8","152","363.0605141719165","293.25603315216847",18/12/22 05:18:41
"8","152","363.0605141719165","293.25603315216847",18/12/22 05:18:41
"8","152","364.5752162758612","293.1966950604338",18/12/22 05:18:41
"8","152","364.5752162758612","293.1966950604338",18/12/22 05:18:41
"8","152","364.7760821477864","292.14232160415844",18/12/22 05:18:41
"8","152","364.7760821477864","292.14232160415844",18/12/22 05:18:41
"8","152","365.8586559399767","289.7559135620002",18/12/22 05:18:41
"8","152","365.8586559399767","289.7559135620002",18/12/22 05:18:41
"8","152","363.69990771366406","290.1187020596901",18/12/22 05:18:41
"8","152","363.69990771366406","290.1187020596901",18/12/22 05:18:41
"8","152","364.1257022037769","290.0307701946985",18/12/22 05:18:41
"8","152","364.1257022037769","290.0307701946985",18/12/22 05:18:41
"8","152","362.02693153190756","289.9685217940494",18/12/22 05:18:41
"8","152","362.56018365331994","289.8391486205751",18/12/22 05:18:41
"8","152","362.56018365331994","289.8391486205751",18/12/22 05:18:41
"8","152","362.38475940365856","289.62237532300355",18/12/22 05:18:41
"8","152","362.38475940365856","289.62237532300355",18/12/22 05:18:41
"8","152","363.6049491362819","290.72601108452113",18/12/22 05:18:41
"8","152","365.1858343839355","292.0196996102533",18/12/22 05:18:41
"8","152","365.1858343839355","292.0196996102533",18/12/22 05:18:41
"8","152","365.9865799794027","289.8894296006947",18/12/22 05:18:41
"8","152","366.6027406189346","289.73980688212504",18/12/22 05:18:41
"8","152","366.6027406189346","289.73980688212504",18/12/22 05:18:41
"8","152","364.9656489141493","291.2420613313862",18/12/22 05:18:41
"8","152","364.9656489141493","291.2420613313862",18/12/22 05:18:41
"8","152","366.3685246887858","291.68563693786035",18/12/22 05:18:41
"8","152","365.4663515494124","289.9208249771658",18/12/22 05:18:41
"8","152","365.4663515494124","289.9208249771658",18/12/22 05:18:41
"8","152","365.3379579061942","289.9199438224751",18/12/22 05:18:41
"8","152","365.3379579061942","289.9199438224751",18/12/22 05:18:41
"8","152","363.38618067471936","289.2686562999347",18/12/22 05:18:41
"8","152","363.38618067471936","289.2686562999347",18/12/22 05:18:41
"8","152","362.2115410767579","291.85842066680135",18/12/22 05:18:41
"8","152","362.2115410767579","291.85842066680135",18/12/22 05:18:41
"8","152","364.1538998579326","291.26890013088644",18/12/22 05:18:41
"8","152","364.1538998579326","291.26890013088644",18/12/22 05:18:41
"8","152","367.2952948864895","289.68465777118973",18/12/22 05:18:41
"8","152","367.2952948864895","289.68465777118973",18/12/22 05:18:41
"8","152","366.7766612194133","289.71595752762676",18/12/22 05:18:41
"8","152","365.30173733528227","291.4914673308128",18/12/22 05:18:42
"8","152","365.30173733528227","291.4914673308128",18/12/22 05:18:42
"8","152","365.2635446171678","290.041137035862",18/12/22 05:18:42
"8","152","365.2635446171678","290.041137035862",18/12/22 05:18:42
"8","152","363.9467377169296","291.27655732313815",18/12/22 05:18:42
"8","152","363.9467377169296","291.27655732313815",18/12/22 05:18:42
"8","152","363.68510451118425","291.8650303946419",18/12/22 05:18:42
"8","152","365.85428976141026","290.8735301547987",18/12/22 05:18:42
"8","152","365.85428976141026","290.8735301547987",18/12/22 05:18:42
"8","152","365.5163502788648","290.8317208534141",18/12/22 05:18:42
"8","152","365.5163502788648","290.8317208534141",18/12/22 05:18:42
"8","152","364.68141729377766","289.7016993041779",18/12/22 05:18:42
"8","152","364.68141729377766","289.7016993041779",18/12/22 05:18:42
"8","152","364.2322425401777","289.6480024069951",18/12/22 05:18:42
"8","152","364.2322425401777","289.6480024069951",18/12/22 05:18:42
"8","152","366.51916258341487","290.551895315222",18/12/22 05:18:42
"8","152","366.51916258341487","289.46300962545547",18/12/22 05:18:42
"8","152","364.3801857234293","289.46300962545547",18/12/22 05:18:42
"8","152","364.1689807444274","289.50471764692264",18/12/22 05:18:42
"8","152","364.1689807444274","289.50471764692264",18/12/22 05:18:42
"8","152","363.82992153848176","291.7853049636658",18/12/22 05:18:42
"8","152","362.2179668605852","292.0321923163974",18/12/22 05:18:42
"8","152","362.2179668605852","292.0321923163974",18/12/22 05:18:42
"8","152","362.95868880305795","294.0315296006437",18/12/22 05:18:42
"8","152","364.45776690662683","294.1525054303133",18/12/22 05:18:42
"8","152","364.5116913510799","294.2438455505394",18/12/22 05:18:42
"8","152","364.5116913510799","294.2438455505394",18/12/22 05:18:42
"8","152","362.4505895739748","295.1955694265097",18/12/22 05:18:42
"8","152","362.60177544455837","294.7754762147477",18/12/22 05:18:42
"8","152","362.60177544455837","294.7754762147477",18/12/22 05:18:42
"8","152","362.82302530827496","296.4687302370336",18/12/22 05:18:42
"8","152","362.82302530827496","296.4687302370336",18/12/22 05:18:42
"8","152","364.02307969097654","295.4257583839861",18/12/22 05:18:42
"8","152","361.98379386257545","294.106188486468",18/12/22 05:18:42
"8","152","361.98379386257545","294.106188486468",18/12/22 05:18:42
"8","152","362.39521707730324","293.1032480616392",18/12/22 05:18:42
"8","152","362.39521707730324","293.1032480616392",18/12/22 05:18:42
"8","152","362.86762470107914","293.83905981710745",18/12/22 05:18:42
"8","152","364.22928814574374","294.23527499208944",18/12/22 05:18:42
"8","152","364.22928814574374","294.23527499208944",18/12/22 05:18:42
"8","152","365.2719293082183","293.72272400863704",18/12/22 05:18:42
"8","152","366.29089416812974","292.61726467216147",18/12/22 05:18:42
"8","152","366.29089416812974","292.61726467216147",18/12/22 05:18:42
"8","152","364.5207406831917","294.84147657976564",18/12/22 05:18:42
"8","152","364.5207406831917","294.84147657976564",18/12/22 05:18:42
"8","152","363.9897641630002","296.05390173048363",18/12/22 05:18:42
"8","152","363.9897641630002","296.05390173048363",18/12/22 05:18:42
"8","152","365.40672216759816","294.927221262256",18/12/22 05:18:42
"8","152","365.40672216759816","294.927221262256",18/12/22 05:18:42
"8","152","365.5775627519384","293.931183666082",18/12/22 05:18:42
"8","152","365.5775627519384","293.931183666082",18/12/22 05:18:43
"8","152","364.49041979300006","294.87340546129053",18/12/22 05:18:43
"8","152","364.49041979300006","294.87340546129053",18/12/22 05:18:43
"8","152","366.4542039447181","294.65746472817847",18/12/22 05:18:43
"8","152","365.87345597839777","295.4092280014755",18/12/22 05:18:43
"8","152","365.87345597839777","295.4092280014755",18/12/22 05:18:43
"8","152","365.4805138038403","296.3224075824281",18/12/22 05:18:43
"8","152","365.4805138038403","296.3224075824281",18/12/22 05:18:43
"8","152","364.757255249801","295.2033188214394",18/12/22 05:18:43
"8","152","363.473813473656","296.38584104268995",18/12/22 05:18:43
"8","152","363.473813473656","296.38584104268995",18/12/22 05:18:43
"8","152","363.74165304558613","294.7332171751439",18/12/22 05:18:43
"8","152","363.99684665417124","294.84321555333133",18/12/22 05:18:43
"8","152","363.99684665417124","294.84321555333133",18/12/22 05:18:43
"8","152","362.2875316883932","294.6132653072568",18/12/22 05:18:43
"8","152","362.2875316883932","294.6132653072568",18/12/22 05:18:43
"8","152","362.33450247991374","295.7006201658586",18/12/22 05:18:43
"8","152","362.488958524621","295.5276391042575",18/12/22 05:18:43
"8","152","362.1766040626678","295.1961355427628",18/12/22 05:18:43
"8","152","362.1766040626678","295.1961355427628",18/12/22 05:18:43
"8","152","363.4881686600506","295.7167368315278",18/12/22 05:18:43
"8","152","363.30200433394765","294.63965360772795",18/12/22 05:18:43
"8","152","363.30200433394765","294.63965360772795",18/12/22 05:18:43
"8","152","363.4065103989561","293.0222730488114",18/12/22 05:18:43
"8","152","363.4065103989561","293.0222730488114",18/12/22 05:18:43
"8","152","362.54304135790596","293.31814091753085",18/12/22 05:18:43
"8","152","363.93182847594153","293.54013160946516",18/12/22 05:18:43
"8","152","363.93182847594153","293.54013160946516",18/12/22 05:18:43
"8","152","364.1429026765846","294.8666800449682",18/12/22 05:18:43
"8","152","364.1429026765846","294.8666800449682",18/12/22 05:18:43
"8","152","364.0908418953841","295.87218561568113",18/12/22 05:18:43
"8","152","363.7889240167467","295.3696354569599",18/12/22 05:18:43
"8","152","363.7889240167467","295.3696354569599",18/12/22 05:18:43
"8","152","362.5350758671133","294.64765975499074",18/12/22 05:18:43
"8","152","362.5350758671133","294.64765975499074",18/12/22 05:18:43
"8","152","362.25881710833374","296.0154099727285",18/12/22 05:18:43
"8","152","363.3732588257202","294.8009805268009",18/12/22 05:18:43
"8","152","363.3732588257202","294.8009805268009",18/12/22 05:18:43
"8","152","364.3653809416563","293.0725016185893",18/12/22 05:18:43
"8","152","364.3653809416563","293.0725016185893",18/12/22 05:18:43
"8","152","365.8824230468378","294.4546023470912",18/12/22 05:18:43
"8","152","366.40252492380085","294.83877309166513",18/12/22 05:18:43
"8","152","364.1111506811363","295.59261108768766",18/12/22 05:18:43
"8","152","362.30158550331316","295.0247109786949",18/12/22 05:18:43
"8","152","363.11653666156946","295.56249910510485",18/12/22 05:18:43
"8","152","363.11653666156946","295.56249910510485",18/12/22 05:18:43
"8","152","362.0745992414651","294.8612728372079",18/12/22 05:18:43
"8","152","362.0745992414651","294.8612728372079",18/12/22 05:18:43
"8","152","362.09680510205845","292.4758415304279",18/12/22 05:18:43
"8","152","362.09680510205845","292.4758415304279",18/12/22 05:18:44
"8","152","362.12523460710776","289.4218445418447",18/12/22 05:18:44
"8","117","361.0667434142774","288.80210948153854",18/12/22 05:18:44
"8","117","361.0667434142774","288.80210948153854",18/12/22 05:18:44
"8","117","358.73101785482","288.73356396320014",18/12/22 05:18:44
"8","117","354.35959453710325","288.60527771142876",18/12/22 05:18:44
"8","117","354.35959453710325","288.60527771142876",18/12/22 05:18:44
"8","117","350.3089047819622","288.4864038875029",18/12/22 05:18:44
"8","117","348.93815806529426","288.4461771820048",18/12/22 05:18:44
"8","117","348.93815806529426","288.4461771820048",18/12/22 05:18:44
"8","117","344.8272923717009","288.3255374010828",18/12/22 05:18:44
"8","117","344.8272923717009","288.3255374010828",18/12/22 05:18:44
"8","117","341.40527759544767","288.22511302731584",18/12/22 05:18:44
"8","188","339.98458935240666","288.1032606850523",18/12/22 05:18:44
"8","188","339.98458935240666","288.1032606850523",18/12/22 05:18:44
"8","188","336.37466875146805","287.778721248804",18/12/22 05:18:44
"8","188","336.37466875146805","287.778721248804",18/12/22 05:18:44
"8","188","335.09508570201183","287.66368404787625",18/12/22 05:18:44
"8","188","332.2680108521712","287.4095240871945",18/12/22 05:18:44
"8","188","332.2680108521712","286.7695417995161",18/12/22 05:18:44
"8","156","330.1215349614751","286.20802759098814",18/12/22 05:18:44
"8","156","328.39242645302653","286.20802759098814",18/12/22 05:18:44
"8","156","325.7209096724403","285.34047380631216",18/12/22 05:18:44
"8","156","325.7209096724403","285.34047380631216",18/12/22 05:18:44
"8","188","324.24163876452883","282.2195382191365",18/12/22 05:18:44
"8","188","324.24163876452883","282.2195382191365",18/12/22 05:18:44
"8","156","323.523656635421","280.25975761354437",18/12/22 05:18:44
"8","156","322.5416801874123","278.38913282956685",18/12/22 05:18:44
"8","156","322.5416801874123","278.38913282956685",18/12/22 05:18:44
"8","156","323.894865065903","278.2003870036931",18/12/22 05:18:44
"8","156","324.1681249658304","278.37159274999465",18/12/22 05:18:44
"8","156","324.1681249658304","278.37159274999465",18/12/22 05:18:44
"8","156","325.454893249546","278.26948960261205",18/12/22 05:18:44
"8","156","325.454893249546","278.26948960261205",18/12/22 05:18:44
"8","156","325.43452269936864","278.39931179018794",18/12/22 05:18:44
"8","156","325.03283906794115","278.3635822701648",18/12/22 05:18:44
"8","156","325.03283906794115","278.3635822701648",18/12/22 05:18:44
"8","156","326.16244714173695","279.80707566648096",18/12/22 05:18:44
"8","156","326.16244714173695","279.80707566648096",18/12/22 05:18:44
"8","156","325.7422766803755","279.24746800375374",18/12/22 05:18:44
"8","156","325.7422766803755","279.24746800375374",18/12/22 05:18:44
"8","156","323.27777732375347","280.62467714891557",18/12/22 05:18:44
"8","156","323.27777732375347","280.62467714891557",18/12/22 05:18:44
"8","156","323.1883514571727","280.34427101703346",18/12/22 05:18:44
"8","156","323.1883514571727","280.34427101703346",18/12/22 05:18:44
"8","156","322.9018511263931","279.43684155836866",18/12/22 05:18:44
"8","156","322.9018511263931","279.43684155836866",18/12/22 05:18:44
"8","156","322.73459006383644","279.8451930507885",18/12/22 05:18:44
"8","156","322.92816202021834","280.88853757820436",18/12/22 05:18:44
"8","156","322.92816202021834","280.88853757820436",18/12/22 05:18:45
"8","156","322.69721464685","283.0295302494787",18/12/22 05:18:45
"8","156","322.69721464685","283.08906095867286",18/12/22 05:18:45
"8","156","324.2394983422836","283.08906095867286",18/12/22 05:18:45
"8","156","323.5657724711568","283.51519787989315",18/12/22 05:18:45
"8","156","323.49944214567967","283.01440702348094",18/12/22 05:18:45
"8","156","323.49944214567967","283.01440702348094",18/12/22 05:18:45
"8","156","322.66477616060416","280.9194245346137",18/12/22 05:18:45
"8","156","322.66477616060416","280.9194245346137",18/12/22 05:18:45
"8","156","323.600595718487","282.41362146867436",18/12/22 05:18:45
"8","156","325.6766771047686","280.9890057172677",18/12/22 05:18:45
"8","156","325.6766771047686","280.9890057172677",18/12/22 05:18:45
"8","156","325.24424496730524","282.8656871585997",18/12/22 05:18:45
"8","156","325.638451829589","283.70543175801475",18/12/22 05:18:45
"8","156","325.638451829589","283.70543175801475",18/12/22 05:18:45
"8","156","326.3323710150071","283.79837326302993",18/12/22 05:18:45
"8","156","326.3323710150071","283.79837326302993",18/12/22 05:18:45
"8","156","325.37756998194965","284.6624012040992",18/12/22 05:18:45
"8","156","325.37756998194965","284.6624012040992",18/12/22 05:18:45
"8","156","326.27487417644016","283.3971848787885",18/12/22 05:18:45
"8","156","326.27487417644016","283.3971848787885",18/12/22 05:18:45
"8","156","324.50512608358963","283.19081287852845",18/12/22 05:18:45
"8","156","325.6942830366535","283.3106318604154",18/12/22 05:18:45
"8","156","325.6942830366535","283.3106318604154",18/12/22 05:18:45
"8","156","325.4164986975895","283.55159400118436",18/12/22 05:18:45
"8","156","325.4164986975895","283.55159400118436",18/12/22 05:18:45
"8","156","323.56171409281535","284.82839320483566",18/12/22 05:18:45
"8","156","322.08990240661797","283.5584093626702",18/12/22 05:18:45
"8","156","322.08990240661797","283.5584093626702",18/12/22 05:18:45
"8","156","323.94056151315675","283.81584852931036",18/12/22 05:18:45
"8","156","323.94056151315675","283.81584852931036",18/12/22 05:18:45
"8","156","324.4428579218895","282.95855046881036",18/12/22 05:18:45
"8","156","324.4428579218895","282.95855046881036",18/12/22 05:18:45
"8","156","324.4241824622145","283.678687375275",18/12/22 05:18:45
"8","156","324.4241824622145","283.678687375275",18/12/22 05:18:45
"8","156","323.3356779579868","282.2208397775746",18/12/22 05:18:45
"8","156","323.3356779579868","282.2208397775746",18/12/22 05:18:45
"8","156","323.8249070034799","283.10301334654713",18/12/22 05:18:45
"8","156","324.8781017346613","283.29151053177503",18/12/22 05:18:45
"8","156","323.7905260368631","281.2709790235737",18/12/22 05:18:45
"8","156","323.7905260368631","281.2709790235737",18/12/22 05:18:45
"8","156","322.8139778004191","280.21943970464457",18/12/22 05:18:45
"8","156","322.8139778004191","280.21943970464457",18/12/22 05:18:45
"8","156","323.24262634635886","279.51925491363744",18/12/22 05:18:45
"8","156","322.9719238160932","280.7926473486867",18/12/22 05:18:45
"8","156","322.9719238160932","280.7926473486867",18/12/22 05:18:45
"8","156","323.9537542333411","279.9099767735409",18/12/22 05:18:45
"8","156","324.30066512108755","279.80225745025143",18/12/22 05:18:45
"8","156","324.30066512108755","279.11276208680783",18/12/22 05:18:45
"8","156","322.80079246243184","279.11276208680783",18/12/22 05:18:45
"8","156","322.6278072658963","279.0887179207596",18/12/22 05:18:46
"8","156","322.6278072658963","279.0887179207596",18/12/22 05:18:46
"8","156","322.9935783247356","279.76790000666347",18/12/22 05:18:46
"8","156","322.9935783247356","279.76790000666347",18/12/22 05:18:46
"8","156","323.0788162936659","281.4614784875401",18/12/22 05:18:46
"8","156","323.0788162936659","281.4614784875401",18/12/22 05:18:46
"8","156","322.1001794013021","282.8218199207015",18/12/22 05:18:46
"8","156","322.05924535323106","281.33844029334466",18/12/22 05:18:46
"8","156","322.05924535323106","281.33844029334466",18/12/22 05:18:46
"8","156","322.0609885158894","279.87234004250286",18/12/22 05:18:46
"8","156","321.9344489770817","279.1752975647873",18/12/22 05:18:46
"8","156","321.9344489770817","279.1752975647873",18/12/22 05:18:46
"8","156","323.7453226724117","278.8383660160688",18/12/22 05:18:46
"8","156","323.7453226724117","278.8383660160688",18/12/22 05:18:46
"8","156","324.1470886308071","278.7613738373209",18/12/22 05:18:46
"8","156","325.8473926095824","278.5324471257492",18/12/22 05:18:46
"8","156","325.8473926095824","278.5324471257492",18/12/22 05:18:46
"8","156","325.47666522762887","280.9142774245542",18/12/22 05:18:46
"8","156","325.47666522762887","280.9142774245542",18/12/22 05:18:46
"8","156","325.6683036459031","280.71000973229343",18/12/22 05:18:46
"8","156","325.6683036459031","280.71000973229343",18/12/22 05:18:46
"8","156","324.4048570951694","281.61534137302743",18/12/22 05:18:46
"8","156","325.1331999147617","280.60862939117305",18/12/22 05:18:46
"8","156","325.1331999147617","280.60862939117305",18/12/22 05:18:46
"8","156","323.9911378356657","282.8815246093532",18/12/22 05:18:46
"8","156","323.7617012689251","282.7220104052279",18/12/22 05:18:46
"8","156","324.5186132689686","282.5633438961197",18/12/22 05:18:46
"8","156","324.5186132689686","282.5633438961197",18/12/22 05:18:46
"8","156","324.30542253312944","281.1908276118111",18/12/22 05:18:46
"8","156","324.30542253312944","281.1908276118111",18/12/22 05:18:46
"8","156","324.84371566283414","283.36566682865623",18/12/22 05:18:46
"8","156","323.02994332930484","282.3332249421369",18/12/22 05:18:46
"8","156","323.02994332930484","282.3332249421369",18/12/22 05:18:46
"8","156","323.6797385238107","284.18778521700574",18/12/22 05:18:46
"8","156","323.6797385238107","284.18778521700574",18/12/22 05:18:46
"8","156","323.3473338816934","283.4816857527008",18/12/22 05:18:46
"8","156","323.3473338816934","283.4816857527008",18/12/22 05:18:46
"8","156","323.8810925727469","282.16407297393346",18/12/22 05:18:46
"8","156","323.8810925727469","282.16407297393346",18/12/22 05:18:46
"8","156","324.1432223144064","281.8736585291953",18/12/22 05:18:46
"8","156","324.1432223144064","281.8736585291953",18/12/22 05:18:46
"8","156","322.9769642639686","282.58053543481844",18/12/22 05:18:46
"8","156","322.9769642639686","282.58053543481844",18/12/22 05:18:46
"8","156","323.16851860973424","284.1528310275728",18/12/22 05:18:46
"8","156","323.2463083667307","284.11016597560325",18/12/22 05:18:46
"8","156","323.2463083667307","284.11016597560325",18/12/22 05:18:46
"8","156","324.0782563022376","281.8003999019761",18/12/22 05:18:46
"8","156","324.1646427056814","281.5666298459787",18/12/22 05:18:46
"8","156","324.1646427056814","281.5666298459787",18/12/22 05:18:46
"8","156","325.6634118729325","281.2545242131946",18/12/22 05:18:46
"8","156","325.6634118729325","281.2545242131946",18/12/22 05:18:47
"8","156","324.74430942720846","281.53714028001104",18/12/22 05:18:47
"8","156","324.74430942720846","281.53714028001104",18/12/22 05:18:47
"8","156","323.3180294877481","283.6034368459817",18/12/22 05:18:47
"8","156","323.3180294877481","283.6034368459817",18/12/22 05:18:47
"8","156","324.50271258688645","284.132035591261",18/12/22 05:18:47
"8","156","323.549092864036","283.6291421574165",18/12/22 05:18:47
"8","156","323.549092864036","283.6291421574165",18/12/22 05:18:47
"8","156","322.15748198676863","283.933178987006",18/12/22 05:18:47
"8","156","322.15748198676863","283.933178987006",18/12/22 05:18:47
"8","156","321.88503560507706","283.86797262583",18/12/22 05:18:47
"8","156","322.6041047166723","282.4540788030183",18/12/22 05:18:47
"8","156","322.6041047166723","282.4540788030183",18/12/22 05:18:47
"8","156","325.1266521075498","284.68810459625",18/12/22 05:18:47
"8","156","325.1266521075498","284.68810459625",18/12/22 05:18:47
"8","156","323.5583519996576","283.5765522134509",18/12/22 05:18:47
"8","156","323.556281737604","283.26923972417046",18/12/22 05:18:47
"8","156","323.556281737604","283.26923972417046",18/12/22 05:18:47
"8","156","322.578908383515","284.71390630289886",18/12/22 05:18:47
"8","156","322.578908383515","284.71390630289886",18/12/22 05:18:47
"8","156","322.53357943938516","284.5774498620843",18/12/22 05:18:47
"8","156","323.03448932486646","284.34543048650625",18/12/22 05:18:47
"8","156","323.03448932486646","284.34543048650625",18/12/22 05:18:47
"8","156","322.0587484171865","283.5635977662019",18/12/22 05:18:47
"8","156","323.9239212461239","283.1995319979467",18/12/22 05:18:47
"8","156","323.9239212461239","283.1995319979467",18/12/22 05:18:47
"8","156","325.59315339653455","284.8272228211176",18/12/22 05:18:47
"8","156","325.59315339653455","284.8272228211176",18/12/22 05:18:47
"8","156","325.9642570179467","284.27270456028987",18/12/22 05:18:47
"8","156","325.95419538298563","284.2763070071279",18/12/22 05:18:47
"8","156","325.95419538298563","284.2763070071279",18/12/22 05:18:47
"8","156","324.86946414034753","283.3108737580317",18/12/22 05:18:47
"8","156","324.86946414034753","283.3108737580317",18/12/22 05:18:47
"8","156","324.476612820449","282.2562245006535",18/12/22 05:18:47
"8","156","325.83935501634045","283.24367201361935",18/12/22 05:18:47
"8","156","325.83935501634045","283.24367201361935",18/12/22 05:18:47
"8","156","324.6805275192889","281.4259712096964",18/12/22 05:18:47
"8","156","324.6805275192889","281.4259712096964",18/12/22 05:18:47
"8","156","325.28581851423183","282.02399257185255",18/12/22 05:18:47
"8","156","326.2706443214208","284.5780949758869",18/12/22 05:18:47
"8","156","326.2706443214208","284.5780949758869",18/12/22 05:18:47
"8","156","324.56808382562843","284.61500898238927",18/12/22 05:18:47
"8","156","323.974503065816","284.613610614622",18/12/22 05:18:47
"8","156","323.974503065816","284.613610614622",18/12/22 05:18:47
"8","156","324.23718943523755","284.5537372903507",18/12/22 05:18:47
"8","156","324.23718943523755","284.5537372903507",18/12/22 05:18:47
"8","156","325.58762834345265","283.9197404754581",18/12/22 05:18:47
"8","156","324.55670214785783","284.36289443896",18/12/22 05:18:47
"8","156","324.55670214785783","284.36289443896",18/12/22 05:18:47
"8","156","322.34792124456123","284.597964671679",18/12/22 05:18:48
"8","156","322.34792124456123","284.597964671679",18/12/22 05:18:48
"8","156","323.6434515817958","283.5507121454945",18/12/22 05:18:48
"8","156","323.24090743085986","284.5426911072625",18/12/22 05:18:48
"8","156","323.24090743085986","284.5426911072625",18/12/22 05:18:48
"8","156","323.61588190953273","284.6694465379902",18/12/22 05:18:48
"8","156","323.44604442608556","284.4862860583864",18/12/22 05:18:48
"8","156","323.44604442608556","284.4862860583864",18/12/22 05:18:48
"8","156","323.52041608928334","282.6498047051636",18/12/22 05:18:48
"8","156","323.52041608928334","282.6498047051636",18/12/22 05:18:48
"8","156","324.1044589221878","283.976919791347",18/12/22 05:18:48
"8","156","323.45429798793435","284.46877244098386",18/12/22 05:18:48
"8","156","323.45429798793435","284.46877244098386",18/12/22 05:18:48
"8","156","324.0082277539457","284.0114265114653",18/12/22 05:18:48
"8","156","324.11148924082636","283.4633945547916",18/12/22 05:18:48
"8","156","324.11148924082636","283.4633945547916",18/12/22 05:18:48
"8","156","325.5569035201162","282.7621316040644",18/12/22 05:18:48
"8","156","325.5569035201162","282.7621316040644",18/12/22 05:18:48
"8","156","325.4021827270904","282.7233707504288",18/12/22 05:18:48
"8","156","325.15255132550254","283.0397998495085",18/12/22 05:18:48
"8","156","326.0355789740525","282.34793890407576",18/12/22 05:18:48
"8","156","326.0355789740525","282.34793890407576",18/12/22 05:18:48
"8","156","326.36599995336917","283.12027729741123",18/12/22 05:18:48
"8","156","326.36599995336917","283.12027729741123",18/12/22 05:18:48
"8","156","325.99890625872985","282.9881290284174",18/12/22 05:18:48
"8","156","325.99890625872985","282.9881290284174",18/12/22 05:18:48
"8","156","324.27062851893544","282.6880145753719",18/12/22 05:18:48
"8","156","324.4218492819606","282.6662099055142",18/12/22 05:18:48
"8","156","324.4218492819606","282.6662099055142",18/12/22 05:18:48
"8","156","324.42348370637825","282.73482193955266",18/12/22 05:18:48
"8","156","324.42348370637825","282.73482193955266",18/12/22 05:18:48
"8","156","325.0950791221606","281.11513574333287",18/12/22 05:18:48
"8","156","324.1332530686926","282.8926090449252",18/12/22 05:18:48
"8","156","324.1332530686926","282.8926090449252",18/12/22 05:18:48
"8","156","322.696845318716","282.3929197567718",18/12/22 05:18:48
"8","156","323.1043350391175","281.82508545901453",18/12/22 05:18:48
"8","156","323.7644148346374","283.7912745968071",18/12/22 05:18:48
"8","156","322.6396458501886","283.67860358601246",18/12/22 05:18:48
"8","156","322.6396458501886","282.8078101126031",18/12/22 05:18:48
"8","156","323.9867146193381","282.8078101126031",18/12/22 05:18:48
"8","156","323.4027569613794","283.94720502209384",18/12/22 05:18:48
"8","156","323.8974044972353","283.5077370835007",18/12/22 05:18:48
"8","156","324.96563470160737","284.60187682247994",18/12/22 05:18:48
"8","156","322.98432483006354","284.72663428198155",18/12/22 05:18:48
"8","156","322.98432483006354","284.72663428198155",18/12/22 05:18:48
"8","156","323.37987447598647","284.10318521241135",18/12/22 05:18:48
"8","156","323.37987447598647","284.10318521241135",18/12/22 05:18:48
"8","156","323.44294501997734","284.1096512562204",18/12/22 05:18:49
"8","156","323.44294501997734","284.1096512562204",18/12/22 05:18:49
"8","156","321.9023243173954","284.2270092089574",18/12/22 05:18:49
"8","156","322.67201122148856","283.6217795984241",18/12/22 05:18:49
"8","156","322.67201122148856","283.6217795984241",18/12/22 05:18:49
"8","156","322.68365361438504","282.97981801753383",18/12/22 05:18:49
"8","156","323.0477925173255","282.14114829693176",18/12/22 05:18:49
"8","156","323.0477925173255","282.14114829693176",18/12/22 05:18:49
"8","156","324.3949129291622","282.7336467062988",18/12/22 05:18:49
"8","156","324.3949129291622","282.7336467062988",18/12/22 05:18:49
"8","156","321.9281106586533","282.9012044019108",18/12/22 05:18:49
"8","156","324.2155717625803","283.77052370864146",18/12/22 05:18:49
"8","156","324.2155717625803","283.77052370864146",18/12/22 05:18:49
"8","156","323.8122756182006","281.75862084359693",18/12/22 05:18:49
"8","156","323.8773194841712","284.24606452758275",18/12/22 05:18:49
"8","156","324.2323102964281","283.7530284341285",18/12/22 05:18:49
"8","156","324.2323102964281","283.7530284341285",18/12/22 05:18:49
"8","156","324.83325329674153","282.30755718315663",18/12/22 05:18:49
"8","156","324.83325329674153","282.30755718315663",18/12/22 05:18:49
"8","156","325.4097139753832","280.76891520037077",18/12/22 05:18:49
"8","156","324.66147854302693","279.4953723109056",18/12/22 05:18:49
"8","156","324.66147854302693","279.4953723109056",18/12/22 05:18:49
"8","156","323.72674755115526","279.38845014047394",18/12/22 05:18:49
"8","156","323.72674755115526","279.38845014047394",18/12/22 05:18:49
"8","156","321.92103465073654","278.8081517711089",18/12/22 05:18:49
"8","156","321.92103465073654","278.8081517711089",18/12/22 05:18:49
"8","156","323.7283866215717","280.90691701380507",18/12/22 05:18:49
"8","156","323.1104174758412","280.90691701380507",18/12/22 05:18:49
"8","156","323.7980756381089","282.6280878199046",18/12/22 05:18:49
"8","156","322.21677537033696","283.5694630921534",18/12/22 05:18:49
"8","156","324.98120969477503","282.6198163790115",18/12/22 05:18:49
"8","156","324.98120969477503","282.6198163790115",18/12/22 05:18:49
"8","156","326.4728632876662","281.98421000001247",18/12/22 05:18:49
"8","156","326.4728632876662","281.98421000001247",18/12/22 05:18:49
"8","156","324.2238712952019","282.8086184967091",18/12/22 05:18:49
"8","156","324.2238712952019","282.8086184967091",18/12/22 05:18:49
"8","156","324.2238712952019","282.8086184967091",18/12/22 05:18:49
