"floorId","partitionId","location_x","location_y","timeStamp"
"9","164","364.47721313145576","297.09184991438724",18/12/22 05:13:23
"9","164","362.76908876798535","296.2577337388151",18/12/22 05:13:23
"9","164","361.16910302507034","295.47642412378286",18/12/22 05:13:23
"9","164","359.7597995917415","294.7882290396494",18/12/22 05:13:23
"9","164","358.1469858496044","294.0006552193402",18/12/22 05:13:23
"9","164","355.92644118901086","292.9163124984049",18/12/22 05:13:23
"9","164","354.4352445105393","292.18812707053274",18/12/22 05:13:23
"9","164","352.7015167312558","291.3415081617075",18/12/22 05:13:23
"9","164","351.5064619761076","290.75793560500074",18/12/22 05:13:23
"9","164","349.37486345218525","289.7170273159714",18/12/22 05:13:23
"9","164","347.7170292893699","288.90746899504745",18/12/22 05:13:23
"9","164","346.0663830250341","288.1014206892713",18/12/22 05:13:23
"9","164","344.6810025500461","287.4249077325909",18/12/22 05:13:23
"9","164","343.45652996304983","286.826969776081",18/12/22 05:13:23
"9","164","341.4727675260449","285.8582532279273",18/12/22 05:13:23
"9","164","340.0723735516438","285.1744088362646",18/12/22 05:13:23
"9","164","338.78207949709446","284.54432875242486",18/12/22 05:13:23
"9","164","336.83107115260225","283.5916067764261",18/12/22 05:13:23
"9","164","335.0716180932037","282.7324256252232",18/12/22 05:13:23
"9","164","333.5388025243328","281.9839167417328",18/12/22 05:13:23
"9","164","331.46417734828697","280.9708298409212",18/12/22 05:13:23
"8","117","330.99531540300575","280.8099667286513",18/12/22 05:13:23
"8","117","332.7295341962172","281.8952350704703",18/12/22 05:13:23
"8","117","333.90043577632105","282.62798137748",18/12/22 05:13:23
"8","117","335.60661880384714","283.69570503055724",18/12/22 05:13:23
"8","117","336.9487244451175","284.53559026853816",18/12/22 05:13:23
"8","117","338.1667014472407","285.2977962177772",18/12/22 05:13:23
"8","117","339.65347912507895","286.2282167341487",18/12/22 05:13:23
"8","117","341.78031004778273","287.21169888635774",18/12/22 05:13:23
"8","117","343.9886521129255","286.96783303724794",18/12/22 05:13:23
"8","117","346.401150510432","286.7014223305597",18/12/22 05:13:23
"8","117","347.75566047938","286.5518446320142",18/12/22 05:13:23
"8","117","349.62274317572957","286.3456638440419",18/12/22 05:13:23
"8","117","351.4998356700262","286.1383776802701",18/12/22 05:13:23
"8","117","353.12958125926406","285.95840588232005",18/12/22 05:13:23
"8","117","354.7853592277556","285.7755593448216",18/12/22 05:13:23
"8","117","357.0825124493958","285.52188613460066",18/12/22 05:13:23
"8","117","358.7744683279297","285.33504449286056",18/12/22 05:13:23
"8","122","360.22327315698806","283.97402332000195",18/12/22 05:13:23
"8","122","360.6239020563841","282.6528903768504",18/12/22 05:13:23
"8","122","361.1429689847665","280.9411905473566",18/12/22 05:13:24
"8","122","360.95882499920253","282.3096521034971",18/12/22 05:13:24
"8","122","360.7003082004791","282.74850452238405",18/12/22 05:13:24
"8","122","360.69474339992166","282.76577218243705",18/12/22 05:13:24
"8","122","359.2659514860788","281.01298081843595",18/12/22 05:13:24
"8","122","356.84750433618404","280.39769298690146",18/12/22 05:13:24
"8","122","357.9524715243253","280.2813999957834",18/12/22 05:13:24
"8","122","358.5628699545677","281.2497689072669",18/12/22 05:13:24
"8","122","358.26309002756915","280.2882278493832",18/12/22 05:13:24
"8","122","358.97654209046243","278.6490103147029",18/12/22 05:13:24
"8","122","359.6801741407142","278.11065007749625",18/12/22 05:13:24
"8","122","360.85412944970915","279.87964571832015",18/12/22 05:13:24
"8","122","360.85412944970915","279.87964571832015",18/12/22 05:13:24
"8","122","360.85412944970915","279.87964571832015",18/12/22 05:13:24
"8","122","360.38177391215373","282.2744630713486",18/12/22 05:13:24
"8","122","360.10503562490925","283.6775114106787",18/12/22 05:13:24
"8","117","359.49858595851543","285.37996497752175",18/12/22 05:13:24
"8","117","357.48856440357434","286.4637235097341",18/12/22 05:13:24
"8","117","356.2448809243497","287.1342897425529",18/12/22 05:13:24
"8","117","354.13078822147","288.2741611031368",18/12/22 05:13:24
"8","119","353.2282298560561","289.38929664722815",18/12/22 05:13:24
"8","119","353.7713815598208","291.63402306282273",18/12/22 05:13:24
"8","119","354.3436032180133","293.99888920025205",18/12/22 05:13:24
"8","119","354.89164514168607","296.26382581813397",18/12/22 05:13:24
"8","119","354.9211259198124","296.19986226833385",18/12/22 05:13:24
"8","119","352.7478241981865","296.2069615471309",18/12/22 05:13:24
"8","119","353.0006233667973","296.23450914700567",18/12/22 05:13:24
"8","119","354.24893279900226","294.71638342700464",18/12/22 05:13:24
"8","119","353.29166188178135","295.1816785036504",18/12/22 05:13:24
"8","119","353.22196926768095","294.4705375614963",18/12/22 05:13:24
"8","119","352.56430535865155","292.7690980724664",18/12/22 05:13:24
"8","119","352.0674948993193","292.0552132026093",18/12/22 05:13:24
"8","119","353.0085963542538","293.67769994329694",18/12/22 05:13:24
"8","119","353.1389734994079","293.821268591279",18/12/22 05:13:24
"8","119","352.60512353655724","294.0295376592662",18/12/22 05:13:24
"8","119","352.611695054355","295.0276443129001",18/12/22 05:13:24
"8","119","352.6702840648049","294.8740513132856",18/12/22 05:13:24
"8","119","354.85265513002525","295.0292045331678",18/12/22 05:13:24
"8","119","354.93997206999796","294.9976299725537",18/12/22 05:13:24
"8","119","354.07627076977275","295.1045953943589",18/12/22 05:13:24
"8","119","353.8777807995016","295.03278315182104",18/12/22 05:13:24
"8","119","354.2093323404384","296.3352455782589",18/12/22 05:13:24
"8","119","352.5076584366269","295.876966373871",18/12/22 05:13:24
"8","119","352.4134312716563","295.80685470081056",18/12/22 05:13:24
"8","119","352.3357959833347","296.01666685667874",18/12/22 05:13:24
"8","119","352.5158253795676","295.756270836828",18/12/22 05:13:24
"8","119","353.82203769258","295.71457177893905",18/12/22 05:13:24
"8","119","355.0078201095792","294.41836334398994",18/12/22 05:13:24
"8","119","355.23018277357255","294.1469430956492",18/12/22 05:13:24
"8","119","355.55727014659925","295.32675965453484",18/12/22 05:13:24
"8","119","357.87212156564203","294.5301476609847",18/12/22 05:13:25
"8","119","357.4382183494265","294.46437475131705",18/12/22 05:13:25
"8","119","357.8538965602158","293.2040251547126",18/12/22 05:13:25
"8","119","358.21438844759786","291.50476758175915",18/12/22 05:13:25
"8","119","358.60760009412456","291.23751895607734",18/12/22 05:13:25
"8","119","357.5629536227023","291.7452068263395",18/12/22 05:13:25
"8","119","360.0215118178055","292.0313627924903",18/12/22 05:13:25
"8","119","360.4077708090733","292.46968091459615",18/12/22 05:13:25
"8","119","359.3917925374552","290.6232973905227",18/12/22 05:13:25
"8","119","358.17996147569863","291.50841329181327",18/12/22 05:13:25
"8","119","358.7697127970273","292.12916389774784",18/12/22 05:13:25
"8","119","358.7747885399408","292.1453287328953",18/12/22 05:13:25
"8","119","358.76886229644526","292.1880756614604",18/12/22 05:13:25
"8","119","359.1661514908006","292.57171366425723",18/12/22 05:13:25
"8","119","359.6162140431493","292.8938725438126",18/12/22 05:13:25
"8","119","358.3071573916514","291.90425681230187",18/12/22 05:13:25
"8","119","360.30843432702477","291.3301657774289",18/12/22 05:13:25
"8","119","360.62272096391183","291.2659128771349",18/12/22 05:13:25
"8","119","360.82760349099374","290.20514214169117",18/12/22 05:13:25
"8","119","360.7438202067889","291.7846916172412",18/12/22 05:13:25
"8","119","360.67915338801805","290.3392436487117",18/12/22 05:13:25
"8","119","359.6600654638466","291.75307126918824",18/12/22 05:13:25
"8","119","359.00273944777325","292.01410979390937",18/12/22 05:13:25
"8","119","356.6143590142548","292.6545407589093",18/12/22 05:13:25
"8","119","356.3384772772609","291.8146406677841",18/12/22 05:13:25
"8","119","356.0602837834118","291.91477458381286",18/12/22 05:13:25
"8","119","357.2365288280404","291.35265805604797",18/12/22 05:13:25
"8","119","356.8546300685252","293.3675137397384",18/12/22 05:13:25
"8","119","357.37716068239877","293.3014167793801",18/12/22 05:13:25
"8","119","359.5143681493114","293.1756096446528",18/12/22 05:13:25
"8","119","359.7809326791946","291.5166111438892",18/12/22 05:13:25
"8","119","358.5642064144559","292.0691993525945",18/12/22 05:13:25
"8","119","360.30799312392855","293.5812218433988",18/12/22 05:13:25
"8","119","360.5863877645092","294.2203211725785",18/12/22 05:13:25
"8","119","358.1826577576322","294.82539847568484",18/12/22 05:13:25
"8","119","358.0009251348017","294.5874193435572",18/12/22 05:13:25
"8","119","356.93901949392426","294.22466096254595",18/12/22 05:13:25
"8","119","357.6455662818114","294.8271104677409",18/12/22 05:13:25
"8","119","359.26713181760044","293.68562694351374",18/12/22 05:13:25
"8","119","357.5966956389251","292.51941037656707",18/12/22 05:13:25
"8","119","356.6185210148708","293.2456364431525",18/12/22 05:13:25
"8","119","356.1793100235485","291.45320439966116",18/12/22 05:13:25
"8","119","357.21830091208545","293.36322785395777",18/12/22 05:13:25
"8","119","357.2015926269036","293.3482041516593",18/12/22 05:13:25
"8","119","357.2276159166398","293.4861798372924",18/12/22 05:13:25
"8","119","357.7739851196044","294.0007576049487",18/12/22 05:13:25
"8","119","355.5507032402376","293.10005723244984",18/12/22 05:13:25
"8","119","354.08929159659516","291.8155869223329",18/12/22 05:13:25
"8","119","354.1415376621707","294.1857323729089",18/12/22 05:13:25
"8","119","354.76062059652673","294.51663052162763",18/12/22 05:13:25
"8","119","353.1257733512803","293.6415302473585",18/12/22 05:13:26
"8","119","354.3729793813424","293.1805168530542",18/12/22 05:13:26
"8","119","355.52198955651045","292.3532775067466",18/12/22 05:13:26
"8","119","355.45484715990904","292.0748847709268",18/12/22 05:13:26
"8","119","355.93097747679286","293.33393282031506",18/12/22 05:13:26
"8","119","354.48762459854294","294.57891999884424",18/12/22 05:13:26
"8","119","355.2293319991084","294.96756357071274",18/12/22 05:13:26
"8","119","353.86558236428914","295.7996540475065",18/12/22 05:13:26
"8","119","354.19429737935707","295.6842244197068",18/12/22 05:13:26
"8","119","354.2443708797511","295.33113148204217",18/12/22 05:13:26
"8","119","353.99534667957005","296.08110583168184",18/12/22 05:13:26
"8","119","353.6149924671959","296.3356238398089",18/12/22 05:13:26
"8","119","352.612969681928","295.890213578906",18/12/22 05:13:26
"8","119","352.61273077713025","296.02651052886694",18/12/22 05:13:26
"8","119","352.2182401168987","295.28575443672844",18/12/22 05:13:26
"8","119","353.5616407330586","294.27337924335706",18/12/22 05:13:26
"8","119","352.5159240965533","296.3311740816618",18/12/22 05:13:26
"8","119","353.890582336653","295.68909758492686",18/12/22 05:13:26
"8","119","353.25932245508653","294.6479833584149",18/12/22 05:13:26
"8","119","353.07368587855325","294.6879976197397",18/12/22 05:13:26
"8","119","355.2833027983013","295.3361587301536",18/12/22 05:13:26
"8","119","353.9439649386162","295.3262028887294",18/12/22 05:13:26
"8","119","353.8984875381282","295.49182165580925",18/12/22 05:13:26
"8","119","354.11524256523023","295.26966638648935",18/12/22 05:13:26
"8","119","355.7658987515865","295.5083581963794",18/12/22 05:13:26
"8","119","357.5723804299799","294.7717571079493",18/12/22 05:13:26
"8","119","357.36612747957764","294.329197551153",18/12/22 05:13:26
"8","119","359.0793011287001","294.83557732572905",18/12/22 05:13:26
"8","119","358.96987348910204","294.95677485190055",18/12/22 05:13:26
"8","119","359.7334364870504","295.80722693388395",18/12/22 05:13:26
"8","119","358.409692718415","293.7673303067408",18/12/22 05:13:26
"8","119","357.17159851792934","292.5870606054497",18/12/22 05:13:26
"8","119","356.508905741756","293.1355985634934",18/12/22 05:13:26
"8","119","357.23198421732155","292.96135691510545",18/12/22 05:13:26
"8","119","356.82958869534536","293.63220426486447",18/12/22 05:13:26
"8","119","356.9609263310583","292.6936966627616",18/12/22 05:13:26
"8","119","357.7204005825271","293.45321577383567",18/12/22 05:13:26
"8","119","359.99154369116866","293.4160802619589",18/12/22 05:13:26
"8","119","359.9985627798537","294.0127751610576",18/12/22 05:13:26
"8","119","359.53846451827934","293.7491648109875",18/12/22 05:13:26
"8","119","357.866178925349","291.97741999229015",18/12/22 05:13:26
"8","119","356.7819879177421","291.7354018369987",18/12/22 05:13:26
"8","119","356.8442051827647","291.96755544809224",18/12/22 05:13:26
"8","119","358.3597564394407","291.3678969273272",18/12/22 05:13:26
"8","119","357.7175555573213","292.04112947464284",18/12/22 05:13:26
"8","119","355.80483783964485","292.0282990380114",18/12/22 05:13:26
"8","119","355.1273375318868","290.77268702730515",18/12/22 05:13:26
"8","119","355.3708704585084","291.49493170441394",18/12/22 05:13:26
"8","119","356.25164650421743","291.29412464226726",18/12/22 05:13:26
"8","119","356.0853585933432","291.3612117002249",18/12/22 05:13:26
"8","119","354.01829354312736","291.0642244760606",18/12/22 05:13:27
"8","119","353.4031931946804","293.2138091378438",18/12/22 05:13:27
"8","119","355.1266226354103","291.85693241192",18/12/22 05:13:27
"8","119","355.098025847902","293.13304311666104",18/12/22 05:13:27
"8","119","352.8877340236612","293.79145812982824",18/12/22 05:13:27
"8","119","352.3373653900724","294.1426583147534",18/12/22 05:13:27
"8","119","351.9352616982835","294.2208278213081",18/12/22 05:13:27
"8","119","352.64263006020707","294.70847788346686",18/12/22 05:13:27
"8","119","353.1517836701451","292.87119281157766",18/12/22 05:13:27
"8","119","353.8906218295813","293.46314656487885",18/12/22 05:13:27
"8","119","352.2885526363176","292.26583511808593",18/12/22 05:13:27
"8","119","353.60798586566284","293.82288292195204",18/12/22 05:13:27
"8","119","355.45887201626323","294.3460011713302",18/12/22 05:13:27
"8","119","355.4039478611349","293.07737421840744",18/12/22 05:13:27
"8","119","356.3030263522627","294.3867835607459",18/12/22 05:13:27
"8","119","354.68520217594113","296.16438005129424",18/12/22 05:13:27
"8","119","354.4084334723687","294.8638163393466",18/12/22 05:13:27
"8","119","353.17759326796505","292.8577064395429",18/12/22 05:13:27
"8","119","352.8638886180137","292.00556254947605",18/12/22 05:13:27
"8","119","351.9527687774152","291.2329421005311",18/12/22 05:13:27
"8","119","352.5496955655988","291.3509642598038",18/12/22 05:13:27
"8","119","352.4752221542043","291.296946559048",18/12/22 05:13:27
"8","119","352.2587842413482","290.07980212248503",18/12/22 05:13:27
"8","119","352.17970280246345","289.94472968524013",18/12/22 05:13:27
"8","119","352.9259072159347","291.1626919533941",18/12/22 05:13:27
"8","119","354.77862460372495","292.00737843117315",18/12/22 05:13:27
"8","119","353.1077744417517","292.5218366050426",18/12/22 05:13:27
"8","119","354.194198792933","293.437715293156",18/12/22 05:13:27
"8","119","353.5488797370065","294.071295047969",18/12/22 05:13:27
"8","119","353.66123987491176","295.49260155079236",18/12/22 05:13:27
"8","119","353.85083842553496","296.09826257239894",18/12/22 05:13:27
"8","119","353.773931050744","296.2710667677625",18/12/22 05:13:27
"8","119","352.01688234085975","296.32737110680347",18/12/22 05:13:27
"8","119","352.16634092959185","296.23533789855543",18/12/22 05:13:27
"8","119","353.56804590613245","296.0370616882579",18/12/22 05:13:27
"8","119","353.2581488291371","295.83973971532777",18/12/22 05:13:27
"8","119","353.49452157412327","296.16839992250954",18/12/22 05:13:27
"8","119","352.76281394851395","295.8486135246573",18/12/22 05:13:27
"8","119","352.8743446518986","295.94834889440926",18/12/22 05:13:27
"8","119","352.87862037699875","295.9412549589021",18/12/22 05:13:27
"8","119","353.4920265639606","294.06358222207376",18/12/22 05:13:27
"8","119","353.74402669208666","293.3582707173807",18/12/22 05:13:27
"8","119","352.75276415371695","291.60197441255946",18/12/22 05:13:27
"8","119","352.74481909565674","293.35373975761706",18/12/22 05:13:27
"8","119","353.1416268527575","292.1642421938708",18/12/22 05:13:27
"8","119","352.5042067932112","291.5604598690671",18/12/22 05:13:27
"8","119","352.4807085882529","291.32464304360394",18/12/22 05:13:27
"8","119","353.48324415873833","290.9057098462976",18/12/22 05:13:27
"8","119","353.32218497943677","289.9638134495096",18/12/22 05:13:27
"8","119","353.2861794231082","290.9879536859573",18/12/22 05:13:27
"8","119","353.59585167664756","291.07543505570663",18/12/22 05:13:28
"8","119","352.0713604947445","291.65372181904775",18/12/22 05:13:28
"8","119","353.2832865942298","291.29273075279605",18/12/22 05:13:28
"8","119","352.0808603286111","290.93990016888745",18/12/22 05:13:28
"8","119","352.1655018390321","289.53304719172183",18/12/22 05:13:28
"8","119","352.9508135708631","289.85418188136333",18/12/22 05:13:28
"8","119","353.45709277540254","290.26827873793445",18/12/22 05:13:28
"8","119","354.0136280533103","291.67187475505585",18/12/22 05:13:28
"8","119","354.16059437550626","292.3746881084801",18/12/22 05:13:28
"8","119","354.9682388665919","292.5470816652346",18/12/22 05:13:28
"8","119","355.45934237067445","291.9483004904429",18/12/22 05:13:28
"8","119","356.2544522808779","294.0562980990457",18/12/22 05:13:28
"8","119","355.8835424036911","294.64143942242856",18/12/22 05:13:28
"8","119","356.2708104178332","295.80238457197146",18/12/22 05:13:28
"8","119","356.6762223420775","293.8415822491776",18/12/22 05:13:28
"8","119","357.40622883251393","294.15431906000765",18/12/22 05:13:28
"8","119","358.6994618086532","293.3680072250278",18/12/22 05:13:28
"8","119","358.7955242827226","292.4453393857548",18/12/22 05:13:28
"8","119","359.0184073262002","291.8083032172645",18/12/22 05:13:28
"8","119","358.45452619243633","291.6574331697718",18/12/22 05:13:28
"8","119","358.5441347721473","293.99380044081795",18/12/22 05:13:28
"8","119","360.5296954437871","293.31322590649756",18/12/22 05:13:28
"8","119","361.04780819134476","292.29519014465893",18/12/22 05:13:28
"8","119","360.80030339021187","291.80591491793524",18/12/22 05:13:28
"8","119","361.2381456101878","294.1245285415741",18/12/22 05:13:28
"8","119","360.58118169987364","295.6953611138969",18/12/22 05:13:28
"8","119","358.4976407221005","295.963084082361",18/12/22 05:13:28
"8","119","358.8054749705304","295.8346114381859",18/12/22 05:13:28
"8","119","359.110496694907","293.62807702565135",18/12/22 05:13:28
"8","119","359.87246030753636","293.06738773512535",18/12/22 05:13:28
"8","119","357.64392416157955","293.9060078227455",18/12/22 05:13:28
"8","119","357.9619106816765","294.32738289248675",18/12/22 05:13:28
"8","119","356.8027125533457","293.97950778349485",18/12/22 05:13:28
"8","119","355.9555279758391","294.0661424513878",18/12/22 05:13:28
"8","119","356.01770329000146","292.05853577006906",18/12/22 05:13:28
"8","119","356.46732233809564","291.73423871452616",18/12/22 05:13:28
"8","119","356.4398495154648","290.8460836457801",18/12/22 05:13:28
"8","119","355.33173441253166","291.3619929217413",18/12/22 05:13:28
"8","119","354.53135606263356","290.43667084012634",18/12/22 05:13:28
"8","119","354.2172000737327","289.98545434540097",18/12/22 05:13:28
"8","119","355.2730538048804","290.97974500045757",18/12/22 05:13:28
"8","119","353.0103728707454","290.2055459495554",18/12/22 05:13:28
"8","119","352.91100883685186","290.19907020709223",18/12/22 05:13:28
"8","119","354.4454377347661","290.2354905152657",18/12/22 05:13:28
"8","119","354.8009852610099","290.1713594097918",18/12/22 05:13:28
"8","119","355.19480832565057","289.2223249590067",18/12/22 05:13:28
"8","119","357.25913450213403","289.23102782467777",18/12/22 05:13:28
"8","119","354.9635595708258","289.6044918485491",18/12/22 05:13:28
"8","119","354.83826269698056","289.8669155302559",18/12/22 05:13:28
"8","119","354.63327387436334","290.46615646731414",18/12/22 05:13:28
"8","119","354.62322966247183","290.3582280729181",18/12/22 05:13:29
"8","119","354.7113605661773","291.15644820080365",18/12/22 05:13:29
"8","119","353.88611839466347","290.6181718365916",18/12/22 05:13:29
"8","119","354.25377464410974","290.76848112983635",18/12/22 05:13:29
"8","119","352.40079166007195","291.1308574468321",18/12/22 05:13:29
"8","119","353.75977117666696","291.5871214207349",18/12/22 05:13:29
"8","119","353.73799106106895","290.5530713856278",18/12/22 05:13:29
"8","119","353.87913186565606","290.5167799722828",18/12/22 05:13:29
"8","119","353.68256175519684","291.01400721211445",18/12/22 05:13:29
"8","119","352.66726478968855","292.80760966774716",18/12/22 05:13:29
"8","119","352.0460088782702","290.77916040287687",18/12/22 05:13:29
"8","119","353.62106138256655","291.71430673464255",18/12/22 05:13:29
"8","119","356.02456940670413","292.0111728167702",18/12/22 05:13:29
"8","119","355.8923600165935","291.8256524502554",18/12/22 05:13:29
"8","119","355.9516411520168","290.58615414296185",18/12/22 05:13:29
"8","119","357.66568500878884","290.1135140563482",18/12/22 05:13:29
"8","119","357.8556185964673","291.1622208319699",18/12/22 05:13:29
"8","119","357.4545779646607","292.5754388382635",18/12/22 05:13:29
"8","119","357.3905180937174","292.6023143078436",18/12/22 05:13:29
"8","119","359.2731002073453","293.60244735135825",18/12/22 05:13:29
"8","119","359.45368587081447","293.24624367824157",18/12/22 05:13:29
"8","119","357.98053361739534","294.3727560006478",18/12/22 05:13:29
"8","119","355.97933597592066","294.45959273817624",18/12/22 05:13:29
"8","119","355.78242994624196","292.40652183282305",18/12/22 05:13:29
"8","119","355.6806573683977","292.73308980805575",18/12/22 05:13:29
"8","119","355.6806573683977","292.73308980805575",18/12/22 05:13:29
"8","119","355.6806573683977","292.73308980805575",18/12/22 05:13:29
"8","119","354.67725012686","291.2753452784869",18/12/22 05:13:29
"8","119","353.4408894121841","289.47916722257554",18/12/22 05:13:29
"8","117","353.6793862677549","288.48079390142277",18/12/22 05:13:29
"8","117","355.51886554308584","287.53138196116345",18/12/22 05:13:29
"8","117","356.7619055386014","286.889810713371",18/12/22 05:13:29
"8","117","357.905956555803","286.29933072777743",18/12/22 05:13:29
"8","117","359.69479688470176","285.3760551082854",18/12/22 05:13:29
"8","117","359.69479688470176","285.3760551082854",18/12/22 05:13:29
"8","122","360.12110496594033","283.68417795789367",18/12/22 05:13:29
"8","122","360.27757041279017","281.64338061880574",18/12/22 05:13:29
"8","122","360.4380360631399","279.5504081520924",18/12/22 05:13:29
"8","122","360.4997966000157","278.7448581609963",18/12/22 05:13:29
"8","122","358.61971041103413","277.59503320942514",18/12/22 05:13:29
"8","122","358.83796860149386","277.5689242863273",18/12/22 05:13:29
"8","122","358.6776348368489","278.1121599440222",18/12/22 05:13:29
"8","122","358.55902822218036","279.1282907904752",18/12/22 05:13:29
"8","122","356.9048719584018","279.4270911350188",18/12/22 05:13:29
"8","122","357.2799380456437","280.4711990985789",18/12/22 05:13:29
"8","122","357.46341156232137","279.5456898522656",18/12/22 05:13:29
"8","122","357.1950071472412","281.3743990167136",18/12/22 05:13:29
"8","122","357.31921306011685","282.9142341083249",18/12/22 05:13:29
"8","122","357.050046901598","280.50675930857756",18/12/22 05:13:29
"8","122","358.99197017535016","281.82397180939205",18/12/22 05:13:29
"8","122","358.70136981370206","281.2492890914334",18/12/22 05:13:30
"8","122","358.5730481461724","282.75235934644144",18/12/22 05:13:30
"8","122","359.2696408851797","282.3312996550455",18/12/22 05:13:30
"8","122","356.9054018857764","281.70240246194135",18/12/22 05:13:30
"8","122","356.98284789933473","281.10171694287834",18/12/22 05:13:30
"8","122","356.8673593563494","281.07942983530677",18/12/22 05:13:30
"8","122","359.18675103522446","281.35641975240463",18/12/22 05:13:30
"8","122","358.81262310501637","283.09577057949656",18/12/22 05:13:30
"8","122","359.58009650862937","284.5455259587349",18/12/22 05:13:30
"8","122","360.8303066945287","283.1459078553309",18/12/22 05:13:30
"8","122","359.8048001575718","282.45886267265706",18/12/22 05:13:30
"8","122","359.1717389950142","282.68487035260534",18/12/22 05:13:30
"8","122","358.19708276385205","282.7076310971404",18/12/22 05:13:30
"8","122","358.33214212150165","283.5644602030176",18/12/22 05:13:30
"8","122","358.9435257873951","283.44345035917917",18/12/22 05:13:30
"8","122","358.2378840445713","284.68349130602303",18/12/22 05:13:30
"8","122","358.7041157528212","284.8092321135058",18/12/22 05:13:30
"8","122","360.1474372619631","283.3088528466632",18/12/22 05:13:30
"8","122","360.3166672917948","283.25346872417083",18/12/22 05:13:30
"8","122","360.0150729889198","283.98151484067193",18/12/22 05:13:30
"8","122","360.17799414944767","283.8013106812454",18/12/22 05:13:30
"8","122","359.47038682707125","284.64828166384723",18/12/22 05:13:30
"8","122","360.7612511954168","283.9482512803792",18/12/22 05:13:30
"8","122","360.7612511954168","283.9482512803792",18/12/22 05:13:30
"8","122","360.7612511954168","283.9482512803792",18/12/22 05:13:30
"8","122","359.2821670626633","282.5682894977023",18/12/22 05:13:30
"8","122","358.47723706695115","281.8173027166156",18/12/22 05:13:30
"8","122","359.1762910066171","283.3380670603247",18/12/22 05:13:30
"8","122","359.0268460585058","283.5513433762232",18/12/22 05:13:30
"8","122","359.21270553429076","283.9308588975444",18/12/22 05:13:30
"8","122","360.6154850375482","282.179870653678",18/12/22 05:13:30
"8","122","359.06481690791406","282.1394450679883",18/12/22 05:13:30
"8","122","360.3418771278028","282.01262139117574",18/12/22 05:13:30
"8","122","359.58044333006893","281.8552052508321",18/12/22 05:13:30
"8","122","361.18159293040856","282.58129363188215",18/12/22 05:13:30
"8","122","359.36494340279035","281.322397656602",18/12/22 05:13:30
"8","122","358.0255204132517","282.9565260923503",18/12/22 05:13:30
"8","122","358.51258318460435","281.14422701114984",18/12/22 05:13:30
"8","122","358.5523534813645","281.10527390715737",18/12/22 05:13:30
"8","122","359.8446556052024","281.626071892101",18/12/22 05:13:30
"8","122","359.32037811893827","281.8681181830036",18/12/22 05:13:30
"8","122","357.7349163356135","282.76004284127623",18/12/22 05:13:30
"8","122","358.5050837646858","281.0350171378092",18/12/22 05:13:30
"8","122","357.50075473931514","281.82992423537644",18/12/22 05:13:30
"8","122","357.93313334075606","281.85204288365816",18/12/22 05:13:30
"8","122","358.2663458864924","281.6485533668316",18/12/22 05:13:30
"8","122","357.61804075629067","281.84129543372467",18/12/22 05:13:30
"8","122","357.42042346912046","282.0577007798713",18/12/22 05:13:30
"8","122","357.4383414032362","281.1269663087945",18/12/22 05:13:30
"8","122","359.75149519616394","281.9854789815129",18/12/22 05:13:30
"8","122","359.18949401489925","282.11893701043203",18/12/22 05:13:31
"8","122","358.47128603176407","281.9440199425751",18/12/22 05:13:31
"8","122","358.1316217927212","281.7641209705241",18/12/22 05:13:31
"8","122","358.8782625442472","282.1718972134184",18/12/22 05:13:31
"8","122","358.93280060561807","282.56576536208894",18/12/22 05:13:31
"8","122","359.7658116056518","280.28201748571644",18/12/22 05:13:31
"8","122","359.7868394884091","280.90569986281906",18/12/22 05:13:31
"8","122","360.35923146863354","281.53732869084547",18/12/22 05:13:31
"8","122","360.2057623519332","280.029060755778",18/12/22 05:13:31
"8","122","359.38443315494374","277.8048331288849",18/12/22 05:13:31
"8","122","358.7167249128607","277.8439665893849",18/12/22 05:13:31
"8","122","358.14078325273226","280.0414509829176",18/12/22 05:13:31
"8","122","356.98004419870523","280.3754463405675",18/12/22 05:13:31
"8","122","356.92260624051073","279.9119126205099",18/12/22 05:13:31
"8","122","357.26509687029363","279.5007683790607",18/12/22 05:13:31
"8","122","357.4410815231804","279.396977918001",18/12/22 05:13:31
"8","122","357.67645407072075","279.96735544729074",18/12/22 05:13:31
"8","122","357.36167442913234","281.02932796695285",18/12/22 05:13:31
"8","122","357.7306902521589","280.27473248360417",18/12/22 05:13:31
"8","122","358.3452952858228","278.59531577183435",18/12/22 05:13:31
"8","122","358.7849876487632","279.0337571844931",18/12/22 05:13:31
"8","122","360.2001639260287","278.57639011099616",18/12/22 05:13:31
"8","122","360.8992153527254","279.4153905534554",18/12/22 05:13:31
"8","122","361.24987488690175","281.4865030939956",18/12/22 05:13:31
"8","122","361.34778350236843","280.269521092443",18/12/22 05:13:31
"8","122","360.1316813564687","280.97416480389126",18/12/22 05:13:31
"8","122","360.38636158981234","280.7215647391256",18/12/22 05:13:31
"8","122","360.42875907363265","281.1731666293504",18/12/22 05:13:31
"8","122","358.87199281384386","280.03357535083984",18/12/22 05:13:31
"8","122","358.1223502927057","278.47397968106003",18/12/22 05:13:31
"8","122","357.86689368034473","280.69950013398625",18/12/22 05:13:31
"8","122","358.0020515746766","280.5606811908311",18/12/22 05:13:31
"8","122","359.0810265377344","280.7372208609798",18/12/22 05:13:31
"8","122","358.5724592797889","280.2620262216457",18/12/22 05:13:31
"8","122","357.4892876926198","281.7552032100652",18/12/22 05:13:31
"8","122","358.42101616182936","283.75603116416534",18/12/22 05:13:31
"8","122","357.21625930989705","282.6525325235973",18/12/22 05:13:31
"8","122","358.09621728697704","281.2216974706748",18/12/22 05:13:31
"8","122","357.16623574876803","281.36403777390626",18/12/22 05:13:31
"8","122","358.604488695045","282.8599663017497",18/12/22 05:13:31
"8","122","358.9673347604102","281.2123983982717",18/12/22 05:13:31
"8","122","358.45836974882894","281.7193827425215",18/12/22 05:13:31
"8","122","360.4584651417829","282.2482501059973",18/12/22 05:13:31
"8","122","360.6883818110697","282.2804648087293",18/12/22 05:13:31
"8","122","359.26377891551004","281.74752194359866",18/12/22 05:13:31
"8","122","357.0672984920894","280.9573122519279",18/12/22 05:13:31
"8","122","357.99564376422063","281.45046301045846",18/12/22 05:13:31
"8","122","358.07325233422404","280.82740857587584",18/12/22 05:13:31
"8","122","358.0020743941295","280.97008487732313",18/12/22 05:13:31
"8","122","358.54405198718143","280.695808462531",18/12/22 05:13:31
"8","122","359.8484069583929","279.67070018796574",18/12/22 05:13:32
"8","122","358.64219398032367","280.69139148769045",18/12/22 05:13:32
"8","122","357.1911777194698","279.0226210207455",18/12/22 05:13:32
"8","122","357.489636433413","279.48497669192847",18/12/22 05:13:32
"8","122","358.0749345684395","277.9777004431454",18/12/22 05:13:32
"8","122","359.15966073414376","277.6126228805216",18/12/22 05:13:32
"8","122","358.7782323174511","277.6678433105669",18/12/22 05:13:32
"8","122","360.08981675877504","277.7506583239019",18/12/22 05:13:32
"8","122","359.53759840148945","278.2975508909565",18/12/22 05:13:32
"8","122","358.1224651466894","278.5640971819096",18/12/22 05:13:32
"8","122","357.1091846984958","277.87336296787856",18/12/22 05:13:32
"8","122","358.8972300274233","279.02796112118557",18/12/22 05:13:32
"8","122","359.27533000208916","279.12500265647003",18/12/22 05:13:32
"8","122","358.98403635806966","279.77257467117454",18/12/22 05:13:32
"8","122","358.40504953922084","281.2403493744228",18/12/22 05:13:32
"8","122","357.61758046064244","280.9167820656035",18/12/22 05:13:32
"8","122","359.8666866340213","280.840620671377",18/12/22 05:13:32
"8","122","360.13845857384416","280.0635801173503",18/12/22 05:13:32
"8","122","360.2728675046748","282.3322837746189",18/12/22 05:13:32
"8","122","360.9057812918614","282.9255824614312",18/12/22 05:13:32
"8","122","360.4275984553072","282.9465070354292",18/12/22 05:13:32
"8","122","360.3880784066642","282.92670011723976",18/12/22 05:13:32
"8","122","360.304785274612","282.209292469948",18/12/22 05:13:32
"8","122","358.8895801096039","283.6799623691955",18/12/22 05:13:32
"8","122","358.2430119243477","284.38777104620584",18/12/22 05:13:32
"8","122","358.4408996127317","284.64132510491413",18/12/22 05:13:32
"8","122","357.25300040295406","282.67721107870744",18/12/22 05:13:32
"8","122","359.0446812319294","281.19747488794735",18/12/22 05:13:32
"8","122","360.3153691316592","281.5048789740574",18/12/22 05:13:32
"8","122","359.503012647972","281.60496412054573",18/12/22 05:13:32
"8","122","359.16114354449263","282.391322083123",18/12/22 05:13:32
"8","122","358.5824305242564","281.1715378502161",18/12/22 05:13:32
"8","122","357.64305770998027","283.1968330545556",18/12/22 05:13:32
"8","122","358.086409079982","282.4861572423661",18/12/22 05:13:32
"8","122","357.7646793508744","280.9749775038951",18/12/22 05:13:32
"8","122","359.62167868045833","279.89879134954487",18/12/22 05:13:32
"8","122","360.14660240736873","279.96890698880014",18/12/22 05:13:32
"8","122","358.12386394662605","280.0344340968604",18/12/22 05:13:32
"8","122","357.1610238512238","281.05598618259046",18/12/22 05:13:32
"8","122","357.020477610749","280.6626836336277",18/12/22 05:13:32
"8","122","357.2277646038343","280.5802216923997",18/12/22 05:13:32
"8","122","358.53593203198466","280.7506734655534",18/12/22 05:13:32
"8","122","358.75824937338064","283.08114566177403",18/12/22 05:13:32
"8","122","358.95322147743786","283.4056515599101",18/12/22 05:13:32
"8","122","358.4708926559739","283.5245228583242",18/12/22 05:13:32
"8","122","357.2834051709743","284.4665028998909",18/12/22 05:13:32
"8","122","359.4029690030892","284.43485023329066",18/12/22 05:13:32
"8","122","358.50360902590916","282.189011095606",18/12/22 05:13:32
"8","122","358.4556280727665","282.239485225592",18/12/22 05:13:32
"8","122","357.8292277165691","281.1014071159837",18/12/22 05:13:32
"8","122","357.72156754589133","280.99196814754885",18/12/22 05:13:33
"8","122","359.5923521154242","281.58866839581",18/12/22 05:13:33
"8","122","358.7021693056158","279.6564983896076",18/12/22 05:13:33
"8","122","357.470622108751","277.55439065040014",18/12/22 05:13:33
"8","122","357.79746155988397","277.8026240742637",18/12/22 05:13:33
"8","122","358.092106405268","277.84014357483005",18/12/22 05:13:33
"8","122","358.22174165943005","278.3255680512523",18/12/22 05:13:33
"8","122","359.8778430880896","277.78744884184056",18/12/22 05:13:33
"8","122","359.897676731678","277.6140450387345",18/12/22 05:13:33
"8","122","360.4848204176042","277.53955341713106",18/12/22 05:13:33
"8","122","361.18333849265935","277.8867730904487",18/12/22 05:13:33
"8","122","361.05030416361546","278.4466031804903",18/12/22 05:13:33
"8","122","361.10372993591284","278.474924798209",18/12/22 05:13:33
"8","122","361.21608540116216","278.5460962875601",18/12/22 05:13:33
"8","122","361.0494152255977","277.79624150421006",18/12/22 05:13:33
"8","122","359.70435626513597","277.7063105713495",18/12/22 05:13:33
"8","122","359.7039407349226","277.7064757187765",18/12/22 05:13:33
"8","122","361.4557788571085","277.92283678864146",18/12/22 05:13:33
"8","122","361.469189991446","277.6817535867874",18/12/22 05:13:33
"8","122","361.49324956933594","277.65092434720754",18/12/22 05:13:33
"8","122","361.4791500959748","277.67364882958464",18/12/22 05:13:33
"8","122","360.5393527892576","279.9698419476168",18/12/22 05:13:33
"8","122","360.6693637529718","281.03304629824294",18/12/22 05:13:33
"8","122","358.5213571441603","281.47323459617223",18/12/22 05:13:33
"8","122","359.50764829211863","282.2876226970166",18/12/22 05:13:33
"8","122","361.4745376475295","281.6524532783828",18/12/22 05:13:33
"8","122","360.60594844014304","281.67473353750154",18/12/22 05:13:33
"8","122","360.61805540102256","283.9505190652405",18/12/22 05:13:33
"8","122","360.45861655852616","284.1406679345451",18/12/22 05:13:33
"8","122","361.0859679461909","284.218726282875",18/12/22 05:13:33
"8","122","360.94912612298793","284.38178954937314",18/12/22 05:13:33
"8","122","359.3915474513411","283.20022259237396",18/12/22 05:13:33
"8","122","357.2221240415832","283.4989867764951",18/12/22 05:13:33
"8","122","357.18506794779324","283.12946525756786",18/12/22 05:13:33
"8","122","358.2834861631468","283.7184448363871",18/12/22 05:13:33
"8","122","358.26578647338437","283.76641895994885",18/12/22 05:13:33
"8","122","358.3115506562918","282.1756506808865",18/12/22 05:13:33
"8","122","360.3500709031486","282.73358038153975",18/12/22 05:13:33
"8","122","359.2487969287858","282.021065026573",18/12/22 05:13:33
"8","122","359.1317086160192","280.325337972822",18/12/22 05:13:33
"8","122","360.4226967754542","281.54637971946056",18/12/22 05:13:33
"8","122","359.6992545563807","281.9919233288282",18/12/22 05:13:33
"8","122","359.5390962674656","282.47721080005994",18/12/22 05:13:33
"8","122","361.3015198364148","281.98103069788783",18/12/22 05:13:33
"8","122","361.3015198364148","281.98103069788783",18/12/22 05:13:33
"8","122","361.3015198364148","281.98103069788783",18/12/22 05:13:33
"8","122","361.09899132410584","283.55087343603907",18/12/22 05:13:33
"8","122","360.36269169157595","285.27138363773815",18/12/22 05:13:33
"8","122","358.339554481181","285.64308457632717",18/12/22 05:13:33
"8","122","356.0390440125035","286.0657459242811",18/12/22 05:13:34
"8","122","354.03913855108215","286.43317860916284",18/12/22 05:13:34
"8","122","351.7314378864361","286.8571609760652",18/12/22 05:13:34
"8","122","349.5910428875448","287.25040510501077",18/12/22 05:13:34
"8","122","348.2908176005734","287.4892890309557",18/12/22 05:13:34
"8","122","346.752027726224","287.7720032421561",18/12/22 05:13:34
"8","122","345.03834314277134","288.08684998850725",18/12/22 05:13:34
"8","122","343.50379422501754","288.3687850298426",18/12/22 05:13:34
"8","117","342.2948222760177","288.5909034338056",18/12/22 05:13:34
"8","117","342.33908279040423","288.6075408497135",18/12/22 05:13:34
"8","117","342.58112339220975","288.22206653489144",18/12/22 05:13:34
"8","117","342.3885770564088","288.3947057029232",18/12/22 05:13:34
"8","117","342.3216031006389","288.4352098144514",18/12/22 05:13:34
"8","117","342.22775602397866","288.3855916745216",18/12/22 05:13:34
"8","117","341.69354792916386","287.8849874232787",18/12/22 05:13:34
"8","117","341.83637462778023","285.94491011700984",18/12/22 05:13:34
"8","117","343.7954566954487","286.95087508286394",18/12/22 05:13:34
"8","117","344.0752457425385","287.23306439177594",18/12/22 05:13:34
"8","117","344.7132459365844","285.45352769961625",18/12/22 05:13:34
"8","117","344.77213065031293","285.6326450657826",18/12/22 05:13:34
"8","117","344.51255948774093","286.5638152288862",18/12/22 05:13:34
"8","117","342.44435270498815","285.44918647883947",18/12/22 05:13:34
"8","117","343.0949543042322","286.4074474725742",18/12/22 05:13:34
"8","117","343.4757876960394","287.63309690098566",18/12/22 05:13:34
"8","117","343.4780876168359","287.6031227712887",18/12/22 05:13:34
"8","117","343.5703360377569","287.65988531418907",18/12/22 05:13:34
"8","117","344.23823706173846","288.0780036093587",18/12/22 05:13:34
"8","117","345.41989821769823","288.3538867524509",18/12/22 05:13:34
"8","117","345.31368543584165","288.6159311499606",18/12/22 05:13:34
"8","117","345.48029827313906","288.50861017547845",18/12/22 05:13:34
"8","117","343.74556084720473","288.3066932554371",18/12/22 05:13:34
"8","117","344.0148952302481","288.17746438377014",18/12/22 05:13:34
"8","117","345.28536222649154","286.48092226000256",18/12/22 05:13:34
"8","117","345.21924742203856","288.2702918799246",18/12/22 05:13:34
"8","117","344.90281050623","288.22538017886393",18/12/22 05:13:34
"8","117","343.4063839115249","286.9450781122336",18/12/22 05:13:34
"8","117","343.318213560779","287.4483754428394",18/12/22 05:13:34
"8","117","342.795454434704","287.6435288876103",18/12/22 05:13:34
"8","117","342.41655330392405","288.0338404578884",18/12/22 05:13:34
"8","117","343.33262810947826","286.3584206075359",18/12/22 05:13:34
"8","117","343.05641150291865","285.82456221550325",18/12/22 05:13:34
"8","117","343.0574291412016","285.8846674133653",18/12/22 05:13:34
"8","117","344.7835756948165","286.32881799088614",18/12/22 05:13:34
"8","117","344.8562948094569","287.0175897638099",18/12/22 05:13:34
"8","117","346.1997741518853","286.8354393571512",18/12/22 05:13:34
"8","117","345.5722054296824","286.9543725518327",18/12/22 05:13:34
"8","117","346.07983066455944","286.23538593439855",18/12/22 05:13:34
"8","117","345.24767400559773","286.76214525517287",18/12/22 05:13:34
"8","117","346.14056980267003","285.88249974377203",18/12/22 05:13:34
"8","117","345.60195639887934","285.387278432146",18/12/22 05:13:34
"8","117","345.2304914722103","285.5342671563771",18/12/22 05:13:35
"8","117","345.3465486247943","286.5256913579232",18/12/22 05:13:35
"8","117","346.26646955549177","286.38359848109013",18/12/22 05:13:35
"8","117","346.28401490411045","286.37934574747385",18/12/22 05:13:35
"8","117","344.5590521073562","285.3858358434081",18/12/22 05:13:35
"8","117","344.9408656693248","286.5795650659093",18/12/22 05:13:35
"8","117","346.8142305229503","287.88279556391456",18/12/22 05:13:35
"8","117","348.1759648344101","286.8571406264734",18/12/22 05:13:35
"8","117","347.78006026854183","286.86459170477303",18/12/22 05:13:35
"8","117","347.86842114654826","286.77430296158485",18/12/22 05:13:35
"8","117","349.65857309358626","286.25199180438466",18/12/22 05:13:35
"8","117","348.76843380282","286.90055035853396",18/12/22 05:13:35
"8","117","348.9179454410019","287.1760711363562",18/12/22 05:13:35
"8","117","346.5014635458262","287.318542119546",18/12/22 05:13:35
"8","117","346.49821821159003","287.31284185491177",18/12/22 05:13:35
"8","117","346.49128695697476","287.31376464507207",18/12/22 05:13:35
"8","117","346.45519191759234","287.46385752046655",18/12/22 05:13:35
"8","117","346.27141336386944","287.58285056702834",18/12/22 05:13:35
"8","117","346.4520011936915","287.56884804319486",18/12/22 05:13:35
"8","117","348.2223710233143","286.9751477261635",18/12/22 05:13:35
"8","117","346.5530338893388","286.5970915248094",18/12/22 05:13:35
"8","117","347.59322161148475","285.9437595455281",18/12/22 05:13:35
"8","117","348.2455678220921","285.79213125940646",18/12/22 05:13:35
"8","117","348.6371494429334","285.53961498288527",18/12/22 05:13:35
"8","117","348.6413132209381","285.53625304578435",18/12/22 05:13:35
"8","117","347.9396069222814","285.80725569375284",18/12/22 05:13:35
"8","117","347.60659322092386","288.1006687668093",18/12/22 05:13:35
"8","117","346.807791659208","286.80003320978267",18/12/22 05:13:35
"8","117","346.99224686005937","286.24254277995817",18/12/22 05:13:35
"8","117","348.2501398455346","286.69542369410203",18/12/22 05:13:35
"8","117","347.7849552999721","286.24251744023275",18/12/22 05:13:35
"8","117","347.51489820803295","286.1354235639251",18/12/22 05:13:35
"8","117","347.40947096485075","286.13273541213096",18/12/22 05:13:35
"8","117","345.46907528839273","285.8818074563246",18/12/22 05:13:35
"8","117","345.4598487631887","285.90428758622124",18/12/22 05:13:35
"8","117","345.1788091759226","285.8232644546876",18/12/22 05:13:35
"8","117","345.0589324550643","285.63500542409633",18/12/22 05:13:35
"8","117","346.47405823096307","286.3230118951707",18/12/22 05:13:35
"8","117","347.7900455654871","285.4725395011032",18/12/22 05:13:35
"8","117","347.68990138785824","287.60209108216714",18/12/22 05:13:35
"8","117","347.7967399186972","287.68758679744457",18/12/22 05:13:35
"8","117","346.83568096478814","288.1007829796879",18/12/22 05:13:35
"8","117","346.05204743405415","287.2637898820951",18/12/22 05:13:35
"8","117","345.14645335246075","288.0925282050351",18/12/22 05:13:35
"8","117","344.9175681962515","287.8482575820277",18/12/22 05:13:35
"8","117","344.5265582936203","287.3574450420025",18/12/22 05:13:35
"8","117","345.430852204134","287.6223819093196",18/12/22 05:13:35
"8","117","343.4870341362481","287.2176411637287",18/12/22 05:13:35
"8","117","342.598089811116","288.46787742688304",18/12/22 05:13:35
"8","117","342.97464518264724","288.0714419701253",18/12/22 05:13:35
"8","117","342.777344713264","288.0992754237114",18/12/22 05:13:36
"8","117","343.6430756253501","286.8585410189117",18/12/22 05:13:36
"8","117","342.4789570307852","285.50534362522836",18/12/22 05:13:36
"8","117","342.55435086841345","285.71822761709836",18/12/22 05:13:36
"8","117","342.35178525360647","286.1860995829804",18/12/22 05:13:36
"8","117","344.05742566119864","286.2107897559859",18/12/22 05:13:36
"8","117","343.63181663427656","285.995203803677",18/12/22 05:13:36
"8","117","343.5903717990527","285.88253535290306",18/12/22 05:13:36
"8","117","342.7167328924633","287.12009747696305",18/12/22 05:13:36
"8","117","344.14154459398","287.73667302277676",18/12/22 05:13:36
"8","117","343.77610788870976","287.2271720019585",18/12/22 05:13:36
"8","117","342.42980896540433","287.50440862873074",18/12/22 05:13:36
"8","117","344.13691620052987","287.1259265445791",18/12/22 05:13:36
"8","117","344.32792185470936","287.1692538799123",18/12/22 05:13:36
"8","117","344.25299113060856","287.14778119198644",18/12/22 05:13:36
"8","117","343.4774221212662","285.63250073478946",18/12/22 05:13:36
"8","117","342.4225200170386","286.49885859874075",18/12/22 05:13:36
"8","117","344.36979366452886","285.5185694334748",18/12/22 05:13:36
"8","117","344.3694790665091","286.1137102147566",18/12/22 05:13:36
"8","117","344.0801993439429","285.9120169166082",18/12/22 05:13:36
"8","117","343.9892807658334","285.9352026856512",18/12/22 05:13:36
"8","117","345.02852209738313","286.2784682215663",18/12/22 05:13:36
"8","117","345.5415589575867","286.4483476786793",18/12/22 05:13:36
"8","117","345.12134262205774","286.3204193576048",18/12/22 05:13:36
"8","117","346.17951455127536","285.87930137949775",18/12/22 05:13:36
"8","117","347.25400986471647","287.34070599403486",18/12/22 05:13:36
"8","117","347.6117543544757","287.6135421035888",18/12/22 05:13:36
"8","117","348.1559946274516","288.07426495847227",18/12/22 05:13:36
"8","117","346.60852888922193","286.31153680784234",18/12/22 05:13:36
"8","117","347.3471847477401","285.6468265515796",18/12/22 05:13:36
"8","117","347.4304914369373","285.37731251076394",18/12/22 05:13:36
"8","117","347.20941470533535","286.16034748868753",18/12/22 05:13:36
"8","117","346.3769128615859","286.5145643004198",18/12/22 05:13:36
"8","117","347.14260115500974","287.21712888376464",18/12/22 05:13:36
"8","117","347.65947234889865","287.1705719912257",18/12/22 05:13:36
"8","117","346.0710910695649","285.9209822082172",18/12/22 05:13:36
"8","117","344.1850943491584","286.8738010003515",18/12/22 05:13:36
"8","117","346.3196492751111","285.88409657905095",18/12/22 05:13:36
"8","117","345.20195295718327","285.44969784468526",18/12/22 05:13:36
"8","117","345.11921161318315","285.7567499645055",18/12/22 05:13:36
"8","117","342.82618272846327","286.67578158397924",18/12/22 05:13:36
"8","117","343.56358906233726","285.40222980563965",18/12/22 05:13:36
"8","117","343.550297450274","287.5573118441508",18/12/22 05:13:36
"8","117","344.5946175779724","286.9992688592601",18/12/22 05:13:36
"8","117","344.2395398879119","288.3018460723104",18/12/22 05:13:36
"8","117","344.5269281445428","287.87882432864296",18/12/22 05:13:36
"8","117","343.8139276559096","288.03324882946475",18/12/22 05:13:36
"8","117","343.8023551107269","288.0421362104605",18/12/22 05:13:36
"8","117","345.62491114575244","288.63356251464626",18/12/22 05:13:36
"8","117","346.59456846917897","288.496931119728",18/12/22 05:13:36
"8","117","346.9198895163557","287.92574052810403",18/12/22 05:13:37
"8","117","346.899347462382","287.93157245017767",18/12/22 05:13:37
"8","117","347.87022119863923","287.6121541440496",18/12/22 05:13:37
"8","117","350.1091574399293","286.73450879275805",18/12/22 05:13:37
"8","117","350.44659587699647","288.29472470167923",18/12/22 05:13:37
"8","117","349.2479108284665","287.9054254234518",18/12/22 05:13:37
"8","117","348.8937334180005","286.3083000801844",18/12/22 05:13:37
"8","117","348.6933996151567","286.2398884575965",18/12/22 05:13:37
"8","117","348.79104454168595","286.40550549967827",18/12/22 05:13:37
"8","117","349.61973835976687","286.77002508897726",18/12/22 05:13:37
"8","117","347.99392810786094","286.4591974609487",18/12/22 05:13:37
"8","117","348.25039911178135","286.4523796083314",18/12/22 05:13:37
"8","117","348.25039911178135","286.4523796083314",18/12/22 05:13:37
"8","117","348.25039911178135","286.4523796083314",18/12/22 05:13:37
"8","117","349.91329922994885","286.61959668112604",18/12/22 05:13:37
"8","117","351.8675587962032","286.81611213059875",18/12/22 05:13:37
"8","117","354.32663140785695","287.06339031611196",18/12/22 05:13:37
"8","117","356.2930316880145","287.26112660538035",18/12/22 05:13:37
"8","117","357.9828609107356","287.43105160151157",18/12/22 05:13:37
"8","117","359.76986423168154","287.6107481816839",18/12/22 05:13:37
"8","117","361.6264578114106","287.79744258405947",18/12/22 05:13:37
"8","117","363.32838976501364","287.96858460050885",18/12/22 05:13:37
"8","117","364.79101255158594","288.11566228623474",18/12/22 05:13:37
"8","117","365.167524535762","288.53851824440113",18/12/22 05:13:37
"8","117","365.6482776947449","288.46778664718914",18/12/22 05:13:37
"8","117","366.8917252594554","287.25305367931026",18/12/22 05:13:37
"8","117","366.09623963878","288.4020343713833",18/12/22 05:13:37
"8","117","365.15378840697025","287.24633917318187",18/12/22 05:13:37
"8","117","363.6392627919012","287.9638554292591",18/12/22 05:13:37
"8","117","363.6716166019069","287.4105468210949",18/12/22 05:13:37
"8","117","363.2657094062476","286.19595929532255",18/12/22 05:13:37
"8","117","365.0566471437474","287.01153668973586",18/12/22 05:13:37
"8","117","365.5216358778628","285.797223270395",18/12/22 05:13:37
"8","117","363.7858452419381","287.3583275685609",18/12/22 05:13:37
"8","117","363.7625254849498","287.04593713879075",18/12/22 05:13:37
"8","117","364.51269538769","285.5284550883356",18/12/22 05:13:37
"8","117","365.114926412248","285.8191822355474",18/12/22 05:13:37
"8","117","364.95865341059283","285.4026578882618",18/12/22 05:13:37
"8","117","365.63287559578094","287.77064488047915",18/12/22 05:13:37
"8","117","365.2906740587249","287.9794632656704",18/12/22 05:13:37
"8","117","364.9239301696944","287.74323512124516",18/12/22 05:13:37
"8","117","363.1513163755218","287.18160258188385",18/12/22 05:13:37
"8","117","362.7702430611842","287.5582321216854",18/12/22 05:13:37
"8","117","364.86076418319044","286.77167824680845",18/12/22 05:13:37
"8","117","364.5376935215067","288.3125894848285",18/12/22 05:13:37
"8","117","366.61155114405625","287.2720173132405",18/12/22 05:13:37
"8","117","367.1372186964636","287.23941913285586",18/12/22 05:13:37
"8","117","366.4083180142182","287.02684470440954",18/12/22 05:13:37
"8","117","366.4911224043167","287.0909890279189",18/12/22 05:13:37
"8","117","365.04817093297964","287.6011597703755",18/12/22 05:13:37
"8","117","365.3308162855989","287.5843128190442",18/12/22 05:13:38
"8","117","364.9151485190743","287.9225617000652",18/12/22 05:13:38
"8","117","364.98176032402046","287.8669262052066",18/12/22 05:13:38
"8","117","365.01972645827937","288.30477038479086",18/12/22 05:13:38
"8","117","365.1994343391516","287.1608318214021",18/12/22 05:13:38
"8","117","365.7676683470657","287.3165038164433",18/12/22 05:13:38
"8","117","363.5178875772268","287.79344653191276",18/12/22 05:13:38
"8","117","362.782748898929","286.5421975121902",18/12/22 05:13:38
"8","117","363.3626052458906","287.5279856222771",18/12/22 05:13:38
"8","117","361.03211440616434","287.74575346414133",18/12/22 05:13:38
"8","117","362.3040845734266","287.84535122261997",18/12/22 05:13:38
"8","117","362.1219187669433","287.9094911198058",18/12/22 05:13:38
"8","117","363.0937485469722","287.00307423848767",18/12/22 05:13:38
"8","117","361.5969234204914","288.50276121928124",18/12/22 05:13:38
"8","117","361.16127531948575","288.5701453771088",18/12/22 05:13:38
"8","117","360.76953947974937","288.6263128105279",18/12/22 05:13:38
"8","117","359.032614015086","287.738079942586",18/12/22 05:13:38
"8","117","359.13809165068704","287.76603810301026",18/12/22 05:13:38
"8","117","359.04486815078474","287.71592668362246",18/12/22 05:13:38
"8","117","357.61765452219714","286.40600434644483",18/12/22 05:13:38
"8","117","357.25634968467534","286.60948951740363",18/12/22 05:13:38
"8","117","357.4566036872241","286.09729352451154",18/12/22 05:13:38
"8","117","357.03726649622007","286.6537504561368",18/12/22 05:13:38
"8","117","356.6974604996323","286.005025338169",18/12/22 05:13:38
"8","117","357.15771778343316","285.9449533114963",18/12/22 05:13:38
"8","117","356.04059487152625","287.53303592357264",18/12/22 05:13:38
"8","117","357.1190782507999","287.5154505850857",18/12/22 05:13:38
"8","117","357.97300551397876","287.8597568715332",18/12/22 05:13:38
"8","117","357.3517526611203","288.464962341762",18/12/22 05:13:38
"8","117","357.4573164197884","288.57766077860987",18/12/22 05:13:38
"8","117","356.8470491019437","288.2308135525134",18/12/22 05:13:38
"8","117","356.51085398868474","287.431981274693",18/12/22 05:13:38
"8","117","355.9260426197308","285.36660664463005",18/12/22 05:13:38
"8","117","355.5806762701471","285.46663382772635",18/12/22 05:13:38
"8","117","355.4484028528252","285.8219628058355",18/12/22 05:13:38
"8","117","353.9326304728371","286.73478882408995",18/12/22 05:13:38
"8","117","352.4374256674145","287.5190678271635",18/12/22 05:13:38
"8","117","352.5258737213753","286.97774285876994",18/12/22 05:13:38
"8","117","352.54197512060233","287.0064268762067",18/12/22 05:13:38
"8","117","352.45788251630887","287.1183933351884",18/12/22 05:13:38
"8","117","352.5151851437985","287.1060802100679",18/12/22 05:13:38
"8","117","352.4070075698104","287.1195580146108",18/12/22 05:13:38
"8","117","352.414993884456","287.1727978299456",18/12/22 05:13:38
"8","117","351.8114917096561","287.88326940019704",18/12/22 05:13:38
"8","117","351.51123417259","288.117598318045",18/12/22 05:13:38
"8","117","351.42006508677696","288.30411352464193",18/12/22 05:13:38
"8","117","350.37117889979385","287.71027617813513",18/12/22 05:13:38
"8","117","349.1343158645492","287.0860108797536",18/12/22 05:13:38
"8","117","348.92074246820636","287.6677029957405",18/12/22 05:13:38
"8","117","348.20004559587335","288.0795104499779",18/12/22 05:13:38
"8","117","349.0172564480826","288.19055803877825",18/12/22 05:13:39
"8","117","348.9845090692604","287.4583569981074",18/12/22 05:13:39
"8","117","348.5028732495275","286.80638185054437",18/12/22 05:13:39
"8","117","347.0561962492688","287.77891156364825",18/12/22 05:13:39
"8","117","346.97651781545363","287.80482517659584",18/12/22 05:13:39
"8","117","347.1228701436923","286.27958435745745",18/12/22 05:13:39
"8","117","346.92122982943073","286.5797370698187",18/12/22 05:13:39
"8","117","346.4367090739768","285.8901658479783",18/12/22 05:13:39
"8","117","346.60079133925734","286.2756533157646",18/12/22 05:13:39
"8","117","346.5693395803495","286.27052887725586",18/12/22 05:13:39
"8","117","345.9874700857205","285.6370385073962",18/12/22 05:13:39
"8","117","344.93796678580014","285.88920087824283",18/12/22 05:13:39
"8","117","344.99223282502857","285.89400097079164",18/12/22 05:13:39
"8","117","344.8748684221598","285.39156885045844",18/12/22 05:13:39
"8","117","345.4271298934392","286.5959893508822",18/12/22 05:13:39
"8","117","344.0874415186772","286.58292705878233",18/12/22 05:13:39
"8","117","344.8577471697508","287.18356908501397",18/12/22 05:13:39
"8","117","345.308717131952","288.14168345265983",18/12/22 05:13:39
"8","117","344.98179522886153","286.45600414217853",18/12/22 05:13:39
"8","117","344.59432911280163","285.49644718776716",18/12/22 05:13:39
"8","117","346.05191557313293","285.9683242446584",18/12/22 05:13:39
"8","117","345.84782654571814","286.48500445221225",18/12/22 05:13:39
"8","117","347.8893704851733","286.3735396611439",18/12/22 05:13:39
"8","117","346.6378355639843","287.09182414321174",18/12/22 05:13:39
"8","117","345.17991418753684","285.4942205872079",18/12/22 05:13:39
"8","117","344.14137278160933","286.12280445166533",18/12/22 05:13:39
"8","117","344.2315932282244","286.71326493951403",18/12/22 05:13:39
"8","117","345.61275807058246","287.41946411152605",18/12/22 05:13:39
"8","117","345.84878670585016","287.54769438134076",18/12/22 05:13:39
"8","117","345.25250649860754","285.93057481107223",18/12/22 05:13:39
"8","117","342.97229682440275","286.0559936636368",18/12/22 05:13:39
"8","117","342.72722828815773","286.4265065582764",18/12/22 05:13:39
"8","117","343.97233831255875","287.5123335860823",18/12/22 05:13:39
"8","117","344.23481953529506","288.4705075787801",18/12/22 05:13:39
"8","117","345.82650630197907","287.2072441952478",18/12/22 05:13:39
"8","117","346.7589472246936","287.7185766768094",18/12/22 05:13:39
"8","117","345.211484420342","286.9386476847807",18/12/22 05:13:39
"8","117","344.90161715791675","287.9711794012748",18/12/22 05:13:39
"8","117","345.5431858980245","286.91652858408025",18/12/22 05:13:39
"8","117","345.5363701725482","286.9175066835243",18/12/22 05:13:39
"8","117","345.48877305438674","285.4707814091881",18/12/22 05:13:39
"8","117","344.71963130198","286.28424616279455",18/12/22 05:13:39
"8","117","343.3934014976425","285.5242503093092",18/12/22 05:13:39
"8","117","343.0773824901101","286.3587674679334",18/12/22 05:13:39
"8","117","345.405459796599","285.5456196151703",18/12/22 05:13:39
"8","117","345.96923735969625","285.90533075158214",18/12/22 05:13:39
"8","117","345.9527398203757","286.4539714172483",18/12/22 05:13:39
"8","117","346.29904390576075","286.2249393930575",18/12/22 05:13:39
"8","117","348.2697536999291","285.5357870134782",18/12/22 05:13:39
"8","117","347.14822876340025","286.6455014287553",18/12/22 05:13:39
"8","117","348.55415070509696","286.72779420134515",18/12/22 05:13:40
"8","117","349.2961056144106","286.05479947327177",18/12/22 05:13:40
"8","117","349.32307738371856","286.10800009409735",18/12/22 05:13:40
"8","117","348.835768224395","285.65996696445825",18/12/22 05:13:40
"8","117","348.1964830861995","287.4124365066342",18/12/22 05:13:40
"8","117","349.0072077748567","285.40323346324294",18/12/22 05:13:40
"8","117","347.6602176955857","286.1907424666658",18/12/22 05:13:40
"8","117","348.25256843388706","286.43059255746135",18/12/22 05:13:40
"8","117","347.94492167023844","286.63202943440416",18/12/22 05:13:40
"8","117","349.30010119473997","288.6549265161636",18/12/22 05:13:40
"8","117","347.17033642221236","287.78840640214474",18/12/22 05:13:40
"8","117","346.84717557505695","288.03951972365167",18/12/22 05:13:40
"8","117","346.7960208225171","286.99994504854294",18/12/22 05:13:40
"8","117","346.8714011200314","286.331595770006",18/12/22 05:13:40
"8","117","346.0835568306599","285.6818842824306",18/12/22 05:13:40
"8","117","346.1540367110245","285.72227639449",18/12/22 05:13:40
"8","117","344.7966338608593","287.7167433876016",18/12/22 05:13:40
"8","117","347.16531119888737","288.0992710803067",18/12/22 05:13:40
"8","117","347.2883611377291","288.00877429185704",18/12/22 05:13:40
"8","117","347.28701661397724","288.00096951381573",18/12/22 05:13:40
"8","117","346.9564483243438","287.93477095745436",18/12/22 05:13:40
"8","117","345.15019133509526","287.8596992381944",18/12/22 05:13:40
"8","117","345.69444915621","286.1726576558334",18/12/22 05:13:40
"8","117","347.7637389950742","287.10313352783845",18/12/22 05:13:40
"8","117","345.64507691026176","286.3971752371352",18/12/22 05:13:40
"8","117","344.820053460582","286.76835544721763",18/12/22 05:13:40
"8","117","346.3415031732781","287.23791304023916",18/12/22 05:13:40
"8","117","346.9619956038381","288.306374990265",18/12/22 05:13:40
"8","117","346.90664459708546","288.1652910337558",18/12/22 05:13:40
"8","117","346.0913979355499","288.5424988094526",18/12/22 05:13:40
"8","117","345.85866082237413","287.1126087835056",18/12/22 05:13:40
"8","117","345.0755321405454","288.19934769285993",18/12/22 05:13:40
"8","117","345.3228908793348","287.8336720801836",18/12/22 05:13:40
"8","117","345.3142396922178","287.879624180685",18/12/22 05:13:40
"8","117","346.8487881183729","287.6468335962668",18/12/22 05:13:40
"8","117","348.34596291972855","287.6611889547479",18/12/22 05:13:40
"8","117","347.44275408652726","287.4244303370644",18/12/22 05:13:40
"8","117","346.5502046838529","288.5812562927978",18/12/22 05:13:40
"8","117","346.52997199821215","288.58166811774396",18/12/22 05:13:40
"8","117","347.3799243040329","288.1062222599791",18/12/22 05:13:40
"8","117","347.5722577588398","287.3018270788063",18/12/22 05:13:40
"8","117","346.03872060959395","288.51727841573364",18/12/22 05:13:40
"8","117","345.4199877151158","288.58854315958826",18/12/22 05:13:40
"8","117","345.21318307416675","287.54611467703074",18/12/22 05:13:40
"8","117","346.2378643871864","287.0831913924678",18/12/22 05:13:40
"8","117","348.69171365036607","287.3379186857193",18/12/22 05:13:40
"8","117","348.8364063092569","286.819258318001",18/12/22 05:13:40
"8","117","349.6980142337007","286.9215993698096",18/12/22 05:13:40
"8","117","348.40268651383343","285.570682004401",18/12/22 05:13:40
"8","117","346.39748669220046","285.5876381735653",18/12/22 05:13:40
"8","117","347.0179007372535","286.22644396537265",18/12/22 05:13:41
"8","117","347.39937173822096","286.60574657166086",18/12/22 05:13:41
"8","117","347.7625482246803","287.3638061942028",18/12/22 05:13:41
"8","117","345.7147207904026","287.273934942998",18/12/22 05:13:41
"8","117","346.79367072640133","286.193267552319",18/12/22 05:13:41
"8","117","345.9475530156681","285.56404772893967",18/12/22 05:13:41
"8","117","347.19390975313695","286.76126023748594",18/12/22 05:13:41
"8","117","347.11963386354506","286.14840420325373",18/12/22 05:13:41
"8","117","347.10464607849156","286.1476936171621",18/12/22 05:13:41
"8","117","346.9497510084571","285.97207526632195",18/12/22 05:13:41
"8","117","348.769447686956","286.3971752416618",18/12/22 05:13:41
"8","117","348.31827051608786","285.88051951891725",18/12/22 05:13:41
"8","117","348.3263189975452","285.86447449739484",18/12/22 05:13:41
"8","117","349.03854433668465","285.6438363925441",18/12/22 05:13:41
"8","117","347.67980817107775","287.72352576465886",18/12/22 05:13:41
"8","117","347.5589398978908","287.9375540069406",18/12/22 05:13:41
"8","117","348.445271752882","287.76441899875925",18/12/22 05:13:41
"8","117","347.8415084572212","287.71251936725315",18/12/22 05:13:41
"8","117","347.9624055022141","287.65629008008534",18/12/22 05:13:41
"8","117","348.15782333233125","285.80880265211226",18/12/22 05:13:41
"8","117","347.8019442812491","285.503604863964",18/12/22 05:13:41
"8","117","347.10866221695636","285.6982886259296",18/12/22 05:13:41
"8","117","347.0605341673378","285.5483176409608",18/12/22 05:13:41
"8","117","348.3584965575316","286.1165196564131",18/12/22 05:13:41
"8","117","346.99791095241113","287.3470081851388",18/12/22 05:13:41
"8","117","347.782460646576","286.4078226538748",18/12/22 05:13:41
"8","117","345.50877551332013","287.0248374205314",18/12/22 05:13:41
"8","117","344.32895015314375","285.5130741167394",18/12/22 05:13:41
"8","117","344.3667844536575","286.00250141835403",18/12/22 05:13:41
"8","117","342.4990058360326","286.72774980969643",18/12/22 05:13:41
"8","117","342.8857616998345","287.4074630264681",18/12/22 05:13:41
"8","117","343.08301461933144","288.4371037932851",18/12/22 05:13:41
"8","117","342.96925254655235","288.38318483914986",18/12/22 05:13:41
"8","117","341.8235737382451","287.75590576120265",18/12/22 05:13:41
"8","117","341.873764482186","287.775334950135",18/12/22 05:13:41
"8","117","343.59125945826025","287.5949038923814",18/12/22 05:13:41
"8","117","344.3406766919529","288.4429796811453",18/12/22 05:13:41
"8","117","344.07703087706705","286.78023119462614",18/12/22 05:13:41
"8","117","344.3463413887231","285.46644220719486",18/12/22 05:13:41
"8","117","344.4401863980566","285.40137593269554",18/12/22 05:13:41
"8","117","344.69184880950365","286.1670761510738",18/12/22 05:13:41
"8","117","346.00405478811706","285.66333076859394",18/12/22 05:13:41
"8","117","346.56871294215307","285.53797921503417",18/12/22 05:13:41
"8","117","348.31083113439536","285.4901807165114",18/12/22 05:13:41
"8","117","350.26573626466853","286.3906105258251",18/12/22 05:13:41
"8","117","348.9023852474175","288.068409441735",18/12/22 05:13:41
"8","117","348.8004824726206","287.18325354217615",18/12/22 05:13:41
"8","117","349.0712980281032","287.2684684503071",18/12/22 05:13:41
"8","117","349.2647830174055","288.5665091195072",18/12/22 05:13:41
"8","117","349.2257643017222","288.57835730327076",18/12/22 05:13:41
"8","117","348.6121066302356","287.268614358885",18/12/22 05:13:42
"8","117","350.87417813141883","287.5115308633033",18/12/22 05:13:42
"8","117","350.62454845512366","287.395490283242",18/12/22 05:13:42
"8","117","350.9472482204999","286.54856439177786",18/12/22 05:13:42
"8","117","350.63493613126127","286.5990903954503",18/12/22 05:13:42
"8","117","351.23140324908275","286.46769602564814",18/12/22 05:13:42
"8","117","350.3910575627731","287.2605803627602",18/12/22 05:13:42
"8","117","350.1701602378487","287.72630388087885",18/12/22 05:13:42
"8","117","349.86303609210813","285.7708386987567",18/12/22 05:13:42
"8","117","351.8127193512266","287.0312750396128",18/12/22 05:13:42
"8","117","352.15692003022764","286.94837011832277",18/12/22 05:13:42
"8","117","352.25650725972565","286.7836655810101",18/12/22 05:13:42
"8","117","353.58495816438","287.9791615800371",18/12/22 05:13:42
"8","117","353.1107385732683","287.72492516085043",18/12/22 05:13:42
"8","117","354.17310949369374","286.7738463154103",18/12/22 05:13:42
"8","117","353.0748568838239","285.64269556796535",18/12/22 05:13:42
"8","117","352.19385412876915","285.4383852618697",18/12/22 05:13:42
"8","117","351.4027491456512","286.30708112103554",18/12/22 05:13:42
"8","117","352.3085959978729","286.10674169600253",18/12/22 05:13:42
"8","117","352.8734519506431","288.13001000402994",18/12/22 05:13:42
"8","117","353.4729903462686","288.117219285989",18/12/22 05:13:42
"8","117","355.33566655207835","288.6497605591163",18/12/22 05:13:42
"8","117","354.6633823544618","287.70105881276146",18/12/22 05:13:42
"8","117","356.4577135536766","288.1396333765597",18/12/22 05:13:42
"8","117","357.2863914379805","286.3166250832746",18/12/22 05:13:42
"8","117","358.4757146279728","285.68702151974486",18/12/22 05:13:42
"8","117","358.0819396471663","286.63563813388066",18/12/22 05:13:42
"8","117","358.0819396471663","286.63563813388066",18/12/22 05:13:42
