"deviceId","device_location_x","device_location_y","rssi_measurement","timeStamp"
"90","358.762765685393","292.80195640681984","-57","2019-01-07"
"89","357.59118057421017","295.1189204218962","-61","2019-01-07"
"92","351.3862319274895","293.3975933499371","-57","2019-01-07"
"91","350.0541762392206","291.7476227653425","-55","2019-01-07"
"82","335.74583381354364","287.91349679511023","-70","2019-01-07"
"93","341.76103461054305","285.72783461459653","-63","2019-01-07"
"94","349.68359698522147","285.4414427810206","-52","2019-01-07"
"88","360.95090777910707","284.38599841646055","-59","2019-01-07"
"71","345.1842583276956","283.53143591287215","-62","2019-01-07"
"96","353.99553044578585","282.15922387223833","-50","2019-01-07"
"70","371.0581732901929","280.95764164940897","-71","2019-01-07"
"72","365.9055288887108","278.74374271672605","-67","2019-01-07"
"74","349.877276390477","277.96214803103135","-61","2019-01-07"
"56","370.26335266753347","294.33426244303826","-68","2019-01-07"
"57","364.25411857783973","289.907993192389","-64","2019-01-07"
"68","353.9637942625498","288.1945842882916","-54","2019-01-07"
"64","353.71673560300644","292.8599072328805","-59","2019-01-07"
"63","351.90144540517986","295.1206336256266","-60","2019-01-07"
"47","342.85595713934697","292.6640131672464","-67","2019-01-07"
"62","337.56813065708184","292.9642741842405","-71","2019-01-07"
"67","363.93234215776937","286.6003991712911","-61","2019-01-07"
"65","351.4558626792008","284.1346438168924","-55","2019-01-07"
"69","355.5571693578225","283.73517374183416","-55","2019-01-07"
"40","367.90911405996326","283.22192188580726","-69","2019-01-07"
"48","357.2920826269496","282.8342524081413","-59","2019-01-07"
"55","342.2950504464347","282.6622409701991","-64","2019-01-07"
"41","365.81403622737366","281.03169531874516","-65","2019-01-07"
"43","340.0008177213611","276.806785270563","-69","2019-01-07"
"117","364.1911959629898","294.6909852145023","-66","2019-01-07"
"118","353.9525620951597","294.33085713282304","-60","2019-01-07"
"107","342.4641203471324","296.22353066959727","-66","2019-01-07"
"109","337.5820493622357","293.885285929556","-71","2019-01-07"
"106","344.53332191810875","290.44027583556095","-65","2019-01-07"
"105","345.7525429510356","286.51179267979967","-62","2019-01-07"
"112","339.14112008527655","284.8794424194873","-66","2019-01-07"
"116","346.0577139151441","280.23583377950257","-63","2019-01-07"
"111","339.6390391360629","278.5873177092746","-71","2019-01-07"
"108","347.59919546164787","278.03283736138656","-64","2019-01-07"

