"deviceId","device_location_x","device_location_y","rssi_measurement","timeStamp"
"83","333.00887092190925","288.6149415150822","-63","2019-01-07"
"73","329.6231108716528","295.4743058788954","-64","2019-01-07"
"87","320.58075450106514","291.4415611384055","-55","2019-01-07"
"82","335.74583381354364","287.91349679511023","-63","2019-01-07"
"93","341.76103461054305","285.72783461459653","-68","2019-01-07"
"95","327.32644140196203","279.0828895775143","-59","2019-01-07"
"86","320.5276063310955","289.324599485956","-49","2019-01-07"
"76","319.1669533308334","283.30686708510666","-53","2019-01-07"
"77","316.61411155835316","280.2785522751003","-60","2019-01-07"
"80","316.3105257630954","288.0824387914028","-57","2019-01-07"
"78","312.72619932041073","292.59777273529807","-65","2019-01-07"
"85","311.03265669816824","280.4321238201672","-66","2019-01-07"
"81","308.95520113182386","288.0144185251748","-66","2019-01-07"
"79","307.7871356365499","293.113529010343","-69","2019-01-07"
"84","306.50796722930403","279.2785261558262","-69","2019-01-07"
"62","337.56813065708184","292.9642741842405","-68","2019-01-07"
"61","332.27253217250995","291.53177721937965","-65","2019-01-07"
"50","328.7346296744418","294.0054170186786","-64","2019-01-07"
"51","328.31580917106356","292.22545330876557","-60","2019-01-07"
"53","326.34231244639926","287.79941635687925","-57","2019-01-07"
"42","334.20433555709235","287.52416185374614","-66","2019-01-07"
"39","329.93627634168365","277.7390250275209","-66","2019-01-07"
"49","323.7849986843594","283.34290379581955","-54","2019-01-07"
"66","321.1573087932985","280.45921697639506","-61","2019-01-07"
"59","317.7853754668495","291.80293435381026","-61","2019-01-07"
"58","316.1102657438319","284.095827309181","-61","2019-01-07"
"60","315.3968907093734","293.0365407734311","-63","2019-01-07"
"52","312.6897959471512","285.8906780880622","-62","2019-01-07"
"54","310.8871714494051","279.3304129386068","-67","2019-01-07"
"45","310.38655697126467","292.600147608145","-67","2019-01-07"
"46","308.0565192145852","289.82717615633004","-66","2019-01-07"
"44","303.8972814314286","283.8939165362689","-71","2019-01-07"
"109","337.5820493622357","293.885285929556","-70","2019-01-07"
"101","323.30314910963205","292.80876008143196","-57","2019-01-07"
"110","333.8521569486251","290.4137338068309","-63","2019-01-07"
"100","330.2780048658795","289.69629529399515","-61","2019-01-07"
"115","327.9225028964804","287.55693742007276","-57","2019-01-07"
"112","339.14112008527655","284.8794424194873","-69","2019-01-07"
"121","330.8368451164994","279.2616309846005","-66","2019-01-07"
"111","339.6390391360629","278.5873177092746","-69","2019-01-07"
"120","322.0755793348926","281.2224217078845","-56","2019-01-07"
"98","321.16901767485365","296.10262740933626","-63","2019-01-07"
"99","317.9091011846976","295.9194714574657","-63","2019-01-07"
"113","317.65463493301024","280.94165940566404","-62","2019-01-07"
"97","313.55199953688583","283.6837070700725","-62","2019-01-07"
"104","311.0020566385507","291.9945251477942","-67","2019-01-07"
"102","309.6240766397546","279.9735930512851","-67","2019-01-07"
"119","306.381005455004","282.04541043531515","-71","2019-01-07"
"103","305.65277197535005","290.2423360831652","-68","2019-01-07"
"114","304.9656876918226","287.91743001976636","-69","2019-01-07"

