"deviceId","device_location_x","device_location_y","rssi_measurement","timeStamp"
"15","363.5779017147612","294.6184459546979","-66","2019-01-07"
"16","363.7604543557407","289.5286507101282","-65","2019-01-07"
"4","361.1006521603888","291.52606388826865","-64","2019-01-07"
"5","356.55146518998015","293.3986602891494","-64","2019-01-07"
"2","354.69894601805936","288.66355639037886","-57","2019-01-07"
"13","350.283700310386","295.2481028643591","-64","2019-01-07"
"14","349.2010908093877","292.4614682074604","-62","2019-01-07"
"10","338.6206538843774","293.83059164137967","-69","2019-01-07"
"28","336.9675931494591","286.6075667415739","-69","2019-01-07"
"3","348.23745296260046","285.77595123670665","-56","2019-01-07"
"27","338.91925948534475","284.6972661806153","-69","2019-01-07"
"6","359.03418225859224","284.5213591131904","-55","2019-01-07"
"23","362.58414624265345","284.4144436494206","-59","2019-01-07"
"7","347.8671256305898","283.9149311932538","-58","2019-01-07"
"20","355.0724230814528","283.7069154619053","-38","2019-01-07"
"30","343.9506601367759","280.202817718577","-62","2019-01-07"
"8","369.8850655288864","278.9049428830468","-67","2019-01-07"
"57","364.25411857783973","289.907993192389","-67","2019-01-07"
"68","353.9637942625498","288.1945842882916","-57","2019-01-07"
"64","353.71673560300644","292.8599072328805","-65","2019-01-07"
"63","351.90144540517986","295.1206336256266","-66","2019-01-07"
"47","342.85595713934697","292.6640131672464","-69","2019-01-07"
"67","363.93234215776937","286.6003991712911","-64","2019-01-07"
"65","351.4558626792008","284.1346438168924","-55","2019-01-07"
"69","355.5571693578225","283.73517374183416","-55","2019-01-07"
"40","367.90911405996326","283.22192188580726","-66","2019-01-07"
"48","357.2920826269496","282.8342524081413","-53","2019-01-07"
"55","342.2950504464347","282.6622409701991","-64","2019-01-07"
"41","365.81403622737366","281.03169531874516","-64","2019-01-07"
"43","340.0008177213611","276.806785270563","-67","2019-01-07"
"38","364.2663150805222","296.02890084540485","-69","2019-01-07"
"37","351.65685787023835","295.7385811362386","-67","2019-01-07"

