"floorId","partitionId","location_x","location_y","timeStamp"
"10","168","334.48600986223374","292.0982572646894",2019-12-364 10:30:34.738
"10","168","335.96311986411007","290.45406101010644",2019-12-364 10:30:34.758
"10","137","337.4887755370932","288.8115204141796",2019-12-364 10:30:34.778
"10","137","339.01236992290546","288.33422095239496",2019-12-364 10:30:34.799
"10","137","340.6985909566264","287.8059751152223",2019-12-364 10:30:34.819
"10","160","340.79144182423966","287.27469815586863",2019-12-364 10:30:34.839
"10","160","338.8206191332776","285.977335835017",2019-12-364 10:30:34.859
"10","160","337.7012760848329","285.24048949068634",2019-12-364 10:30:34.879
"10","160","335.7297640530514","283.94267338735625",2019-12-364 10:30:34.899
"10","160","333.8092695117176","282.67844131475346",2019-12-364 10:30:34.919
"10","160","332.6101820417783","281.88910044201106",2019-12-364 10:30:34.939
"10","160","330.54176068034553","280.52749041475005",2019-12-364 10:30:34.959
"11","160","331.94967399951406","281.30272503372464",2019-12-364 10:30:34.979
"11","160","333.11360543379834","281.9472264182788",2019-12-364 10:30:34.999
"11","160","335.1856025051602","283.09454914017607",2019-12-364 10:30:35.019
"11","160","336.6741062218901","283.91877527419774",2019-12-364 10:30:35.039
"11","160","338.0287372285995","284.66887234492515",2019-12-364 10:30:35.059
"11","160","339.88558372456043","285.69706017652817",2019-12-364 10:30:35.079
"11","160","341.1738860750134","286.41042921540276",2019-12-364 10:30:35.100
"11","157","340.19397950365743","285.86782754371495",2019-12-364 10:30:35.120
"11","157","338.0990254028946","284.70779287264406",2019-12-364 10:30:35.140
"11","157","336.7635741659356","283.9683161767905",2019-12-364 10:30:35.160
"11","157","334.6551393312068","282.80081684633336",2019-12-364 10:30:35.180
"11","157","333.18795855169515","281.9883978189463",2019-12-364 10:30:35.200
"11","157","331.47833220947376","281.04172990348656",2019-12-364 10:30:35.220
"12","142","331.53063313811","281.0360902623399",2019-12-364 10:30:35.240
"12","142","331.53063313811","281.0360902623399",2019-12-364 10:30:35.260
"12","142","333.3510803065757","281.98300722438165",2019-12-364 10:30:35.280
"12","142","335.41941500875464","283.05886443496115",2019-12-364 10:30:35.300
"12","142","337.57230149950334","284.1787017863294",2019-12-364 10:30:35.320
"12","142","339.4000767506957","285.12943049635993",2019-12-364 10:30:35.340
"12","142","340.6831820997667","285.79684575573594",2019-12-364 10:30:35.360
"12","142","342.84125249108587","285.80012314678737",2019-12-364 10:30:35.380
"12","142","344.43289143715884","285.4658936045143",2019-12-364 10:30:35.400
"12","175","345.5231653132689","284.9012801990789",2019-12-364 10:30:35.420
"12","175","345.0437367189106","283.3355710246826",2019-12-364 10:30:35.440
