"floorId","partitionId","location_x","location_y","timeStamp"
"11","144","304.4924859060196","293.7347264151591",2019-12-364 10:30:34.738
"11","144","304.2942849855197","292.38457676692593",2019-12-364 10:30:34.758
"11","144","304.103483240043","291.08483048477984",2019-12-364 10:30:34.778
"11","144","303.8630030731223","289.44667354809087",2019-12-364 10:30:34.800
"11","129","304.5373768016254","288.8333333333333",2019-12-364 10:30:34.820
"11","129","306.2543382151046","288.8333333333333",2019-12-364 10:30:34.840
"11","129","307.5993488063167","288.8333333333333",2019-12-364 10:30:34.860
"11","129","309.35838703627246","288.8333333333333",2019-12-364 10:30:34.880
"11","129","311.52844082565906","288.8333333333333",2019-12-364 10:30:34.900
"11","129","313.9408913761197","288.8333333333333",2019-12-364 10:30:34.920
"11","129","315.6504455506389","288.8333333333333",2019-12-364 10:30:34.940
"11","129","317.52661598341433","288.8333333333333",2019-12-364 10:30:34.960
"11","129","319.557018409667","288.8333333333333",2019-12-364 10:30:34.980
"11","129","321.96508293353764","288.8333333333333",2019-12-364 10:30:35.001
"11","129","323.58111054567576","288.8333333333333",2019-12-364 10:30:35.021
"11","129","325.7620472336715","288.8333333333333",2019-12-364 10:30:35.041
"11","129","327.97594417733325","288.8333333333333",2019-12-364 10:30:35.061
"11","158","329.02718740494646","290.2397447688722",2019-12-364 10:30:35.081
