"floorId","partitionId","location_x","location_y","timeStamp"
"8","156","323.9450065370969","282.94043498914493",2019-12-364 10:30:34.713
"8","156","324.52731386653363","284.2901854456942",2019-12-364 10:30:34.733
"8","188","326.26289725599617","285.63400163386933",2019-12-364 10:30:34.753
"8","188","327.9869347394678","286.17259785419117",2019-12-364 10:30:34.773
"8","188","329.1875899158841","286.54768734390774",2019-12-364 10:30:34.793
"8","188","331.55719024372246","287.28795998442894",2019-12-364 10:30:34.813
"8","117","333.1092761412567","287.49230115673333",2019-12-364 10:30:34.833
"8","117","335.10917882240295","287.5996404134763",2019-12-364 10:30:34.853
"8","117","336.9720599592667","287.69962541700505",2019-12-364 10:30:34.873
"8","117","339.06836482150754","287.8121387947514",2019-12-364 10:30:34.893
"8","137","341.252841112392","287.8942036324448",2019-12-364 10:30:34.913
"8","137","339.7956380572015","286.89215626549526",2019-12-364 10:30:34.933
"8","137","338.2835448953312","285.8523636531771",2019-12-364 10:30:34.953
"8","137","336.53485408528115","284.6498743943343",2019-12-364 10:30:34.973
"8","137","334.7002503299499","283.38830699926376",2019-12-364 10:30:34.993
"8","137","332.9639226260474","282.19431924466795",2019-12-364 10:30:35.013
"8","137","330.961350676164","280.81724832626713",2019-12-364 10:30:35.033
"10","137","331.4856581520228","281.10090628071396",2019-12-364 10:30:35.053
"10","137","333.1710444470743","282.12840167356114",2019-12-364 10:30:35.073
"10","137","334.93732515893834","283.2052143302463",2019-12-364 10:30:35.093
"10","137","336.2992921541407","284.0355372163936",2019-12-364 10:30:35.113
"10","137","338.11903266130025","285.14494162580036",2019-12-364 10:30:35.133
"10","137","339.32331439785503","285.8791317278756",2019-12-364 10:30:35.153
"10","137","340.93813888652994","286.8636091306182",2019-12-364 10:30:35.173
"10","160","339.6251514365405","286.0631466136917",2019-12-364 10:30:35.193
"10","160","338.46733445745076","285.3572837410269",2019-12-364 10:30:35.213
"10","160","337.1149361364626","284.53279439505934",2019-12-364 10:30:35.233
"10","160","335.4288746153434","283.504887350785",2019-12-364 10:30:35.253
"10","160","334.27826963024836","282.80342126871034",2019-12-364 10:30:35.273
"10","160","332.96794385221193","282.00458143951846",2019-12-364 10:30:35.293
"10","160","331.75647689300627","281.2660108679971",2019-12-364 10:30:35.313
"11","160","330.9006215750891","280.7618040881196",2019-12-364 10:30:35.333
"11","160","332.60228579277475","281.8738326869235",2019-12-364 10:30:35.353
"11","160","334.08988817049783","282.84597300137784",2019-12-364 10:30:35.373
"11","160","336.04205434442054","284.121703308484",2019-12-364 10:30:35.393
"11","160","337.5240559917484","285.0901835751399",2019-12-364 10:30:35.413
"11","160","338.5785744685964","285.779305842644",2019-12-364 10:30:35.433
"11","160","340.03701640700655","286.73238996367746",2019-12-364 10:30:35.453
"11","157","340.947298536385","287.3272545382089",2019-12-364 10:30:35.473
"11","157","338.8787837858025","285.97549104939094",2019-12-364 10:30:35.493
"11","157","337.5801667367859","285.1268516513287",2019-12-364 10:30:35.513
"11","157","335.75852514695515","283.9364184720864",2019-12-364 10:30:35.533
"11","157","334.09918821272765","282.85205052996554",2019-12-364 10:30:35.553
"11","157","332.78350998905097","281.9922617441722",2019-12-364 10:30:35.573
"11","157","331.05770409244855","280.86445668541836",2019-12-364 10:30:35.593
"12","157","330.64099460849553","281.14987942944805",2019-12-364 10:30:35.613
"12","157","331.0577547590517","283.0708312427843",2019-12-364 10:30:35.633
"12","157","331.4446388511023","284.85407682704613",2019-12-364 10:30:35.653
"12","157","331.75231007514793","286.272210482467",2019-12-364 10:30:35.673
"12","174","331.93690011404135","287.5245408618415",2019-12-364 10:30:35.693
"12","174","329.8493322900613","287.4163541131847",2019-12-364 10:30:35.713
"12","174","327.8089866634711","287.3106146220212",2019-12-364 10:30:35.733
"12","174","327.8089866634711","287.3106146220212",2019-12-364 10:30:35.753
"12","174","323.4294788841396","287.08364968132776",2019-12-364 10:30:35.773
"12","174","323.4294788841396","287.08364968132776",2019-12-364 10:30:35.793
"12","174","320.1922611557468","286.91588312701225",2019-12-364 10:30:35.813
"12","174","318.68581908806544","286.83781281596885",2019-12-364 10:30:35.833
"12","174","317.25788301183843","286.76381102325956",2019-12-364 10:30:35.853
"12","174","315.2828250802321","286.66145502142103",2019-12-364 10:30:35.873
