"floorId","partitionId","location_x","location_y","timeStamp"
"11","144","303.1984187627097","290.3756996434751",2019-12-364 10:30:34.738
"11","144","302.8995684986253","288.98550250992065",2019-12-364 10:30:34.758
"11","158","305.2016496413852","288.77591907401677",2019-12-364 10:30:34.778
"11","158","306.9530898909265","288.7328498816984",2019-12-364 10:30:34.798
"11","158","309.448861746871","288.6714770326535",2019-12-364 10:30:34.818
"11","158","311.8090516938028","288.61343824157353",2019-12-364 10:30:34.838
"11","158","314.1228881433522","288.5565393167801",2019-12-364 10:30:34.858
"11","158","315.6161123671512","288.5198198447422",2019-12-364 10:30:34.878
"11","158","317.85354906700076","288.46479964547984",2019-12-364 10:30:34.898
"11","158","319.1099221529305","288.4339045155571",2019-12-364 10:30:34.918
"11","158","321.5445270022351","288.37403580778863",2019-12-364 10:30:34.938
"11","158","322.8873124901736","288.3410157339166",2019-12-364 10:30:34.958
"11","158","324.3801196471128","288.30430651785673",2019-12-364 10:30:34.978
"11","158","325.7155635391816","288.2714669791783",2019-12-364 10:30:34.998
"11","158","327.47646246763566","288.2281651910513",2019-12-364 10:30:35.018
"11","158","329.190778322446","288.1860089146585",2019-12-364 10:30:35.039
"11","158","331.0734199922416","288.1397133837866",2019-12-364 10:30:35.059
"11","160","332.9706936239998","288.10553286557325",2019-12-364 10:30:35.079
"11","160","335.1712777319523","288.08044721914024",2019-12-364 10:30:35.100
"11","160","337.191984549448","288.05741209106435",2019-12-364 10:30:35.120
"11","160","338.7498671372478","288.0396529462807",2019-12-364 10:30:35.140
"11","160","340.1384503265232","288.0238237367526",2019-12-364 10:30:35.160
"11","157","341.14997930423465","287.90045066435675",2019-12-364 10:30:35.180
"11","157","339.736848956345","286.91849557100704",2019-12-364 10:30:35.200
"11","157","338.3526866850914","285.95666979583365",2019-12-364 10:30:35.220
"11","157","336.69793381447903","284.80681620167684",2019-12-364 10:30:35.240
"11","157","335.5744017612597","284.0260969822163",2019-12-364 10:30:35.260
"11","157","334.0669010930112","282.9785659022806",2019-12-364 10:30:35.280
"11","157","332.37229393025495","281.8010183836242",2019-12-364 10:30:35.300
"11","157","331.0238756131871","280.8640303439941",2019-12-364 10:30:35.320
"12","157","330.68322912174193","281.35501357950346",2019-12-364 10:30:35.340
"12","157","330.96167463782496","282.6543414109068",2019-12-364 10:30:35.360
"12","157","331.3062887312213","284.26243583793325",2019-12-364 10:30:35.380
"12","157","331.7214033184074","286.199511155",2019-12-364 10:30:35.400
"12","174","331.53498902658146","287.35717424260247",2019-12-364 10:30:35.420
"12","174","329.4992009997341","286.2810175996538",2019-12-364 10:30:35.440
"12","174","328.2404624945184","285.6156242550329",2019-12-364 10:30:35.460
"12","187","327.9608507501641","284.14799974432685",2019-12-364 10:30:35.480
"12","187","328.4932058904217","282.9505576507698",2019-12-364 10:30:35.500
"12","187","329.3382536422556","281.04976685795015",2019-12-364 10:30:35.520
