"floorId","partitionId","location_x","location_y","timeStamp"
"12","127","324.32226603013845","289.69413740930963",2019-01-07 10:18:56.825
"12","157","323.7774369860398","288.7306746098459",2019-01-07 10:18:56.845
"12","157","325.1749511269127","288.33869142629396",2019-01-07 10:18:56.865
"12","157","327.40292803205267","287.7137750446883",2019-01-07 10:18:56.885
"12","157","329.71925281499915","287.0640783181904",2019-01-07 10:18:56.905
"12","157","331.99932776621984","286.3177343269423",2019-01-07 10:18:56.925
"12","157","331.4989953686906","284.37633029937194",2019-01-07 10:18:56.945
"12","157","330.90330808336563","282.0649275187141",2019-01-07 10:18:56.965
"11","160","330.51568580579647","280.51163816279353",2019-01-07 10:18:56.985
"11","160","331.71558580085593","281.4019100212927",2019-01-07 10:18:57.005
"11","160","333.6282345747857","282.8210094342718",2019-01-07 10:18:57.025
"11","160","335.1496318690762","283.9498178368724",2019-01-07 10:18:57.045
"11","160","336.63370272318025","285.0509316987507",2019-01-07 10:18:57.065
"11","160","337.7498886209328","285.8790914601593",2019-01-07 10:18:57.086
"11","160","339.4199238740388","287.11818254663615",2019-01-07 10:18:57.106
"11","158","341.2012884623278","288.49087017755426",2019-01-07 10:18:57.126
"11","158","339.22812446002155","287.96686818733986",2019-01-07 10:18:57.146
"11","158","337.9386096282857","287.6244190359004",2019-01-07 10:18:57.166
"11","158","335.94765802931323","287.0956932943692",2019-01-07 10:18:57.186
"11","158","334.5056218682133","286.7127399172073",2019-01-07 10:18:57.206
"11","158","332.7413286813922","286.24420656664165",2019-01-07 10:18:57.226
"11","146","330.64027190898","285.87488949022844",2019-01-07 10:18:57.246
"11","146","328.89957775840224","285.64976697267434",2019-01-07 10:18:57.266
"11","146","327.48915641658783","285.4673583610432",2019-01-07 10:18:57.286
"11","146","325.88100646924386","285.2593776743554",2019-01-07 10:18:57.306
"11","158","323.9057565709158","284.90844903188946",2019-01-07 10:18:57.326
"11","158","322.4073917354189","284.6277058062396",2019-01-07 10:18:57.346
"11","158","320.64047468325634","284.29664491844494",2019-01-07 10:18:57.366
"11","158","318.26342154810675","283.85126502905257",2019-01-07 10:18:57.386
"11","158","317.0076203613564","283.61597008112597",2019-01-07 10:18:57.406
