"floorId","partitionId","location_x","location_y","timeStamp"
"12","127","322.4915361766187","291.8343614923115",2019-01-07 10:23:39.556
"12","127","322.6563174232133","289.7538562380784",2019-01-07 10:23:39.576
"12","157","323.2176593476178","288.81136700093015",2019-01-07 10:23:39.596
"12","157","325.5736606463997","288.70541064471666",2019-01-07 10:23:39.617
"12","157","326.89876546171405","288.6458167565876",2019-01-07 10:23:39.637
"12","157","326.89876546171405","288.6458167565876",2019-01-07 10:23:39.657
"12","157","328.31609985821046","288.5820750310349",2019-01-07 10:23:39.677
"12","157","329.9206398017177","288.5099141175834",2019-01-07 10:23:39.698
"12","157","332.02080074674313","288.3934792374328",2019-01-07 10:23:39.718
"12","157","331.6117739306453","286.2704893011537",2019-01-07 10:23:39.738
"12","157","331.1903859251931","284.0833405381987",2019-01-07 10:23:39.758
"12","157","330.8877706226873","282.5126629774633",2019-01-07 10:23:39.778
"12","157","330.50454019709764","280.52356518538073",2019-01-07 10:23:39.798
"11","160","332.32014552191185","281.7194224277679",2019-01-07 10:23:39.818
"11","160","333.51106317852134","282.5172881382903",2019-01-07 10:23:39.838
"11","160","335.1239569578521","283.59786044662826",2019-01-07 10:23:39.858
"11","160","336.17292935447375","284.30062868749195",2019-01-07 10:23:39.878
"11","160","337.72204772771425","285.33847410416644",2019-01-07 10:23:39.898
"11","160","339.0969744504909","286.25961829956583",2019-01-07 10:23:39.918
"11","160","340.3304876336261","287.0860212560077",2019-01-07 10:23:39.938
"11","160","340.3270005237399","287.08368503620983",2019-01-07 10:23:39.959
"11","160","339.1178160925654","286.2735813401421",2019-01-07 10:23:39.979
"11","160","337.4439649566474","285.1521701170772",2019-01-07 10:23:39.999
"11","160","335.5835669085828","283.90578015700265",2019-01-07 10:23:40.019
"11","160","334.4013131158348","283.1137188779263",2019-01-07 10:23:40.040
"11","160","332.8989668921924","282.10720887236494",2019-01-07 10:23:40.060
"11","160","331.7554151539539","281.3410763735435",2019-01-07 10:23:40.080
"10","137","331.2867281804595","280.98336280913946",2019-01-07 10:23:40.100
"10","137","332.72040502004756","281.8642084198518",2019-01-07 10:23:40.120
"10","137","334.4294279014945","282.9142255939885",2019-01-07 10:23:40.141
"10","137","335.97519302303044","283.86393781985413",2019-01-07 10:23:40.161
"10","137","337.400917618597","284.73989760201135",2019-01-07 10:23:40.181
"10","137","338.7581290562292","285.57376315988034",2019-01-07 10:23:40.201
"10","137","340.0168577829744","286.34712131383475",2019-01-07 10:23:40.221
"10","137","340.58802728319216","286.6980456876874",2019-01-07 10:23:40.241
"10","137","339.37380258651507","285.9520306409535",2019-01-07 10:23:40.261
"10","137","338.09741418147985","285.1678224476605",2019-01-07 10:23:40.281
"10","137","336.1475934679354","283.9698599990971",2019-01-07 10:23:40.301
"10","137","334.32194077411316","282.84818591074355",2019-01-07 10:23:40.321
"10","137","332.6901073522995","281.8455936477401",2019-01-07 10:23:40.342
"10","137","331.11907298972056","280.880356096052",2019-01-07 10:23:40.362
"8","117","331.26817810377037","280.9153098190572",2019-01-07 10:23:40.382
"8","117","331.26817810377037","280.9153098190572",2019-01-07 10:23:40.402
"8","117","332.83868392504377","281.7643921936524",2019-01-07 10:23:40.422
"8","117","333.9570719220929","282.36904040532426",2019-01-07 10:23:40.442
"8","117","335.78191200153736","283.3556267184236",2019-01-07 10:23:40.462
"8","117","337.1274999431452","284.0831089023232",2019-01-07 10:23:40.482
"8","117","339.06949084726","285.13303194365966",2019-01-07 10:23:40.502
"8","117","340.8100483645158","286.0740515119111",2019-01-07 10:23:40.522
"8","188","339.81375839347817","286.53610860215326",2019-01-07 10:23:40.542
"8","188","338.36894257850645","286.7223572432476",2019-01-07 10:23:40.562
"8","188","336.9673640410808","286.9030322436715",2019-01-07 10:23:40.582
"8","188","335.5173085497308","287.08995632214345",2019-01-07 10:23:40.603
"8","188","333.29675537438055","287.37620388885824",2019-01-07 10:23:40.623
"8","188","333.29675537438055","287.37620388885824",2019-01-07 10:23:40.645
"8","156","329.80613928623336","286.7168311364225",2019-01-07 10:23:40.665
"8","156","329.80613928623336","286.7168311364225",2019-01-07 10:23:40.685
"8","156","328.40845072711977","286.1982161436229",2019-01-07 10:23:40.705
"8","188","325.8320303477802","285.07255574645376",2019-01-07 10:23:40.725
"8","188","325.8320303477802","285.07255574645376",2019-01-07 10:23:40.745
