"floorId","partitionId","location_x","location_y","timeStamp"
"10","137","339.15690342853276","281.85602688230483","2019-01-07 11:54:29.893"
"10","137","339.8035260249144","283.4873701175719","2019-01-07 11:54:29.913"
"10","137","340.64386988811737","285.6074464715465","2019-01-07 11:54:29.933"
"10","137","341.14564587713863","286.8733608857501","2019-01-07 11:54:29.953"
"10","160","340.42798159846234","286.7312511631266","2019-01-07 11:54:29.974"
"10","160","338.81623730900714","285.7196474067411","2019-01-07 11:54:29.994"
"10","160","336.9202190082711","284.52962039827037","2019-01-07 11:54:30.014"
"10","160","334.81788020657564","283.2100972934552","2019-01-07 11:54:30.034"
"10","160","333.5629913128919","282.42247215527277","2019-01-07 11:54:30.054"
"10","160","333.5629913128919","282.42247215527277","2019-01-07 11:54:30.074"
"10","160","330.6596230912232","280.6001866857812","2019-01-07 11:54:30.094"
"10","158","330.5","280.5","2019-01-07 11:54:30.114"
"11","158","331.18073333124977","283.75189212363864","2019-01-07 11:54:30.134"
"11","158","331.18073333124977","283.75189212363864","2019-01-07 11:54:30.154"
"11","158","331.8547591166925","286.9717420152053","2019-01-07 11:54:30.174"
"11","146","330.5584942902287","287.13928479059007","2019-01-07 11:54:30.194"
"11","146","328.53555000558475","286.24857868010616","2019-01-07 11:54:30.214"
"11","146","327.3187213747042","285.7128067830923","2019-01-07 11:54:30.234"
"11","146","327.3187213747042","285.7128067830923","2019-01-07 11:54:30.255"
"11","158","326.11588499927456","285.1932523990044","2019-01-07 11:54:30.275"
"11","158","324.3367081957928","284.6452506210417","2019-01-07 11:54:30.296"
"11","158","322.302048966857","284.018558055793","2019-01-07 11:54:30.316"
"11","158","320.26415960573394","283.3908705820123","2019-01-07 11:54:30.337"
"11","158","318.45084295613884","282.83235343743013","2019-01-07 11:54:30.357"
"11","158","316.8396666167492","282.33609724924855","2019-01-07 11:54:30.377"
"11","158","314.8839109337555","281.7337076556771","2019-01-07 11:54:30.397"
"11","158","314.8839109337555","281.7337076556771","2019-01-07 11:54:30.417"
