"deviceId","device_location_x","device_location_y","rssi_measurement","timeStamp"
"107","349.4094731266056","295.72962574535416","-65","2019-01-07 10:57:45.020"
"106","342.5045272404788","294.4392940102485","-68","2019-01-07 10:57:45.020"
"109","341.24721572434197","291.00286104885635","-66","2019-01-07 10:57:45.020"
"110","336.9152925744391","292.54421180206367","-69","2019-01-07 10:57:45.020"
"105","346.4322769098452","285.86589891444754","-58","2019-01-07 10:57:45.020"
"112","341.0278294972727","284.8053522540406","-60","2019-01-07 10:57:45.020"
"121","331.4352458856461","284.73776552502056","-71","2019-01-07 10:57:45.020"
"117","363.80040023353064","282.9255858372909","-64","2019-01-07 10:57:45.020"
"108","346.9149787186278","282.54413248088485","-50","2019-01-07 10:57:45.020"
"111","334.7883542622522","282.0919165109652","-67","2019-01-07 10:57:45.020"
"116","344.09268629395285","280.52779294732244","-55","2019-01-07 10:57:45.020"
"118","358.73352150717744","278.75030218584476","-59","2019-01-07 10:57:45.020"
"90","358.5816190695081","294.77344117869507","-67","2019-01-07 10:57:45.020"
"89","357.65007532458094","295.4534570298346","-71","2019-01-07 10:57:45.020"
"91","352.70163538003123","290.23600119748886","-62","2019-01-07 10:57:45.020"
"92","347.60089266242613","296.12704238218555","-67","2019-01-07 10:57:45.020"
"82","340.6825593297904","293.85352435402706","-69","2019-01-07 10:57:45.020"
"94","357.1448502530086","287.8300501528295","-62","2019-01-07 10:57:45.020"
"93","367.53410335607805","285.3711504993086","-71","2019-01-07 10:57:45.020"
"83","336.74875425412085","283.6458475594345","-65","2019-01-07 10:57:45.020"
"72","362.3491547958555","283.6390931828315","-65","2019-01-07 10:57:45.020"
"95","331.24143867534355","283.38468973378826","-70","2019-01-07 10:57:45.020"
"96","352.751823051966","281.57333900748154","-53","2019-01-07 10:57:45.020"
"71","342.14662285816155","281.34218599702","-59","2019-01-07 10:57:45.020"
"74","349.77403282518657","280.6138418146647","-51","2019-01-07 10:57:45.020"
"88","359.17007900149963","278.2904519246263","-64","2019-01-07 10:57:45.020"

