"deviceId","device_location_x","device_location_y","rssi_measurement","timeStamp"
"2","348.2920937828424","285.8999055772036","-71","2019-01-07 10:58:27.247"
"13","347.0850399789337","291.14486733450764","-69","2019-01-07 10:58:27.248"
"10","337.4726338771317","295.0158698079801","-59","2019-01-07 10:58:27.248"
"11","337.43468446378097","296.3062970486447","-60","2019-01-07 10:58:27.248"
"18","324.33703676949995","289.8711990184981","-54","2019-01-07 10:58:27.248"
"17","323.1528134182884","293.97121912199606","-60","2019-01-07 10:58:27.248"
"27","339.3427170318677","283.2785466888573","-62","2019-01-07 10:58:27.248"
"28","339.897660744702","280.8982763013434","-65","2019-01-07 10:58:27.248"
"12","331.31344981641956","279.3561964252377","-62","2019-01-07 10:58:27.248"
"19","324.5033224876111","278.3740932066034","-64","2019-01-07 10:58:27.248"
"30","345.5071941597862","278.0196081071106","-72","2019-01-07 10:58:27.248"
"9","318.9540454459424","281.59027379816285","-66","2019-01-07 10:58:27.248"
"21","317.7331733006443","293.45008855296993","-64","2019-01-07 10:58:27.248"
"26","315.82223773241736","286.78134766264515","-65","2019-01-07 10:58:27.248"
"29","312.6217879625125","281.6882544800117","-69","2019-01-07 10:58:27.248"
"22","312.13023968703914","295.4080359149688","-71","2019-01-07 10:58:27.248"
"64","347.35301947669757","296.0057467312042","-69","2019-01-07 10:58:27.248"
"47","344.1243900881089","292.32675318770174","-65","2019-01-07 10:58:27.248"
"42","338.09845592011766","287.69758823567815","-59","2019-01-07 10:58:27.248"
"62","334.44677105394464","296.4195054258534","-60","2019-01-07 10:58:27.248"
"61","332.4124412478082","290.8924353571745","-55","2019-01-07 10:58:27.248"
"51","329.9105321600942","293.10872905834145","-54","2019-01-07 10:58:27.248"
"50","326.311016540156","296.28226089944616","-58","2019-01-07 10:58:27.248"
"53","326.60924318591384","285.93697234799635","-58","2019-01-07 10:58:27.248"
"43","340.8836408266573","284.9547697414922","-63","2019-01-07 10:58:27.248"
"55","343.6995866778707","280.8061303694459","-70","2019-01-07 10:58:27.248"
"39","327.30419794959136","280.3982030357775","-64","2019-01-07 10:58:27.248"
"49","324.2313436548436","278.6542454049571","-64","2019-01-07 10:58:27.248"
"59","321.0782293139982","295.0156777796057","-63","2019-01-07 10:58:27.248"
"66","317.68138015466826","284.475622537056","-67","2019-01-07 10:58:27.248"
"60","316.4746529806657","293.2313104054764","-67","2019-01-07 10:58:27.248"
"58","313.0541633809666","282.0794368951167","-68","2019-01-07 10:58:27.248"
"34","342.183418522805","296.85768700057844","-67","2019-01-07 10:58:27.248"
"33","331.616058062552","297.7704942229391","-63","2019-01-07 10:58:27.248"

"106","342.5045272404788","294.4392940102485","-67","2019-01-07 10:58:28.248"
"109","341.24721572434197","291.00286104885635","-64","2019-01-07 10:58:28.248"
"110","336.9152925744391","292.54421180206367","-62","2019-01-07 10:58:28.248"
"101","323.61030741589764","292.73996404613246","-66","2019-01-07 10:58:28.248"
"100","329.29122673048954","289.66885320321796","-56","2019-01-07 10:58:28.248"
"105","346.4322769098452","285.86589891444754","-69","2019-01-07 10:58:28.248"
"112","341.0278294972727","284.8053522540406","-60","2019-01-07 10:58:28.248"
"121","331.4352458856461","284.73776552502056","-41","2019-01-07 10:58:28.248"
"108","346.9149787186278","282.54413248088485","-68","2019-01-07 10:58:28.248"
"111","334.7883542622522","282.0919165109652","-48","2019-01-07 10:58:28.248"
"116","344.09268629395285","280.52779294732244","-65","2019-01-07 10:58:28.248"
"120","322.872040891685","277.86646291435574","-63","2019-01-07 10:58:28.248"
"113","319.8324439784923","278.9293138310113","-66","2019-01-07 10:58:28.248"
"99","317.2191378687232","289.6709994296825","-66","2019-01-07 10:58:28.248"
"114","316.87740045772955","286.52189407378","-68","2019-01-07 10:58:28.248"
"115","316.31288158171094","287.18458715457723","-67","2019-01-07 10:58:28.248"
"97","316.0196879905665","280.3073393991961","-67","2019-01-07 10:58:28.248"
"82","340.6825593297904","293.85352435402706","-66","2019-01-07 10:58:28.248"
"73","330.3787395083012","295.2141410269453","-63","2019-01-07 10:58:28.248"
"80","330.03964138548974","287.905848685779","-57","2019-01-07 10:58:28.248"
"83","336.74875425412085","283.6458475594345","-59","2019-01-07 10:58:28.248"
"95","331.24143867534355","283.38468973378826","-54","2019-01-07 10:58:28.248"
"71","342.14662285816155","281.34218599702","-63","2019-01-07 10:58:28.248"
"74","349.77403282518657","280.6138418146647","-69","2019-01-07 10:58:28.248"
"86","325.871870388295","296.4785918324362","-67","2019-01-07 10:58:28.248"
"77","322.6160675939289","284.3638222276437","-60","2019-01-07 10:58:28.248"
"87","320.82044810487207","295.442904740263","-70","2019-01-07 10:58:28.248"
"76","312.3155790994159","283.65177377410555","-70","2019-01-07 10:58:28.248"

