"deviceId","device_location_x","device_location_y","rssi_measurement","timeStamp"
"107","349.4094731266056","295.72962574535416","-60","2019-01-07 10:56:35.455"
"106","342.5045272404788","294.4392940102485","-65","2019-01-07 10:56:35.456"
"109","341.24721572434197","291.00286104885635","-62","2019-01-07 10:56:35.456"
"110","336.9152925744391","292.54421180206367","-67","2019-01-07 10:56:35.456"
"105","346.4322769098452","285.86589891444754","-47","2019-01-07 10:56:35.456"
"112","341.0278294972727","284.8053522540406","-61","2019-01-07 10:56:35.456"
"121","331.4352458856461","284.73776552502056","-70","2019-01-07 10:56:35.456"
"117","363.80040023353064","282.9255858372909","-66","2019-01-07 10:56:35.456"
"108","346.9149787186278","282.54413248088485","-50","2019-01-07 10:56:35.456"
"111","334.7883542622522","282.0919165109652","-68","2019-01-07 10:56:35.456"
"116","344.09268629395285","280.52779294732244","-56","2019-01-07 10:56:35.456"
"118","358.73352150717744","278.75030218584476","-61","2019-01-07 10:56:35.456"
"90","358.5816190695081","294.77344117869507","-64","2019-01-07 10:56:35.457"
"89","357.65007532458094","295.4534570298346","-64","2019-01-07 10:56:35.457"
"91","352.70163538003123","290.23600119748886","-58","2019-01-07 10:56:35.457"
"92","347.60089266242613","296.12704238218555","-63","2019-01-07 10:56:35.457"
"82","340.6825593297904","293.85352435402706","-67","2019-01-07 10:56:35.457"
"94","357.1448502530086","287.8300501528295","-60","2019-01-07 10:56:35.457"
"93","367.53410335607805","285.3711504993086","-69","2019-01-07 10:56:35.457"
"83","336.74875425412085","283.6458475594345","-68","2019-01-07 10:56:35.457"
"72","362.3491547958555","283.6390931828315","-67","2019-01-07 10:56:35.457"
"95","331.24143867534355","283.38468973378826","-70","2019-01-07 10:56:35.457"
"96","352.751823051966","281.57333900748154","-58","2019-01-07 10:56:35.457"
"71","342.14662285816155","281.34218599702","-63","2019-01-07 10:56:35.457"
"74","349.77403282518657","280.6138418146647","-58","2019-01-07 10:56:35.457"
"88","359.17007900149963","278.2904519246263","-64","2019-01-07 10:56:35.457"

"14","351.4267606424707","289.4576294561016","-66","2019-01-07 10:56:36.452"
"2","348.2920937828424","285.8999055772036","-64","2019-01-07 10:56:36.452"
"13","347.0850399789337","291.14486733450764","-64","2019-01-07 10:56:36.452"
"10","337.4726338771317","295.0158698079801","-58","2019-01-07 10:56:36.452"
"11","337.43468446378097","296.3062970486447","-62","2019-01-07 10:56:36.452"
"18","324.33703676949995","289.8711990184981","-63","2019-01-07 10:56:36.452"
"17","323.1528134182884","293.97121912199606","-67","2019-01-07 10:56:36.452"
"27","339.3427170318677","283.2785466888573","-50","2019-01-07 10:56:36.452"
"28","339.897660744702","280.8982763013434","-56","2019-01-07 10:56:36.452"
"20","355.91509496889205","280.37636950965987","-72","2019-01-07 10:56:36.452"
"12","331.31344981641956","279.3561964252377","-63","2019-01-07 10:56:36.452"
"7","348.99359813012296","279.28325397073417","-65","2019-01-07 10:56:36.452"
"19","324.5033224876111","278.3740932066034","-68","2019-01-07 10:56:36.452"
"30","345.5071941597862","278.0196081071106","-65","2019-01-07 10:56:36.452"
"9","318.9540454459424","281.59027379816285","-69","2019-01-07 10:56:36.452"
"63","353.2546025947906","295.06146198833426","-69","2019-01-07 10:56:36.452"
"64","347.35301947669757","296.0057467312042","-68","2019-01-07 10:56:36.452"
"47","344.1243900881089","292.32675318770174","-62","2019-01-07 10:56:36.452"
"42","338.09845592011766","287.69758823567815","-51","2019-01-07 10:56:36.452"
"62","334.44677105394464","296.4195054258534","-63","2019-01-07 10:56:36.452"
"61","332.4124412478082","290.8924353571745","-59","2019-01-07 10:56:36.452"
"51","329.9105321600942","293.10872905834145","-61","2019-01-07 10:56:36.452"
"50","326.311016540156","296.28226089944616","-66","2019-01-07 10:56:36.452"
"53","326.60924318591384","285.93697234799635","-64","2019-01-07 10:56:36.452"
"68","353.9566709516459","285.45620887786583","-68","2019-01-07 10:56:36.452"
"43","340.8836408266573","284.9547697414922","-58","2019-01-07 10:56:36.452"
"69","353.7989526663334","282.1326510332951","-70","2019-01-07 10:56:36.452"
"65","348.3846968699461","281.7190703361782","-64","2019-01-07 10:56:36.452"
"55","343.6995866778707","280.8061303694459","-60","2019-01-07 10:56:36.452"
"39","327.30419794959136","280.3982030357775","-65","2019-01-07 10:56:36.452"
"49","324.2313436548436","278.6542454049571","-67","2019-01-07 10:56:36.452"
"59","321.0782293139982","295.0156777796057","-68","2019-01-07 10:56:36.452"
"34","342.183418522805","296.85768700057844","-63","2019-01-07 10:56:36.452"
"33","331.616058062552","297.7704942229391","-64","2019-01-07 10:56:36.452"

