"floorId","partitionId","location_x","location_y","timeStamp"
"12","142","343.57481687750146","288.57877605860546",2019-12-30 10:42:46.396
"12","142","341.82239850614565","288.22426069490615",2019-12-30 10:42:46.416
"12","157","340.18799099011557","287.33038320430575",2019-12-30 10:42:46.436
"12","157","338.53473425548464","286.164777554574",2019-12-30 10:42:46.456
"12","157","336.8807709348299","284.99867373620094",2019-12-30 10:42:46.476
"12","157","335.6388068155709","284.1230442203197",2019-12-30 10:42:46.496
"12","157","334.02164246759855","282.9828850054461",2019-12-30 10:42:46.516
"12","157","332.09214464642565","281.6225194225373",2019-12-30 10:42:46.536
"12","157","330.9740082688366","280.8341929324116",2019-12-30 10:42:46.556
"11","160","331.126152592319","280.8822910657036",2019-12-30 10:42:46.577
"11","160","333.2322958461665","282.16817530369076",2019-12-30 10:42:46.597
"11","160","335.36342339329","283.4693134465878",2019-12-30 10:42:46.617
"11","160","335.36342339329","283.4693134465878",2019-12-30 10:42:46.637
"11","160","336.55985963279625","284.19978536454835",2019-12-30 10:42:46.657
"11","160","337.6512973372765","284.86615150007697",2019-12-30 10:42:46.678
"11","160","339.63029006779834","286.0744052855782",2019-12-30 10:42:46.698
"11","160","340.7783766103167","286.77535779019655",2019-12-30 10:42:46.719
"11","160","339.776436207335","286.1636333173987",2019-12-30 10:42:46.740
"11","160","337.6624835439348","284.87298112422457",2019-12-30 10:42:46.760
"11","160","336.3762074222448","284.08765838439723",2019-12-30 10:42:46.781
"11","160","334.7048851709104","283.06724966544516",2019-12-30 10:42:46.801
"11","160","333.356000499554","282.24370191550406",2019-12-30 10:42:46.821
"11","160","331.8214863422074","281.3068199801013",2019-12-30 10:42:46.841
"10","137","330.94017480401385","280.7225788705963",2019-12-30 10:42:46.861
"10","137","332.8765503249827","281.7017268649325",2019-12-30 10:42:46.881
"10","137","334.423765961911","282.484092202285",2019-12-30 10:42:46.901
"10","137","335.96192425287086","283.26187760044553",2019-12-30 10:42:46.921
"10","137","337.2630215534735","283.9197906955687",2019-12-30 10:42:46.942
"10","137","338.52859487039416","284.55974072671154",2019-12-30 10:42:46.962
"10","137","340.4689642456101","285.5409082541049",2019-12-30 10:42:46.982
"10","137","340.136756453136","285.3729240019899",2019-12-30 10:42:47.002
"10","137","338.4645033587057","284.52733220137947",2019-12-30 10:42:47.022
"10","137","336.747353191302","283.6590377387712",2019-12-30 10:42:47.043
"10","137","334.54444742088174","282.5451160105418",2019-12-30 10:42:47.064
"10","137","333.05012129313286","281.7894947919171",2019-12-30 10:42:47.084
"10","137","331.012666704887","280.75923513823494",2019-12-30 10:42:47.104
"8","117","331.8402546558763","281.1691568344968",2019-12-30 10:42:47.124
"8","117","333.67713701779263","282.08626790831676",2019-12-30 10:42:47.144
"8","117","334.99390892008955","282.7437003701493",2019-12-30 10:42:47.164
"8","117","336.3221453485742","283.40685679348366",2019-12-30 10:42:47.184
"8","117","337.5468150511869","284.0183048477108",2019-12-30 10:42:47.204
"8","117","339.53920476367773","285.0130569921998",2019-12-30 10:42:47.225
"8","188","341.28385752332935","285.8967570524944",2019-12-30 10:42:47.246
"8","188","339.5573995297506","285.92615851073697",2019-12-30 10:42:47.266
"8","188","337.4599081580658","285.96187864132116",2019-12-30 10:42:47.287
"8","188","335.4696466602255","285.99577265469316",2019-12-30 10:42:47.307
"8","188","333.3637453104182","286.03163600661344",2019-12-30 10:42:47.327
"8","132","331.1428477907625","285.99401211419047",2019-12-30 10:42:47.347
"8","132","328.87389487051865","285.8386011732378",2019-12-30 10:42:47.367
"8","132","326.4588601751817","285.6731844247954",2019-12-30 10:42:47.387
"8","132","324.23997489817987","285.5212028452359",2019-12-30 10:42:47.407
"8","132","322.65884741689183","285.41290420781564",2019-12-30 10:42:47.427
"8","132","320.8542286934297","285.2892976352104",2019-12-30 10:42:47.447
"8","188","319.62866423734977","284.6707129618946",2019-12-30 10:42:47.468
"8","188","319.2148787937057","283.3030193261734",2019-12-30 10:42:47.488
"8","188","318.79570018523026","281.9174995505298",2019-12-30 10:42:47.508
"8","188","318.36980906066805","280.50979275581017",2019-12-30 10:42:47.528
"8","188","317.8182475161299","278.68670490735906",2019-12-30 10:42:47.548
