"floorId","partitionId","location_x","location_y","timeStamp"
"8","193","303.87559969319676","289.79781889656994",2019-12-30 10:42:46.334
"8","188","304.31408055032887","288.78806348146554",2019-12-30 10:42:46.357
"8","188","306.5636393236378","288.6499179543224",2019-12-30 10:42:46.377
"8","188","308.7156313962958","288.51776400359546",2019-12-30 10:42:46.397
"8","188","310.91315452130715","288.3828139884565",2019-12-30 10:42:46.417
"8","188","313.17631942393376","288.2438329081688",2019-12-30 10:42:46.437
"8","188","314.9852923648779","288.13274378105666",2019-12-30 10:42:46.457
"8","188","317.44389274410236","287.9817609974761",2019-12-30 10:42:46.477
"8","188","319.707655184727","287.8427432223473",2019-12-30 10:42:46.497
"8","188","321.15095395661933","287.75411016593023",2019-12-30 10:42:46.517
"8","188","322.54078861802407","287.66876034345853",2019-12-30 10:42:46.537
"8","188","324.23659116402706","287.5646210164812",2019-12-30 10:42:46.557
"8","188","326.48148896888557","287.4267617196652",2019-12-30 10:42:46.578
"8","188","327.7943205009198","287.34614066357415",2019-12-30 10:42:46.598
"8","188","329.27373562848396","287.2552896997826",2019-12-30 10:42:46.618
"8","188","331.07233986883904","287.14483731514",2019-12-30 10:42:46.638
"8","117","332.81943974003735","287.1616177173444",2019-12-30 10:42:46.658
"8","117","334.86626199610214","287.3555802705469",2019-12-30 10:42:46.679
"8","117","336.75820498862504","287.53486603522725",2019-12-30 10:42:46.699
"8","117","338.50393984319294","287.70029671129265",2019-12-30 10:42:46.719
"8","117","340.6119797289822","287.90006041685564",2019-12-30 10:42:46.740
"8","137","340.1954705371436","287.1973190118519",2019-12-30 10:42:46.760
"8","137","338.7956421670051","286.2303626252854",2019-12-30 10:42:46.781
"8","137","338.7956421670051","286.2303626252854",2019-12-30 10:42:46.801
"8","137","337.1536734443916","285.09614347617895",2019-12-30 10:42:46.821
"8","137","335.1502906985656","283.712271151444",2019-12-30 10:42:46.841
"8","137","333.41680065439124","282.5148320188895",2019-12-30 10:42:46.861
"8","137","332.06510787138774","281.58112614673905",2019-12-30 10:42:46.881
"8","137","330.7113602021037","280.6460008252797",2019-12-30 10:42:46.901
"8","137","330.7113602021037","280.6460008252797",2019-12-30 10:42:46.921
"10","123","330.88975819183065","282.2906909365659",2019-12-30 10:42:46.942
"10","123","331.20478853500964","283.73805494865815",2019-12-30 10:42:46.962
"10","123","331.5899940161749","285.5078290760425",2019-12-30 10:42:46.982
"10","123","331.6505238792047","287.52329368434994",2019-12-30 10:42:47.002
"10","123","329.269498139653","287.6306778183498",2019-12-30 10:42:47.022
"10","123","327.89592988464244","287.6926256734712",2019-12-30 10:42:47.043
"10","123","326.14248326732724","287.77170602249373",2019-12-30 10:42:47.064
"10","123","324.18985265304417","287.8597695591676",2019-12-30 10:42:47.084
"10","123","322.3375039663988","287.94331038624773",2019-12-30 10:42:47.104
"10","123","321.0015664804975","288.00356109568713",2019-12-30 10:42:47.124
"10","123","319.4932503751099","288.0715860716815",2019-12-30 10:42:47.144
"10","123","317.0675035391815","288.18098712474534",2019-12-30 10:42:47.164
"10","123","315.52118975032954","288.2507257942396",2019-12-30 10:42:47.184
"10","123","314.2139759528708","288.30968106686055",2019-12-30 10:42:47.204
"10","123","312.0661326714932","288.40654868442",2019-12-30 10:42:47.225
"10","123","309.7759964395072","288.50983370647094",2019-12-30 10:42:47.246
"10","123","308.1473156524755","288.5832871231948",2019-12-30 10:42:47.266
"10","123","306.3320804624806","288.66515413355324",2019-12-30 10:42:47.287
"10","123","304.1569816036691","288.76325097620287",2019-12-30 10:42:47.307
"10","139","302.9065575773395","289.16866666635406",2019-12-30 10:42:47.327
"10","139","304.0278828522675","290.4075626522335",2019-12-30 10:42:47.347
"10","139","305.6297643173327","292.17740104016366",2019-12-30 10:42:47.367
"10","139","307.06850998044337","293.7669988728209",2019-12-30 10:42:47.387
