"floorId","partitionId","location_x","location_y","timeStamp"
"8","130","368.35957106022767","282.4726489562436",2019-12-30 10:42:46.282
"8","130","369.42060746029125","284.6459061850999",2019-12-30 10:42:46.308
"8","137","367.92200499508493","285.0028170060463",2019-12-30 10:42:46.328
"8","137","365.8002485199359","284.7475158499419",2019-12-30 10:42:46.351
"8","137","364.1589753256775","284.55002902763925",2019-12-30 10:42:46.371
"8","137","362.6433021774589","284.36765507872065",2019-12-30 10:42:46.391
"8","137","360.5137186214839","284.1114121261343",2019-12-30 10:42:46.411
"8","137","359.2487254100508","283.9592013360999",2019-12-30 10:42:46.431
"8","137","357.4804724042297","283.746435619601",2019-12-30 10:42:46.451
"8","137","355.97620182764695","283.565433689458",2019-12-30 10:42:46.471
"8","137","354.17661255215626","283.34889742437434",2019-12-30 10:42:46.491
"8","137","352.8852369137071","283.19351215875946",2019-12-30 10:42:46.511
"8","137","351.50026166099883","283.0268644839043",2019-12-30 10:42:46.531
"8","137","349.6872457964367","282.8087126593761",2019-12-30 10:42:46.551
"8","137","347.367399566894","282.52957627811674",2019-12-30 10:42:46.571
"8","137","345.4241650599322","282.29575584583813",2019-12-30 10:42:46.592
"8","137","343.4502710484962","282.05824629700464",2019-12-30 10:42:46.612
"8","137","341.6486954801208","281.841471030473",2019-12-30 10:42:46.632
"8","137","340.2398749774908","281.67195416683774",2019-12-30 10:42:46.652
"8","137","338.73136578767145","281.4904422239424",2019-12-30 10:42:46.672
"8","137","336.7349041547339","281.25021721745514",2019-12-30 10:42:46.693
"8","137","335.41674517350964","281.0916092359184",2019-12-30 10:42:46.714
"8","137","333.2033822828801","280.82528550297604",2019-12-30 10:42:46.734
"8","137","331.33012397347426","280.59988498332405",2019-12-30 10:42:46.754
"10","137","331.61429421708954","281.16925819138106",2019-12-30 10:42:46.775
"10","137","333.41876929998875","282.25304711521454",2019-12-30 10:42:46.795
"10","137","334.9483156843333","283.17171063434654",2019-12-30 10:42:46.815
"10","137","336.18055004785055","283.911805062584",2019-12-30 10:42:46.836
"10","137","337.5184924089887","284.7153889554684",2019-12-30 10:42:46.857
"10","137","339.4466727937478","285.87347673620815",2019-12-30 10:42:46.877
"10","137","340.70394009057827","286.6286062381427",2019-12-30 10:42:46.897
"10","160","339.8442116310617","286.11224322999766",2019-12-30 10:42:46.917
"10","160","337.9498851371832","284.9744884936501",2019-12-30 10:42:46.938
"10","160","336.5621071647184","284.14097274740834",2019-12-30 10:42:46.958
"10","160","335.0938447952912","283.2591171272631",2019-12-30 10:42:46.979
"10","160","333.307339054013","282.1861208010121",2019-12-30 10:42:46.999
"10","160","331.7532842407026","281.2527372316531",2019-12-30 10:42:47.019
"11","158","330.537053445091","280.6758397674707",2019-12-30 10:42:47.039
"11","158","330.8562626438535","282.19066979601735",2019-12-30 10:42:47.060
"11","158","331.2498298657262","284.0583711287351",2019-12-30 10:42:47.081
"11","158","331.5922243436156","285.6832285536655",2019-12-30 10:42:47.101
"11","158","331.66424155924614","287.69507764678315",2019-12-30 10:42:47.121
"11","158","329.70417820539143","287.4673262592748",2019-12-30 10:42:47.141
"11","158","328.362105174614","287.3113828331115",2019-12-30 10:42:47.161
"11","158","326.3568115297092","287.0783758697954",2019-12-30 10:42:47.181
"11","158","324.4001000289954","286.8510139539855",2019-12-30 10:42:47.201
"11","158","322.23341761303743","286.5992542720579",2019-12-30 10:42:47.221
"11","158","320.8621731991733","286.4399212498592",2019-12-30 10:42:47.241
"11","158","319.09883524863716","286.23502855387005",2019-12-30 10:42:47.262
"11","158","316.7539360049616","285.9625608016088",2019-12-30 10:42:47.282
"11","158","315.22010402488604","285.78433576567824",2019-12-30 10:42:47.302
"11","158","312.8236033815687","285.5058721407108",2019-12-30 10:42:47.322
"11","158","311.4732551192205","285.3489671663055",2019-12-30 10:42:47.343
"11","166","310.0591355570276","284.4886040762843",2019-12-30 10:42:47.363
"11","166","309.5823481859191","283.22869713664994",2019-12-30 10:42:47.384
"11","166","308.7417305180983","281.00737145261536",2019-12-30 10:42:47.404
"11","166","308.2783710008277","279.7829475128672",2019-12-30 10:42:47.424
