"floorId","partitionId","location_x","location_y","timeStamp"
"11","146","320.23335906581315","281.5375252131969",2019-12-30 10:42:46.381
"11","146","324.1484566170952","284.0206710751798",2019-12-30 10:42:46.410
"11","146","325.90836967770554","285.13689379419566",2019-12-30 10:42:46.430
"11","158","324.70317896646054","285.85905683307044",2019-12-30 10:42:46.450
"11","158","323.5491267547472","286.41605960378996",2019-12-30 10:42:46.470
"11","158","321.53891499894576","287.38628738581724",2019-12-30 10:42:46.490
"11","158","319.6976539343083","288.27497119423737",2019-12-30 10:42:46.510
"11","158","318.5610739121417","288.8235410206851",2019-12-30 10:42:46.530
"11","170","318.8349074175106","290.03672368264375",2019-12-30 10:42:46.550
"11","170","319.31445689812557","291.99878327593046",2019-12-30 10:42:46.570
