"floorId","partitionId","location_x","location_y","timeStamp"
"12","157","306.7591803422306","285.3802414312157",2019-12-30 10:42:46.416
"12","157","308.2902098425152","285.51498922032505",2019-12-30 10:42:46.436
"12","157","309.91438517596606","285.6579348887578",2019-12-30 10:42:46.456
"12","157","312.19719751811533","285.8588480102874",2019-12-30 10:42:46.476
"12","157","314.103298707026","286.0266063199585",2019-12-30 10:42:46.496
"12","157","316.1271358996494","286.20472672010266",2019-12-30 10:42:46.516
"12","157","317.54227945665355","286.3292752448327",2019-12-30 10:42:46.536
"12","157","318.8763683612701","286.4466900499288",2019-12-30 10:42:46.556
"12","157","320.2081243171923","286.56389952934137",2019-12-30 10:42:46.577
"12","157","322.57587647590583","286.77228830858184",2019-12-30 10:42:46.597
"12","157","323.86825252875934","286.88603191429775",2019-12-30 10:42:46.617
"12","157","325.30341624509606","287.0123424378705",2019-12-30 10:42:46.637
"12","157","326.78637989195033","287.1428598921102",2019-12-30 10:42:46.657
"12","157","329.13817662976","287.3498444151357",2019-12-30 10:42:46.678
"12","157","331.0490601622377","287.51802362474524",2019-12-30 10:42:46.698
"12","157","331.7352734646375","286.2542823103978",2019-12-30 10:42:46.719
"12","157","331.30195284611136","284.23574209133193",2019-12-30 10:42:46.740
"12","157","331.00977147095114","282.87467171570825",2019-12-30 10:42:46.760
"12","157","330.63273528720754","281.1183216405187",2019-12-30 10:42:46.781
"11","160","331.4912471154886","281.0779664361862",2019-12-30 10:42:46.801
"11","160","333.64237659163916","282.3322254576544",2019-12-30 10:42:46.821
"11","160","335.29735114069615","283.29719143551335",2019-12-30 10:42:46.841
"11","160","336.5575060511783","284.03194993445226",2019-12-30 10:42:46.861
"11","160","338.0026690626461","284.8745811032042",2019-12-30 10:42:46.881
"11","160","340.0334372505201","286.0586610706776",2019-12-30 10:42:46.901
"11","160","341.26335895787435","286.7757914964617",2019-12-30 10:42:46.921
"11","180","339.7812934881849","285.86658512661216",2019-12-30 10:42:46.942
"11","180","338.657033693209","285.1778893673021",2019-12-30 10:42:46.962
"11","180","336.85287725475513","284.07270452137277",2019-12-30 10:42:46.982
