"floorId","partitionId","location_x","location_y","timeStamp"
"10","137","335.7958861567537","277.17802116377965",2019-12-30 10:42:46.379
"10","137","332.71238784951464","279.1122236399991",2019-12-30 10:42:46.406
"10","137","331.1482092021403","280.09339434662746",2019-12-30 10:42:46.426
"10","117","330.5","280.5",2019-12-30 10:42:46.446
"8","117","333.82046792882784","282.62266371236745",2019-12-30 10:42:46.466
"8","117","334.93206474106546","283.3332702493663",2019-12-30 10:42:46.486
"8","117","337.029396433175","284.67402401391496",2019-12-30 10:42:46.506
"8","117","339.0601583857523","285.97222197805365",2019-12-30 10:42:46.526
"8","117","340.34305777956166","286.7923365065559",2019-12-30 10:42:46.546
"8","188","341.0172960519348","287.4432656914827",2019-12-30 10:42:46.567
"8","188","339.1690060881947","287.65830616496123",2019-12-30 10:42:46.588
"8","188","337.1585887105974","287.8922094557053",2019-12-30 10:42:46.608
"8","188","335.23239289960696","288.1163139346203",2019-12-30 10:42:46.628
"8","188","333.2228256663153","288.35011831478346",2019-12-30 10:42:46.648
"8","188","331.28572341838463","288.49849020656944",2019-12-30 10:42:46.669
"8","188","329.69303103276815","288.5179015071715",2019-12-30 10:42:46.689
"8","188","328.11946972753276","288.5370796433813",2019-12-30 10:42:46.709
"8","188","325.81757990374257","288.56513444902106",2019-12-30 10:42:46.729
"8","188","324.4840376872557","288.5813872980103",2019-12-30 10:42:46.749
"8","188","322.5789783462926","288.6046056419078",2019-12-30 10:42:46.770
"8","188","320.81200498172774","288.6261410315695",2019-12-30 10:42:46.790
"8","188","319.52552097057725","288.6418203479809",2019-12-30 10:42:46.810
"8","188","317.47875315592916","288.6667657961236",2019-12-30 10:42:46.831
"8","188","315.18316133717923","288.69474384339486",2019-12-30 10:42:46.851
"8","188","313.449962750902","288.7158675952663",2019-12-30 10:42:46.871
"8","188","311.9828060733441","288.7337489008816",2019-12-30 10:42:46.891
"8","188","309.54432548131376","288.7634684375678",2019-12-30 10:42:46.911
"8","188","307.86375349207685","288.78395079082134",2019-12-30 10:42:46.932
"8","188","306.05594713470776","288.80598384186754",2019-12-30 10:42:46.952
"8","188","304.50218351981783","288.8249206892246",2019-12-30 10:42:46.972
"8","193","304.31991989730636","289.205461811169",2019-12-30 10:42:46.992
"8","193","306.14285859482663","290.54085244348107",2019-12-30 10:42:47.012
"8","193","307.27154612538635","291.36767056806593",2019-12-30 10:42:47.032
"8","193","309.2142595024137","292.7908019374744",2019-12-30 10:42:47.053
