"floorId","partitionId","location_x","location_y","timeStamp"
"3","96","324.95879418067875","288.3500306056634",18/12/21 22:47:24
"3","96","324.95879418067875","288.3500306056634",18/12/21 22:47:24
"3","96","326.3910911245597","287.8928271392199",18/12/21 22:47:24
"3","96","328.6222051561623","287.1806332930783",18/12/21 22:47:24
"3","96","330.511269774099","286.5776250304787",18/12/21 22:47:24
"3","96","331.75535486343165","286.1805006647363",18/12/21 22:47:24
"3","93","331.7028690651151","284.9126973601009",18/12/21 22:47:24
"3","93","331.35555093566717","283.63856883075545",18/12/21 22:47:24
"3","93","330.9061492212212","281.989949029588",18/12/21 22:47:24
"3","93","330.55289172763423","280.69403208019185",18/12/21 22:47:24
"2","93","332.1930476574235","281.5217139378015",18/12/21 22:47:24
"2","93","333.4520887422134","282.2815152457884",18/12/21 22:47:24
"2","93","334.83525458186233","283.11622288704336",18/12/21 22:47:24
"2","93","336.7450981215921","284.2687679763715",18/12/21 22:47:24
"2","93","337.9764931249645","285.01188553267195",18/12/21 22:47:24
"2","93","339.7004335007208","286.0522424902129",18/12/21 22:47:24
"2","90","341.0176135815657","286.9976014471413",18/12/21 22:47:24
"2","90","339.4837515875787","286.86585605090306",18/12/21 22:47:24
"2","90","337.98560285058164","286.73717811263145",18/12/21 22:47:24
"2","90","334.30496513836516","286.4210433653686",18/12/21 22:47:24
"2","90","334.30496513836516","286.4210433653686",18/12/21 22:47:24
"2","90","330.75658712683776","286.4021342687948",18/12/21 22:47:24
"2","90","330.75658712683776","286.4021342687948",18/12/21 22:47:24
"2","90","327.5270228204043","286.85259858051114",18/12/21 22:47:24
"2","90","327.5270228204043","286.85259858051114",18/12/21 22:47:24
"2","90","325.7448106825319","287.1011841133708",18/12/21 22:47:24
"2","90","322.0856820086875","287.6115646858404",18/12/21 22:47:24
"2","90","322.0856820086875","287.6115646858404",18/12/21 22:47:24
"2","90","319.7142050204969","287.94234173434455",18/12/21 22:47:24
"2","91","314.92199773225377","287.7587084327106",18/12/21 22:47:24
"2","91","314.92199773225377","287.7587084327106",18/12/21 22:47:24
"2","91","312.68328975566726","286.7421668799603",18/12/21 22:47:24
"2","91","309.34508994346805","286.1543110331079",18/12/21 22:47:24
"2","91","309.34508994346805","286.1543110331079",18/12/21 22:47:24
"2","91","308.01291318404134","285.77106264357326",18/12/21 22:47:24
"2","22","305.85823848539826","282.8161508089246",18/12/21 22:47:24
"2","22","305.85823848539826","282.8161508089246",18/12/21 22:47:24
"2","22","304.31382519530365","279.0124462024958",18/12/21 22:47:24
"2","22","304.31382519530365","279.0124462024958",18/12/21 22:47:24
"2","22","303.0913802618886","277.72014370481565",18/12/21 22:47:24
"2","22","303.0913802618886","277.72014370481565",18/12/21 22:47:24
"2","22","304.4652021158234","279.6624965029749",18/12/21 22:47:24
"2","22","304.4652021158234","279.6624965029749",18/12/21 22:47:24
"2","22","303.505479992872","281.0028896581971",18/12/21 22:47:24
"2","22","303.505479992872","282.06486021840766",18/12/21 22:47:24
"2","22","303.0063285777832","282.90601367512426",18/12/21 22:47:24
"2","22","303.0063285777832","282.90601367512426",18/12/21 22:47:24
"2","22","305.21143465251","281.9954324524437",18/12/21 22:47:24
"2","22","305.21143465251","281.9954324524437",18/12/21 22:47:25
"2","22","305.1024494874587","282.0196321582142",18/12/21 22:47:25
"2","22","304.8540514604887","281.39531417786947",18/12/21 22:47:25
"2","22","304.8540514604887","281.39531417786947",18/12/21 22:47:25
"2","22","304.0153396094723","284.05167635830736",18/12/21 22:47:25
"2","22","304.1506416933995","283.02030406371824",18/12/21 22:47:25
"2","22","304.1506416933995","283.02030406371824",18/12/21 22:47:25
"2","22","302.86216340845544","283.44149019683437",18/12/21 22:47:25
"2","22","302.86216340845544","283.44149019683437",18/12/21 22:47:25
"2","22","304.63208839316223","282.3539457230768",18/12/21 22:47:25
"2","22","304.63208839316223","282.3539457230768",18/12/21 22:47:25
"2","22","305.26688847257725","283.757074450165",18/12/21 22:47:25
"2","22","305.26688847257725","283.757074450165",18/12/21 22:47:25
"2","22","303.031702944232","282.6365903063289",18/12/21 22:47:25
"2","22","302.211574153873","282.05244432227863",18/12/21 22:47:25
"2","22","302.211574153873","282.05244432227863",18/12/21 22:47:25
"2","22","305.52273268102306","282.54112849365964",18/12/21 22:47:25
"2","22","305.52273268102306","282.54112849365964",18/12/21 22:47:25
"2","22","305.3315631801793","283.27599226235054",18/12/21 22:47:25
"2","22","305.0447389346626","282.5923880164767",18/12/21 22:47:25
"2","22","305.0447389346626","282.5923880164767",18/12/21 22:47:25
"2","22","304.98841889067177","280.96895007380743",18/12/21 22:47:25
"2","22","306.0163285790642","281.78989460864267",18/12/21 22:47:25
"2","22","306.1498176790626","281.85498807444327",18/12/21 22:47:25
"2","22","306.33461677417324","281.79541947520613",18/12/21 22:47:25
"2","22","306.33461677417324","281.79541947520613",18/12/21 22:47:25
"2","22","304.1259078815573","281.21698360406845",18/12/21 22:47:25
"2","22","304.1259078815573","281.21698360406845",18/12/21 22:47:25
"2","22","302.93461115106186","279.3466116097903",18/12/21 22:47:25
"2","22","302.93461115106186","279.3466116097903",18/12/21 22:47:25
"2","22","304.8849529281214","279.1242260947611",18/12/21 22:47:25
"2","22","304.268495173971","277.7240696712969",18/12/21 22:47:25
"2","22","304.268495173971","277.7240696712969",18/12/21 22:47:25
"2","22","303.01354827832176","279.0382186245159",18/12/21 22:47:25
"2","22","303.01354827832176","279.0382186245159",18/12/21 22:47:25
"2","22","302.9185196806517","278.7189998399677",18/12/21 22:47:25
"2","22","302.9185196806517","278.7189998399677",18/12/21 22:47:25
"2","22","305.54073588091876","278.5915928908154",18/12/21 22:47:25
"2","22","305.54073588091876","278.5915928908154",18/12/21 22:47:25
"2","22","305.99419021978","279.1081517995958",18/12/21 22:47:25
"2","22","305.51454208057606","281.6211161831127",18/12/21 22:47:25
"2","22","305.51454208057606","281.6211161831127",18/12/21 22:47:25
"2","22","305.75197382419435","281.68385514774366",18/12/21 22:47:25
"2","22","305.75197382419435","281.68385514774366",18/12/21 22:47:25
"2","22","303.28049444438915","281.64155099616266",18/12/21 22:47:25
"2","22","303.0414656103437","282.9434259814922",18/12/21 22:47:25
"2","22","303.0414656103437","282.9434259814922",18/12/21 22:47:25
"2","22","304.41774728514395","281.7994985413092",18/12/21 22:47:25
"2","22","304.3332433392974","281.5660477792856",18/12/21 22:47:25
"2","22","304.3332433392974","281.5660477792856",18/12/21 22:47:25
"2","22","302.5824247152812","281.24998598160363",18/12/21 22:47:26
"2","22","302.5824247152812","281.24998598160363",18/12/21 22:47:26
"2","22","302.189956920403","282.738462766242",18/12/21 22:47:26
"2","22","302.189956920403","282.738462766242",18/12/21 22:47:26
"2","22","303.8639401950286","281.86216905165384",18/12/21 22:47:26
"2","22","303.8639401950286","281.86216905165384",18/12/21 22:47:26
"2","22","302.88162024143594","281.8027383114904",18/12/21 22:47:26
"2","22","302.88162024143594","281.8027383114904",18/12/21 22:47:26
"2","22","304.78642903178434","281.8340849738033",18/12/21 22:47:26
"2","22","304.78642903178434","281.8340849738033",18/12/21 22:47:26
"2","22","306.1523762009844","282.1817889476959",18/12/21 22:47:26
"2","22","306.1544017242467","282.1835895712883",18/12/21 22:47:26
"2","22","306.1544017242467","282.1835895712883",18/12/21 22:47:26
"2","22","306.1641207761768","283.8042633794272",18/12/21 22:47:26
"2","22","306.1641207761768","283.8042633794272",18/12/21 22:47:26
"2","22","306.0157082054106","282.984890958608",18/12/21 22:47:26
"2","22","305.21995485941153","284.0780963382032",18/12/21 22:47:26
"2","22","305.21995485941153","284.0780963382032",18/12/21 22:47:26
"2","22","305.93713762577636","280.0181270259261",18/12/21 22:47:26
"2","22","305.14519115032806","280.8427868869862",18/12/21 22:47:26
"2","22","305.14519115032806","280.8427868869862",18/12/21 22:47:26
"2","22","304.96483850275337","280.19478819423614",18/12/21 22:47:26
"2","22","305.9201889102284","278.8938106883332",18/12/21 22:47:26
"2","22","305.60056129480677","278.0319169538576",18/12/21 22:47:26
"2","22","305.30128417254645","278.0062015173636",18/12/21 22:47:26
"2","22","304.29739198524425","278.1211021304491",18/12/21 22:47:26
"2","22","305.8138672885083","279.7673319184965",18/12/21 22:47:26
"2","22","303.9722659839964","278.6820259361365",18/12/21 22:47:26
"2","22","304.1737085912692","279.1056263778632",18/12/21 22:47:26
"2","22","304.00620402241265","279.4843515334099",18/12/21 22:47:26
"2","22","303.92532195295024","278.8669693216241",18/12/21 22:47:26
"2","22","303.7924417444103","278.9058677473183",18/12/21 22:47:26
"2","22","303.684805690953","278.82919595786694",18/12/21 22:47:26
"2","22","303.7473018496879","279.2623612943874",18/12/21 22:47:26
"2","22","304.50950707220903","278.6698655540408",18/12/21 22:47:26
"2","22","305.3132578082615","279.0152432531484",18/12/21 22:47:26
"2","22","305.864712008591","278.4329728108406",18/12/21 22:47:26
"2","22","305.8687527754123","278.43039480983873",18/12/21 22:47:26
"2","22","305.68619850281976","278.49363231211487",18/12/21 22:47:26
"2","22","305.31731573405295","280.2074216988418",18/12/21 22:47:26
"2","22","306.2576950086903","279.74255304862027",18/12/21 22:47:26
"2","22","305.202142429975","279.53407224527473",18/12/21 22:47:26
"2","22","306.0998645148516","278.7033692308928",18/12/21 22:47:26
"2","22","305.55281619211485","278.2530372741582",18/12/21 22:47:26
"2","22","305.82582983905445","278.84872265311947",18/12/21 22:47:26
"2","22","303.558410067608","279.39162608841855",18/12/21 22:47:26
"2","22","304.43615796461415","279.8867956553948",18/12/21 22:47:26
"2","22","306.4238332983384","278.53955417908844",18/12/21 22:47:26
"2","22","304.0072877814764","278.5809574213095",18/12/21 22:47:26
"2","22","304.6488241986192","278.2208748516255",18/12/21 22:47:26
"2","22","305.43135246214837","278.5001271083366",18/12/21 22:47:27
"2","22","304.29823604518657","280.3053847675493",18/12/21 22:47:27
"2","22","304.50457728889","278.8429323917699",18/12/21 22:47:27
"2","22","302.83885221215274","280.0297243603134",18/12/21 22:47:27
"2","22","304.96274647817086","281.08685496146916",18/12/21 22:47:27
"2","22","306.20483385012574","283.10213700803615",18/12/21 22:47:27
"2","22","306.300614645074","283.13839682642003",18/12/21 22:47:27
"2","22","306.15483068639486","283.1347885524956",18/12/21 22:47:27
"2","22","306.4679140462546","282.7405613991034",18/12/21 22:47:27
"2","22","305.41203934849176","281.98402397937423",18/12/21 22:47:27
"2","22","303.02028464447824","282.6217580106814",18/12/21 22:47:27
"2","22","304.79812077875937","283.32232486716197",18/12/21 22:47:27
"2","22","305.23068612475316","284.0539845231213",18/12/21 22:47:27
"2","22","303.2489888782302","284.0574427477609",18/12/21 22:47:27
"2","22","303.3665996340047","284.13207257386426",18/12/21 22:47:27
"2","22","303.3840118451674","282.2804573767312",18/12/21 22:47:27
"2","22","303.3247156937334","280.81894020596627",18/12/21 22:47:27
"2","22","303.3394696380918","280.83693375842137",18/12/21 22:47:27
"2","22","302.2972341401496","281.2066761467932",18/12/21 22:47:27
"2","22","303.62467465846174","280.09008489540946",18/12/21 22:47:27
"2","22","305.5738707979368","278.6628353906941",18/12/21 22:47:27
"2","22","305.4000627586096","278.94606960105676",18/12/21 22:47:27
"2","22","305.4000627586096","278.94606960105676",18/12/21 22:47:27
"2","22","305.4000627586096","278.94606960105676",18/12/21 22:47:27
"2","22","305.34233165164244","280.21123347499395",18/12/21 22:47:27
"2","22","305.23576860888664","282.5465379421002",18/12/21 22:47:27
"2","22","305.1646211836162","284.1057173326322",18/12/21 22:47:27
"2","91","306.1744612359453","285.7171299524634",18/12/21 22:47:27
"2","91","308.0941183972603","286.6230111397532",18/12/21 22:47:27
"2","91","309.23916049232224","287.16335350581454",18/12/21 22:47:27
"2","91","310.6155605064843","287.81287306802676",18/12/21 22:47:27
"2","91","312.6509344639783","288.7733607083981",18/12/21 22:47:27
"2","25","313.78783591564763","290.45625570585486",18/12/21 22:47:27
"2","25","315.0119719379429","292.42362728183844",18/12/21 22:47:27
"2","25","316.126650757395","294.2150845919738",18/12/21 22:47:27
"2","25","317.0991812509681","295.7780880613477",18/12/21 22:47:27
"2","25","317.50514600357957","296.43053476709974",18/12/21 22:47:27
"2","25","317.2670551266534","295.64870270988524",18/12/21 22:47:27
"2","25","317.5153507297163","295.5707834919345",18/12/21 22:47:27
"2","25","318.08197510180605","296.3330647162381",18/12/21 22:47:27
"2","25","317.5163113508022","294.50771427820706",18/12/21 22:47:27
"2","25","317.05623456581776","294.32123217302285",18/12/21 22:47:27
"2","25","315.6621712591232","295.60160450345165",18/12/21 22:47:27
"2","25","314.91642320222445","296.2881233194978",18/12/21 22:47:27
"2","25","316.04446544848844","295.6692459953355",18/12/21 22:47:27
"2","25","315.1612304549235","294.6727489708621",18/12/21 22:47:27
"2","25","314.62411756052563","294.8294610063138",18/12/21 22:47:27
"2","25","314.7328377395977","294.9492448863978",18/12/21 22:47:27
"2","25","315.0357485526707","295.5539284430988",18/12/21 22:47:27
"2","25","314.7643176965694","296.25949276867095",18/12/21 22:47:27
"2","25","314.28273951937115","296.26640549227653",18/12/21 22:47:28
"2","25","312.47971424574234","294.95793475006883",18/12/21 22:47:28
"2","25","312.38119196553","295.0071403222151",18/12/21 22:47:28
"2","25","312.37591797237377","296.38747684533416",18/12/21 22:47:28
"2","25","312.07627319357493","296.1892693267569",18/12/21 22:47:28
"2","25","312.76098256799673","296.2040845019048",18/12/21 22:47:28
"2","25","312.48744978401385","296.3291378485842",18/12/21 22:47:28
"2","25","314.69316348838646","295.80173583981906",18/12/21 22:47:28
"2","25","312.4310765990797","295.1069318015148",18/12/21 22:47:28
"2","25","312.38805746784004","294.88154718882794",18/12/21 22:47:28
"2","25","312.37596848337074","294.89631059974033",18/12/21 22:47:28
"2","25","313.1383960214183","294.8773057725699",18/12/21 22:47:28
"2","25","313.6298272745464","295.8897015720203",18/12/21 22:47:28
"2","25","315.36826417712865","295.371941042485",18/12/21 22:47:28
"2","25","315.09380867970583","296.4775234739769",18/12/21 22:47:28
"2","25","315.0382747435415","296.502448587032",18/12/21 22:47:28
"2","25","315.9285393411615","294.6895951290613",18/12/21 22:47:28
"2","25","315.6153858578249","294.7047958985166",18/12/21 22:47:28
"2","25","316.36851166509314","296.02248933082694",18/12/21 22:47:28
"2","25","318.1381402579975","296.419014477392",18/12/21 22:47:28
"2","25","320.27185951939566","295.6144356402346",18/12/21 22:47:28
"2","25","320.4665671730741","295.15235197241526",18/12/21 22:47:28
"2","25","320.6023904485936","295.11720537981535",18/12/21 22:47:28
"2","25","319.617794746299","295.71376376696736",18/12/21 22:47:28
"2","25","320.708741319307","293.8357613284732",18/12/21 22:47:28
"2","25","319.68200408879403","295.01741926288224",18/12/21 22:47:28
"2","25","319.4849211390535","295.00001350544204",18/12/21 22:47:28
"2","25","319.8625103761263","293.6030400659713",18/12/21 22:47:28
"2","25","319.9899055326082","293.2936862260764",18/12/21 22:47:28
"2","25","320.6663275412948","291.47430697679687",18/12/21 22:47:28
"2","25","320.19803191167654","289.8173922895157",18/12/21 22:47:28
"2","25","320.03423145276435","289.2669974017099",18/12/21 22:47:28
"2","25","320.48629587690084","289.2049315465696",18/12/21 22:47:28
"2","25","320.7705852661934","289.3160405886172",18/12/21 22:47:28
"2","25","320.7041230984913","291.76693978057597",18/12/21 22:47:28
"2","25","321.26791146846426","292.11495888104184",18/12/21 22:47:28
"2","25","320.2253890071547","291.6763878257294",18/12/21 22:47:28
"2","25","319.1688650180436","291.4764609127027",18/12/21 22:47:28
"2","25","318.0207754033506","291.7889726495892",18/12/21 22:47:28
"2","25","317.96974951734603","291.71641909543376",18/12/21 22:47:28
"2","25","318.76180702002165","291.3642558378573",18/12/21 22:47:28
"2","25","318.36867179261765","289.78056989241077",18/12/21 22:47:28
"2","25","317.18048870631543","290.63623116178354",18/12/21 22:47:28
"2","25","317.92795316946365","292.5545318057349",18/12/21 22:47:28
"2","25","317.56156217293744","292.3464055290859",18/12/21 22:47:28
"2","25","315.87126032764553","292.9316414844998",18/12/21 22:47:28
"2","25","315.1634231021032","291.93061951367577",18/12/21 22:47:28
"2","25","314.9469173024902","291.098119293692",18/12/21 22:47:28
"2","25","314.731974095178","290.4078495867716",18/12/21 22:47:28
"2","25","314.50252768319666","290.63375652407353",18/12/21 22:47:29
"2","25","313.8771808757312","290.16174694455077",18/12/21 22:47:29
"2","25","315.8106040207118","290.8457716494315",18/12/21 22:47:29
"2","25","315.1046412756458","290.9315185168351",18/12/21 22:47:29
"2","25","315.14720784772857","290.7006420095234",18/12/21 22:47:29
"2","25","314.6369995030622","292.1019966188554",18/12/21 22:47:29
"2","25","314.90400239656145","292.89741724579545",18/12/21 22:47:29
"2","25","315.13504827357724","291.44955196212845",18/12/21 22:47:29
"2","25","315.6767771332357","293.3023766037354",18/12/21 22:47:29
"2","25","315.0277113610296","293.8830242945283",18/12/21 22:47:29
"2","25","315.9126891203102","294.16018265948253",18/12/21 22:47:29
"2","25","315.83625033680585","294.09605528597933",18/12/21 22:47:29
"2","25","316.78204082140354","294.4594675489571",18/12/21 22:47:29
"2","25","317.3405619558469","295.92943561942457",18/12/21 22:47:29
"2","25","316.94294101334077","295.6975963588986",18/12/21 22:47:29
"2","25","316.6573745291144","295.85441985497727",18/12/21 22:47:29
"2","25","317.62605563532725","293.79604346182197",18/12/21 22:47:29
"2","25","317.5489218245568","293.77252693359003",18/12/21 22:47:29
"2","25","320.0275205137225","293.86015964099096",18/12/21 22:47:29
"2","25","319.6678397092223","293.0100702656716",18/12/21 22:47:29
"2","25","319.6559928406407","291.4632181980484",18/12/21 22:47:29
"2","25","319.96994779452336","291.8783489462838",18/12/21 22:47:29
"2","25","318.6909397153326","291.7525966530345",18/12/21 22:47:29
"2","25","319.0997974182103","289.7292547051343",18/12/21 22:47:29
"2","25","318.79073348871253","290.2059813861481",18/12/21 22:47:29
"2","25","320.63419974804793","289.73487156264457",18/12/21 22:47:29
"2","25","320.9756823963156","289.5523320781801",18/12/21 22:47:29
"2","25","320.46905104084925","290.93804052139325",18/12/21 22:47:29
"2","25","321.18971582706496","291.3643862038615",18/12/21 22:47:29
"2","25","320.09735500429827","292.4999698280243",18/12/21 22:47:29
"2","25","320.11194073148766","292.54956703804163",18/12/21 22:47:29
"2","25","319.87091066879884","293.05533899309006",18/12/21 22:47:29
"2","25","320.0321797135252","293.1049957301858",18/12/21 22:47:29
"2","25","319.9684049413614","291.19512864852766",18/12/21 22:47:29
"2","25","319.9684049413614","291.19512864852766",18/12/21 22:47:29
"2","25","319.9684049413614","291.19512864852766",18/12/21 22:47:29
"2","25","318.77339073050285","290.772631074204",18/12/21 22:47:29
"2","25","316.5016282862521","289.96944889158726",18/12/21 22:47:29
"2","25","314.2841416689044","289.18545594120104",18/12/21 22:47:29
"2","90","314.30484876221294","288.6177333407927",18/12/21 22:47:29
"2","90","316.27502863229415","288.19992701940083",18/12/21 22:47:29
"2","90","318.5632661776435","287.8383659167628",18/12/21 22:47:29
"2","90","320.770110129017","287.53615165351476",18/12/21 22:47:29
"2","90","322.78525408311623","287.26018957425316",18/12/21 22:47:29
"2","90","324.95698481455753","286.9627838593782",18/12/21 22:47:29
"2","90","326.70455759083694","286.72346407479307",18/12/21 22:47:29
"2","90","328.37209802354033","286.4951042476326",18/12/21 22:47:29
"2","90","329.6723327054421","286.3170447766872",18/12/21 22:47:29
"2","90","331.98463040990595","286.0003892439162",18/12/21 22:47:29
"2","93","333.54925538287296","286.3904356347097",18/12/21 22:47:29
"2","93","335.8923148821163","286.99850645300876",18/12/21 22:47:30
"2","93","337.234881844058","287.34692944074453",18/12/21 22:47:30
"2","93","338.8470940869824","287.76533077376376",18/12/21 22:47:30
"2","93","340.3847773297478","288.1643903401192",18/12/21 22:47:30
"2","92","342.5887274189308","288.39301708151316",18/12/21 22:47:30
"2","92","344.8120507265244","288.37382160813",18/12/21 22:47:30
"2","92","346.6934815252648","288.35757792701713",18/12/21 22:47:30
"2","92","348.5157905795647","288.34184468443016",18/12/21 22:47:30
"2","92","350.96496952847923","288.3206992445547",18/12/21 22:47:30
"2","92","352.75611060914065","288.30523509643825",18/12/21 22:47:30
"2","92","354.49157034182593","288.290251683548",18/12/21 22:47:30
"2","92","355.8665590791666","288.2783804637305",18/12/21 22:47:30
"2","92","357.04697827112767","287.6935541751527",18/12/21 22:47:30
"2","92","358.3491269545927","286.49518454512224",18/12/21 22:47:30
"2","31","359.65874896432797","285.03824041822907",18/12/21 22:47:30
"2","31","358.94446762220565","283.4374705029846",18/12/21 22:47:30
"2","31","358.39647946306513","282.2093788431129",18/12/21 22:47:30
"2","31","357.71771718833173","280.6882104114027",18/12/21 22:47:30
"2","31","356.90940475509564","278.8767082078063",18/12/21 22:47:30
"2","31","357.5415600807135","278.68072664732193",18/12/21 22:47:30
"2","31","358.5427905346801","277.75447084524137",18/12/21 22:47:30
"2","31","358.6425350017092","277.77588684025164",18/12/21 22:47:30
"2","31","358.8498310334158","278.9416787895384",18/12/21 22:47:30
"2","31","357.1526140261801","278.8247566952512",18/12/21 22:47:30
"2","31","357.18042035527657","279.6316572813941",18/12/21 22:47:30
"2","31","357.1697029791996","279.642029268787",18/12/21 22:47:30
"2","31","357.4196221886875","279.78637043353376",18/12/21 22:47:30
"2","31","356.8621876613214","282.1730195004169",18/12/21 22:47:30
"2","31","358.80770858669166","281.74661071293605",18/12/21 22:47:30
"2","31","357.59879992882134","279.64218610958056",18/12/21 22:47:30
"2","31","356.93472342783616","280.73981867454",18/12/21 22:47:30
"2","31","357.25830076869875","279.5011830786021",18/12/21 22:47:30
"2","31","358.9612994701323","280.1697780081492",18/12/21 22:47:30
"2","31","359.14589093353453","279.17841464252496",18/12/21 22:47:30
"2","31","358.7428587346682","279.5241274854264",18/12/21 22:47:30
"2","31","360.35402198782765","280.5242495723949",18/12/21 22:47:30
"2","31","361.40532423121005","280.4185164696514",18/12/21 22:47:30
"2","31","360.59930234785776","280.5884938454394",18/12/21 22:47:30
"2","31","360.6673755346105","280.4908562092749",18/12/21 22:47:30
"2","31","361.14909573763185","282.61162526845254",18/12/21 22:47:30
"2","31","361.1920248090853","281.9277452869653",18/12/21 22:47:30
"2","31","359.61377099313336","281.36507180530265",18/12/21 22:47:30
"2","31","360.83775636766507","281.1619730926577",18/12/21 22:47:30
"2","31","361.2970407661385","282.0749686305287",18/12/21 22:47:30
"2","31","361.27974066732634","282.0216983796293",18/12/21 22:47:30
"2","31","361.3610600327377","283.65047332013444",18/12/21 22:47:30
"2","31","360.97570541042177","284.3778343146872",18/12/21 22:47:30
"2","31","361.08144766031984","283.29039394778033",18/12/21 22:47:30
"2","31","360.4720171508536","282.7537601300296",18/12/21 22:47:30
"2","31","358.89231402999286","284.2836756890169",18/12/21 22:47:30
"2","31","359.57186490859465","284.33340517196723",18/12/21 22:47:31
"2","31","359.01264654670683","284.72298443494526",18/12/21 22:47:31
"2","31","359.2203304627602","284.5912181143163",18/12/21 22:47:31
"2","31","359.6060994322068","282.26458787881205",18/12/21 22:47:31
"2","31","359.34907190543714","281.72467223870325",18/12/21 22:47:31
"2","31","358.84702056249756","280.04866218145565",18/12/21 22:47:31
"2","31","360.9692776175197","279.33397881456756",18/12/21 22:47:31
"2","31","361.1610963924995","280.7946045121871",18/12/21 22:47:31
"2","31","360.7598272789659","280.8261299489127",18/12/21 22:47:31
"2","31","360.8685753920852","280.7864267390916",18/12/21 22:47:31
"2","31","360.91085030854003","281.45138633432174",18/12/21 22:47:31
"2","31","361.03307522034595","280.909735001734",18/12/21 22:47:31
"2","31","360.47526182175005","280.2081328946413",18/12/21 22:47:31
"2","31","359.47820001633454","281.028141730747",18/12/21 22:47:31
"2","31","359.439012445019","281.307596635599",18/12/21 22:47:31
"2","31","359.7785279342323","281.5745368322111",18/12/21 22:47:31
"2","31","359.916409659176","283.0335837553391",18/12/21 22:47:31
"2","31","359.7024287405642","282.9407257891647",18/12/21 22:47:31
"2","31","359.37147770306433","282.69449625897465",18/12/21 22:47:31
"2","31","359.24124404270214","282.1365876031374",18/12/21 22:47:31
"2","31","357.58401551706623","282.4606875441804",18/12/21 22:47:31
"2","31","357.3122089916801","282.6554778077328",18/12/21 22:47:31
"2","31","357.070618097415","283.5259219805804",18/12/21 22:47:31
"2","31","357.04549909756184","283.4595402362746",18/12/21 22:47:31
"2","31","357.33791010140607","283.99042957023363",18/12/21 22:47:31
"2","31","357.44779478223757","283.9351101581685",18/12/21 22:47:31
"2","31","359.46100389266115","283.513365217721",18/12/21 22:47:31
"2","31","357.0622312240246","282.8346563323564",18/12/21 22:47:31
"2","31","357.79504166803633","283.1619768962139",18/12/21 22:47:31
"2","31","359.8535086194213","284.5151352287852",18/12/21 22:47:31
"2","31","361.46154025416763","282.9250093587717",18/12/21 22:47:31
"2","31","361.1542168350831","283.38045589507516",18/12/21 22:47:31
"2","31","360.3862444929812","281.09279141331876",18/12/21 22:47:31
"2","31","360.65150500628016","281.1244635204164",18/12/21 22:47:31
"2","31","358.8861828159142","281.26838115156",18/12/21 22:47:31
"2","31","359.4457934841708","281.3198998231996",18/12/21 22:47:31
"2","31","359.52815098732447","281.28007487617043",18/12/21 22:47:31
"2","31","359.17928792895805","281.6146454542314",18/12/21 22:47:31
"2","31","358.5335862996773","281.0390237288287",18/12/21 22:47:31
"2","31","357.82171806703906","283.14690124526584",18/12/21 22:47:31
"2","31","358.3747722068962","283.08038971282906",18/12/21 22:47:31
"2","31","358.16776065988853","283.92442779465307",18/12/21 22:47:31
"2","31","357.0171199252354","282.5471284658891",18/12/21 22:47:31
"2","31","356.87556596663416","281.23101652392603",18/12/21 22:47:31
"2","31","359.2706405683076","281.6399142437606",18/12/21 22:47:31
"2","31","359.18724230675366","280.62357509706527",18/12/21 22:47:31
"2","31","359.02221577961194","280.85647452562074",18/12/21 22:47:31
"2","31","358.1009451595823","280.1466386674139",18/12/21 22:47:31
"2","31","358.1806912350861","280.1075237655275",18/12/21 22:47:31
"2","31","358.1510027760999","280.29157169024757",18/12/21 22:47:31
"2","31","357.62919024675","279.93828159036616",18/12/21 22:47:32
"2","31","358.9616334909401","280.4701737171076",18/12/21 22:47:32
"2","31","359.0527102074777","282.5378712838295",18/12/21 22:47:32
"2","31","357.14051855184994","283.28057613212985",18/12/21 22:47:32
"2","31","357.5234834945046","283.27489505073606",18/12/21 22:47:32
"2","31","356.8567183581082","282.57656221986304",18/12/21 22:47:32
"2","31","357.00605091182877","283.65049073667393",18/12/21 22:47:32
"2","31","356.9957741750872","283.644705121148",18/12/21 22:47:32
"2","31","356.9296101569011","283.69471756876385",18/12/21 22:47:32
"2","31","358.2093760350456","284.2122279641723",18/12/21 22:47:32
"2","31","357.63236259160936","284.57651346552655",18/12/21 22:47:32
"2","31","359.0002539586079","283.50908022486163",18/12/21 22:47:32
"2","31","357.0421809494124","283.06841279887954",18/12/21 22:47:32
"2","31","357.6007750767298","284.5026868782325",18/12/21 22:47:32
"2","31","356.97632254120583","283.6406071725535",18/12/21 22:47:32
"2","31","357.00289603776076","284.51850806944293",18/12/21 22:47:32
"2","31","356.95297310499285","284.50581891748755",18/12/21 22:47:32
"2","31","357.4756231467444","283.6859947950638",18/12/21 22:47:32
"2","31","356.94694500415955","283.1296598957602",18/12/21 22:47:32
"2","31","358.9820087343315","282.05965586119635",18/12/21 22:47:32
"2","31","358.3792595418454","280.36060833497004",18/12/21 22:47:32
"2","31","357.5767845265557","280.0368092146579",18/12/21 22:47:32
"2","31","359.41137063286726","278.5998000672949",18/12/21 22:47:32
"2","31","358.93668573602054","277.7868061182115",18/12/21 22:47:32
"2","31","358.67034393411086","277.7095536275385",18/12/21 22:47:32
"2","31","357.92999281379696","278.83777637659404",18/12/21 22:47:32
"2","31","359.58449253130294","279.45830096133085",18/12/21 22:47:32
"2","31","360.1808438374412","277.85434686100575",18/12/21 22:47:32
"2","31","359.20215372901924","277.62224382285797",18/12/21 22:47:32
"2","31","360.2631264839809","278.7401924936173",18/12/21 22:47:32
"2","31","360.3252653309503","278.69351061562156",18/12/21 22:47:32
"2","31","360.4275570849193","278.36231506743934",18/12/21 22:47:32
"2","31","360.48830137781795","278.88687737504057",18/12/21 22:47:32
"2","31","359.8084998388693","278.83789021745287",18/12/21 22:47:32
"2","31","360.95715344527196","278.26952691031084",18/12/21 22:47:32
"2","31","361.0446511215031","278.08909690094066",18/12/21 22:47:32
"2","31","361.49325272631364","278.51372606604826",18/12/21 22:47:32
"2","31","361.44908465402216","278.61826002297136",18/12/21 22:47:32
"2","31","360.4828354313867","277.97236824954564",18/12/21 22:47:32
"2","31","358.8169747446702","277.606447594105",18/12/21 22:47:32
"2","31","360.4922967659976","279.3226864750975",18/12/21 22:47:32
"2","31","360.0459060467787","277.97607383751273",18/12/21 22:47:32
"2","31","358.5868262057371","277.80698208669247",18/12/21 22:47:32
"2","31","360.49747254768863","278.55138971154236",18/12/21 22:47:32
"2","31","360.4837567302936","278.8890967932504",18/12/21 22:47:32
"2","31","360.44458752381627","278.72749943644766",18/12/21 22:47:32
"2","31","360.74518347883037","279.8665174333573",18/12/21 22:47:32
"2","31","361.4800730971776","279.3162639839874",18/12/21 22:47:32
"2","31","360.91905877130523","281.6616118179328",18/12/21 22:47:32
"2","31","360.3680035490952","282.28570292977236",18/12/21 22:47:32
"2","31","360.1929333824149","282.48275342923165",18/12/21 22:47:33
"2","31","360.57229429012625","282.29398626505946",18/12/21 22:47:33
"2","31","361.3591222413226","284.58306663948093",18/12/21 22:47:33
"2","31","361.46326175750033","284.2464361189932",18/12/21 22:47:33
"2","31","361.2869269659633","282.61561609829937",18/12/21 22:47:33
"2","31","359.8130110720644","284.62336751044575",18/12/21 22:47:33
"2","31","359.1739027046114","283.652507276619",18/12/21 22:47:33
"2","31","359.83405631884455","281.9840096240092",18/12/21 22:47:33
"2","31","361.02423574377036","281.94763049383124",18/12/21 22:47:33
"2","31","360.3204552139341","282.0596881188882",18/12/21 22:47:33
"2","31","359.90299861808694","284.36827972262216",18/12/21 22:47:33
"2","31","361.40403259833334","284.3944806159066",18/12/21 22:47:33
"2","31","361.37493747087797","283.3065911853986",18/12/21 22:47:33
"2","31","360.82115342276","281.83346293150686",18/12/21 22:47:33
"2","31","360.8230454548097","281.57749790124143",18/12/21 22:47:33
"2","31","360.5864977075546","281.4508795311437",18/12/21 22:47:33
"2","31","360.6917176182349","280.95454192410614",18/12/21 22:47:33
"2","31","358.92383455646035","279.94948373543997",18/12/21 22:47:33
"2","31","361.3380217362255","280.06934017329723",18/12/21 22:47:33
"2","31","361.31899211992175","280.0235859099873",18/12/21 22:47:33
"2","31","360.7729964198004","279.75627659343706",18/12/21 22:47:33
"2","31","360.074251792773","279.64707887577526",18/12/21 22:47:33
"2","31","359.26047764781555","278.6707309892044",18/12/21 22:47:33
"2","31","359.582013167185","278.95648399766776",18/12/21 22:47:33
"2","31","359.86758106868854","279.75162107802004",18/12/21 22:47:33
"2","31","361.37207821284267","280.0685129615862",18/12/21 22:47:33
"2","31","359.34373747523784","279.9014919477589",18/12/21 22:47:33
"2","31","356.9861018923179","280.6519823823103",18/12/21 22:47:33
"2","31","357.4513485631009","280.3976816761718",18/12/21 22:47:33
"2","31","357.9024791312841","281.48216971281784",18/12/21 22:47:33
"2","31","357.2573552333209","280.79900905920596",18/12/21 22:47:33
"2","31","357.2133559353441","278.31483222247044",18/12/21 22:47:33
"2","31","358.7245574614273","278.4064273956409",18/12/21 22:47:33
"2","31","357.8182572680452","278.3642307231526",18/12/21 22:47:33
"2","31","357.63374902395736","277.76642101305634",18/12/21 22:47:33
"2","31","358.163094066353","280.1683361451966",18/12/21 22:47:33
"2","31","358.156116229786","280.18173386343153",18/12/21 22:47:33
"2","31","357.7346793121194","280.8387079711654",18/12/21 22:47:33
"2","31","357.3955061019314","280.0996302185433",18/12/21 22:47:33
"2","31","358.04590909325754","282.20174136185966",18/12/21 22:47:33
"2","31","358.19445763937546","283.3144528258412",18/12/21 22:47:33
"2","31","358.84965830921254","282.77274071717005",18/12/21 22:47:33
"2","31","358.74423474398515","283.4281310484861",18/12/21 22:47:33
"2","31","357.20906773709453","284.64278143926657",18/12/21 22:47:33
"2","31","357.66289098747615","284.28845151423707",18/12/21 22:47:33
"2","31","358.5078889052834","284.31984004311965",18/12/21 22:47:33
"2","31","358.9458749470813","284.08688795588654",18/12/21 22:47:33
"2","31","360.57040088987867","284.7289065337534",18/12/21 22:47:33
"2","31","360.51752414613856","284.57973039178773",18/12/21 22:47:33
"2","31","360.51593576533475","282.37126540822106",18/12/21 22:47:34
"2","31","361.35411446286815","280.28463325433006",18/12/21 22:47:34
"2","31","361.470393641353","278.0654458049596",18/12/21 22:47:34
"2","31","359.6521675570231","277.6731317258129",18/12/21 22:47:34
"2","31","359.85434703243635","279.95914056623644",18/12/21 22:47:34
"2","31","359.38995816995174","278.6296201642366",18/12/21 22:47:34
"2","31","358.3447448528885","277.8751220605479",18/12/21 22:47:34
"2","31","357.3350534345847","277.81880992357884",18/12/21 22:47:34
"2","31","357.0566368051534","279.4138048427523",18/12/21 22:47:34
"2","31","357.14482824213337","280.29319461330226",18/12/21 22:47:34
"2","31","357.9465862597851","280.45557852977123",18/12/21 22:47:34
"2","31","358.6691215001603","280.305184516894",18/12/21 22:47:34
"2","31","360.30325428400556","280.81645352028556",18/12/21 22:47:34
"2","31","360.4190993487222","280.8876668349887",18/12/21 22:47:34
"2","31","359.77283190592937","279.81296376650045",18/12/21 22:47:34
"2","31","357.554121897738","280.09677745922113",18/12/21 22:47:34
"2","31","358.43396694068144","281.116840068861",18/12/21 22:47:34
"2","31","359.5763643344001","279.90392097258217",18/12/21 22:47:34
"2","31","358.6363095445705","279.42518537383893",18/12/21 22:47:34
"2","31","360.64946640637083","280.3665366493755",18/12/21 22:47:34
"2","31","360.1793607308014","279.82005472716986",18/12/21 22:47:34
"2","31","361.0000990402187","279.42468812151463",18/12/21 22:47:34
"2","31","359.4916104925591","280.6005615160461",18/12/21 22:47:34
"2","31","358.67173695635177","280.71430953421867",18/12/21 22:47:34
"2","31","358.6712876584255","280.6582618917191",18/12/21 22:47:34
"2","31","360.22917627869685","281.9328657136399",18/12/21 22:47:34
"2","31","359.679267889812","281.38078099836304",18/12/21 22:47:34
"2","31","360.1790296133255","282.02661834016646",18/12/21 22:47:34
"2","31","359.2902519463738","281.84673368483357",18/12/21 22:47:34
"2","31","359.31439310549547","282.54829047950057",18/12/21 22:47:34
"2","31","357.8306616142728","281.65833059836973",18/12/21 22:47:34
"2","31","356.91779826293777","280.00459382327864",18/12/21 22:47:34
"2","31","357.9576552706842","281.248984152048",18/12/21 22:47:34
"2","31","358.82840075310645","281.3674218545377",18/12/21 22:47:34
"2","31","358.9063545998671","281.3262338961213",18/12/21 22:47:34
"2","31","360.9368051822764","280.4569342549586",18/12/21 22:47:34
"2","31","359.2635738660227","280.3760607910937",18/12/21 22:47:34
"2","31","358.7738858274093","282.79410582569864",18/12/21 22:47:34
"2","31","358.22627611923673","283.2258103884402",18/12/21 22:47:34
"2","31","358.22149474892495","282.5884623714418",18/12/21 22:47:34
"2","31","358.8182473070663","283.08049184953035",18/12/21 22:47:34
"2","31","359.0270086474196","284.7061030814219",18/12/21 22:47:34
"2","31","359.8403941207543","283.8000461349778",18/12/21 22:47:34
"2","31","359.34393812665195","282.95350743635",18/12/21 22:47:34
"2","31","359.4978855057983","282.78273350801896",18/12/21 22:47:34
"2","31","358.8776625212933","283.04021507780203",18/12/21 22:47:34
"2","31","359.5413915006794","284.11425593470875",18/12/21 22:47:34
"2","31","360.14182539168866","283.3604488003138",18/12/21 22:47:34
"2","31","360.10369859618595","284.1217927294219",18/12/21 22:47:34
"2","31","359.598573460287","284.0524146173259",18/12/21 22:47:34
"2","31","361.3312246322744","282.62272848793043",18/12/21 22:47:35
"2","31","361.4694790531598","283.6842155344165",18/12/21 22:47:35
"2","31","359.46313143895605","284.11259284469384",18/12/21 22:47:35
"2","31","359.5260160397986","284.18062712110446",18/12/21 22:47:35
"2","31","359.59118362154294","284.54854865154095",18/12/21 22:47:35
"2","31","360.0044848474475","284.5860478213864",18/12/21 22:47:35
"2","31","360.3532844556667","284.6255776757047",18/12/21 22:47:35
"2","31","360.212348717708","284.0357877285079",18/12/21 22:47:35
"2","31","360.3866074637615","281.6669625849106",18/12/21 22:47:35
"2","31","360.49213854308","282.1223674943652",18/12/21 22:47:35
"2","31","361.3038183099095","282.44709595387405",18/12/21 22:47:35
"2","31","360.1669133060142","281.9131760988251",18/12/21 22:47:35
"2","31","359.45438487006726","281.9341714827536",18/12/21 22:47:35
"2","31","359.7630612183528","280.72491727633286",18/12/21 22:47:35
"2","31","357.7371092144862","281.5371352144382",18/12/21 22:47:35
"2","31","357.7589787050815","281.4940619317383",18/12/21 22:47:35
"2","31","358.26328950912085","281.7978028560301",18/12/21 22:47:35
"2","31","358.7435219236194","281.46546605872106",18/12/21 22:47:35
"2","31","358.7712011610723","280.1970515951423",18/12/21 22:47:35
"2","31","358.66542258413057","278.1614885525459",18/12/21 22:47:35
"2","31","358.40580056130784","278.58291183743864",18/12/21 22:47:35
"2","31","359.8090001128624","280.53952679960906",18/12/21 22:47:35
"2","31","360.6955489259148","279.79440485110433",18/12/21 22:47:35
"2","31","359.5901496209559","279.93039823275353",18/12/21 22:47:35
"2","31","360.0151694266925","279.51157383896793",18/12/21 22:47:35
"2","31","359.57067193102154","277.96988465556234",18/12/21 22:47:35
"2","31","358.0051807401571","279.0075188339997",18/12/21 22:47:35
"2","31","357.9828150284162","279.02335951312864",18/12/21 22:47:35
"2","31","358.12649866026317","280.03941282352895",18/12/21 22:47:35
"2","31","358.32074111378427","277.8108353853114",18/12/21 22:47:35
"2","31","358.97661046365533","277.5781317707724",18/12/21 22:47:35
"2","31","359.0874207468061","278.05320775211044",18/12/21 22:47:35
"2","31","358.70701016305907","278.32097630645853",18/12/21 22:47:35
"2","31","357.538518231701","278.8467113030454",18/12/21 22:47:35
"2","31","358.79623075318915","280.5863391989505",18/12/21 22:47:35
"2","31","357.16690541328836","282.1863779497973",18/12/21 22:47:35
"2","31","357.591888070352","279.7636263037632",18/12/21 22:47:35
"2","31","358.44760242901293","280.1235256739487",18/12/21 22:47:35
"2","31","358.1605764671598","281.6703400651542",18/12/21 22:47:35
"2","31","358.1605764671598","281.6703400651542",18/12/21 22:47:35
"2","31","358.1605764671598","281.6703400651542",18/12/21 22:47:35
"2","31","359.0340405956713","283.13897944412093",18/12/21 22:47:35
"2","31","359.6838082583713","284.2314964067196",18/12/21 22:47:35
"2","92","359.9248931431774","285.40816091095843",18/12/21 22:47:35
"2","92","358.4058387560138","286.2517145007993",18/12/21 22:47:35
"2","92","357.05117968870604","287.00397691411007",18/12/21 22:47:35
"2","93","354.84123195427526","287.45148489656435",18/12/21 22:47:35
"2","93","353.41070549880465","287.5378861225794",18/12/21 22:47:35
"2","93","350.96936076078845","287.68533895554395",18/12/21 22:47:35
"2","93","348.82984440903385","287.81456189662543",18/12/21 22:47:35
"2","93","347.15718914655093","287.91558726726873",18/12/21 22:47:36
"2","93","345.8366941540576","287.99534279074174",18/12/21 22:47:36
"2","93","343.67947021735233","288.1256352381184",18/12/21 22:47:36
"2","90","341.22608306709725","288.2662663162275",18/12/21 22:47:36
"2","90","339.8047767818996","288.2216603103335",18/12/21 22:47:36
"2","90","337.4162215487203","288.1466983475822",18/12/21 22:47:36
"2","90","335.93544623202354","288.1002259769242",18/12/21 22:47:36
"2","90","333.96253970961794","288.0383086541887",18/12/21 22:47:36
"2","90","332.05353394499895","287.97839678067135",18/12/21 22:47:36
"2","90","330.2909611156206","287.73312534157697",18/12/21 22:47:36
"2","90","328.0140737255547","287.41224644416803",18/12/21 22:47:36
"2","90","326.71225471037263","287.22878271555317",18/12/21 22:47:36
"2","90","325.21090877096987","287.0171999065979",18/12/21 22:47:36
"2","90","323.317317878288","286.7503385060568",18/12/21 22:47:36
"2","90","320.9063637294077","286.4105657476975",18/12/21 22:47:36
"2","90","319.24773699471734","286.17681755261214",18/12/21 22:47:36
"2","90","319.24773699471734","286.17681755261214",18/12/21 22:47:36
"2","90","317.77496973219746","285.9692623009123",18/12/21 22:47:36
"2","91","315.8653599905689","285.79329089867787",18/12/21 22:47:36
"2","91","314.1711369456711","285.70463713103",18/12/21 22:47:36
"2","91","312.20512591243136","285.60176148790913",18/12/21 22:47:36
"2","91","310.5714370553196","285.5162752983643",18/12/21 22:47:36
"2","91","308.9141160759356","285.42955250854817",18/12/21 22:47:36
"2","91","306.46911120818294","285.301612510272",18/12/21 22:47:36
"2","91","306.46911120818294","285.301612510272",18/12/21 22:47:36
"2","22","304.9700427302528","284.96900887925676",18/12/21 22:47:36
"2","22","305.7976726394093","283.31994389814037",18/12/21 22:47:36
"2","22","305.66825385173587","283.3230595632933",18/12/21 22:47:36
"2","22","306.46005950793335","284.52636680304397",18/12/21 22:47:36
"2","22","306.4574066601912","284.31538418985076",18/12/21 22:47:36
"2","22","305.91501335779924","284.5108050422808",18/12/21 22:47:36
"2","22","306.4980285260695","284.64024996712004",18/12/21 22:47:36
"2","22","306.1747255918232","282.8740088267805",18/12/21 22:47:36
"2","22","306.41633969324454","281.12170433741557",18/12/21 22:47:36
"2","22","304.098707419067","280.6668591482987",18/12/21 22:47:36
"2","22","304.12516734437594","280.52120022284157",18/12/21 22:47:36
"2","22","303.60534890044096","280.4617272012357",18/12/21 22:47:36
"2","22","304.2242463681666","280.5638343612254",18/12/21 22:47:36
"2","22","304.14396222710917","281.16992048215894",18/12/21 22:47:36
"2","22","303.58478618445486","280.7320605742234",18/12/21 22:47:36
"2","22","303.63802580575026","282.073181864695",18/12/21 22:47:36
"2","22","305.4145930358736","282.54185650132285",18/12/21 22:47:36
"2","22","305.46849682475204","282.39898195638403",18/12/21 22:47:36
"2","22","305.68737534696476","281.5612113121329",18/12/21 22:47:36
"2","22","305.73443458850596","280.14262671968817",18/12/21 22:47:36
"2","22","306.124863804772","279.89873835117857",18/12/21 22:47:36
"2","22","305.6872595573524","280.04534180994733",18/12/21 22:47:36
"2","22","304.2018094855097","278.3321080058462",18/12/21 22:47:36
"2","22","304.14479328917815","280.49797665702795",18/12/21 22:47:36
"2","22","304.25578996811066","279.4414658833392",18/12/21 22:47:37
"2","22","304.8490337243945","278.937381601603",18/12/21 22:47:37
"2","22","303.9761329751657","279.918248662912",18/12/21 22:47:37
"2","22","306.43791946933356","280.30609209787116",18/12/21 22:47:37
"2","22","306.3432291590167","280.6686406304846",18/12/21 22:47:37
"2","22","305.77438618937083","278.9104331427886",18/12/21 22:47:37
"2","22","305.92807669047914","279.202247694154",18/12/21 22:47:37
"2","22","306.4983337186094","278.8124145116524",18/12/21 22:47:37
"2","22","305.16486832647274","279.89824191877653",18/12/21 22:47:37
"2","22","304.9514851282621","279.32140171146943",18/12/21 22:47:37
"2","22","304.5938331687018","279.8191720574508",18/12/21 22:47:37
"2","22","304.81505461276265","278.4531424410727",18/12/21 22:47:37
"2","22","304.2534651814142","278.16338841006973",18/12/21 22:47:37
"2","22","304.60099195694016","278.22423285711096",18/12/21 22:47:37
"2","22","304.58951381575","277.72813865437473",18/12/21 22:47:37
"2","22","306.2129720799943","278.474292602562",18/12/21 22:47:37
"2","22","305.6535878163056","277.80286746314135",18/12/21 22:47:37
"2","22","306.3315025088533","279.662098570781",18/12/21 22:47:37
"2","22","306.30639205095883","279.6669286969986",18/12/21 22:47:37
"2","22","305.9618192539714","279.3173072970652",18/12/21 22:47:37
"2","22","306.1096148977243","278.0766839679043",18/12/21 22:47:37
"2","22","305.6691659157392","278.0015048047602",18/12/21 22:47:37
"2","22","305.73030556847334","278.10134836397225",18/12/21 22:47:37
"2","22","304.1994613717279","277.8502581225325",18/12/21 22:47:37
"2","22","305.6406123347258","278.40404345400617",18/12/21 22:47:37
"2","22","305.5563794966685","278.1939098465372",18/12/21 22:47:37
"2","22","305.00593582172877","279.23918401012554",18/12/21 22:47:37
"2","22","305.1819469489965","278.64019668339324",18/12/21 22:47:37
"2","22","306.41812679322794","278.6006203272476",18/12/21 22:47:37
"2","22","306.4068237603857","278.3381963848955",18/12/21 22:47:37
"2","22","305.35638165002763","278.17957919227825",18/12/21 22:47:37
"2","22","305.97370338863783","277.862420586934",18/12/21 22:47:37
"2","22","305.89597702138263","277.84966746100315",18/12/21 22:47:37
"2","22","305.62334163750813","278.59043425005626",18/12/21 22:47:37
"2","22","305.532651930643","278.2858203697997",18/12/21 22:47:37
"2","22","305.7367966854452","279.4665218043264",18/12/21 22:47:37
"2","22","304.79850751921","279.33415980223805",18/12/21 22:47:37
"2","22","304.53679800659455","280.89851653372557",18/12/21 22:47:37
"2","22","304.9698258025237","281.03980282879627",18/12/21 22:47:37
"2","22","303.3044219222525","280.8377143426577",18/12/21 22:47:37
"2","22","302.86940917109746","280.577445632534",18/12/21 22:47:37
"2","22","302.96667746566834","279.2946288368775",18/12/21 22:47:37
"2","22","302.6353718490831","279.1156735503811",18/12/21 22:47:37
"2","22","302.6353718490831","279.1156735503811",18/12/21 22:47:37
"2","22","302.6353718490831","279.1156735503811",18/12/21 22:47:37
"2","22","303.6445082773845","281.2415272519358",18/12/21 22:47:37
"2","22","304.4465301364792","282.9310719854999",18/12/21 22:47:37
"2","22","305.4663750603419","285.0794842770415",18/12/21 22:47:37
"2","90","307.37871574071767","285.55187617735015",18/12/21 22:47:37
"2","90","309.35449423253","285.91041469654766",18/12/21 22:47:37
"2","90","311.4925057300501","286.2983931463206",18/12/21 22:47:38
"2","90","313.0544052917346","286.58182631370363",18/12/21 22:47:38
"2","90","315.42421278459403","287.01186807840253",18/12/21 22:47:38
"2","90","316.9516529295862","287.2816988924582",18/12/21 22:47:38
"2","90","318.93234202238136","287.2250710132137",18/12/21 22:47:38
"2","90","320.57775897069666","287.17802856086973",18/12/21 22:47:38
"2","90","322.2958100551436","287.1289094993775",18/12/21 22:47:38
"2","90","324.0667702754114","287.07827776627767",18/12/21 22:47:38
"2","90","326.10203266499923","287.02008963708175",18/12/21 22:47:38
"2","90","327.6883394177382","286.97473714457516",18/12/21 22:47:38
"2","90","330.1024139561032","286.9057187802377",18/12/21 22:47:38
"2","93","332.38104704545805","286.85318348983145",18/12/21 22:47:38
"2","93","333.7306307011069","286.86239971337676",18/12/21 22:47:38
"2","93","335.072888131338","286.87156590658054",18/12/21 22:47:38
"2","93","337.4020031606798","286.88747128946164",18/12/21 22:47:38
"2","93","339.08846149106563","286.8989880093831",18/12/21 22:47:38
"2","93","341.2379887044452","286.87240173500567",18/12/21 22:47:38
"2","93","339.9215814054907","286.0911868923826",18/12/21 22:47:38
"2","93","338.3814706666336","285.1772164446086",18/12/21 22:47:38
"2","93","336.69177007232884","284.17447270039787",18/12/21 22:47:38
"2","93","335.12770664706323","283.2462876594976",18/12/21 22:47:38
"2","93","333.10683750427677","282.04701371852383",18/12/21 22:47:38
"2","93","331.47155131891725","281.0765619131032",18/12/21 22:47:38
"3","95","331.72722079985823","281.10799783720694",18/12/21 22:47:38
"3","95","333.4795741606706","281.9761603174381",18/12/21 22:47:38
"3","95","334.71212666651667","282.58679962365335",18/12/21 22:47:38
"3","95","336.7355947980596","283.58927957491994",18/12/21 22:47:38
"3","95","338.5227224928606","284.4746701854581",18/12/21 22:47:38
"3","95","339.8726389871637","285.14345473428665",18/12/21 22:47:38
"3","95","341.14689301746756","285.77475408528073",18/12/21 22:47:38
"3","95","338.98758596218676","284.7049759168957",18/12/21 22:47:38
"3","95","336.95664381371637","283.6987931387803",18/12/21 22:47:38
"3","95","334.9085619201984","282.68411887492704",18/12/21 22:47:38
"3","95","333.670350010915","282.0706757496678",18/12/21 22:47:38
"3","95","331.9160665693118","281.20155705605873",18/12/21 22:47:38
"1","26","331.0329766892249","280.86835541880646",18/12/21 22:47:38
"1","26","332.72580495444026","282.0383174025242",18/12/21 22:47:38
"1","26","334.1196600446534","283.00165048235874",18/12/21 22:47:38
"1","26","335.43202919092164","283.9086662980136",18/12/21 22:47:38
"1","26","336.53685084445556","284.67224011113063",18/12/21 22:47:38
"1","26","338.0295743042151","285.7039039461506",18/12/21 22:47:38
"1","26","339.35715036200435","286.62142969286873",18/12/21 22:47:38
"1","26","341.2245904254984","287.91207087960566",18/12/21 22:47:38
"1","26","343.4520737965878","287.3602347655993",18/12/21 22:47:38
"1","26","345.3260740880076","286.82723984803647",18/12/21 22:47:38
"1","26","347.7218105780779","286.1458550164153",18/12/21 22:47:38
"1","26","349.69214217539184","285.58546197267356",18/12/21 22:47:38
"1","77","350.40961892988156","284.7678507445382",18/12/21 22:47:38
"1","77","348.7053839531913","283.4472588528795",18/12/21 22:47:38
"1","77","347.82996451780036","282.7689064988966",18/12/21 22:47:38
"1","77","347.3752565763277","282.6229281758729",18/12/21 22:47:39
"1","77","348.09476700966724","283.63237478287465",18/12/21 22:47:39
"1","77","347.6721334669832","283.6169245766622",18/12/21 22:47:39
"1","77","348.7146056060651","283.34104324967905",18/12/21 22:47:39
"1","77","349.08701729812987","282.5951125374749",18/12/21 22:47:39
"1","77","349.0082665643526","282.1746698917837",18/12/21 22:47:39
"1","77","347.92539551752935","283.51632286423245",18/12/21 22:47:39
"1","77","347.72640280171066","283.8095985972885",18/12/21 22:47:39
"1","77","347.73094905961653","283.8424639191534",18/12/21 22:47:39
"1","77","347.0470088642385","284.5800650783674",18/12/21 22:47:39
"1","77","347.2387490253882","283.79063418464494",18/12/21 22:47:39
"1","77","347.18721493847147","283.8883500446137",18/12/21 22:47:39
"1","77","347.25188012968994","281.60193505978486",18/12/21 22:47:39
"1","77","349.3608770003006","280.8461263984434",18/12/21 22:47:39
"1","77","349.3610096748333","280.86855000671665",18/12/21 22:47:39
"1","77","349.7680585903803","280.0059645097243",18/12/21 22:47:39
"1","77","348.4538168127979","279.6088954525761",18/12/21 22:47:39
"1","77","349.62975915827644","278.9410685971343",18/12/21 22:47:39
"1","77","351.10573458656927","278.44633965966744",18/12/21 22:47:39
"1","77","350.7115781614304","279.0845859440549",18/12/21 22:47:39
"1","77","350.9070066105256","278.5224537717458",18/12/21 22:47:39
"1","77","351.0977857107067","278.09809736792323",18/12/21 22:47:39
"1","77","350.5040195296134","278.17406840358757",18/12/21 22:47:39
"1","77","349.87661188341445","278.32311422855213",18/12/21 22:47:39
"1","77","349.1020220198153","279.65750756734025",18/12/21 22:47:39
"1","77","348.99281278619276","277.64952604669355",18/12/21 22:47:39
"1","77","349.27713955102337","280.00111024172753",18/12/21 22:47:39
"1","77","347.6157723770414","281.77902580429696",18/12/21 22:47:39
"1","77","347.99558604353376","283.64741241332786",18/12/21 22:47:39
"1","77","348.1505136746819","283.7066262780824",18/12/21 22:47:39
"1","77","348.2558136023205","282.7781568035886",18/12/21 22:47:39
"1","77","348.37416327863554","284.08777385428266",18/12/21 22:47:39
"1","77","350.17876710006186","283.1732630050102",18/12/21 22:47:39
"1","77","350.74047689862175","282.50853372801157",18/12/21 22:47:39
"1","77","350.14550192439833","281.15139518342966",18/12/21 22:47:39
"1","77","350.4362840303355","280.89450728498247",18/12/21 22:47:39
"1","77","349.02204001557027","280.21518997372044",18/12/21 22:47:39
"1","77","349.0257246561143","280.3196052132211",18/12/21 22:47:39
"1","77","349.0590038940811","280.4147228610645",18/12/21 22:47:39
"1","77","349.3128532331138","280.27925229862535",18/12/21 22:47:39
"1","77","349.16889549742405","280.1550182079924",18/12/21 22:47:39
"1","77","349.624951913725","281.7454421501326",18/12/21 22:47:39
"1","77","347.83352022485144","280.9901306553214",18/12/21 22:47:39
"1","77","347.14105178506566","281.4839877000194",18/12/21 22:47:39
"1","77","347.72450731313256","281.63669939967406",18/12/21 22:47:39
"1","77","348.3429291904658","282.73814711340395",18/12/21 22:47:39
"1","77","348.3317474899986","282.8117953081825",18/12/21 22:47:39
"1","77","348.0088454233904","282.04140878355",18/12/21 22:47:39
"1","77","347.90926380310015","280.136392897459",18/12/21 22:47:39
"1","77","348.7295279387284","279.01773766234135",18/12/21 22:47:39
"1","77","347.7776839692959","278.06464931839685",18/12/21 22:47:40
"1","77","348.96227665017796","278.1347083154893",18/12/21 22:47:40
"1","77","348.3152800657482","279.6557548162658",18/12/21 22:47:40
"1","77","350.6067796877426","279.10803480961096",18/12/21 22:47:40
"1","77","349.76272773230295","281.35715362876266",18/12/21 22:47:40
"1","77","349.61135591691004","281.3435262787932",18/12/21 22:47:40
"1","77","350.66660723741654","283.53325528410977",18/12/21 22:47:40
"1","77","349.1367840342078","281.8741365595558",18/12/21 22:47:40
"1","77","350.9845109403438","281.52646147696265",18/12/21 22:47:40
"1","77","351.00475714888165","281.4072091847683",18/12/21 22:47:40
"1","77","351.0931425370053","281.2954148571159",18/12/21 22:47:40
"1","77","350.27471722764466","282.7864332823214",18/12/21 22:47:40
"1","77","350.3772681206862","282.64769503145806",18/12/21 22:47:40
"1","77","350.5528675654827","283.4087545200346",18/12/21 22:47:40
"1","77","350.7324507454179","283.28742330161975",18/12/21 22:47:40
"1","77","350.1970434120658","283.68510671813226",18/12/21 22:47:40
"1","77","350.04523995419834","283.8649915272888",18/12/21 22:47:40
"1","77","348.8306792970791","284.3538468339738",18/12/21 22:47:40
"1","77","347.9888051162843","284.3899143979718",18/12/21 22:47:40
"1","77","348.09353137018525","284.67511109051134",18/12/21 22:47:40
"1","77","347.7604206366489","284.1572814800376",18/12/21 22:47:40
"1","77","347.4638403853043","284.6437041923782",18/12/21 22:47:40
"1","77","349.53717755051736","284.29925217259984",18/12/21 22:47:40
"1","77","349.6167344578444","284.2466117907918",18/12/21 22:47:40
"1","77","351.2009804521727","282.745177044068",18/12/21 22:47:40
"1","77","349.7292628787191","282.94494013929915",18/12/21 22:47:40
"1","77","349.42742586155083","281.01697433365587",18/12/21 22:47:40
"1","77","348.50268814063855","280.3211587290642",18/12/21 22:47:40
"1","77","347.8816937413905","279.16259464535005",18/12/21 22:47:40
"1","77","347.84913457945316","278.71567403180313",18/12/21 22:47:40
"1","77","347.51874751190286","278.8312479993937",18/12/21 22:47:40
"1","77","349.44382532405933","280.4054721363947",18/12/21 22:47:40
"1","77","347.41825327040755","279.31172108798944",18/12/21 22:47:40
"1","77","346.8791411547659","278.79404419017936",18/12/21 22:47:40
"1","77","348.19636797783835","279.830427584714",18/12/21 22:47:40
"1","77","347.57078028030236","279.24506631440073",18/12/21 22:47:40
"1","77","347.5479270851172","279.3214863500535",18/12/21 22:47:40
"1","77","347.2079148275441","279.72811966834064",18/12/21 22:47:40
"1","77","347.2079148275441","279.72811966834064",18/12/21 22:47:40
"1","77","347.7331356585039","281.3571414669454",18/12/21 22:47:40
"1","77","348.87601210652485","284.1410467177471",18/12/21 22:47:40
"1","77","348.87601210652485","284.1410467177471",18/12/21 22:47:40
"1","77","349.77761423399636","283.33925574267715",18/12/21 22:47:40
"1","77","349.77761423399636","283.33925574267715",18/12/21 22:47:40
"1","77","349.74398850401406","283.937642898052",18/12/21 22:47:40
"1","77","349.74398850401406","283.937642898052",18/12/21 22:47:40
"1","77","350.77776314213236","283.8344398325812",18/12/21 22:47:40
"1","77","349.8846163449997","283.845013449835",18/12/21 22:47:40
"1","77","349.8846163449997","283.845013449835",18/12/21 22:47:40
"1","77","347.93301172550827","283.30598216085457",18/12/21 22:47:41
"1","77","347.93301172550827","283.30598216085457",18/12/21 22:47:41
"1","77","347.8024197206537","283.1841927810416",18/12/21 22:47:41
"1","77","347.8024197206537","283.1841927810416",18/12/21 22:47:41
"1","77","349.2540384398687","282.94585471738793",18/12/21 22:47:41
"1","77","349.2540384398687","282.94585471738793",18/12/21 22:47:41
"1","77","347.3420030174095","282.3247469174552",18/12/21 22:47:41
"1","77","347.3420030174095","282.3247469174552",18/12/21 22:47:41
"1","77","348.4814902662933","280.38502464117164",18/12/21 22:47:41
"1","77","348.4814902662933","280.38502464117164",18/12/21 22:47:41
"1","77","348.7101128919105","282.91395543672587",18/12/21 22:47:41
"1","77","348.68720259727786","282.57731425133153",18/12/21 22:47:41
"1","77","348.68720259727786","282.57731425133153",18/12/21 22:47:41
"1","77","350.9995621872297","282.32163921640256",18/12/21 22:47:41
"1","77","350.9995621872297","282.32163921640256",18/12/21 22:47:41
"1","77","351.0963150393259","282.4347639373752",18/12/21 22:47:41
"1","77","351.0963150393259","282.4347639373752",18/12/21 22:47:41
"1","77","349.81289186420383","283.15356689470224",18/12/21 22:47:41
"1","77","349.81289186420383","283.15356689470224",18/12/21 22:47:41
"1","77","348.9892334124902","282.7673869090622",18/12/21 22:47:41
"1","77","347.53157965967733","281.3231402947812",18/12/21 22:47:41
"1","77","347.53157965967733","281.3231402947812",18/12/21 22:47:41
"1","77","349.6526720828789","280.70557846896855",18/12/21 22:47:41
"1","77","350.8496013419148","281.84852363647224",18/12/21 22:47:41
"1","77","350.8996189077053","282.22909555196674",18/12/21 22:47:41
"1","77","350.8996189077053","282.22909555196674",18/12/21 22:47:41
"1","77","350.41996159046977","282.4962572462682",18/12/21 22:47:41
"1","77","350.41996159046977","282.4962572462682",18/12/21 22:47:41
"1","77","351.0268111211621","282.45980987587507",18/12/21 22:47:41
"1","77","351.0268111211621","282.45980987587507",18/12/21 22:47:41
"1","77","349.36584836633386","281.8377437349884",18/12/21 22:47:41
"1","77","349.36584836633386","281.8377437349884",18/12/21 22:47:41
"1","77","349.4411640914874","284.60073471926546",18/12/21 22:47:41
"1","77","349.4411640914874","284.60073471926546",18/12/21 22:47:41
"1","77","347.56829298567067","283.49916932017015",18/12/21 22:47:41
"1","77","347.56829298567067","283.49916932017015",18/12/21 22:47:41
"1","77","346.89547883729824","284.4468817896087",18/12/21 22:47:41
"1","77","346.89547883729824","284.4468817896087",18/12/21 22:47:41
"1","77","347.13888658998246","284.2465179496342",18/12/21 22:47:41
"1","77","347.13888658998246","284.2465179496342",18/12/21 22:47:41
"1","77","347.5527538384768","283.79180325273757",18/12/21 22:47:41
"1","77","349.21679475699915","282.4558407401705",18/12/21 22:47:41
"1","77","349.21679475699915","282.4558407401705",18/12/21 22:47:41
"1","77","350.4056056818754","280.9914849584339",18/12/21 22:47:41
"1","77","350.4056056818754","280.9914849584339",18/12/21 22:47:41
"1","77","350.1736147777089","282.0078294399839",18/12/21 22:47:41
"1","77","351.0937587774158","281.29588965550255",18/12/21 22:47:41
"1","77","351.0937587774158","281.29588965550255",18/12/21 22:47:41
"1","77","350.64874326267665","279.99020099242387",18/12/21 22:47:41
"1","77","349.76993621245754","278.42972728072226",18/12/21 22:47:41
"1","77","349.76993621245754","278.42972728072226",18/12/21 22:47:42
"1","77","349.6600853299429","278.67079238441335",18/12/21 22:47:42
"1","77","349.6600853299429","278.67079238441335",18/12/21 22:47:42
"1","77","350.1144759369786","279.2551425198532",18/12/21 22:47:42
"1","77","350.1144759369786","279.2551425198532",18/12/21 22:47:42
"1","77","349.7786367801419","279.07561901933286",18/12/21 22:47:42
"1","77","349.7786367801419","279.07561901933286",18/12/21 22:47:42
"1","77","350.4480247406084","277.9085863819049",18/12/21 22:47:42
"1","77","349.25874455808423","278.7758032919677",18/12/21 22:47:42
"1","77","349.25874455808423","278.7758032919677",18/12/21 22:47:42
"1","77","350.4678110590615","280.64407848289386",18/12/21 22:47:42
"1","77","350.4678110590615","280.64407848289386",18/12/21 22:47:42
"1","77","350.98781679963474","280.6105260514657",18/12/21 22:47:42
"1","77","351.0164232846953","282.2906843035258",18/12/21 22:47:42
"1","77","351.0164232846953","282.2906843035258",18/12/21 22:47:42
"1","77","351.0098681370178","283.9009361273635",18/12/21 22:47:42
"1","77","351.0098681370178","283.9009361273635",18/12/21 22:47:42
"1","77","350.6208257931113","281.8258363928761",18/12/21 22:47:42
"1","77","350.6208257931113","281.8258363928761",18/12/21 22:47:42
"1","77","349.26398710030355","280.9124883173114",18/12/21 22:47:42
"1","77","349.26398710030355","280.9124883173114",18/12/21 22:47:42
"1","77","349.3218032824631","280.8067528097069",18/12/21 22:47:42
"1","77","350.43862993122434","282.5505225300276",18/12/21 22:47:42
"1","77","350.43862993122434","282.5505225300276",18/12/21 22:47:42
"1","77","349.6185918858209","282.85221400977605",18/12/21 22:47:42
"1","77","348.84074572719607","282.8610481454556",18/12/21 22:47:42
"1","77","348.84074572719607","282.8610481454556",18/12/21 22:47:42
"1","77","347.9009864156706","284.45054120598485",18/12/21 22:47:42
"1","77","347.9009864156706","284.45054120598485",18/12/21 22:47:42
"1","77","348.7611753008375","284.7981344884335",18/12/21 22:47:42
"1","77","347.6719081740697","284.27785956268383",18/12/21 22:47:42
"1","77","347.6719081740697","284.27785956268383",18/12/21 22:47:42
"1","77","349.02031821880945","284.05349850553023",18/12/21 22:47:42
"1","77","349.02031821880945","284.05349850553023",18/12/21 22:47:42
"1","77","351.29280175990107","284.7261628032139",18/12/21 22:47:42
"1","77","351.29280175990107","284.7261628032139",18/12/21 22:47:42
"1","77","350.3364714360809","283.7182841442333",18/12/21 22:47:42
"1","77","350.3364714360809","283.7182841442333",18/12/21 22:47:42
"1","77","350.55826852461735","281.5564516753628",18/12/21 22:47:42
"1","77","350.59950245487624","281.4731368821818",18/12/21 22:47:42
"1","77","350.59950245487624","281.4731368821818",18/12/21 22:47:42
"1","77","350.40721098162334","281.4233656263736",18/12/21 22:47:42
"1","77","350.40721098162334","281.4233656263736",18/12/21 22:47:42
"1","77","349.85998807414524","281.24205232573206",18/12/21 22:47:42
"1","77","349.85998807414524","281.24205232573206",18/12/21 22:47:42
"1","77","349.9642946986224","281.78720088934574",18/12/21 22:47:42
"1","77","349.9642946986224","281.78720088934574",18/12/21 22:47:42
"1","77","349.54499616721716","283.9494148724554",18/12/21 22:47:42
"1","77","348.41999993607175","280.0977533074672",18/12/21 22:47:42
"1","77","348.41999993607175","280.0977533074672",18/12/21 22:47:42
"1","77","347.40123700719727","281.0050597595373",18/12/21 22:47:43
"1","77","347.1889661098802","280.74002690391524",18/12/21 22:47:43
"1","77","347.1889661098802","280.74002690391524",18/12/21 22:47:43
"1","77","347.0219596643757","279.300560918104",18/12/21 22:47:43
"1","77","347.0219596643757","279.300560918104",18/12/21 22:47:43
"1","77","347.1670383907083","280.06934733985537",18/12/21 22:47:43
"1","77","347.1670383907083","280.06934733985537",18/12/21 22:47:43
"1","77","348.46948713234315","284.3947031861175",18/12/21 22:47:43
"1","77","348.46948713234315","284.3947031861175",18/12/21 22:47:43
"1","77","346.9125622837156","283.9931960041914",18/12/21 22:47:43
"1","77","348.6275615189659","282.9569436752649",18/12/21 22:47:43
"1","77","348.6275615189659","282.9569436752649",18/12/21 22:47:43
"1","77","347.0116490015238","284.49413816508513",18/12/21 22:47:43
"1","77","347.0116490015238","284.49413816508513",18/12/21 22:47:43
"1","77","348.23674961225004","282.8278769417131",18/12/21 22:47:43
"1","77","349.3223959778742","284.7352548031411",18/12/21 22:47:43
"1","77","349.3223959778742","284.7352548031411",18/12/21 22:47:43
"1","77","351.01679694182394","284.50187111070727",18/12/21 22:47:43
"1","77","351.08883594331894","283.9927278969045",18/12/21 22:47:43
"1","77","351.08883594331894","283.9927278969045",18/12/21 22:47:43
"1","77","349.1006025201871","284.50396183780373",18/12/21 22:47:43
"1","77","349.1006025201871","284.50396183780373",18/12/21 22:47:43
"1","77","350.32784218283064","284.0043567255395",18/12/21 22:47:43
"1","77","349.58334530368256","282.99764217672254",18/12/21 22:47:43
"1","77","349.58334530368256","282.99764217672254",18/12/21 22:47:43
"1","77","349.58259145710724","282.6775588228579",18/12/21 22:47:43
"1","77","349.58259145710724","282.6775588228579",18/12/21 22:47:43
"1","77","350.0132552095097","284.52024087514314",18/12/21 22:47:43
"1","77","350.0132552095097","284.52024087514314",18/12/21 22:47:43
"1","26","347.67185937665135","285.5767436368688",18/12/21 22:47:43
"1","26","347.67185937665135","285.5767436368688",18/12/21 22:47:43
"1","26","344.084570325396","286.09256507287114",18/12/21 22:47:43
"1","26","344.084570325396","286.09256507287114",18/12/21 22:47:43
"1","88","339.7700912961164","286.61226643825836",18/12/21 22:47:43
"1","88","339.7700912961164","286.61226643825836",18/12/21 22:47:43
"1","88","335.70021167793936","286.93109124731336",18/12/21 22:47:43
"1","88","335.70021167793936","286.93109124731336",18/12/21 22:47:43
"1","88","331.15978601549193","286.9608426252255",18/12/21 22:47:43
"1","88","331.15978601549193","286.9608426252255",18/12/21 22:47:43
"1","88","327.3879902125557","285.8354424288496",18/12/21 22:47:43
"1","88","327.3879902125557","285.8354424288496",18/12/21 22:47:43
"1","88","325.31415387391263","283.2083545398028",18/12/21 22:47:43
"1","40","325.37465957097135","281.6236453454739",18/12/21 22:47:43
"1","40","325.37465957097135","280.148668728899",18/12/21 22:47:43
"1","40","325.3994978561785","280.148668728899",18/12/21 22:47:43
"1","40","325.4286038961884","278.4202592168249",18/12/21 22:47:43
"1","40","325.9504101362729","280.67552743149867",18/12/21 22:47:43
"1","40","325.9504101362729","280.67552743149867",18/12/21 22:47:43
"1","40","326.37024644802193","284.1820881630392",18/12/21 22:47:43
"1","40","326.37024644802193","284.1820881630392",18/12/21 22:47:43
"1","40","326.2403466991512","283.48502085071027",18/12/21 22:47:44
"1","40","326.2403466991512","283.48502085071027",18/12/21 22:47:44
"1","40","323.2874915983586","283.85411787921237",18/12/21 22:47:44
"1","40","323.2874915983586","283.85411787921237",18/12/21 22:47:44
"1","40","323.8667793202855","284.4652913216593",18/12/21 22:47:44
"1","40","323.8667793202855","284.4652913216593",18/12/21 22:47:44
"1","40","323.732992283613","282.5956780001548",18/12/21 22:47:44
"1","40","323.4052256527386","283.0769591339411",18/12/21 22:47:44
"1","40","323.4052256527386","283.0769591339411",18/12/21 22:47:44
"1","40","322.81700251561614","281.9518896920478",18/12/21 22:47:44
"1","40","322.81700251561614","281.9518896920478",18/12/21 22:47:44
"1","40","322.81700251561614","281.9518896920478",18/12/21 22:47:44
"1","40","323.6569673305365","283.08954288742865",18/12/21 22:47:44
"1","40","323.6569673305365","283.08954288742865",18/12/21 22:47:44
"1","88","324.1003841412602","285.32819186327964",18/12/21 22:47:44
"1","88","324.1003841412602","285.32819186327964",18/12/21 22:47:44
"1","88","321.1881749221499","285.61635020880425",18/12/21 22:47:44
"1","88","321.1881749221499","285.61635020880425",18/12/21 22:47:44
"1","89","316.7469758684248","286.0735668460167",18/12/21 22:47:44
"1","89","316.7469758684248","286.0735668460167",18/12/21 22:47:44
"1","89","314.3693098296809","286.5577833157714",18/12/21 22:47:44
"1","89","310.890160958518","287.26631897918844",18/12/21 22:47:44
"1","89","310.890160958518","287.26631897918844",18/12/21 22:47:44
"1","89","307.03915481955386","288.05058412291646",18/12/21 22:47:44
"1","89","305.72577438723624","288.31805668887773",18/12/21 22:47:44
"1","89","305.72577438723624","288.31805668887773",18/12/21 22:47:44
"1","17","304.3484521599029","289.03378418077654",18/12/21 22:47:44
"1","17","304.3484521599029","289.03378418077654",18/12/21 22:47:44
"1","17","306.64582982361156","289.4332354628729",18/12/21 22:47:44
"1","17","309.7954032506144","289.9808603324566",18/12/21 22:47:44
"1","17","309.7954032506144","289.9808603324566",18/12/21 22:47:44
"1","17","311.2418016868432","290.4322959388561",18/12/21 22:47:44
"1","17","311.2418016868432","290.4322959388561",18/12/21 22:47:44
"1","17","308.8484026014421","293.20160986913356",18/12/21 22:47:44
"1","17","308.8484026014421","293.20160986913356",18/12/21 22:47:44
"1","17","308.82552749972865","293.3271623494092",18/12/21 22:47:44
"1","17","308.82552749972865","293.3271623494092",18/12/21 22:47:44
"1","17","308.94403531749543","292.9317763957263",18/12/21 22:47:44
"1","17","307.7765618544159","289.43225631975815",18/12/21 22:47:44
"1","17","307.7765618544159","289.43225631975815",18/12/21 22:47:44
"1","17","305.96891281481726","291.8685850603523",18/12/21 22:47:44
"1","17","305.81514432719484","292.07823137536974",18/12/21 22:47:44
"1","17","305.81514432719484","292.07823137536974",18/12/21 22:47:44
"1","17","306.6232292569667","290.2684212576142",18/12/21 22:47:44
"1","17","306.6232292569667","290.2684212576142",18/12/21 22:47:44
"1","17","306.9878440907602","290.0530468789435",18/12/21 22:47:44
"1","17","306.1813067773311","290.5489898619059",18/12/21 22:47:44
"1","17","306.1813067773311","290.5489898619059",18/12/21 22:47:44
"1","17","307.05975723694513","290.60767699297713",18/12/21 22:47:44
"1","17","307.05975723694513","290.60767699297713",18/12/21 22:47:45
"1","17","307.540749947841","291.1264688487101",18/12/21 22:47:45
"1","17","307.73768135843807","291.34625868889503",18/12/21 22:47:45
"1","17","307.73768135843807","291.34625868889503",18/12/21 22:47:45
"1","17","307.8437868675193","290.7975670613811",18/12/21 22:47:45
"1","17","308.271056055335","291.780958704246",18/12/21 22:47:45
"1","17","308.271056055335","291.780958704246",18/12/21 22:47:45
"1","17","305.52549204009904","292.23057045967965",18/12/21 22:47:45
"1","17","305.52549204009904","292.23057045967965",18/12/21 22:47:45
"1","17","306.9389609450898","291.7837433375112",18/12/21 22:47:45
"1","17","306.9389609450898","291.7837433375112",18/12/21 22:47:45
"1","17","306.87270146386","292.28083016613783",18/12/21 22:47:45
"1","17","306.87270146386","292.28083016613783",18/12/21 22:47:45
"1","17","306.63258601041895","290.66442902784024",18/12/21 22:47:45
"1","17","307.1135254951545","291.2341233214549",18/12/21 22:47:45
"1","17","307.1135254951545","291.2341233214549",18/12/21 22:47:45
"1","17","309.86914225699155","290.1896541316534",18/12/21 22:47:45
"1","17","309.86914225699155","290.1896541316534",18/12/21 22:47:45
"1","17","309.78607779656","290.05291594245",18/12/21 22:47:45
"1","17","309.9937527135349","290.35563465031436",18/12/21 22:47:45
"1","17","309.9937527135349","290.35563465031436",18/12/21 22:47:45
"1","17","308.9028328374286","290.1927101863029",18/12/21 22:47:45
"1","17","308.9028328374286","290.1927101863029",18/12/21 22:47:45
"1","17","308.7813455380692","290.4539444881064",18/12/21 22:47:45
"1","17","308.7813455380692","290.4539444881064",18/12/21 22:47:45
"1","17","309.29785880953807","290.3573321540982",18/12/21 22:47:45
"1","17","310.1670889656148","289.92645614348965",18/12/21 22:47:45
"1","17","309.51557265226626","292.2050660107115",18/12/21 22:47:45
"1","17","309.51557265226626","292.2050660107115",18/12/21 22:47:45
"1","17","308.8737343182343","292.1131859353279",18/12/21 22:47:45
"1","17","308.8737343182343","292.1131859353279",18/12/21 22:47:45
"1","17","308.4259725200702","292.6742899124846",18/12/21 22:47:45
"1","17","308.4259725200702","292.6742899124846",18/12/21 22:47:45
"1","17","306.9493598472229","292.1898698141816",18/12/21 22:47:45
"1","17","306.9493598472229","292.1898698141816",18/12/21 22:47:45
"1","17","308.80197358824074","293.03671392057436",18/12/21 22:47:45
"1","17","310.0972967971848","293.51713225396685",18/12/21 22:47:45
"1","17","310.0972967971848","293.51713225396685",18/12/21 22:47:45
"1","17","309.8734493552909","291.8287622540282",18/12/21 22:47:45
"1","17","308.45279467291886","290.3517810929205",18/12/21 22:47:45
"1","17","308.45279467291886","290.3517810929205",18/12/21 22:47:45
"1","17","311.07203239294296","291.28155657448576",18/12/21 22:47:45
"1","17","311.07203239294296","291.28155657448576",18/12/21 22:47:45
"1","17","309.3945334560292","293.410735525077",18/12/21 22:47:45
"1","17","309.3945334560292","293.410735525077",18/12/21 22:47:45
"1","17","309.1766937709672","294.35660367968467",18/12/21 22:47:45
"1","17","309.1766937709672","294.35660367968467",18/12/21 22:47:45
"1","17","311.05509768813823","294.0044058357518",18/12/21 22:47:45
"1","17","309.33722086746445","294.5467783867912",18/12/21 22:47:45
"1","17","309.33722086746445","294.5467783867912",18/12/21 22:47:45
"1","17","307.0139821232438","293.73987680280766",18/12/21 22:47:46
"1","17","307.0139821232438","293.73987680280766",18/12/21 22:47:46
"1","17","306.28397468844554","293.92639583504797",18/12/21 22:47:46
"1","17","306.28397468844554","293.92639583504797",18/12/21 22:47:46
"1","17","307.1397755795041","294.3907901098344",18/12/21 22:47:46
"1","17","307.1397755795041","294.3907901098344",18/12/21 22:47:46
"1","17","306.69954835203833","295.02650445796974",18/12/21 22:47:46
"1","17","306.69954835203833","295.02650445796974",18/12/21 22:47:46
"1","17","304.1369702347174","296.1198451447877",18/12/21 22:47:46
"1","17","304.1369702347174","296.1198451447877",18/12/21 22:47:46
"1","17","305.4331220089039","295.02957531329525",18/12/21 22:47:46
"1","17","305.4331220089039","295.02957531329525",18/12/21 22:47:46
"1","17","306.4461390523285","295.6788078627505",18/12/21 22:47:46
"1","17","306.4461390523285","295.6788078627505",18/12/21 22:47:46
"1","17","306.4942154512638","295.07436913625907",18/12/21 22:47:46
"1","17","304.7200436639278","295.0965669702536",18/12/21 22:47:46
"1","17","304.7200436639278","295.0965669702536",18/12/21 22:47:46
"1","17","304.9812545144908","295.041745638577",18/12/21 22:47:46
"1","17","304.9812545144908","295.041745638577",18/12/21 22:47:46
"1","17","304.90350220973573","294.49094342367283",18/12/21 22:47:46
"1","17","303.0237024019347","295.0803486914858",18/12/21 22:47:46
"1","17","303.0237024019347","295.0803486914858",18/12/21 22:47:46
"1","17","302.91371063203184","296.1213077303851",18/12/21 22:47:46
"1","17","303.28179529523163","296.1293632485077",18/12/21 22:47:46
"1","17","303.28179529523163","296.1293632485077",18/12/21 22:47:46
"1","17","302.76773017459516","294.48664858429294",18/12/21 22:47:46
"1","17","302.76773017459516","294.48664858429294",18/12/21 22:47:46
"1","17","303.2953545328485","292.90376477802135",18/12/21 22:47:46
"1","17","303.8016832752441","293.39364629805806",18/12/21 22:47:46
"1","17","303.8016832752441","293.39364629805806",18/12/21 22:47:46
"1","17","305.5331875633294","293.54829009040515",18/12/21 22:47:46
"1","17","305.5331875633294","293.54829009040515",18/12/21 22:47:46
"1","17","304.4694186614001","292.53929716840497",18/12/21 22:47:46
"1","17","307.78014541664146","293.10096749786055",18/12/21 22:47:46
"1","17","307.78014541664146","293.10096749786055",18/12/21 22:47:46
"1","17","306.58570236217616","291.19963846538764",18/12/21 22:47:46
"1","17","307.34597714795945","289.7445634237096",18/12/21 22:47:46
"1","17","307.34597714795945","289.7445634237096",18/12/21 22:47:46
"1","17","306.89161395239313","292.1796870968982",18/12/21 22:47:46
"1","17","306.89161395239313","292.1796870968982",18/12/21 22:47:46
"1","17","308.9003095132469","291.9650750449233",18/12/21 22:47:46
"1","17","308.9003095132469","291.9650750449233",18/12/21 22:47:46
"1","17","311.41632366997385","291.4388179196139",18/12/21 22:47:46
"1","17","311.41632366997385","291.4388179196139",18/12/21 22:47:46
"1","17","310.2585674155494","290.91072202831015",18/12/21 22:47:46
"1","17","310.33214633291396","290.36680487611324",18/12/21 22:47:46
"1","17","310.33214633291396","290.36680487611324",18/12/21 22:47:46
"1","17","310.21649744340283","290.7938991575495",18/12/21 22:47:46
"1","17","310.21649744340283","290.7938991575495",18/12/21 22:47:46
"1","17","308.42445616768435","289.6529928655379",18/12/21 22:47:46
"1","17","307.9706472153347","290.7126494056685",18/12/21 22:47:47
"1","17","307.9706472153347","290.7126494056685",18/12/21 22:47:47
"1","17","306.1532093441708","291.6772046400859",18/12/21 22:47:47
"1","17","306.83078855505545","291.3858582302504",18/12/21 22:47:47
"1","17","306.83078855505545","291.3858582302504",18/12/21 22:47:47
"1","17","305.56898843108365","291.7403096892141",18/12/21 22:47:47
"1","17","305.56898843108365","291.7403096892141",18/12/21 22:47:47
"1","17","305.33340317755403","291.19647295841423",18/12/21 22:47:47
"1","17","305.33340317755403","291.19647295841423",18/12/21 22:47:47
"1","17","305.48911294406304","292.8651101759312",18/12/21 22:47:47
"1","17","305.48911294406304","292.8651101759312",18/12/21 22:47:47
"1","17","306.6856012250786","291.6859410320168",18/12/21 22:47:47
"1","17","306.6856012250786","291.6859410320168",18/12/21 22:47:47
"1","17","305.6422651738276","293.6383944908148",18/12/21 22:47:47
"1","17","305.6422651738276","293.6383944908148",18/12/21 22:47:47
"1","17","305.57963147913756","292.97078712365465",18/12/21 22:47:47
"1","17","305.2902584871552","293.68625526767266",18/12/21 22:47:47
"1","17","305.2902584871552","293.68625526767266",18/12/21 22:47:47
"1","17","302.385383366296","293.51884028282365",18/12/21 22:47:47
"1","17","302.385383366296","293.51884028282365",18/12/21 22:47:47
"1","17","303.37605553617124","295.6948884298391",18/12/21 22:47:47
"1","17","303.8724568873441","292.85655606321865",18/12/21 22:47:47
"1","17","303.8724568873441","292.85655606321865",18/12/21 22:47:47
"1","17","302.89495938500863","294.7923974923402",18/12/21 22:47:47
"1","17","302.89495938500863","294.7923974923402",18/12/21 22:47:47
"1","17","303.61463655104797","294.9279989804713",18/12/21 22:47:47
"1","17","303.61463655104797","294.9279989804713",18/12/21 22:47:47
"1","17","306.8838398000607","296.1713201156162",18/12/21 22:47:47
"1","17","306.9755545677646","295.5704361035652",18/12/21 22:47:47
"1","17","306.9755545677646","295.5704361035652",18/12/21 22:47:47
"1","17","308.6321060359505","293.61848888170425",18/12/21 22:47:47
"1","17","308.6321060359505","293.61848888170425",18/12/21 22:47:47
"1","17","311.312632171813","295.57436637549023",18/12/21 22:47:47
"1","17","311.18445427953867","294.31690003240715",18/12/21 22:47:47
"1","17","311.18445427953867","294.31690003240715",18/12/21 22:47:47
"1","17","310.2988913133677","294.5865681962326",18/12/21 22:47:47
"1","17","310.2988913133677","294.5865681962326",18/12/21 22:47:47
"1","17","310.5696811030234","294.8739534637365",18/12/21 22:47:47
"1","17","310.458536305192","294.78087330494054",18/12/21 22:47:47
"1","17","310.458536305192","294.78087330494054",18/12/21 22:47:47
"1","17","310.97585625342344","292.3278443978432",18/12/21 22:47:47
"1","17","310.95623274815097","292.3359890969748",18/12/21 22:47:47
"1","17","310.95623274815097","292.3359890969748",18/12/21 22:47:47
"1","17","309.2694724514489","293.378354293713",18/12/21 22:47:47
"1","17","309.2694724514489","293.378354293713",18/12/21 22:47:47
"1","17","307.5422021817717","292.95840598197475",18/12/21 22:47:47
"1","17","307.5422021817717","292.95840598197475",18/12/21 22:47:47
"1","17","307.592173270496","292.46345945614047",18/12/21 22:47:47
"1","17","307.592173270496","292.46345945614047",18/12/21 22:47:47
"1","17","307.44421746368647","295.9267358266902",18/12/21 22:47:47
"1","17","305.8360537447763","294.92306900383596",18/12/21 22:47:48
"1","17","305.8360537447763","294.92306900383596",18/12/21 22:47:48
"1","17","303.9404642944617","292.7911429625537",18/12/21 22:47:48
"1","17","303.9404642944617","292.7911429625537",18/12/21 22:47:48
"1","17","303.72698872460313","292.84463390342364",18/12/21 22:47:48
"1","17","304.3076869447288","292.0078807378486",18/12/21 22:47:48
"1","17","304.3076869447288","292.0078807378486",18/12/21 22:47:48
"1","17","304.3076869447288","292.0078807378486",18/12/21 22:47:48
"1","17","304.3076869447288","292.0078807378486",18/12/21 22:47:48
"1","17","303.1772310360115","289.478958361203",18/12/21 22:47:48
"1","17","303.1772310360115","289.478958361203",18/12/21 22:47:48
"1","89","305.1298239044736","287.7366956929158",18/12/21 22:47:48
"1","89","305.1298239044736","287.7366956929158",18/12/21 22:47:48
"1","89","308.64808234631647","286.0151784511367",18/12/21 22:47:48
"1","89","308.64808234631647","286.0151784511367",18/12/21 22:47:48
"1","89","310.2799979370772","285.21666666666664",18/12/21 22:47:48
"1","8","309.64708576383254","283.62703773031905",18/12/21 22:47:48
"1","8","309.5202003733941","283.308351036071",18/12/21 22:47:48
"1","8","307.6919359649009","282.97996257516115",18/12/21 22:47:48
"1","8","307.6919359649009","282.97996257516115",18/12/21 22:47:48
"1","8","309.13437826331557","280.83076618399394",18/12/21 22:47:48
"1","8","309.33026428842174","279.8345436320632",18/12/21 22:47:48
"1","8","309.33026428842174","279.8345436320632",18/12/21 22:47:48
"1","8","309.10862075534516","280.5135487116213",18/12/21 22:47:48
"1","8","309.10862075534516","280.5135487116213",18/12/21 22:47:48
"1","8","308.58308894326063","280.56571451972195",18/12/21 22:47:48
"1","8","309.3491227180603","279.9700630791691",18/12/21 22:47:48
"1","8","309.3491227180603","279.9700630791691",18/12/21 22:47:48
"1","8","310.3983346502224","279.00716058236446",18/12/21 22:47:48
"1","8","310.3983346502224","279.00716058236446",18/12/21 22:47:48
"1","8","308.38704913801945","280.0560264329882",18/12/21 22:47:48
"1","8","308.38704913801945","280.0560264329882",18/12/21 22:47:48
"1","8","310.45623423135345","280.291827365101",18/12/21 22:47:48
"1","8","310.45623423135345","280.8433414727516",18/12/21 22:47:48
"1","8","309.9478443248155","280.6088135460402",18/12/21 22:47:48
"1","8","309.9478443248155","280.6088135460402",18/12/21 22:47:48
"1","8","311.3339709897956","281.16052194777217",18/12/21 22:47:48
"1","8","311.3339709897956","281.16052194777217",18/12/21 22:47:48
"1","8","311.33727263949123","284.2722813552443",18/12/21 22:47:48
"1","8","311.33727263949123","284.2722813552443",18/12/21 22:47:48
"1","8","308.9510566384646","283.7796311521257",18/12/21 22:47:48
"1","8","308.9510566384646","283.7796311521257",18/12/21 22:47:48
"1","8","309.3334664481487","283.688475424793",18/12/21 22:47:48
"1","8","309.3334664481487","283.688475424793",18/12/21 22:47:48
"1","8","309.1975741348552","282.5670556583615",18/12/21 22:47:48
"1","8","309.1975741348552","282.5670556583615",18/12/21 22:47:48
"1","8","309.7323618301676","284.5463913336911",18/12/21 22:47:48
"1","8","309.7323618301676","284.5463913336911",18/12/21 22:47:48
"1","8","311.2238920517408","283.63587228849656",18/12/21 22:47:48
"1","8","311.2238920517408","283.63587228849656",18/12/21 22:47:48
"1","8","311.4301789022326","281.2563756197401",18/12/21 22:47:49
"1","8","311.4301789022326","281.2563756197401",18/12/21 22:47:49
"1","8","310.6043626420126","281.4547687935042",18/12/21 22:47:49
"1","8","310.6043626420126","281.4547687935042",18/12/21 22:47:49
"1","8","310.8973434646831","282.0081918255803",18/12/21 22:47:49
"1","8","310.85037851363546","281.9086809233602",18/12/21 22:47:49
"1","8","310.85037851363546","281.9086809233602",18/12/21 22:47:49
"1","8","310.05795076866326","282.6579028905296",18/12/21 22:47:49
"1","8","310.05795076866326","282.6579028905296",18/12/21 22:47:49
"1","8","310.842118781431","284.1423126690851",18/12/21 22:47:49
"1","8","308.0245804571474","284.7094092091491",18/12/21 22:47:49
"1","8","308.0245804571474","284.464408410866",18/12/21 22:47:49
"1","8","308.021646697768","284.464408410866",18/12/21 22:47:49
"1","8","307.55519178923964","283.28243979629974",18/12/21 22:47:49
"1","8","307.55519178923964","283.28243979629974",18/12/21 22:47:49
"1","8","307.16862960504744","281.8591278813767",18/12/21 22:47:49
"1","8","307.16862960504744","281.7163556349985",18/12/21 22:47:49
"1","8","309.79032159912464","281.38536126728894",18/12/21 22:47:49
"1","8","309.43193552232555","281.75435422386477",18/12/21 22:47:49
"1","8","309.43193552232555","281.75435422386477",18/12/21 22:47:49
"1","8","310.9732567045604","282.73740636731645",18/12/21 22:47:49
"1","8","310.9732567045604","282.73740636731645",18/12/21 22:47:49
"1","8","309.0505985097476","282.7193852927864",18/12/21 22:47:49
"1","8","308.7304033533504","282.84546457336",18/12/21 22:47:49
"1","8","308.7304033533504","282.84546457336",18/12/21 22:47:49
"1","8","309.534567381087","284.3026864720455",18/12/21 22:47:49
"1","8","309.534567381087","284.3026864720455",18/12/21 22:47:49
"1","8","311.24383461303637","282.4497895540297",18/12/21 22:47:49
"1","8","311.24383461303637","282.4497895540297",18/12/21 22:47:49
"1","8","310.3747961458581","281.18259585194846",18/12/21 22:47:49
"1","8","310.3747961458581","281.18259585194846",18/12/21 22:47:49
"1","8","310.3308619615651","280.84191924447373",18/12/21 22:47:49
"1","8","311.48112540288855","281.95506426687086",18/12/21 22:47:49
"1","8","311.48112540288855","281.95506426687086",18/12/21 22:47:49
"1","8","311.02388934238735","282.0726429396768",18/12/21 22:47:49
"1","8","311.2162274512784","279.68861234176325",18/12/21 22:47:49
"1","8","311.1094286866601","277.9568490392329",18/12/21 22:47:49
"1","8","311.1700693197194","278.23879641451333",18/12/21 22:47:49
"1","8","311.1700693197194","278.23879641451333",18/12/21 22:47:49
"1","8","310.797583425517","280.3620597863723",18/12/21 22:47:49
"1","8","310.797583425517","280.3620597863723",18/12/21 22:47:49
"1","8","310.12964951752065","284.1694512171488",18/12/21 22:47:49
"1","8","310.12964951752065","285.2645876205822",18/12/21 22:47:49
"1","88","312.0760526900655","285.4007551893182",18/12/21 22:47:49
"1","88","313.48664304381913","285.52266092788255",18/12/21 22:47:49
"1","88","313.48664304381913","285.52266092788255",18/12/21 22:47:49
"1","88","315.2222105352305","285.67265177129485",18/12/21 22:47:49
"1","88","316.7381447710578","285.8036615163578",18/12/21 22:47:49
"1","88","319.65953560388374","285.3115870570403",18/12/21 22:47:49
"1","88","320.17254611751264","285.21666666666664",18/12/21 22:47:49
"1","55","320.3066094039465","282.0337390413898",18/12/21 22:47:50
"1","55","320.3066094039465","282.0337390413898",18/12/21 22:47:50
"1","55","320.40355446078877","279.73207161427086",18/12/21 22:47:50
"1","55","320.40355446078877","279.73207161427086",18/12/21 22:47:50
