"floorId","partitionId","location_x","location_y","timeStamp"
"1","46","314.49322085220984","278.12669785423753",18/12/21 22:49:00
"1","46","314.80414334382147","279.3375445048337",18/12/21 22:49:00
"1","46","315.135471163786","280.62785701639865",18/12/21 22:49:00
"1","46","315.68685506263864","282.7751489143174",18/12/21 22:49:00
"1","46","316.2028557040088","284.7846453810092",18/12/21 22:49:00
"1","88","317.04306582655596","285.66112263011627",18/12/21 22:49:00
"1","88","318.9125856198041","285.66203407600955",18/12/21 22:49:00
"1","88","320.4016409385572","285.6627600342797",18/12/21 22:49:00
"1","88","322.08274884127354","285.663579623834",18/12/21 22:49:00
"1","88","323.96286432105876","285.6644962354361",18/12/21 22:49:00
"1","88","326.0445204004255","285.6655111040091",18/12/21 22:49:00
"1","88","327.6145291348703","285.6662765294508",18/12/21 22:49:00
"1","88","329.66354893718125","285.6672754868787",18/12/21 22:49:00
"1","88","330.98532896010227","285.6679198935215",18/12/21 22:49:00
"1","95","331.71958189069744","284.63332438324545",18/12/21 22:49:00
"1","95","331.11840270065494","282.5958485697259",18/12/21 22:49:00
"1","95","330.6090670552157","280.8696426801434",18/12/21 22:49:00
"3","95","331.7762306635452","281.1512391865309",18/12/21 22:49:00
"3","95","333.01546355814173","281.7835990296627",18/12/21 22:49:00
"3","95","334.2943251546568","282.436180737335",18/12/21 22:49:00
"3","95","336.3013500736386","283.4603320235564",18/12/21 22:49:00
"3","95","337.781812148363","284.2157870872634",18/12/21 22:49:00
"3","95","339.619205393716","285.1533781643475",18/12/21 22:49:00
"3","93","341.2037190936556","285.9619290340855",18/12/21 22:49:00
"3","93","338.99677367974084","284.83576165922904",18/12/21 22:49:00
"3","93","337.36038412762235","284.00073940877706",18/12/21 22:49:00
"3","93","335.2085719259335","282.90270559104823",18/12/21 22:49:00
"3","93","333.54233108252106","282.0524507253532",18/12/21 22:49:00
"3","93","331.75986015993294","281.1428855920279",18/12/21 22:49:00
"2","93","330.521922733681","280.5151487744871",18/12/21 22:49:00
"2","93","331.9922539944752","281.53115877648867",18/12/21 22:49:00
"2","93","333.66381978522014","282.68622335797835",18/12/21 22:49:00
"2","93","335.684631903383","284.0826197884741",18/12/21 22:49:00
"2","93","336.84560974600345","284.88486424294314",18/12/21 22:49:00
"2","93","338.57508806211644","286.07994681669356",18/12/21 22:49:00
"2","93","339.98471704357416","287.05401108538",18/12/21 22:49:00
"2","93","341.27538496805676","287.9458723655575",18/12/21 22:49:00
"2","90","338.97834842258976","287.5091894260152",18/12/21 22:49:01
"2","90","338.97834842258976","287.5091894260152",18/12/21 22:49:01
"2","90","337.4053306965647","287.1990055312226",18/12/21 22:49:01
"2","90","336.14257359953353","286.9500020342793",18/12/21 22:49:01
"2","90","334.7993506652703","286.68513145181146",18/12/21 22:49:01
"2","90","334.7993506652703","286.68513145181146",18/12/21 22:49:01
"2","90","332.6365631601458","286.25865065579177",18/12/21 22:49:01
"2","90","330.4623697090462","286.17333260517046",18/12/21 22:49:01
"2","90","328.20376143225513","286.22432056550605",18/12/21 22:49:01
"2","90","326.0485189450478","286.2729750487029",18/12/21 22:49:01
"2","90","324.3075859649511","286.31227651706655",18/12/21 22:49:01
"2","90","322.97818388488616","286.3422876975023",18/12/21 22:49:01
"2","90","321.53047220242587","286.37496971084704",18/12/21 22:49:01
"2","90","320.1779084562003","286.40550376465023",18/12/21 22:49:01
"2","90","318.07348544246116","286.45301100096765",18/12/21 22:49:01
"2","91","316.21866683750005","286.3464631550698",18/12/21 22:49:01
"2","91","314.20316473691196","285.9633935918073",18/12/21 22:49:01
"2","91","312.49518630767733","285.63877247096707",18/12/21 22:49:01
"2","91","310.5523710166396","285.26951787935917",18/12/21 22:49:01
"2","16","309.47505843823564","283.35242215620315",18/12/21 22:49:01
"2","16","308.78404695485534","281.74061989031975",18/12/21 22:49:01
"2","16","308.13182245176523","280.21928926524424",18/12/21 22:49:01
"2","16","307.1785978337596","277.9958680397656",18/12/21 22:49:01
"2","16","307.75546677360546","278.17363618430943",18/12/21 22:49:01
"2","16","307.96991367307294","278.1053271294799",18/12/21 22:49:01
"2","16","307.9372795956327","277.99492788458207",18/12/21 22:49:01
"2","16","308.6291317697656","279.96926473529624",18/12/21 22:49:01
"2","16","309.73005271683274","279.8061729039511",18/12/21 22:49:01
"2","16","310.263546735632","279.0132572287315",18/12/21 22:49:01
"2","16","311.4429059653765","279.2777008679242",18/12/21 22:49:01
"2","16","311.45848294543913","278.3997819151239",18/12/21 22:49:01
"2","16","310.9181825118294","279.49537431338865",18/12/21 22:49:01
"2","16","311.0272051289752","279.37103410077555",18/12/21 22:49:01
"2","16","310.9834676786973","281.75015265580106",18/12/21 22:49:01
"2","16","310.26736921023706","281.9975738112269",18/12/21 22:49:01
"2","16","309.482849410221","283.55016427504415",18/12/21 22:49:01
"2","16","311.3210328964859","282.7668483571803",18/12/21 22:49:01
"2","16","309.88535534781846","283.18087982330553",18/12/21 22:49:01
"2","16","309.9722505268532","283.0523130789036",18/12/21 22:49:01
"2","16","310.0362529374828","281.8808890797339",18/12/21 22:49:01
"2","16","311.03987629619485","281.9517479782648",18/12/21 22:49:01
"2","16","311.1082114790619","281.94495471565244",18/12/21 22:49:01
"2","16","311.08062401097885","282.0510704529411",18/12/21 22:49:01
"2","16","310.6070383074671","283.40268814047",18/12/21 22:49:01
"2","16","310.3027843989431","282.60975454512715",18/12/21 22:49:01
"2","16","310.6125706663464","283.15144508299534",18/12/21 22:49:01
"2","16","310.5256050863185","284.5619795159433",18/12/21 22:49:01
"2","16","310.0842404985756","284.34915177885534",18/12/21 22:49:01
"2","16","310.27671264748824","284.2465133228563",18/12/21 22:49:01
"2","16","311.3792967862736","282.5840141849238",18/12/21 22:49:01
"2","16","311.4518113327912","281.03416113624684",18/12/21 22:49:02
"2","16","309.6916250632451","279.7239431160465",18/12/21 22:49:02
"2","16","310.73222441235333","279.6828587695564",18/12/21 22:49:02
"2","16","310.73222441235333","279.6828587695564",18/12/21 22:49:02
"2","16","310.73222441235333","279.6828587695564",18/12/21 22:49:02
"2","16","310.53973828673105","281.8467601268333",18/12/21 22:49:02
"2","16","310.4241613056168","283.1460599360771",18/12/21 22:49:02
"2","90","310.5526537137767","285.364349533972",18/12/21 22:49:02
"2","90","312.0308314528623","286.06251301371867",18/12/21 22:49:02
"2","90","313.1632482058288","286.5973688702705",18/12/21 22:49:02
"2","90","315.0894650850536","287.5071473384391",18/12/21 22:49:02
"2","90","316.3733204575593","288.11352971767485",18/12/21 22:49:02
"2","90","318.51189813217684","288.38234244877594",18/12/21 22:49:02
"2","90","320.57055142732526","288.39806455584716",18/12/21 22:49:02
"2","90","322.2851870333936","288.41115937110834",18/12/21 22:49:02
"2","90","324.74783913161696","288.4299668507644",18/12/21 22:49:02
"2","90","326.8258422380508","288.4458367339597",18/12/21 22:49:02
"2","90","329.2301107833171","288.46419833354804",18/12/21 22:49:02
"2","90","330.96612381654415","288.477456410005",18/12/21 22:49:02
"2","93","333.28897446918273","288.19814887940424",18/12/21 22:49:02
"2","93","334.72308005545705","287.87207132117214",18/12/21 22:49:02
"2","93","336.97126466392456","287.3608937937987",18/12/21 22:49:02
"2","93","339.0508859431058","286.8880430949009",18/12/21 22:49:02
"2","93","340.6788901278113","286.5178781402273",18/12/21 22:49:02
"2","93","340.38552165354133","285.87317457075034",18/12/21 22:49:02
"2","93","340.38552165354133","285.87317457075034",18/12/21 22:49:02
"2","93","338.88338796840026","285.0567051115007",18/12/21 22:49:02
"2","93","337.39145149382176","284.2457782421525",18/12/21 22:49:02
"2","93","335.80429838386084","283.38309734080883",18/12/21 22:49:02
"2","93","334.599924698243","282.7284722954098",18/12/21 22:49:02
"2","93","332.5400985503667","281.6088747803944",18/12/21 22:49:02
"2","93","330.8398392221352","280.68471614655425",18/12/21 22:49:02
"3","95","331.97071837633536","281.2761047456719",18/12/21 22:49:02
"3","95","333.6235834781287","282.14832914301275",18/12/21 22:49:02
"3","95","335.52275920444737","283.15053277205385",18/12/21 22:49:02
"3","95","336.98513196797285","283.9222335000623",18/12/21 22:49:02
"3","95","338.93548566150065","284.9514439741011",18/12/21 22:49:02
"3","95","338.93548566150065","284.9514439741011",18/12/21 22:49:02
"3","95","340.7014816932373","285.88336807535813",18/12/21 22:49:02
"3","95","340.1952458252755","285.61622511591986",18/12/21 22:49:02
"3","95","338.5376882720392","284.7415244907081",18/12/21 22:49:02
"3","95","336.7104546646874","283.7772850435541",18/12/21 22:49:02
"3","95","335.446542033388","283.1103126258229",18/12/21 22:49:02
"3","95","333.3147826704176","281.9853735587295",18/12/21 22:49:02
"3","95","332.1147887369255","281.3521313272145",18/12/21 22:49:02
"1","88","330.5519306271368","280.687385313861",18/12/21 22:49:02
"1","88","330.93348751351965","282.0641866515816",18/12/21 22:49:02
"1","88","331.46740560406585","283.99076475181187",18/12/21 22:49:02
"1","88","332.01991007923334","285.98440954674294",18/12/21 22:49:02
"1","88","330.7063369908594","286.38255951020943",18/12/21 22:49:03
"1","88","328.80966857968787","286.9288124693192",18/12/21 22:49:03
"1","88","327.5593961543594","287.2888991391906",18/12/21 22:49:03
"1","88","325.6292557002866","287.84479226648926",18/12/21 22:49:03
"1","88","324.39983831272934","288.1988725485135",18/12/21 22:49:03
"1","88","323.1920353380424","288.5467277376748",18/12/21 22:49:03
"1","7","322.18370254170424","289.21693551977705",18/12/21 22:49:03
"1","7","322.1114372443588","291.31747092154785",18/12/21 22:49:03
"1","7","322.0599763306979","292.8132853016563",18/12/21 22:49:03
"1","7","322.0226901548445","293.89708257716296",18/12/21 22:49:03
"1","7","321.89907383307093","293.9085038426165",18/12/21 22:49:03
"1","7","324.09057002682005","294.21293753437504",18/12/21 22:49:03
"1","7","325.37392358239816","295.1989207609078",18/12/21 22:49:03
"1","7","324.07923041533553","294.1130063427219",18/12/21 22:49:03
"1","7","323.96150363932253","293.9718707470774",18/12/21 22:49:03
"1","7","324.07109370886747","294.7803845084982",18/12/21 22:49:03
"1","7","325.46570696190054","296.07015474773095",18/12/21 22:49:03
"1","7","325.4614084478964","296.1066153240422",18/12/21 22:49:03
"1","7","326.0990569286347","296.40296986767817",18/12/21 22:49:03
"1","7","325.7203676855715","295.47624440845016",18/12/21 22:49:03
"1","7","324.4862074471551","294.64490575274385",18/12/21 22:49:03
"1","7","325.7937493609971","294.1521901147469",18/12/21 22:49:03
"1","7","325.1058046868241","292.44292138183425",18/12/21 22:49:03
"1","7","326.5197814351986","292.55450291411256",18/12/21 22:49:03
"1","7","326.6564700807664","291.22004752092295",18/12/21 22:49:03
"1","7","326.5029632240381","291.2868293024461",18/12/21 22:49:03
"1","7","327.04142612987926","290.7018829589492",18/12/21 22:49:03
"1","7","329.33468519270224","290.7092588983864",18/12/21 22:49:03
"1","7","331.0278035985024","289.9087215387622",18/12/21 22:49:03
"1","7","329.7051573423413","289.403137502457",18/12/21 22:49:03
"1","7","328.7989663480839","289.75498696578916",18/12/21 22:49:03
"1","7","330.7465984971985","289.20111396174553",18/12/21 22:49:03
"1","7","329.585379745512","291.02973796339523",18/12/21 22:49:03
"1","7","329.4849565295131","291.1278378748794",18/12/21 22:49:03
"1","7","329.4416779401525","291.0023998602336",18/12/21 22:49:03
"1","7","329.09805093553103","291.2420115767711",18/12/21 22:49:03
"1","7","330.2469037716462","292.2696948478491",18/12/21 22:49:03
"1","7","330.2469037716462","292.2696948478491",18/12/21 22:49:03
"1","7","330.3980310100134","294.8335486093115",18/12/21 22:49:03
"1","7","331.3414250506133","295.376091604548",18/12/21 22:49:03
"1","7","330.79821008549976","296.29707085295695",18/12/21 22:49:03
"1","7","330.79821008549976","295.06409735429503",18/12/21 22:49:03
"1","7","329.48476653328464","294.38531758202856",18/12/21 22:49:03
"1","7","329.7935236260501","294.58648916199303",18/12/21 22:49:03
"1","7","329.7935236260501","294.58648916199303",18/12/21 22:49:03
"1","7","329.50098293130014","294.53550497740287",18/12/21 22:49:03
"1","7","329.64502090201313","294.54909152328156",18/12/21 22:49:03
"1","7","329.7707891417656","294.96267205164696",18/12/21 22:49:03
"1","7","329.7707891417656","294.96267205164696",18/12/21 22:49:03
"1","7","327.7615794045405","295.4476688928521",18/12/21 22:49:03
"1","7","327.7615794045405","295.4476688928521",18/12/21 22:49:04
"1","7","325.6733714669847","295.31406290676284",18/12/21 22:49:04
"1","7","326.06629788436356","293.375861392855",18/12/21 22:49:04
"1","7","326.59723838081453","294.196349333621",18/12/21 22:49:04
"1","7","326.59723838081453","294.196349333621",18/12/21 22:49:04
"1","7","329.4932753172819","293.8909381783557",18/12/21 22:49:04
"1","7","330.01127170248805","293.7575057786756",18/12/21 22:49:04
"1","7","327.8399977478113","293.0594377665938",18/12/21 22:49:04
"1","7","327.1789982053991","292.80332722645704",18/12/21 22:49:04
"1","7","326.8186135237726","292.29714696725534",18/12/21 22:49:04
"1","7","327.3204344322142","292.6345205529929",18/12/21 22:49:04
"1","7","325.06838725772775","292.239023006261",18/12/21 22:49:04
"1","7","325.06838725772775","292.239023006261",18/12/21 22:49:04
"1","7","325.5688829453471","290.1292896610129",18/12/21 22:49:04
"1","7","325.8147770719585","289.531813462823",18/12/21 22:49:04
"1","7","325.8147770719585","289.531813462823",18/12/21 22:49:04
"1","7","323.8477560286175","290.36743227716045",18/12/21 22:49:04
"1","7","322.9288829046737","290.0647643445987",18/12/21 22:49:04
"1","7","322.2408314474841","290.3975423441534",18/12/21 22:49:04
"1","7","322.2816890955493","290.46360127452067",18/12/21 22:49:04
"1","7","322.1174507642899","290.9599784728938",18/12/21 22:49:04
"1","7","322.08118422352567","290.79053474097304",18/12/21 22:49:04
"1","7","322.3469495452127","290.6682207302047",18/12/21 22:49:04
"1","7","322.3469495452127","290.6682207302047",18/12/21 22:49:04
"1","7","322.6301880540164","292.98078994682345",18/12/21 22:49:04
"1","7","323.63274528645087","292.9877171697473",18/12/21 22:49:04
"1","7","323.42341134592664","293.73604040256373",18/12/21 22:49:04
"1","7","325.5474559192466","294.3488857811189",18/12/21 22:49:04
"1","7","327.75404664784617","294.2559995091968",18/12/21 22:49:04
"1","7","326.3291611928394","294.0890081906765",18/12/21 22:49:04
"1","7","327.03396623563196","292.87347693837637",18/12/21 22:49:04
"1","7","326.7602140200707","292.6256016318641",18/12/21 22:49:04
"1","7","326.9525199283315","290.7946275206846",18/12/21 22:49:04
"1","7","326.9525199283315","289.47661551595974",18/12/21 22:49:04
"1","7","327.0192856659085","290.2323289563927",18/12/21 22:49:04
"1","7","327.0192856659085","290.2323289563927",18/12/21 22:49:04
"1","7","326.34074115622866","289.57217849058054",18/12/21 22:49:04
"1","7","325.6866974147028","290.6998300337028",18/12/21 22:49:04
"1","7","325.1974653672128","292.93332669271587",18/12/21 22:49:04
"1","7","325.06443846104196","290.52635351658614",18/12/21 22:49:04
"1","7","325.73695794474435","291.5887259040115",18/12/21 22:49:04
"1","7","325.73695794474435","291.5887259040115",18/12/21 22:49:04
"1","7","326.24483106010166","291.1033541125411",18/12/21 22:49:04
"1","7","325.7984440387973","291.09953903894007",18/12/21 22:49:04
"1","7","325.2056174341996","291.46186729257346",18/12/21 22:49:04
"1","7","324.72941300933417","289.4534628566866",18/12/21 22:49:04
"1","7","326.3084642614019","289.2914064420385",18/12/21 22:49:04
"1","7","325.8496364465959","289.32647912440245",18/12/21 22:49:04
"1","7","325.008501166726","291.53060383499457",18/12/21 22:49:04
"1","7","325.008501166726","291.53060383499457",18/12/21 22:49:04
"1","7","326.85199977690775","289.60054203882265",18/12/21 22:49:05
"1","7","326.85199977690775","289.60054203882265",18/12/21 22:49:05
"1","7","323.7810456291709","290.037643087712",18/12/21 22:49:05
"1","7","324.5523202825253","292.3337020931079",18/12/21 22:49:05
"1","7","325.9083781765904","292.7971615389878",18/12/21 22:49:05
"1","7","327.68387852505526","293.2497968191836",18/12/21 22:49:05
"1","7","327.14198233952465","291.6377480813116",18/12/21 22:49:05
"1","7","329.179034294989","291.1173260901347",18/12/21 22:49:05
"1","7","328.9841774516182","291.90735084209217",18/12/21 22:49:05
"1","7","328.42145222651016","292.0395981530457",18/12/21 22:49:05
"1","7","328.42145222651016","292.79674323841596",18/12/21 22:49:05
"1","7","328.63935644904245","292.4198922335114",18/12/21 22:49:05
"1","7","328.3578134926809","293.6883110193203",18/12/21 22:49:05
"1","7","326.07219514311805","293.24223624932495",18/12/21 22:49:05
"1","7","327.320920675232","292.66211643227",18/12/21 22:49:05
"1","7","329.5092064658112","293.62954448009225",18/12/21 22:49:05
"1","7","329.4349976529456","293.826885580788",18/12/21 22:49:05
"1","7","328.9301280902405","293.4569216952109",18/12/21 22:49:05
"1","7","328.65834815075306","294.94079912295314",18/12/21 22:49:05
"1","7","328.65834815075306","294.94079912295314",18/12/21 22:49:05
"1","7","330.0582450398976","295.1939368089773",18/12/21 22:49:05
"1","7","329.72161946726226","295.2285556789773",18/12/21 22:49:05
"1","7","329.20356139710003","295.6413225129661",18/12/21 22:49:05
"1","7","327.68861405430994","295.8467517667802",18/12/21 22:49:05
"1","7","326.66111347845845","295.68329246494005",18/12/21 22:49:05
"1","7","324.4549642576086","295.38327638877945",18/12/21 22:49:05
"1","7","325.16933994765566","294.30802400895",18/12/21 22:49:05
"1","7","324.7908750214571","293.61562083889925",18/12/21 22:49:05
"1","7","324.60262257305146","291.80977193814175",18/12/21 22:49:05
"1","7","325.25942604943896","290.0628522226092",18/12/21 22:49:05
"1","7","326.4205088725799","291.3119452205938",18/12/21 22:49:05
"1","7","325.8844005458644","290.07069025335244",18/12/21 22:49:05
"1","7","326.6905175294164","291.1223027571647",18/12/21 22:49:05
"1","7","328.2056425499785","291.09637931704475",18/12/21 22:49:05
"1","7","329.1948598776898","291.1359275116903",18/12/21 22:49:05
"1","7","328.31463643969585","291.4721280261324",18/12/21 22:49:05
"1","7","328.31463643969585","291.4721280261324",18/12/21 22:49:05
"1","7","326.0463715553949","290.73784168911465",18/12/21 22:49:05
"1","7","326.0463715553949","290.73784168911465",18/12/21 22:49:05
"1","7","326.38957256718925","289.5412655619863",18/12/21 22:49:05
"1","7","326.2304640948771","289.53540495636577",18/12/21 22:49:05
"1","7","325.77658527349917","290.2022900090291",18/12/21 22:49:05
"1","7","324.5267435711785","292.05121014205207",18/12/21 22:49:05
"1","7","324.6050323154484","291.9474783748458",18/12/21 22:49:05
"1","7","323.7346430504414","290.6444798819005",18/12/21 22:49:05
"1","7","323.9870869043016","293.0238311951742",18/12/21 22:49:05
"1","7","322.6367316744943","295.11189382008007",18/12/21 22:49:05
"1","7","322.6367316744943","295.11189382008007",18/12/21 22:49:05
"1","7","324.0819402016012","296.4053686759832",18/12/21 22:49:05
"1","7","324.11032330781103","296.40484924400266",18/12/21 22:49:05
"1","7","323.3587785885582","295.41507570259836",18/12/21 22:49:06
"1","7","321.96526916986863","296.06321135704883",18/12/21 22:49:06
"1","7","322.2949523889306","295.8605036660664",18/12/21 22:49:06
"1","7","323.1497573401303","294.2950720533632",18/12/21 22:49:06
"1","7","324.06902349231484","295.6922231913232",18/12/21 22:49:06
"1","7","324.67893109741","294.5367920410886",18/12/21 22:49:06
"1","7","325.0654633849134","294.0594877174946",18/12/21 22:49:06
"1","7","325.0084078628871","294.2867260235891",18/12/21 22:49:06
"1","7","325.0084078628871","294.2867260235891",18/12/21 22:49:06
"1","7","328.1212926531445","294.9016704731898",18/12/21 22:49:06
"1","7","329.56505987703673","292.99515003825366",18/12/21 22:49:06
"1","7","329.5839912064479","292.6605824626666",18/12/21 22:49:06
"1","7","329.60689407360167","293.2350827532863",18/12/21 22:49:06
"1","7","328.5723753483472","294.3183528778801",18/12/21 22:49:06
"1","7","329.1451243328167","294.5298660780989",18/12/21 22:49:06
"1","7","330.10873600842757","292.7774982018735",18/12/21 22:49:06
"1","7","330.10873600842757","292.7774982018735",18/12/21 22:49:06
"1","7","329.58851093424704","293.2980336352376",18/12/21 22:49:06
"1","7","329.41560785690666","293.8303373232379",18/12/21 22:49:06
"1","7","329.69460448184014","293.66742885715945",18/12/21 22:49:06
"1","7","328.98812964108293","291.5245024363524",18/12/21 22:49:06
"1","7","329.5522198464239","292.47306730975237",18/12/21 22:49:06
"1","7","329.7034300152563","292.50099462867735",18/12/21 22:49:06
"1","7","328.88449966368654","292.9617539772508",18/12/21 22:49:06
"1","7","329.93918562462085","293.79476047021126",18/12/21 22:49:06
"1","7","330.9459618913211","291.6239475966832",18/12/21 22:49:06
"1","7","330.45655623405656","291.8700433614985",18/12/21 22:49:06
"1","7","330.45655623405656","291.8700433614985",18/12/21 22:49:06
"1","7","330.33660196075846","292.1386023298353",18/12/21 22:49:06
"1","7","331.174107791713","290.43015184467197",18/12/21 22:49:06
"1","7","330.9722897853742","290.6758957971875",18/12/21 22:49:06
"1","7","330.9722897853742","290.6758957971875",18/12/21 22:49:06
"1","7","330.5303215657152","291.63290742924653",18/12/21 22:49:06
"1","7","330.5303215657152","291.63290742924653",18/12/21 22:49:06
"1","7","330.32730517031","290.3344513068281",18/12/21 22:49:06
"1","7","327.89758792762296","290.6472305790741",18/12/21 22:49:06
"1","7","327.89758792762296","292.247919663072",18/12/21 22:49:06
"1","7","326.42745263898667","294.05825287519883",18/12/21 22:49:06
"1","7","325.4301681723687","293.4460291202068",18/12/21 22:49:06
"1","7","324.66135078513827","294.38484249729976",18/12/21 22:49:06
"1","7","322.748627709636","294.02148641159715",18/12/21 22:49:06
"1","7","323.2885090045031","294.7503569490944",18/12/21 22:49:06
"1","7","325.28646880589895","295.5561629195354",18/12/21 22:49:06
"1","7","325.11849240304423","295.6998210851836",18/12/21 22:49:06
"1","7","325.11849240304423","295.6998210851836",18/12/21 22:49:06
"1","7","325.64414389507795","296.17844240900104",18/12/21 22:49:06
"1","7","325.6475151886425","296.0225233165941",18/12/21 22:49:06
"1","7","324.82333508696996","295.890816653497",18/12/21 22:49:06
"1","7","326.5063138778588","295.7451672511967",18/12/21 22:49:06
"1","7","328.1209421829081","295.9415095117293",18/12/21 22:49:06
"1","7","329.1901957292156","295.46832506076294",18/12/21 22:49:07
"1","7","329.17321539231375","295.4938095821657",18/12/21 22:49:07
"1","7","329.2226382778278","296.3496268223457",18/12/21 22:49:07
"1","7","327.9527120426729","295.1252147314096",18/12/21 22:49:07
"1","7","327.65974922649616","293.8128785356026",18/12/21 22:49:07
"1","7","329.82320186142834","293.3666890568849",18/12/21 22:49:07
"1","7","329.82320186142834","293.3666890568849",18/12/21 22:49:07
"1","7","328.4505295045902","295.4368398472935",18/12/21 22:49:07
"1","7","326.4057875670571","295.84807609485597",18/12/21 22:49:07
"1","7","326.4057875670571","295.84807609485597",18/12/21 22:49:07
"1","7","328.07632189174336","294.5305669728852",18/12/21 22:49:07
"1","7","326.51795624944924","294.1529521241558",18/12/21 22:49:07
"1","7","328.27662991546237","294.7336016753221",18/12/21 22:49:07
"1","7","328.1253232110561","295.12292813213713",18/12/21 22:49:07
"1","7","328.26229127026875","295.4742153934073",18/12/21 22:49:07
"1","7","326.9937262960798","293.61041835917723",18/12/21 22:49:07
"1","7","326.0016486711668","293.27077270612915",18/12/21 22:49:07
"1","7","327.1269716645633","292.9134068486538",18/12/21 22:49:07
"1","7","328.7475497602084","293.84085521051696",18/12/21 22:49:07
"1","7","328.322238913794","294.55052715422033",18/12/21 22:49:07
"1","7","326.79893466118995","293.6213880833263",18/12/21 22:49:07
"1","7","326.53870186469385","292.48733535142554",18/12/21 22:49:07
"1","7","325.7951603148728","292.16250573990516",18/12/21 22:49:07
"1","7","323.91215961465747","290.6376123318955",18/12/21 22:49:07
"1","7","323.91215961465747","292.19010277799384",18/12/21 22:49:07
"1","7","324.6101315000704","292.19010277799384",18/12/21 22:49:07
"1","7","325.1004729672389","290.7463456669889",18/12/21 22:49:07
"1","7","324.1549158783349","289.31846260223386",18/12/21 22:49:07
"1","7","324.1549158783349","289.8820051808739",18/12/21 22:49:07
"1","7","323.1355852185014","289.57406476940054",18/12/21 22:49:07
"1","7","323.9210047992962","289.5211539277782",18/12/21 22:49:07
"1","7","323.5664647392596","290.6753711456781",18/12/21 22:49:07
"1","7","323.5664647392596","290.6753711456781",18/12/21 22:49:07
"1","7","323.48068687445056","289.7678680694841",18/12/21 22:49:07
"1","7","323.48068687445056","290.20935741477575",18/12/21 22:49:07
"1","7","323.8375861120105","290.20935741477575",18/12/21 22:49:07
"1","7","324.8920814960231","290.9871692664574",18/12/21 22:49:07
"1","7","326.0373640960814","290.03954146234634",18/12/21 22:49:07
"1","7","325.81732254607806","289.6397159458887",18/12/21 22:49:07
"1","7","323.93185519138194","289.22453498388506",18/12/21 22:49:07
"1","7","323.93185519138194","289.22453498388506",18/12/21 22:49:07
"1","7","322.1583363733074","290.9941054982596",18/12/21 22:49:07
"1","7","322.50607949323773","291.01642834090677",18/12/21 22:49:07
"1","7","322.50607949323773","291.01642834090677",18/12/21 22:49:07
"1","7","321.8690700906904","290.22342227286754",18/12/21 22:49:07
"1","7","323.5008116764089","289.69244677990076",18/12/21 22:49:07
"1","7","322.59606747689133","289.7224859340811",18/12/21 22:49:07
"1","7","322.59606747689133","289.50611015202026",18/12/21 22:49:07
"1","7","323.2848118125207","289.50611015202026",18/12/21 22:49:07
"1","7","322.6222203325865","289.6836443532862",18/12/21 22:49:08
"1","7","322.6222203325865","289.6836443532862",18/12/21 22:49:08
"1","7","322.62925647610547","291.6471169266692",18/12/21 22:49:08
"1","7","322.1318458710821","291.6471169266692",18/12/21 22:49:08
"1","7","322.6209449845042","289.63798875481467",18/12/21 22:49:08
"1","7","322.2724778344223","289.75290618655157",18/12/21 22:49:08
"1","7","322.30755258295915","289.60155277294893",18/12/21 22:49:08
"1","7","322.30755258295915","289.99231820177005",18/12/21 22:49:08
"1","7","322.38100572895604","289.99231820177005",18/12/21 22:49:08
"1","7","322.15202989619786","289.56235467060395",18/12/21 22:49:08
"1","7","321.92185556591306","289.4394729698663",18/12/21 22:49:08
"1","7","321.92185556591306","289.4394729698663",18/12/21 22:49:08
"1","7","323.67755092503074","290.2164441206916",18/12/21 22:49:08
"1","7","323.53227787426044","289.85008302115455",18/12/21 22:49:08
"1","7","323.53227787426044","289.85008302115455",18/12/21 22:49:08
"1","7","325.19719478780974","290.8624405843888",18/12/21 22:49:08
"1","7","325.20255027321235","290.86243190749315",18/12/21 22:49:08
"1","7","325.20255027321235","290.86243190749315",18/12/21 22:49:08
"1","7","324.93259932474405","290.68078320350213",18/12/21 22:49:08
"1","7","326.0476581335923","289.9163997668367",18/12/21 22:49:08
"1","7","325.8459379985401","290.1373745998318",18/12/21 22:49:08
"1","7","327.1071426543682","291.1604447497798",18/12/21 22:49:08
"1","7","327.1071426543682","291.1604447497798",18/12/21 22:49:08
"1","7","326.85662670552745","290.80492021413255",18/12/21 22:49:08
"1","7","326.85662670552745","290.80492021413255",18/12/21 22:49:08
"1","7","325.1716471128192","291.39468119930456",18/12/21 22:49:08
"1","7","324.7270694931488","291.22658997185584",18/12/21 22:49:08
"1","7","323.838961990844","292.1585891431987",18/12/21 22:49:08
"1","7","323.5866253906995","292.5088815951083",18/12/21 22:49:08
"1","7","322.7485767877824","293.42004721423194",18/12/21 22:49:08
"1","7","322.31787951368585","294.5213429719963",18/12/21 22:49:08
"1","7","323.7138392985513","294.41170897752335",18/12/21 22:49:08
"1","7","323.7138392985513","294.41170897752335",18/12/21 22:49:08
"1","7","325.79175291589894","294.99896509768104",18/12/21 22:49:08
"1","7","326.38791581724786","295.56469777029474",18/12/21 22:49:08
"1","7","326.9628224169633","295.6008943695139",18/12/21 22:49:08
"1","7","328.0443971567325","294.85394523021483",18/12/21 22:49:08
"1","7","328.0443971567325","295.2242885607114",18/12/21 22:49:08
"1","7","329.1160197213463","295.43467081041297",18/12/21 22:49:08
"1","7","327.9590899401139","295.52155647861747",18/12/21 22:49:08
"1","7","327.7183444765341","294.6735872413669",18/12/21 22:49:08
"1","7","326.7374469039747","295.3474068526686",18/12/21 22:49:08
"1","7","326.7374469039747","295.3474068526686",18/12/21 22:49:08
"1","7","326.1665660203416","294.5608090237327",18/12/21 22:49:08
"1","7","327.89390599439844","292.7786408309072",18/12/21 22:49:08
"1","7","326.8397570425461","294.6331786088436",18/12/21 22:49:08
"1","7","329.06333662366785","295.67969925383215",18/12/21 22:49:08
"1","7","329.4994998336276","295.4745952974421",18/12/21 22:49:08
"1","7","330.04186926305357","293.95193805818167",18/12/21 22:49:08
"1","7","329.97607881686594","293.9579765328959",18/12/21 22:49:08
"1","7","329.97607881686594","293.03010337045515",18/12/21 22:49:09
"1","7","330.7469795655752","295.2422760743187",18/12/21 22:49:09
"1","7","330.8165833822224","294.43151804367324",18/12/21 22:49:09
"1","7","331.18912841389294","292.3785597734756",18/12/21 22:49:09
"1","7","331.3174957588822","292.4062790579385",18/12/21 22:49:09
"1","7","330.31012446407357","292.3076126731851",18/12/21 22:49:09
"1","7","330.8711720197549","292.86834434964067",18/12/21 22:49:09
"1","7","330.8711720197549","292.86834434964067",18/12/21 22:49:09
"1","7","330.8711720197549","292.86834434964067",18/12/21 22:49:09
"1","7","330.8711720197549","292.86834434964067",18/12/21 22:49:09
"1","7","327.44034866193493","290.991388296567",18/12/21 22:49:09
"1","7","327.44034866193493","290.991388296567",18/12/21 22:49:09
"1","7","323.6269351437361","288.9051224532551",18/12/21 22:49:09
"1","88","325.42138995543075","288.6611877135048",18/12/21 22:49:09
"1","88","327.0679496027393","288.51399364802415",18/12/21 22:49:09
"1","88","328.5455585569106","288.3819029159875",18/12/21 22:49:09
"1","88","329.83051272584737","288.267034542776",18/12/21 22:49:09
"1","88","331.52448176316324","288.11560231873943",18/12/21 22:49:09
"1","88","331.52448176316324","288.2415045262929",18/12/21 22:49:09
"1","30","334.5913749943215","288.45378890126915",18/12/21 22:49:09
"1","30","336.6804777797474","288.76550519501427",18/12/21 22:49:09
"1","6","336.1794004986677","289.81430766828083",18/12/21 22:49:09
"1","6","334.9928421685345","291.03230019403276",18/12/21 22:49:09
"1","6","334.9928421685345","291.03230019403276",18/12/21 22:49:09
"1","6","333.8349925752695","292.45442951448535",18/12/21 22:49:09
"1","6","332.70974939389623","290.6058635533776",18/12/21 22:49:09
"1","6","332.2281843734981","289.7951540616983",18/12/21 22:49:09
"1","6","333.27978668698177","289.7299345168662",18/12/21 22:49:09
"1","6","333.27978668698177","289.7299345168662",18/12/21 22:49:09
"1","6","332.98158862053396","290.1174663371589",18/12/21 22:49:09
"1","6","332.98158862053396","290.1174663371589",18/12/21 22:49:09
"1","6","332.1734265917556","290.30010648881824",18/12/21 22:49:09
"1","6","334.4142214479005","289.7807470647635",18/12/21 22:49:09
"1","6","334.73372391328735","289.7658537774776",18/12/21 22:49:09
"1","6","334.277483476791","289.4501759515837",18/12/21 22:49:09
"1","6","334.2688400502339","289.45362243157035",18/12/21 22:49:09
"1","6","334.2688400502339","290.68869253848897",18/12/21 22:49:09
"1","6","333.9244199081501","292.5101476641438",18/12/21 22:49:09
"1","6","333.9244199081501","292.5101476641438",18/12/21 22:49:09
"1","6","334.18161193770845","292.3846697169104",18/12/21 22:49:09
"1","6","333.4453374420561","292.61105652242156",18/12/21 22:49:09
"1","6","334.12645514580277","292.51625714271586",18/12/21 22:49:09
"1","6","333.58561281422385","292.61374340174365",18/12/21 22:49:09
"1","6","332.0766760166161","292.6080885299211",18/12/21 22:49:09
"1","6","332.0766760166161","292.6080885299211",18/12/21 22:49:09
"1","6","333.2456002876633","291.7766220198852",18/12/21 22:49:09
"1","6","332.87183039279347","293.0058172081634",18/12/21 22:49:09
"1","6","332.7513530539608","292.632255248645",18/12/21 22:49:09
"1","6","332.89864389498695","293.5068101184919",18/12/21 22:49:09
"1","6","332.89864389498695","293.5068101184919",18/12/21 22:49:09
"1","6","332.7528105884232","293.81569689565583",18/12/21 22:49:10
"1","6","333.02813244953074","293.1331505804068",18/12/21 22:49:10
"1","6","332.488348205675","292.95400810970517",18/12/21 22:49:10
"1","6","332.0266580256628","293.4314448887738",18/12/21 22:49:10
"1","6","332.0266580256628","293.4314448887738",18/12/21 22:49:10
"1","6","334.8778591164341","296.2171280188007",18/12/21 22:49:10
"1","6","334.37883293742533","296.1438520912078",18/12/21 22:49:10
"1","6","334.18239933871837","295.46465219799484",18/12/21 22:49:10
"1","6","333.3734619306238","293.3276430361372",18/12/21 22:49:10
"1","6","333.3734619306238","290.8309640063938",18/12/21 22:49:10
"1","6","333.30254768814814","290.8309640063938",18/12/21 22:49:10
"1","6","332.1326780258864","290.71188431454664",18/12/21 22:49:10
"1","6","333.5238590252035","291.8054014520654",18/12/21 22:49:10
"1","6","332.55701702985783","290.6890438311353",18/12/21 22:49:10
"1","6","333.23645289499774","289.9140438471518",18/12/21 22:49:10
"1","6","333.5711414391105","290.62164740432803",18/12/21 22:49:10
"1","6","334.035117704719","290.6822645909234",18/12/21 22:49:10
"1","6","334.035117704719","290.6822645909234",18/12/21 22:49:10
"1","6","332.9260051287423","291.6169697324982",18/12/21 22:49:10
"1","6","332.58602343438065","291.4758933541156",18/12/21 22:49:10
"1","6","333.1697352851176","289.23706369197214",18/12/21 22:49:10
"1","6","333.1697352851176","289.23706369197214",18/12/21 22:49:10
"1","6","332.1891174573217","292.02640629016884",18/12/21 22:49:10
"1","6","332.1891174573217","292.02640629016884",18/12/21 22:49:10
"1","6","332.4747862776199","293.12076650213686",18/12/21 22:49:10
"1","6","332.4747862776199","293.12076650213686",18/12/21 22:49:10
"1","6","333.50735635544925","292.30123423910675",18/12/21 22:49:10
"1","6","333.7143477676095","292.3364835515143",18/12/21 22:49:10
"1","6","335.4306669453452","294.3356970922021",18/12/21 22:49:10
"1","6","334.58189533071237","293.18791609134297",18/12/21 22:49:10
"1","6","336.5304853400702","293.64652947394876",18/12/21 22:49:10
"1","6","336.5304853400702","293.64652947394876",18/12/21 22:49:10
"1","6","336.7498830985439","293.91146735533937",18/12/21 22:49:10
"1","6","337.8350933064268","293.91146735533937",18/12/21 22:49:10
"1","6","337.0430677998651","291.7884251760581",18/12/21 22:49:10
"1","6","338.78609300608366","291.4972461338932",18/12/21 22:49:10
"1","6","339.2102861467269","292.72807750650657",18/12/21 22:49:10
"1","6","340.0718188395848","292.95588403414854",18/12/21 22:49:10
"1","6","338.3621338841417","293.606461413593",18/12/21 22:49:10
"1","6","339.478475174354","293.97515892567753",18/12/21 22:49:10
"1","6","339.478475174354","293.97515892567753",18/12/21 22:49:10
"1","6","337.691018844769","295.7602926162031",18/12/21 22:49:10
"1","6","337.691018844769","295.7602926162031",18/12/21 22:49:10
"1","6","336.2048778367203","294.3578437025262",18/12/21 22:49:10
"1","6","336.2048778367203","294.3578437025262",18/12/21 22:49:10
"1","6","336.6344588651438","292.8623419323808",18/12/21 22:49:10
"1","6","337.20210794008443","290.8861834425366",18/12/21 22:49:10
"1","88","337.47112337134774","288.80967853703163",18/12/21 22:49:10
"1","88","337.47112337134774","288.80967853703163",18/12/21 22:49:10
"1","88","333.9493511011805","288.54988320828517",18/12/21 22:49:10
"1","88","333.9493511011805","288.54988320828517",18/12/21 22:49:11
"1","88","330.1248208287744","288.23014258427156",18/12/21 22:49:11
"1","88","330.1248208287744","288.23014258427156",18/12/21 22:49:11
"1","88","326.1794121159384","287.86100255488697",18/12/21 22:49:11
"1","88","324.4485501051547","287.6990597753106",18/12/21 22:49:11
"1","88","322.74483100519683","287.5396565386889",18/12/21 22:49:11
"1","88","320.8370416023254","287.3611600919344",18/12/21 22:49:11
"1","88","319.450528921285","287.2314352981111",18/12/21 22:49:11
"1","88","319.450528921285","287.02872682145784",18/12/21 22:49:11
"1","89","316.3132087658785","286.04813930692575",18/12/21 22:49:11
"1","89","315.7829333940522","283.86116241470296",18/12/21 22:49:11
"1","46","315.6857359246979","282.34511450631953",18/12/21 22:49:11
"1","46","315.61085793105394","280.1329574837236",18/12/21 22:49:11
"1","46","315.61085793105394","280.1329574837236",18/12/21 22:49:11
"1","46","314.6299606908791","277.8070948820593",18/12/21 22:49:11
"1","46","314.2338752598766","278.1812624521005",18/12/21 22:49:11
"1","46","314.2338752598766","277.9894078818481",18/12/21 22:49:11
"1","46","312.26450168633056","278.5340761735004",18/12/21 22:49:11
"1","46","312.917705773167","280.67315757811735",18/12/21 22:49:11
"1","46","311.97260591863756","279.5667775748404",18/12/21 22:49:11
"1","46","313.37981646078197","280.1337815435327",18/12/21 22:49:11
"1","46","313.79445131980077","280.41902088313753",18/12/21 22:49:11
"1","46","315.00224235438367","280.7001599194675",18/12/21 22:49:11
"1","46","315.00224235438367","280.7001599194675",18/12/21 22:49:11
"1","46","315.6396102013594","279.4143050733116",18/12/21 22:49:11
"1","46","313.21069254830905","279.0535402468446",18/12/21 22:49:11
"1","46","315.1000597872883","277.7740242848754",18/12/21 22:49:11
"1","46","315.2276597053927","277.65128072102135",18/12/21 22:49:11
"1","46","315.2276597053927","277.65128072102135",18/12/21 22:49:11
"1","46","315.1494879085346","277.55910233700337",18/12/21 22:49:11
"1","46","313.96670169033996","278.84151053921545",18/12/21 22:49:11
"1","46","314.04947301137855","278.7611010902578",18/12/21 22:49:11
"1","46","314.82217323085297","280.4949658125891",18/12/21 22:49:11
"1","46","315.13400401126876","280.2858356808366",18/12/21 22:49:11
"1","46","315.13400401126876","280.2858356808366",18/12/21 22:49:11
"1","46","316.32920680230757","278.4913734682269",18/12/21 22:49:11
"1","46","316.2406915232868","278.4913734682269",18/12/21 22:49:11
"1","46","314.15116674140154","278.3965476156406",18/12/21 22:49:11
"1","46","314.15116674140154","278.3965476156406",18/12/21 22:49:11
"1","46","313.1877641242104","279.7598442426989",18/12/21 22:49:11
"1","46","313.449012622594","279.67560887243405",18/12/21 22:49:11
"1","46","313.449012622594","279.67560887243405",18/12/21 22:49:11
"1","46","312.39217953718486","278.92454175401446",18/12/21 22:49:11
"1","46","313.0077595026381","280.6322109327507",18/12/21 22:49:11
"1","46","312.9941475045056","279.69711034630444",18/12/21 22:49:11
"1","46","313.1432415333627","279.04107404608754",18/12/21 22:49:11
"1","46","313.1432415333627","279.04107404608754",18/12/21 22:49:11
"1","46","313.1052652369911","280.432471971116",18/12/21 22:49:11
"1","46","313.1052652369911","280.432471971116",18/12/21 22:49:11
"1","46","313.7411055295461","280.67916097599124",18/12/21 22:49:11
"1","46","315.8237045744807","280.45489560506996",18/12/21 22:49:12
"1","46","315.8237045744807","280.45489560506996",18/12/21 22:49:12
"1","46","315.11600436727974","279.5191206183161",18/12/21 22:49:12
"1","46","315.3625723642876","279.8101750056422",18/12/21 22:49:12
"1","46","315.7311671616969","278.16891071788507",18/12/21 22:49:12
"1","46","315.7311671616969","278.16891071788507",18/12/21 22:49:12
"1","46","314.8297778230541","278.30351077908796",18/12/21 22:49:12
"1","46","314.8297778230541","278.30351077908796",18/12/21 22:49:12
"1","46","315.8998678561123","278.6342231181269",18/12/21 22:49:12
"1","46","315.6821071741315","278.6342231181269",18/12/21 22:49:12
"1","46","313.64475946031456","281.1216412073899",18/12/21 22:49:12
"1","46","315.26551255306924","280.63363684531856",18/12/21 22:49:12
"1","46","313.57996303234074","279.6483959082315",18/12/21 22:49:12
"1","46","313.5503156122665","281.37406232394005",18/12/21 22:49:12
"1","46","313.6462155144518","280.9402681055398",18/12/21 22:49:12
"1","46","313.1139691936639","279.4876689409301",18/12/21 22:49:12
"1","46","312.6499524297172","281.91101850001843",18/12/21 22:49:12
"1","46","312.0430743126183","280.8262857135656",18/12/21 22:49:12
"1","46","312.7144362279358","279.2700358834713",18/12/21 22:49:12
"1","46","312.7822287775511","279.04632300829405",18/12/21 22:49:12
"1","46","314.4036170128558","277.9786000492367",18/12/21 22:49:12
"1","46","314.4036170128558","277.9786000492367",18/12/21 22:49:12
"1","46","316.0560064338006","278.6385076784907",18/12/21 22:49:12
"1","46","316.11984941380587","278.49764185656886",18/12/21 22:49:12
"1","46","316.11984941380587","278.49764185656886",18/12/21 22:49:12
"1","46","315.1874145452196","278.96223027013747",18/12/21 22:49:12
"1","46","315.1874145452196","278.96223027013747",18/12/21 22:49:12
"1","46","313.4713003576808","279.68707110310385",18/12/21 22:49:12
"1","46","313.4713003576808","279.68707110310385",18/12/21 22:49:12
"1","46","314.7031561836537","279.42307305437527",18/12/21 22:49:12
"1","46","315.4825548636404","280.0111346505523",18/12/21 22:49:12
"1","46","315.3031758608798","281.7580758615168",18/12/21 22:49:12
"1","46","315.3031758608798","281.7580758615168",18/12/21 22:49:12
"1","46","315.24439123165615","277.8701658415059",18/12/21 22:49:12
"1","46","315.30697623665674","277.98723691228247",18/12/21 22:49:12
"1","46","315.30697623665674","277.98723691228247",18/12/21 22:49:12
"1","46","314.8862623487823","278.4641028917333",18/12/21 22:49:12
"1","46","314.8862623487823","278.4641028917333",18/12/21 22:49:12
"1","46","314.88545069002646","278.46526050407033",18/12/21 22:49:12
"1","46","314.7933328843064","279.33741053845796",18/12/21 22:49:12
"1","46","313.95594115991685","280.9407897550601",18/12/21 22:49:12
"1","46","313.95594115991685","280.9407897550601",18/12/21 22:49:12
"1","46","314.8793352321938","281.44938667190803",18/12/21 22:49:12
"1","46","316.09623098250614","281.4152524843838",18/12/21 22:49:12
"1","46","316.21984346467644","281.04702694913703",18/12/21 22:49:12
"1","46","315.7476751397461","280.64458810964004",18/12/21 22:49:12
"1","46","315.5383386811412","282.97791567000723",18/12/21 22:49:12
"1","46","315.79113270960613","282.2144207496258",18/12/21 22:49:12
"1","46","314.5548041886439","284.3178038128547",18/12/21 22:49:12
"1","46","314.5548041886439","284.3178038128547",18/12/21 22:49:12
"1","46","313.3836881958575","282.5489246431175",18/12/21 22:49:13
"1","46","312.3033049207622","284.38354730593693",18/12/21 22:49:13
"1","46","312.52596048936124","282.5993095326487",18/12/21 22:49:13
"1","46","312.4236864238106","282.25278329055396",18/12/21 22:49:13
"1","46","312.4236864238106","282.25278329055396",18/12/21 22:49:13
"1","46","313.55492612164113","281.31411385268365",18/12/21 22:49:13
"1","46","311.9912082328012","279.62849975186543",18/12/21 22:49:13
"1","46","312.302237653107","279.4545458932518",18/12/21 22:49:13
"1","46","314.24115073758435","281.31937364969434",18/12/21 22:49:13
"1","46","315.1721844231388","282.56616664318386",18/12/21 22:49:13
"1","46","314.39233414785934","284.10583421119827",18/12/21 22:49:13
"1","46","313.9588501610288","283.5251144560782",18/12/21 22:49:13
"1","46","311.8860978730354","282.9636467308952",18/12/21 22:49:13
"1","46","311.8860978730354","282.9636467308952",18/12/21 22:49:13
"1","46","312.8970082595826","282.4723811782945",18/12/21 22:49:13
"1","46","313.69589663514193","282.86867856003835",18/12/21 22:49:13
"1","46","313.69589663514193","282.86867856003835",18/12/21 22:49:13
"1","46","312.859654289088","281.96372620627966",18/12/21 22:49:13
"1","46","313.1284946937502","282.8285147717446",18/12/21 22:49:13
"1","46","313.7890321633232","282.542295151087",18/12/21 22:49:13
"1","46","315.4654802449459","282.9292114645864",18/12/21 22:49:13
"1","46","315.4654802449459","282.9292114645864",18/12/21 22:49:13
"1","46","316.0433751670302","284.4630942269748",18/12/21 22:49:13
"1","46","316.0433751670302","284.4630942269748",18/12/21 22:49:13
"1","46","315.7631356481482","284.0139383740945",18/12/21 22:49:13
"1","46","315.58372619632144","283.3822807097354",18/12/21 22:49:13
"1","46","315.58372619632144","283.3822807097354",18/12/21 22:49:13
"1","46","314.53378000556654","284.43532450464517",18/12/21 22:49:13
"1","46","314.04485233247766","283.63942246624543",18/12/21 22:49:13
"1","46","313.4864626373801","283.02775360827167",18/12/21 22:49:13
"1","46","313.01277679542164","283.5706965733335",18/12/21 22:49:13
"1","46","315.2702484081958","282.3041263322453",18/12/21 22:49:13
"1","46","315.15228705955167","283.6749398510893",18/12/21 22:49:13
"1","46","315.15228705955167","283.6749398510893",18/12/21 22:49:13
"1","46","315.74364274340223","281.68020220652664",18/12/21 22:49:13
"1","46","315.74364274340223","281.68020220652664",18/12/21 22:49:13
"1","46","314.64093377467736","281.0672202358483",18/12/21 22:49:13
"1","46","314.64093377467736","281.0672202358483",18/12/21 22:49:13
"1","46","314.661712627743","280.99995435160474",18/12/21 22:49:13
"1","46","314.64618177560646","280.6942080310647",18/12/21 22:49:13
"1","46","315.07879532318066","282.62555045281465",18/12/21 22:49:13
"1","46","314.9003268893681","282.2332354394693",18/12/21 22:49:13
"1","46","315.88499538681145","283.00111203970357",18/12/21 22:49:13
"1","46","315.85407358844935","280.91560143200894",18/12/21 22:49:13
"1","46","315.2968967306486","281.13094290574793",18/12/21 22:49:13
"1","46","316.38833145222145","279.5762961803535",18/12/21 22:49:13
"1","46","316.30775823572736","278.6403572507429",18/12/21 22:49:13
"1","46","315.34054940384533","277.8071355877555",18/12/21 22:49:13
"1","46","315.2934953720514","277.6929034531832",18/12/21 22:49:13
"1","46","315.2934953720514","277.6929034531832",18/12/21 22:49:13
"1","46","316.227139313816","279.54391273452154",18/12/21 22:49:14
"1","46","314.6492066883569","280.807034348357",18/12/21 22:49:14
"1","46","315.1281846482925","280.933089717303",18/12/21 22:49:14
"1","46","315.2615060863974","280.6814551290127",18/12/21 22:49:14
"1","46","313.5284329423022","280.8554788906195",18/12/21 22:49:14
"1","46","313.41678695120646","281.04684863286025",18/12/21 22:49:14
"1","46","314.5617184466281","278.9791074310951",18/12/21 22:49:14
"1","46","314.8378344264989","280.097705989879",18/12/21 22:49:14
"1","46","314.8378344264989","280.097705989879",18/12/21 22:49:14
"1","46","315.7196315046593","279.3262907056052",18/12/21 22:49:14
"1","46","316.01558478025675","278.4151222129794",18/12/21 22:49:14
"1","46","316.01558478025675","278.4151222129794",18/12/21 22:49:14
"1","46","315.72374132868913","277.8024680296262",18/12/21 22:49:14
"1","46","316.06500047996644","277.6252571486181",18/12/21 22:49:14
"1","46","316.06500047996644","277.6252571486181",18/12/21 22:49:14
"1","46","315.8458014212172","277.6068402525126",18/12/21 22:49:14
"1","46","315.75157471215584","279.1650902420151",18/12/21 22:49:14
"1","46","315.4534851509522","279.4004453029253",18/12/21 22:49:14
"1","46","315.44815823161895","280.120744019743",18/12/21 22:49:14
"1","46","315.9850790891121","280.154933834224",18/12/21 22:49:14
"1","46","315.0900772804664","279.93940859090145",18/12/21 22:49:14
"1","46","315.0900772804664","279.93940859090145",18/12/21 22:49:14
"1","46","313.0170995912139","279.46291039233836",18/12/21 22:49:14
"1","46","313.4889825515297","280.48592307673727",18/12/21 22:49:14
"1","46","313.37093596475034","282.46138709532846",18/12/21 22:49:14
"1","46","311.9727505356971","282.27698846322073",18/12/21 22:49:14
"1","46","313.00955505273436","282.8554554325559",18/12/21 22:49:14
"1","46","312.3060631281429","283.22839658838694",18/12/21 22:49:14
"1","46","312.47102735993184","283.5513023236887",18/12/21 22:49:14
"1","46","312.53266989146476","284.24299462852855",18/12/21 22:49:14
"1","46","314.8984222771318","284.24299462852855",18/12/21 22:49:14
"1","46","315.5415651268567","284.0045818363466",18/12/21 22:49:14
"1","46","315.37443167916393","284.0045818363466",18/12/21 22:49:14
"1","46","315.8096915422335","282.11726335532364",18/12/21 22:49:14
"1","46","315.0957349897358","281.03202307489937",18/12/21 22:49:14
"1","46","315.10296114291947","281.0561992459019",18/12/21 22:49:14
"1","46","314.9948152001425","283.3379323673485",18/12/21 22:49:14
"1","46","314.9948152001425","283.3379323673485",18/12/21 22:49:14
"1","46","314.3191752384676","282.4998699999222",18/12/21 22:49:14
"1","46","314.51457791719866","282.8595734839955",18/12/21 22:49:14
"1","46","313.5835486932375","282.87894844524675",18/12/21 22:49:14
"1","46","313.5835486932375","282.87894844524675",18/12/21 22:49:14
"1","46","313.602859822147","282.61431781092904",18/12/21 22:49:14
"1","46","313.602859822147","282.61431781092904",18/12/21 22:49:14
"1","46","313.9685005585669","282.96221364484603",18/12/21 22:49:14
"1","46","313.0117933452631","282.1988550725506",18/12/21 22:49:14
"1","46","313.8846358401521","281.8033286230397",18/12/21 22:49:14
"1","46","315.4162735280161","281.8033286230397",18/12/21 22:49:14
"1","46","314.9753258387839","280.27769815978996",18/12/21 22:49:14
"1","46","316.2483232314869","279.5840682719747",18/12/21 22:49:15
"1","46","315.9745153814598","279.5645054746509",18/12/21 22:49:15
"1","46","316.3391416491419","281.2095938003335",18/12/21 22:49:15
"1","46","316.3391416491419","281.2095938003335",18/12/21 22:49:15
"1","46","314.8642059466198","281.41052020480623",18/12/21 22:49:15
"1","46","314.1140879835759","281.48136472279555",18/12/21 22:49:15
"1","46","313.3489564542132","280.9973198409522",18/12/21 22:49:15
"1","46","313.3489564542132","280.9973198409522",18/12/21 22:49:15
"1","46","314.77979814542783","281.5928553781537",18/12/21 22:49:15
"1","46","313.51889320539766","281.5928553781537",18/12/21 22:49:15
"1","46","313.31865228074844","281.97674087625137",18/12/21 22:49:15
"1","46","315.0546979951467","283.0041090577061",18/12/21 22:49:15
"1","46","315.28053555530016","283.8038479118893",18/12/21 22:49:15
"1","46","316.4001586644039","283.573913478501",18/12/21 22:49:15
"1","46","314.91093671653385","284.8090153565202",18/12/21 22:49:15
"1","46","314.91093671653385","284.8090153565202",18/12/21 22:49:15
"1","46","315.5629136784606","284.3379097864615",18/12/21 22:49:15
"1","46","313.34905447483493","284.1168765523797",18/12/21 22:49:15
"1","46","313.34905447483493","284.1168765523797",18/12/21 22:49:15
"1","46","313.6683506365476","284.15030164616905",18/12/21 22:49:15
"1","46","314.3963321878757","284.64681596681044",18/12/21 22:49:15
"1","46","314.47390851302197","284.5656393024756",18/12/21 22:49:15
"1","46","314.1336798269785","282.465869728339",18/12/21 22:49:15
"1","46","314.1336798269785","284.6613144923686",18/12/21 22:49:15
"1","46","313.5156181939189","284.6613144923686",18/12/21 22:49:15
"1","46","314.02768396054796","283.9529835497231",18/12/21 22:49:15
"1","46","313.71327190502444","283.5594176134573",18/12/21 22:49:15
"1","46","313.3825170018271","281.69235120524473",18/12/21 22:49:15
"1","46","313.3825170018271","281.69235120524473",18/12/21 22:49:15
"1","46","313.1606657233448","281.9978694275047",18/12/21 22:49:15
"1","46","313.30036296403097","282.066917685573",18/12/21 22:49:15
"1","46","313.5130189582939","281.8198936200516",18/12/21 22:49:15
"1","46","313.5130189582939","281.8198936200516",18/12/21 22:49:15
"1","46","312.4756833988254","282.28718674650355",18/12/21 22:49:15
"1","46","312.4756833988254","282.28718674650355",18/12/21 22:49:15
"1","46","314.8818423782496","282.4319068150124",18/12/21 22:49:15
"1","46","314.0506694956377","283.34181456891156",18/12/21 22:49:15
"1","46","314.0506694956377","283.34181456891156",18/12/21 22:49:15
"1","46","313.5720358732753","281.75808877574894",18/12/21 22:49:15
"1","46","315.98951469502606","281.4577346440218",18/12/21 22:49:15
"1","46","315.98951469502606","281.4577346440218",18/12/21 22:49:15
"1","46","315.98951469502606","281.4577346440218",18/12/21 22:49:15
"1","46","315.5703886016469","284.9267254937848",18/12/21 22:49:15
"1","88","315.6728614649139","286.27487882545086",18/12/21 22:49:15
"1","88","315.6728614649139","286.27487882545086",18/12/21 22:49:15
"1","88","318.0680942426447","288.2352596815615",18/12/21 22:49:15
"1","88","318.0680942426447","288.2352596815615",18/12/21 22:49:15
"1","88","322.0699773113748","287.9832331893733",18/12/21 22:49:15
"1","88","322.0699773113748","287.9832331893733",18/12/21 22:49:15
"1","88","326.6284791849811","287.6961525283177",18/12/21 22:49:15
"1","88","326.6284791849811","287.6961525283177",18/12/21 22:49:16
"1","88","328.1964344457224","287.5974074481927",18/12/21 22:49:16
"1","26","332.91004561915946","287.2092624373014",18/12/21 22:49:16
"1","26","332.91004561915946","287.2092624373014",18/12/21 22:49:16
"1","26","334.4926932603489","286.94633557016186",18/12/21 22:49:16
"1","26","336.8336566177867","286.5574289395002",18/12/21 22:49:16
"1","26","338.30237476328597","286.01162885559637",18/12/21 22:49:16
"1","26","341.48509055241215","285.8568056074752",18/12/21 22:49:16
"1","26","341.48509055241215","285.8568056074752",18/12/21 22:49:16
"1","26","345.59853343820254","286.8518871010193",18/12/21 22:49:16
"1","26","345.59853343820254","286.8518871010193",18/12/21 22:49:16
"1","26","349.5875062925973","287.8168580938997",18/12/21 22:49:16
"1","26","349.5875062925973","287.8168580938997",18/12/21 22:49:16
"1","26","350.8577999091746","288.1241543671967",18/12/21 22:49:16
"1","54","352.0414097272328","289.23728758368907",18/12/21 22:49:16
"1","54","352.85684611529206","290.6248683651228",18/12/21 22:49:16
"1","54","354.1071992814317","292.752521789407",18/12/21 22:49:16
"1","54","354.91936664349123","294.2439945666402",18/12/21 22:49:16
"1","54","354.9487180333426","293.42610371936547",18/12/21 22:49:16
"1","54","355.5259809349193","294.20769148773263",18/12/21 22:49:16
"1","54","355.0870072304738","294.10515027608693",18/12/21 22:49:16
"1","54","355.0870072304738","294.10515027608693",18/12/21 22:49:16
"1","54","356.8350894101243","293.0124424051864",18/12/21 22:49:16
"1","54","356.8350894101243","293.0124424051864",18/12/21 22:49:16
"1","54","356.3508453849806","292.8833914858103",18/12/21 22:49:16
"1","54","354.8763639198416","292.0926168049403",18/12/21 22:49:16
"1","54","354.0243249577616","289.8350215102512",18/12/21 22:49:16
"1","54","354.0243249577616","289.8350215102512",18/12/21 22:49:16
"1","54","354.45250912718166","290.9150682672531",18/12/21 22:49:16
"1","54","354.5257316932626","290.79815380200097",18/12/21 22:49:16
"1","54","355.11735014935374","290.07287107732685",18/12/21 22:49:16
"1","54","355.58856591784024","291.23559260443466",18/12/21 22:49:16
"1","54","355.58856591784024","291.23559260443466",18/12/21 22:49:16
"1","54","353.6516027409476","291.69991390439947",18/12/21 22:49:16
"1","54","355.5158019340037","290.38133635575736",18/12/21 22:49:16
"1","54","355.5158019340037","290.38133635575736",18/12/21 22:49:16
"1","54","354.12103962518114","290.5570042675341",18/12/21 22:49:16
"1","54","353.6190451081477","291.1010198742077",18/12/21 22:49:16
"1","54","353.6190451081477","291.1010198742077",18/12/21 22:49:16
"1","54","354.73191195500453","289.91443512319637",18/12/21 22:49:16
"1","54","356.1938108319632","289.023129290127",18/12/21 22:49:16
"1","54","358.65282985297523","285.65904757016347",18/12/21 22:49:16
"1","54","358.65282985297523","285.65904757016347",18/12/21 22:49:16
"1","54","358.65970370835555","283.5507651396667",18/12/21 22:49:16
"1","54","360.81077217875367","284.1511983760585",18/12/21 22:49:16
"1","54","360.35555544980036","285.638249373691",18/12/21 22:49:16
"1","54","361.8662081001594","286.95592098375965",18/12/21 22:49:16
"1","54","361.8662081001594","286.95592098375965",18/12/21 22:49:16
"1","54","360.03020182184525","285.8122454828264",18/12/21 22:49:16
"1","54","360.03020182184525","285.8122454828264",18/12/21 22:49:16
"1","54","359.82863340382767","287.4843911196149",18/12/21 22:49:17
"1","54","359.65561858783593","287.52068871507777",18/12/21 22:49:17
"1","54","360.0947551364498","289.25260699273764",18/12/21 22:49:17
"1","54","360.0947551364498","289.25260699273764",18/12/21 22:49:17
"1","54","359.74646918323486","291.5579869522729",18/12/21 22:49:17
"1","54","360.8790498095778","292.2595484447448",18/12/21 22:49:17
"1","54","360.8790498095778","292.2595484447448",18/12/21 22:49:17
"1","54","362.1692320123623","292.02395395152763",18/12/21 22:49:17
"1","54","362.1692320123623","292.02395395152763",18/12/21 22:49:17
"1","54","362.3809878308694","292.72382123022896",18/12/21 22:49:17
"1","54","361.9266041201818","292.72382123022896",18/12/21 22:49:17
"1","54","361.8477461543042","293.2736940737673",18/12/21 22:49:17
"1","54","361.4455942005406","294.33928759758766",18/12/21 22:49:17
"1","54","361.5820820244964","294.31225735463283",18/12/21 22:49:17
"1","54","363.0528170794916","294.4922949858906",18/12/21 22:49:17
"1","54","362.555205940039","294.66102204007615",18/12/21 22:49:17
"1","54","362.555205940039","294.66102204007615",18/12/21 22:49:17
"1","54","361.487641916514","294.56363818013455",18/12/21 22:49:17
"1","54","363.158446777916","293.08343252112604",18/12/21 22:49:17
"1","54","363.0673413549282","294.4143716489186",18/12/21 22:49:17
"1","54","364.28980739058466","293.49771225566036",18/12/21 22:49:17
"1","54","364.28980739058466","294.68946598374174",18/12/21 22:49:17
"1","54","362.9019409217314","294.68946598374174",18/12/21 22:49:17
"1","54","364.37018357203914","296.201711228514",18/12/21 22:49:17
"1","54","365.1495525059177","293.75536713239705",18/12/21 22:49:17
"1","54","365.0917349680861","294.81638016015506",18/12/21 22:49:17
"1","54","365.0917349680861","294.81638016015506",18/12/21 22:49:17
"1","54","366.878770888592","292.44627272423253",18/12/21 22:49:17
"1","54","366.878770888592","292.44627272423253",18/12/21 22:49:17
"1","54","366.1351362793637","293.60601903961543",18/12/21 22:49:17
"1","54","366.1351362793637","293.60601903961543",18/12/21 22:49:17
"1","54","367.0071983774963","293.73794265804565",18/12/21 22:49:17
"1","54","367.18500663966256","293.4203591483994",18/12/21 22:49:17
"1","54","365.8582659637114","294.56489778467545",18/12/21 22:49:17
"1","54","363.8510289237598","294.39731008240295",18/12/21 22:49:17
"1","54","363.2055085232276","291.4485048821247",18/12/21 22:49:17
"1","54","363.2055085232276","291.4485048821247",18/12/21 22:49:17
"1","54","364.0000514221731","289.55749355718643",18/12/21 22:49:17
"1","54","364.0000514221731","289.55749355718643",18/12/21 22:49:17
"1","54","362.3314760523073","285.83803271716386",18/12/21 22:49:17
"1","54","362.8981749163401","285.996792625205",18/12/21 22:49:17
"1","54","363.0820535719102","286.12464689889526",18/12/21 22:49:17
"1","54","363.0820535719102","286.12464689889526",18/12/21 22:49:17
"1","54","362.77064708695167","285.96254131237106",18/12/21 22:49:17
"1","54","362.77064708695167","285.96254131237106",18/12/21 22:49:17
"1","54","363.9490881290684","287.67137631720465",18/12/21 22:49:17
"1","54","365.94669270453","287.37565927305843",18/12/21 22:49:17
"1","54","365.36188438033287","287.37565927305843",18/12/21 22:49:17
"1","54","365.07204933053225","286.71257439404883",18/12/21 22:49:17
"1","54","366.19778855182756","286.04335359593273",18/12/21 22:49:17
"1","54","367.97891951933605","286.7436503785252",18/12/21 22:49:18
"1","54","367.9259688671694","286.75622982672144",18/12/21 22:49:18
"1","54","367.9259688671694","286.75622982672144",18/12/21 22:49:18
"1","54","364.29259681694816","285.64107177686486",18/12/21 22:49:18
"1","54","364.29259681694816","285.64107177686486",18/12/21 22:49:18
"1","54","364.2797928986792","286.24055902980695",18/12/21 22:49:18
"1","54","364.2797928986792","286.24055902980695",18/12/21 22:49:18
"1","54","364.1361245994331","287.22147696625876",18/12/21 22:49:18
"1","54","365.2749152445519","287.045828355084",18/12/21 22:49:18
"1","54","366.94299706422953","287.0647313838433",18/12/21 22:49:18
"1","54","366.9932690799286","287.1580570301862",18/12/21 22:49:18
"1","54","366.9932690799286","287.1580570301862",18/12/21 22:49:18
"1","54","367.20896273691653","287.07756672175066",18/12/21 22:49:18
"1","54","367.25052086186884","287.04768596144197",18/12/21 22:49:18
"1","54","366.0094943927604","286.47455258407064",18/12/21 22:49:18
"1","54","366.0094943927604","286.47455258407064",18/12/21 22:49:18
"1","54","364.3868672834755","284.6740145205459",18/12/21 22:49:18
"1","54","363.13422825442376","285.10478573028286",18/12/21 22:49:18
"1","54","364.3588610697642","285.57600581746846",18/12/21 22:49:18
"1","54","364.3588610697642","285.57600581746846",18/12/21 22:49:18
"1","54","364.6587920255292","285.15965244651744",18/12/21 22:49:18
"1","54","363.6045947215536","283.56665715721135",18/12/21 22:49:18
"1","54","363.20770637736837","283.325776768275",18/12/21 22:49:18
"1","54","363.20770637736837","283.325776768275",18/12/21 22:49:18
"1","54","363.20770637736837","283.325776768275",18/12/21 22:49:18
"1","54","361.7510244226384","283.6505402740106",18/12/21 22:49:18
"1","54","361.7510244226384","283.6505402740106",18/12/21 22:49:18
"1","54","358.3803948689781","284.40201348806977",18/12/21 22:49:18
"1","54","356.12948786547184","284.9038474314161",18/12/21 22:49:18
"1","54","356.12948786547184","284.9038474314161",18/12/21 22:49:18
"1","54","354.73916066671984","285.21381731449196",18/12/21 22:49:18
"1","54","353.11397855223254","285.57614749867935",18/12/21 22:49:18
"1","54","351.48134277392074","286.20755815072533",18/12/21 22:49:18
"1","54","349.40195505301466","285.82427549221865",18/12/21 22:49:18
"1","26","347.83538637827775","285.5346345911568",18/12/21 22:49:18
"1","26","348.9308741216865","285.9870167017915",18/12/21 22:49:18
"1","26","348.6070585684478","287.74719958991466",18/12/21 22:49:18
"1","26","346.7352840767278","287.74719958991466",18/12/21 22:49:18
"1","26","348.1377796924208","287.64586562061623",18/12/21 22:49:18
"1","26","349.2913690514136","286.9486348417571",18/12/21 22:49:18
"1","26","349.43912939841744","286.9486348417571",18/12/21 22:49:18
"1","26","349.99503458057006","286.77376616892684",18/12/21 22:49:18
"1","26","350.63507962099715","287.97623072397136",18/12/21 22:49:18
"1","26","350.63507962099715","287.97623072397136",18/12/21 22:49:18
"1","26","349.0755627746292","287.1904636927539",18/12/21 22:49:18
"1","26","351.1758371766628","287.48062870734947",18/12/21 22:49:18
"1","26","351.1758371766628","287.48062870734947",18/12/21 22:49:18
"1","26","349.85696590027675","287.073164506298",18/12/21 22:49:18
"1","26","348.8408401274726","288.47207394466653",18/12/21 22:49:18
"1","26","348.62742214214296","286.88292588333445",18/12/21 22:49:18
"1","26","347.8042360052643","286.88292588333445",18/12/21 22:49:19
"1","26","346.1002608409663","288.0741772482963",18/12/21 22:49:19
"1","26","346.2553382187768","288.54186146159947",18/12/21 22:49:19
"1","26","346.2553382187768","288.54186146159947",18/12/21 22:49:19
"1","26","346.333183531743","288.49593153253954",18/12/21 22:49:19
"1","26","348.2665702797485","288.39454925416834",18/12/21 22:49:19
"1","26","347.07979510184595","288.3372154015915",18/12/21 22:49:19
"1","26","345.51423560203625","287.3896909122438",18/12/21 22:49:19
"1","26","345.51423560203625","287.3896909122438",18/12/21 22:49:19
"1","26","347.157247570031","285.86935450034565",18/12/21 22:49:19
"1","26","348.18765375837694","285.4748601269226",18/12/21 22:49:19
"1","26","348.2687243750658","286.810627234786",18/12/21 22:49:19
"1","26","347.28678932286914","286.76893348843726",18/12/21 22:49:19
"1","26","347.06573833575834","287.02601936168537",18/12/21 22:49:19
"1","26","347.06573833575834","287.02601936168537",18/12/21 22:49:19
"1","26","346.8177300607016","287.78669549971397",18/12/21 22:49:19
"1","26","346.8177300607016","287.78669549971397",18/12/21 22:49:19
"1","26","344.4247375964192","287.55519328152616",18/12/21 22:49:19
"1","26","344.32180802730454","287.63461639765956",18/12/21 22:49:19
"1","26","344.5579110707891","288.6247495077542",18/12/21 22:49:19
"1","26","344.82630516386996","288.6091436837405",18/12/21 22:49:19
"1","26","344.8937231768618","288.6912121056402",18/12/21 22:49:19
"1","26","344.60555230953037","287.49498301733365",18/12/21 22:49:19
"1","26","344.60555230953037","287.49498301733365",18/12/21 22:49:19
"1","26","344.683651614521","287.5452927226143",18/12/21 22:49:19
"1","26","342.9629986626106","285.6252237252619",18/12/21 22:49:19
"1","26","342.9629986626106","285.6252237252619",18/12/21 22:49:19
"1","26","342.91900719346785","285.52907580296494",18/12/21 22:49:19
"1","26","344.34430078478226","285.43392910118433",18/12/21 22:49:19
"1","26","344.64787936660167","285.3949677891922",18/12/21 22:49:19
"1","26","344.64787936660167","285.3949677891922",18/12/21 22:49:19
"1","26","344.20332223074354","285.6037579536713",18/12/21 22:49:19
"1","26","344.1899231463979","286.2136713055451",18/12/21 22:49:19
"1","26","344.1899231463979","286.2136713055451",18/12/21 22:49:19
"1","26","344.5486828189015","285.81911292687124",18/12/21 22:49:19
"1","26","345.69453788785853","285.8009751438059",18/12/21 22:49:19
"1","26","345.69453788785853","285.8009751438059",18/12/21 22:49:19
"1","26","346.5111927928657","285.6578456063166",18/12/21 22:49:19
"1","26","346.5111927928657","285.6578456063166",18/12/21 22:49:19
"1","26","347.37370113637166","285.6574500045005",18/12/21 22:49:19
"1","26","345.88585870410276","287.2544026944527",18/12/21 22:49:19
"1","26","346.1010402252814","287.54020276492275",18/12/21 22:49:19
"1","26","346.39096613532456","287.2100213339375",18/12/21 22:49:19
"1","26","346.3997633237454","287.218999306846",18/12/21 22:49:19
"1","26","346.56734050376065","285.9179189703093",18/12/21 22:49:19
"1","26","344.888204714241","285.6282288890824",18/12/21 22:49:19
"1","26","344.888204714241","285.6282288890824",18/12/21 22:49:19
"1","26","342.7916825349631","286.45572815534734",18/12/21 22:49:19
"1","26","343.4609239783284","288.2578040781839",18/12/21 22:49:19
"1","26","342.34168585600116","286.93522683495115",18/12/21 22:49:20
"1","26","343.91134396121237","286.1148380600236",18/12/21 22:49:20
"1","26","343.91134396121237","286.1148380600236",18/12/21 22:49:20
"1","26","345.771034567647","287.79088953171123",18/12/21 22:49:20
"1","26","345.771034567647","287.79088953171123",18/12/21 22:49:20
"1","26","345.342530921617","285.651423382019",18/12/21 22:49:20
"1","26","345.8848316384315","286.1846085033541",18/12/21 22:49:20
"1","26","345.8848316384315","286.1846085033541",18/12/21 22:49:20
"1","26","347.66158568892166","287.17242494090874",18/12/21 22:49:20
"1","26","347.66158568892166","287.17242494090874",18/12/21 22:49:20
"1","26","346.90095919609547","287.4710161179823",18/12/21 22:49:20
"1","26","345.88103259345394","287.4710161179823",18/12/21 22:49:20
"1","26","344.7382907384764","287.931824181818",18/12/21 22:49:20
"1","26","344.7382907384764","287.931824181818",18/12/21 22:49:20
"1","26","344.94999457369005","287.96431508335945",18/12/21 22:49:20
"1","26","345.64142787767935","287.96431508335945",18/12/21 22:49:20
"1","26","345.6618102091566","288.64099197573256",18/12/21 22:49:20
"1","26","345.98489626835243","288.65422509923627",18/12/21 22:49:20
"1","26","346.4450365080226","287.5574394235636",18/12/21 22:49:20
"1","26","345.8260305396995","285.560010395363",18/12/21 22:49:20
"1","26","346.928664633533","285.5901387902499",18/12/21 22:49:20
"1","26","348.20086790347233","286.85174621413466",18/12/21 22:49:20
"1","26","348.20086790347233","286.85174621413466",18/12/21 22:49:20
"1","26","346.65258075242474","285.3823836989245",18/12/21 22:49:20
"1","26","346.65258075242474","285.3823836989245",18/12/21 22:49:20
"1","26","346.6117935132175","285.3828977451952",18/12/21 22:49:20
"1","26","345.03144735084805","286.0976968148834",18/12/21 22:49:20
"1","26","345.7724946072288","286.90778292906674",18/12/21 22:49:20
"1","26","347.0211486559625","287.99768407314167",18/12/21 22:49:20
"1","26","347.0211486559625","287.99768407314167",18/12/21 22:49:20
"1","26","346.84924167061376","288.05068572054665",18/12/21 22:49:20
"1","26","348.27531571612167","286.3071064243882",18/12/21 22:49:20
"1","26","347.94610292037055","286.4808564910133",18/12/21 22:49:20
"1","26","349.9736076658378","285.60712233124093",18/12/21 22:49:20
"1","26","349.2655835513919","286.38988088410446",18/12/21 22:49:20
"1","26","349.2655835513919","286.38988088410446",18/12/21 22:49:20
"1","26","347.67876492630865","288.50904522778006",18/12/21 22:49:20
"1","26","347.67876492630865","288.50904522778006",18/12/21 22:49:20
"1","26","348.4000066912888","288.2143270541182",18/12/21 22:49:20
"1","26","348.3837798262009","288.22517913982307",18/12/21 22:49:20
"1","26","348.39257769408164","288.2281138904761",18/12/21 22:49:20
"1","26","348.39257769408164","288.2281138904761",18/12/21 22:49:20
"1","26","348.6642277976872","286.2615782006917",18/12/21 22:49:20
"1","26","349.36226799970956","286.1940406366331",18/12/21 22:49:20
"1","26","349.3242007928515","286.0388453131974",18/12/21 22:49:20
"1","26","348.1826641560376","286.2168828652302",18/12/21 22:49:20
"1","26","348.1826641560376","286.2168828652302",18/12/21 22:49:20
"1","26","345.91950482363586","286.46855243699133",18/12/21 22:49:20
"1","26","345.7083424991003","286.7171325338846",18/12/21 22:49:20
"1","26","346.0099635612485","286.7171325338846",18/12/21 22:49:20
"1","26","346.91527531920445","286.6641457121804",18/12/21 22:49:21
"1","26","348.69827127204655","286.8264895760521",18/12/21 22:49:21
"1","26","348.69827127204655","286.8264895760521",18/12/21 22:49:21
"1","26","347.5373696870223","285.7498022333923",18/12/21 22:49:21
"1","26","346.57238981221144","285.7498022333923",18/12/21 22:49:21
"1","26","346.48719413535446","285.8463496100965",18/12/21 22:49:21
"1","26","344.8483013999499","287.2581844015557",18/12/21 22:49:21
"1","26","343.6690498908546","287.3547249143013",18/12/21 22:49:21
"1","26","343.80468856851996","287.21879131043295",18/12/21 22:49:21
"1","26","344.0581991638107","287.1509939399287",18/12/21 22:49:21
"1","26","344.0581991638107","287.1509939399287",18/12/21 22:49:21
"1","26","346.5418875253956","287.18339710731686",18/12/21 22:49:21
"1","26","346.3581967004103","287.8062301545427",18/12/21 22:49:21
"1","26","344.26907447183","288.1322754565182",18/12/21 22:49:21
"1","26","344.69401922226183","286.98350211820554",18/12/21 22:49:21
"1","26","345.17135668677355","287.1812926649499",18/12/21 22:49:21
"1","26","345.9339371716454","286.71522613701234",18/12/21 22:49:21
"1","26","347.1008021123346","285.5728410956462",18/12/21 22:49:21
"1","26","347.84446905127453","286.3928137325078",18/12/21 22:49:21
"1","26","347.84446905127453","286.3928137325078",18/12/21 22:49:21
"1","26","349.60496212822216","286.3056523225043",18/12/21 22:49:21
"1","26","349.668889784015","286.3056523225043",18/12/21 22:49:21
"1","26","349.6157968097514","285.64213244578815",18/12/21 22:49:21
"1","26","347.93616835341606","286.89963919946644",18/12/21 22:49:21
"1","26","347.92415804410575","286.89930086780646",18/12/21 22:49:21
"1","26","346.35317005596283","285.94958940499134",18/12/21 22:49:21
"1","26","348.34620450818664","287.42267040291756",18/12/21 22:49:21
"1","26","348.34620450818664","287.42267040291756",18/12/21 22:49:21
"1","26","351.3087833557988","285.80075157621366",18/12/21 22:49:21
"1","26","351.4134071690624","285.6148475403821",18/12/21 22:49:21
"1","26","351.4868620345996","285.93983494848607",18/12/21 22:49:21
"1","26","351.4868620345996","285.93983494848607",18/12/21 22:49:21
"1","26","350.1601779477892","287.44098049056265",18/12/21 22:49:21
"1","26","351.39630204457416","287.73545062765544",18/12/21 22:49:21
"1","26","350.1772427048085","285.9999987733867",18/12/21 22:49:21
"1","26","350.1772427048085","285.9999987733867",18/12/21 22:49:21
"1","26","350.6224340635522","286.0436627412736",18/12/21 22:49:21
"1","26","351.0553311640849","286.2220626651329",18/12/21 22:49:21
"1","26","350.9567513613386","285.511420732099",18/12/21 22:49:21
"1","26","349.78588481669607","287.1946744624392",18/12/21 22:49:21
"1","26","349.8660424088907","287.4474617317027",18/12/21 22:49:21
"1","26","349.48508984320364","287.29140905499673",18/12/21 22:49:21
"1","26","348.11129247106425","286.8859894669288",18/12/21 22:49:21
"1","26","349.9959257688847","285.96021958759343",18/12/21 22:49:21
"1","26","349.9959257688847","285.96021958759343",18/12/21 22:49:21
"1","26","348.2937001618286","287.7470205242538",18/12/21 22:49:21
"1","26","348.3112068422224","287.5462349295039",18/12/21 22:49:21
"1","26","348.43529949585627","286.2080512797347",18/12/21 22:49:21
"1","26","347.03569180630603","287.70180261368296",18/12/21 22:49:21
"1","26","344.7817492843394","287.4591105734799",18/12/21 22:49:21
"1","26","344.32993397095373","287.13688944440446",18/12/21 22:49:22
"1","26","343.1129524183315","285.9066624040242",18/12/21 22:49:22
"1","26","346.10404365555735","286.1640614096534",18/12/21 22:49:22
"1","26","346.10404365555735","286.1640614096534",18/12/21 22:49:22
"1","26","346.17449968405975","285.70694433508805",18/12/21 22:49:22
"1","26","346.6575432831873","286.49764847010084",18/12/21 22:49:22
"1","26","347.9229368425251","286.9985062625834",18/12/21 22:49:22
"1","26","347.12032810239805","288.642796527279",18/12/21 22:49:22
"1","26","347.12032810239805","288.642796527279",18/12/21 22:49:22
"1","26","347.5268287858466","288.03150510523585",18/12/21 22:49:22
"1","26","346.28932215905803","287.09331706575625",18/12/21 22:49:22
"1","26","345.68689577822346","286.0471570942151",18/12/21 22:49:22
"1","26","347.9473396314071","285.8273076180277",18/12/21 22:49:22
"1","26","347.9473396314071","285.8273076180277",18/12/21 22:49:22
"1","26","348.3450425819649","286.1159211007847",18/12/21 22:49:22
"1","26","349.76863082625096","287.6622892857576",18/12/21 22:49:22
"1","26","350.5951061499803","287.722350078123",18/12/21 22:49:22
"1","26","350.5951061499803","287.722350078123",18/12/21 22:49:22
"1","26","349.2775869424058","288.5042285907663",18/12/21 22:49:22
"1","26","348.5865117259609","288.2765476471475",18/12/21 22:49:22
"1","26","346.14288685106425","287.8109780736919",18/12/21 22:49:22
"1","26","343.7445273478474","288.03763888816036",18/12/21 22:49:22
"1","26","343.8572333466405","286.29704280446146",18/12/21 22:49:22
"1","26","346.1851336188441","287.0515213206004",18/12/21 22:49:22
"1","26","346.1851336188441","287.0515213206004",18/12/21 22:49:22
"1","26","347.53917553717855","286.2002529395082",18/12/21 22:49:22
"1","26","348.05609596055996","286.02980285262225",18/12/21 22:49:22
"1","26","348.05609596055996","286.02980285262225",18/12/21 22:49:22
"1","26","347.0452141162753","287.16597920751883",18/12/21 22:49:22
"1","26","348.74296321500975","285.9802862663793",18/12/21 22:49:22
"1","26","348.74296321500975","285.9802862663793",18/12/21 22:49:22
"1","26","351.17105245027835","286.1254783331459",18/12/21 22:49:22
"1","26","351.17105245027835","286.1254783331459",18/12/21 22:49:22
"1","26","350.1104712227812","285.7323168026491",18/12/21 22:49:22
"1","26","350.3663562056827","287.82736792982803",18/12/21 22:49:22
"1","26","350.3663562056827","287.82736792982803",18/12/21 22:49:22
"1","26","350.3086677998227","287.32662958329456",18/12/21 22:49:22
"1","26","350.82562298773536","287.2322514525504",18/12/21 22:49:22
"1","26","351.05862539630783","287.44859925914955",18/12/21 22:49:22
"1","26","351.0955959733648","285.94700091736496",18/12/21 22:49:22
"1","26","351.19508501392477","285.94700091736496",18/12/21 22:49:22
"1","26","350.9624280821268","286.6467783236383",18/12/21 22:49:22
"1","26","351.19257155146124","286.70240244793695",18/12/21 22:49:22
"1","26","351.32607632445854","287.5803521876524",18/12/21 22:49:22
"1","26","349.64498883728265","286.8823964024286",18/12/21 22:49:22
"1","26","350.581975295644","286.7631799994543",18/12/21 22:49:22
"1","26","350.70347947959345","288.17176425574763",18/12/21 22:49:22
"1","26","350.12968186091166","288.49388936515487",18/12/21 22:49:22
"1","26","350.5110436212024","288.30862680571676",18/12/21 22:49:22
"1","26","350.74192990908836","288.4196833325082",18/12/21 22:49:22
"1","26","350.2971016231405","286.3840919669384",18/12/21 22:49:23
"1","26","349.0030870416651","287.48480151693025",18/12/21 22:49:23
"1","26","348.4365939415675","286.8460897013789",18/12/21 22:49:23
"1","26","348.4365939415675","286.8460897013789",18/12/21 22:49:23
"1","26","348.13810438938447","287.2623301926948",18/12/21 22:49:23
"1","26","348.85483523711036","285.9961473824625",18/12/21 22:49:23
"1","26","348.03245178155595","288.2191253798982",18/12/21 22:49:23
"1","26","348.03245178155595","288.2191253798982",18/12/21 22:49:23
"1","26","348.2752098694959","287.6679127432287",18/12/21 22:49:23
"1","26","348.2752098694959","287.6679127432287",18/12/21 22:49:23
"1","26","348.2530082248818","286.32342782735145",18/12/21 22:49:23
"1","26","349.0949852970513","285.8892018781088",18/12/21 22:49:23
"1","26","348.57988651664454","285.66396850603024",18/12/21 22:49:23
"1","26","347.8114939913625","287.69824677660137",18/12/21 22:49:23
"1","26","347.17947246892055","286.1779315687049",18/12/21 22:49:23
"1","26","345.18705912768695","286.95046466478504",18/12/21 22:49:23
"1","26","345.18705912768695","286.95046466478504",18/12/21 22:49:23
"1","26","345.85626376708143","285.8193907372568",18/12/21 22:49:23
"1","26","345.75523126470773","288.6272806147269",18/12/21 22:49:23
"1","26","346.1594960033718","287.1323269273112",18/12/21 22:49:23
"1","26","346.1594960033718","287.1323269273112",18/12/21 22:49:23
"1","26","345.8707750585824","285.9924226114399",18/12/21 22:49:23
"1","26","346.02719014455107","286.1079301108812",18/12/21 22:49:23
"1","26","345.9272270014647","287.91192026528364",18/12/21 22:49:23
"1","26","345.9272270014647","285.7468851765998",18/12/21 22:49:23
"1","26","345.4445291812614","287.3984251196032",18/12/21 22:49:23
"1","26","345.8169594752227","287.3984251196032",18/12/21 22:49:23
"1","26","345.9977400341347","286.6855202858071",18/12/21 22:49:23
"1","26","345.8503721520118","285.63004362663236",18/12/21 22:49:23
"1","26","348.0570898153599","287.3012402889641",18/12/21 22:49:23
"1","26","348.0570898153599","287.3012402889641",18/12/21 22:49:23
"1","26","348.12716961877607","286.92103401086956",18/12/21 22:49:23
"1","26","348.12716961877607","286.92103401086956",18/12/21 22:49:23
"1","26","349.67179075513474","288.40105143836195",18/12/21 22:49:23
"1","26","349.2295636577726","288.3566124152288",18/12/21 22:49:23
"1","26","349.2295636577726","287.9131757278793",18/12/21 22:49:23
"1","26","350.9500416359098","287.9131757278793",18/12/21 22:49:23
"1","26","351.0990769284054","287.98183291447856",18/12/21 22:49:23
"1","26","350.7065084319639","288.5266005391586",18/12/21 22:49:23
"1","26","349.84421785306523","285.85454521325147",18/12/21 22:49:23
"1","26","349.6815641645694","287.59827355717925",18/12/21 22:49:23
"1","26","349.6815641645694","287.59827355717925",18/12/21 22:49:23
"1","26","349.5810667732719","288.16062135786",18/12/21 22:49:23
"1","26","347.1451937432335","287.59072439500375",18/12/21 22:49:23
"1","26","348.3399217456051","288.1819097883413",18/12/21 22:49:23
"1","26","348.3399217456051","288.1819097883413",18/12/21 22:49:23
"1","26","348.4372300701213","288.32316407644646",18/12/21 22:49:23
"1","26","349.40906350127267","287.6330353085253",18/12/21 22:49:23
"1","26","349.6382618013664","287.41632174211435",18/12/21 22:49:23
"1","26","349.46677940953066","287.0621567701116",18/12/21 22:49:23
"1","26","349.46677940953066","287.0621567701116",18/12/21 22:49:24
"1","26","349.9633465296741","288.5200620639217",18/12/21 22:49:24
"1","26","350.12066794768583","288.2560511692168",18/12/21 22:49:24
"1","26","350.12066794768583","288.2560511692168",18/12/21 22:49:24
"1","26","350.55997012563483","287.87915153062175",18/12/21 22:49:24
"1","26","350.1818110796832","287.9921020026877",18/12/21 22:49:24
"1","26","350.1818110796832","287.9921020026877",18/12/21 22:49:24
"1","26","349.9305224368753","287.515610104899",18/12/21 22:49:24
"1","26","350.16647400979383","287.04203901979514",18/12/21 22:49:24
"1","26","350.16251456949965","287.04963296948165",18/12/21 22:49:24
"1","26","350.2627131513665","286.454995159524",18/12/21 22:49:24
"1","26","350.56402605417566","285.7092820401635",18/12/21 22:49:24
"1","26","350.2592846258142","286.1374342904195",18/12/21 22:49:24
"1","26","349.01643310100116","286.27697404132357",18/12/21 22:49:24
"1","26","349.9429690358025","286.29014719101303",18/12/21 22:49:24
"1","26","348.42084521402853","286.20083749128753",18/12/21 22:49:24
"1","26","348.45324767459806","286.7914549276325",18/12/21 22:49:24
"1","26","348.45324767459806","286.7914549276325",18/12/21 22:49:24
"1","26","348.45324767459806","286.7914549276325",18/12/21 22:49:24
"1","26","348.45324767459806","286.7914549276325",18/12/21 22:49:24
"1","26","346.9574863288307","286.8421332753574",18/12/21 22:49:24
"1","26","345.65676160507076","286.8862035276283",18/12/21 22:49:24
"1","26","344.17985044992184","286.9362432062784",18/12/21 22:49:24
"1","26","342.30283050383736","286.9998390932716",18/12/21 22:49:24
"1","88","340.90939426886194","286.9803290109164",18/12/21 22:49:24
"1","88","338.80395728344155","286.6995351016676",18/12/21 22:49:24
"1","88","337.54513174023623","286.5316504545437",18/12/21 22:49:24
"1","88","333.35456769628985","285.972771291688",18/12/21 22:49:24
"1","88","333.35456769628985","285.972771291688",18/12/21 22:49:24
"1","88","331.6580947103722","285.74165130770535",18/12/21 22:49:24
"1","88","329.57970222207547","285.43688863267715",18/12/21 22:49:24
"1","88","328.24356665326286","285.24096594124876",18/12/21 22:49:24
"1","78","329.51452474963247","283.50076448091113",18/12/21 22:49:24
"1","78","330.6676607463221","282.12350613700823",18/12/21 22:49:24
"1","78","330.4682723588035","282.98269325477344",18/12/21 22:49:24
"1","78","330.4682723588035","282.98269325477344",18/12/21 22:49:24
"1","78","330.44320340120333","282.18407187619897",18/12/21 22:49:24
"1","78","330.44320340120333","281.1919909694074",18/12/21 22:49:24
"1","78","330.42261132486044","281.1919909694074",18/12/21 22:49:24
"1","78","329.5979931296999","281.61743135671634",18/12/21 22:49:24
"1","78","329.4121775095617","282.1827076283286",18/12/21 22:49:24
"1","78","330.0387214139677","281.5962083965401",18/12/21 22:49:24
"1","78","330.2752148219276","281.3215640805327",18/12/21 22:49:24
"1","78","329.29101377647373","281.30342373876107",18/12/21 22:49:24
"1","78","329.29101377647373","281.30342373876107",18/12/21 22:49:24
"1","78","331.3002480218955","278.6734719593186",18/12/21 22:49:24
"1","78","331.3002480218955","278.6734719593186",18/12/21 22:49:24
"1","78","330.9998641815685","278.6050439594139",18/12/21 22:49:24
"1","78","330.13283126778276","278.71708127796916",18/12/21 22:49:24
"1","78","331.1172384999468","278.2493542180949",18/12/21 22:49:25
"1","78","331.0897149829981","277.9622039216571",18/12/21 22:49:25
"1","78","330.9449568236364","277.89927256903246",18/12/21 22:49:25
"1","78","330.443754635101","278.2689087201196",18/12/21 22:49:25
"1","78","330.4144143598046","280.7453624566217",18/12/21 22:49:25
"1","78","330.55230602216375","280.6142016832653",18/12/21 22:49:25
"1","78","329.8860558892857","280.54988412589717",18/12/21 22:49:25
"1","78","329.68740769678175","280.5482593445629",18/12/21 22:49:25
"1","78","330.29997896251325","283.58010462155084",18/12/21 22:49:25
"1","78","330.7921664206708","283.58010462155084",18/12/21 22:49:25
"1","78","330.83090870998944","282.8449499380627",18/12/21 22:49:25
"1","78","331.16862711045894","283.01950035881237",18/12/21 22:49:25
"1","78","330.5751247490611","282.71608618932777",18/12/21 22:49:25
"1","78","330.3987725037223","283.0310379557908",18/12/21 22:49:25
"1","78","327.93408423833375","283.25330414297736",18/12/21 22:49:25
"1","78","326.9786959989186","281.6297747442033",18/12/21 22:49:25
"1","78","327.2719072238809","282.72718170375066",18/12/21 22:49:25
"1","78","328.1679047379277","281.9771809123042",18/12/21 22:49:25
"1","78","328.1679047379277","281.9771809123042",18/12/21 22:49:25
"1","78","327.07200388476184","284.0355476089892",18/12/21 22:49:25
"1","78","327.6266440900649","283.1442595770638",18/12/21 22:49:25
"1","78","329.96434329462454","283.98595869764364",18/12/21 22:49:25
"1","78","329.75365474825674","283.92924960208325",18/12/21 22:49:25
"1","78","328.49268120041984","284.32034313624735",18/12/21 22:49:25
"1","78","327.45962865604906","284.73805782263713",18/12/21 22:49:25
"1","78","328.7558365376465","282.64859001174887",18/12/21 22:49:25
"1","78","329.3489012327274","284.56224484545",18/12/21 22:49:25
"1","78","331.1656004601176","284.4497193640471",18/12/21 22:49:25
"1","78","331.09802939630583","284.35691427581753",18/12/21 22:49:25
"1","78","331.320871781986","284.10441485029526",18/12/21 22:49:25
"1","78","330.88726572836873","283.43428928906405",18/12/21 22:49:25
"1","78","330.15026430798736","282.329784294179",18/12/21 22:49:25
"1","78","330.72509158779576","282.2664167159617",18/12/21 22:49:25
"1","78","331.66199884111745","282.3555658868939",18/12/21 22:49:25
"1","78","330.99837350357905","281.0530552891499",18/12/21 22:49:25
"1","78","331.2740585704337","281.51726361661537",18/12/21 22:49:25
"1","78","331.1586664541986","283.4681794855237",18/12/21 22:49:25
"1","78","330.02143682837243","284.13039835870836",18/12/21 22:49:25
"1","78","329.59994716878236","281.73355729528663",18/12/21 22:49:25
"1","78","329.60913134992666","281.7241746328088",18/12/21 22:49:25
"1","78","330.74707870666947","281.5235616178603",18/12/21 22:49:25
"1","78","329.22823781927264","282.64724078834564",18/12/21 22:49:25
"1","78","329.22823781927264","282.64724078834564",18/12/21 22:49:25
"1","78","330.22664099006676","282.32051901863696",18/12/21 22:49:25
"1","78","331.6440008867082","282.1174641015589",18/12/21 22:49:25
"1","78","331.38702720654817","282.994150527138",18/12/21 22:49:25
"1","78","330.7608225726745","284.6754619295597",18/12/21 22:49:25
"1","78","330.4935606713451","284.52993212612176",18/12/21 22:49:25
"1","78","330.63289982407275","284.7081528429851",18/12/21 22:49:25
"1","78","329.9709021222651","283.7613380845825",18/12/21 22:49:25
"1","78","330.07507210823405","283.8649778678188",18/12/21 22:49:26
"1","78","329.5048192373344","282.11910581298724",18/12/21 22:49:26
"1","78","329.5048192373344","282.11910581298724",18/12/21 22:49:26
"1","78","328.3202771653848","283.35394487090906",18/12/21 22:49:26
"1","78","328.30714263721416","283.33506210330205",18/12/21 22:49:26
"1","78","328.2959086449019","283.616297781336",18/12/21 22:49:26
"1","78","328.2407726187662","284.34182420122175",18/12/21 22:49:26
"1","78","328.2407726187662","284.34182420122175",18/12/21 22:49:26
"1","78","329.1803270552223","284.60299529745924",18/12/21 22:49:26
"1","78","329.1803270552223","284.60299529745924",18/12/21 22:49:26
"1","78","329.9245290832941","282.69702869533154",18/12/21 22:49:26
"1","78","331.34103271416745","281.04368078516785",18/12/21 22:49:26
"1","78","330.30352561916004","282.34457016700287",18/12/21 22:49:26
"1","78","330.30352561916004","282.34457016700287",18/12/21 22:49:26
"1","78","328.7671131041719","281.68381524586346",18/12/21 22:49:26
"1","78","329.99979092560426","281.2947504309737",18/12/21 22:49:26
"1","78","329.3383912867429","279.0520213052194",18/12/21 22:49:26
"1","78","330.7842099654257","278.43321803984975",18/12/21 22:49:26
"1","78","329.26713123020545","278.7982085285343",18/12/21 22:49:26
"1","78","327.15683647996224","280.0546640544249",18/12/21 22:49:26
"1","78","327.1754169163252","280.2110039577428",18/12/21 22:49:26
"1","78","327.1754169163252","280.2110039577428",18/12/21 22:49:26
