"floorId","partitionId","location_x","location_y","timeStamp"
"1","26","344.3490398264535","287.3283039746381",18/12/21 22:54:19
"1","26","342.46480300694486","287.8023734567331",18/12/21 22:54:19
"1","95","341.0566684098187","287.9165325783479",18/12/21 22:54:19
"1","95","339.56006041807575","286.86509840452715",18/12/21 22:54:19
"1","95","338.0271508463948","285.78816074420826",18/12/21 22:54:19
"1","95","336.9606670237337","285.0389080720593",18/12/21 22:54:19
"1","95","335.73393883266806","284.17707655091823",18/12/21 22:54:19
"1","95","334.0541369662722","282.9969404716503",18/12/21 22:54:19
"1","95","332.98327240866934","282.24461013691393",18/12/21 22:54:19
"1","95","331.4461223713606","281.1646933594858",18/12/21 22:54:19
"3","95","331.0252044361537","280.7980483128438",18/12/21 22:54:19
"3","95","332.89746054724327","281.86053510219443",18/12/21 22:54:19
"3","95","334.84585951926533","282.9662322105634",18/12/21 22:54:19
"3","95","336.3588102583351","283.82481676193896",18/12/21 22:54:19
"3","95","338.1940050461211","284.8662716175853",18/12/21 22:54:19
"3","95","339.458352615334","285.5837763336759",18/12/21 22:54:19
"3","93","341.1090501149032","286.5205308065914",18/12/21 22:54:19
"3","93","339.88177713686844","285.8240655535924",18/12/21 22:54:19
"3","93","338.3946911998258","284.9801590210521",18/12/21 22:54:19
"3","93","337.3040943887444","284.361256138365",18/12/21 22:54:19
"3","93","335.8111103733658","283.5140025048178",18/12/21 22:54:19
"3","93","334.02483582212","282.500309398618",18/12/21 22:54:19
"3","93","332.44261142429826","281.60241273238915",18/12/21 22:54:19
"3","93","331.1350081144995","280.86036081217196",18/12/21 22:54:19
"3","93","331.1350081144995","280.86036081217196",18/12/21 22:54:19
"2","93","331.35329000372985","281.05666021457387",18/12/21 22:54:19
"2","93","333.1823164335382","282.24986093229927",18/12/21 22:54:19
"2","93","334.7371541743253","283.2641893629979",18/12/21 22:54:19
"2","93","336.5249764063979","284.43050972650303",18/12/21 22:54:19
"2","93","337.63603779316503","285.15533208145746",18/12/21 22:54:19
"2","93","338.7109951345973","285.8566012651158",18/12/21 22:54:19
"2","93","340.1184158591216","286.774759358009",18/12/21 22:54:19
"2","93","341.2369244297203","287.50444002717256",18/12/21 22:54:19
"2","90","339.1812630254715","287.10217599352274",18/12/21 22:54:19
"2","90","337.1242667239104","286.6681138224506",18/12/21 22:54:19
"2","90","334.79927208175593","286.1774993175345",18/12/21 22:54:19
"2","90","332.6795352853352","285.73019780549123",18/12/21 22:54:19
"2","90","331.3536994420967","285.5966376663565",18/12/21 22:54:19
"2","90","329.0508858179869","285.6122741654109",18/12/21 22:54:19
"2","90","327.26154456647555","285.62442409908084",18/12/21 22:54:19
"2","90","325.71904434766117","285.6348979398469",18/12/21 22:54:19
"2","90","323.54541194677336","285.64965727626264",18/12/21 22:54:19
"2","90","322.1794632803562","285.65893230173896",18/12/21 22:54:19
"2","90","320.30699264032876","285.6716466981997",18/12/21 22:54:19
"2","90","317.9877251844588","285.6873949215908",18/12/21 22:54:20
"2","91","315.74779247543387","285.60650163959656",18/12/21 22:54:20
"2","91","313.72889737099734","285.454220229077",18/12/21 22:54:20
"2","91","312.2047786605537","285.33925885911003",18/12/21 22:54:20
"2","16","310.58375847732","285.0160770606289",18/12/21 22:54:20
"2","16","310.6286325328935","282.90576529386715",18/12/21 22:54:20
"2","16","310.67676713450055","280.64211840789994",18/12/21 22:54:20
"2","16","310.720362310047","278.5919490894874",18/12/21 22:54:20
"2","16","310.85841579804577","278.3839901660039",18/12/21 22:54:20
"2","16","309.3986631042052","278.6329286130708",18/12/21 22:54:20
"2","16","310.4712409254459","278.28540643456114",18/12/21 22:54:20
"2","16","309.571910351003","279.94051995644054",18/12/21 22:54:20
"2","16","309.5690077186909","279.9371909786768",18/12/21 22:54:20
"2","16","307.75123627150543","278.99400464771054",18/12/21 22:54:20
"2","16","308.1312042807198","280.48801965588063",18/12/21 22:54:20
"2","16","308.42476449376215","280.13756738198754",18/12/21 22:54:20
"2","16","307.0033482227091","279.422852205032",18/12/21 22:54:20
"2","16","307.39948763660635","279.563436953402",18/12/21 22:54:20
"2","16","307.16654639208514","279.5139720918399",18/12/21 22:54:20
"2","16","307.1159654525755","280.64905228023247",18/12/21 22:54:20
"2","16","308.994731684675","280.51520427901244",18/12/21 22:54:20
"2","16","308.62067714697116","280.30107858409343",18/12/21 22:54:20
"2","16","309.6613135549265","279.2365107403047",18/12/21 22:54:20
"2","16","309.1753975384762","279.7903496984064",18/12/21 22:54:20
"2","16","308.83751663569836","280.7213088564142",18/12/21 22:54:20
"2","16","308.93935459241425","280.97157049738956",18/12/21 22:54:20
"2","16","309.8858397275638","281.15541846868155",18/12/21 22:54:20
"2","16","307.58739877062527","281.42353952425174",18/12/21 22:54:20
"2","16","308.1934671658424","280.72900281552324",18/12/21 22:54:20
"2","16","307.9914401855202","280.9518453523278",18/12/21 22:54:20
"2","16","307.5755904917313","280.8638758124601",18/12/21 22:54:20
"2","16","308.82591731877176","281.04205427375854",18/12/21 22:54:20
"2","16","309.9243173039886","281.9276195757611",18/12/21 22:54:20
"2","16","309.9665550851911","281.9424704533791",18/12/21 22:54:20
"2","16","310.7155708986193","281.11157402426",18/12/21 22:54:20
"2","16","311.07375910303466","281.1885048607596",18/12/21 22:54:20
"2","16","310.0742712055124","280.6964672219172",18/12/21 22:54:20
"2","16","311.4062803190127","281.8252491485107",18/12/21 22:54:20
"2","16","311.3972874760792","281.7718655114473",18/12/21 22:54:20
"2","16","310.37715461339724","282.61765230034524",18/12/21 22:54:20
"2","16","310.20457678942677","284.5981784107152",18/12/21 22:54:20
"2","16","310.037081438932","284.4327623931863",18/12/21 22:54:20
"2","16","310.03887956914906","284.43539840184894",18/12/21 22:54:20
"2","16","311.4394741627768","284.8449965324977",18/12/21 22:54:20
"2","16","310.87847054754076","284.719810521359",18/12/21 22:54:20
"2","16","309.91944375686126","284.7546317959979",18/12/21 22:54:20
"2","16","308.11950806437727","284.4131395321083",18/12/21 22:54:20
"2","16","307.53552577132956","284.6960845939717",18/12/21 22:54:20
"2","16","307.1331506988018","282.4723207222837",18/12/21 22:54:20
"2","16","308.2922530215246","283.67620095964503",18/12/21 22:54:21
"2","16","308.3137371203171","281.6915695707269",18/12/21 22:54:21
"2","16","307.6835407216359","280.0519481074632",18/12/21 22:54:21
"2","16","308.9007751913378","277.97451921101685",18/12/21 22:54:21
"2","16","308.1650428726593","278.5803009101107",18/12/21 22:54:21
"2","16","307.6448356511787","279.5087677452701",18/12/21 22:54:21
"2","16","307.6204615936753","279.1095705047832",18/12/21 22:54:21
"2","16","307.8301450204399","279.3620995772314",18/12/21 22:54:21
"2","16","307.82796215494744","279.36273760881056",18/12/21 22:54:21
"2","16","307.6494467182986","279.7972879868078",18/12/21 22:54:21
"2","16","307.5504267232126","280.005842827071",18/12/21 22:54:21
"2","16","307.23345050768813","279.43346090962643",18/12/21 22:54:21
"2","16","306.88187501567756","279.23347242853725",18/12/21 22:54:21
"2","16","306.8810146465408","279.2328172349408",18/12/21 22:54:21
"2","16","307.53542568354004","278.46592468442236",18/12/21 22:54:21
"2","16","307.79914277853237","278.3211358623622",18/12/21 22:54:21
"2","16","307.4623002211828","279.4425475695182",18/12/21 22:54:21
"2","16","307.29654153063956","281.3127444332942",18/12/21 22:54:21
"2","16","308.46882637809915","281.4679539464621",18/12/21 22:54:21
"2","16","308.37533639899374","281.94625124140777",18/12/21 22:54:21
"2","16","308.98287956439367","284.19174003555617",18/12/21 22:54:21
"2","16","308.4722960449969","283.92447969889577",18/12/21 22:54:21
"2","16","310.1325585804768","283.61357260632997",18/12/21 22:54:21
"2","16","310.6653083936841","284.1822635032207",18/12/21 22:54:21
"2","16","311.27564154452796","283.9195985756253",18/12/21 22:54:21
"2","16","311.15780419360283","284.5018758651927",18/12/21 22:54:21
"2","16","310.0094654231517","283.5029132711679",18/12/21 22:54:21
"2","16","310.26171932465064","283.42077077471026",18/12/21 22:54:21
"2","16","308.3387891274617","282.4871097931522",18/12/21 22:54:21
"2","16","308.0933115136059","282.2336735659547",18/12/21 22:54:21
"2","16","307.19610127018063","280.07153759385466",18/12/21 22:54:21
"2","16","307.93339292159936","277.8630433100887",18/12/21 22:54:21
"2","16","309.2612368357582","278.68671714792384",18/12/21 22:54:21
"2","16","307.05334944070586","279.33184875579957",18/12/21 22:54:21
"2","16","307.2841295610143","278.8279036758653",18/12/21 22:54:21
"2","16","308.1506412120231","279.2861232918635",18/12/21 22:54:21
"2","16","308.81703235978136","278.7189410327536",18/12/21 22:54:21
"2","16","309.2357537376033","278.22261599926276",18/12/21 22:54:21
"2","16","311.3536501582309","277.6962859891087",18/12/21 22:54:21
"2","16","310.398992416896","278.11259540949663",18/12/21 22:54:21
"2","16","310.39417652194413","279.2999307442091",18/12/21 22:54:21
"2","16","310.71827271947626","279.7428537042317",18/12/21 22:54:21
"2","16","310.96682620388054","280.8443014785328",18/12/21 22:54:21
"2","16","309.47442562589873","280.3640307082383",18/12/21 22:54:21
"2","16","308.8887925707696","278.026200345573",18/12/21 22:54:21
"2","16","310.8901152838945","278.99036681613774",18/12/21 22:54:21
"2","16","310.3227935764624","278.94139980733934",18/12/21 22:54:21
"2","16","309.6370341447383","280.4228556764333",18/12/21 22:54:21
"2","16","308.9301889173741","280.42984432734414",18/12/21 22:54:21
"2","16","310.53792138880675","280.5967100164315",18/12/21 22:54:21
"2","16","310.56787703100997","281.4020218026705",18/12/21 22:54:22
"2","16","308.4918553175536","281.13568998244364",18/12/21 22:54:22
"2","16","308.62427279750244","281.0856374944393",18/12/21 22:54:22
"2","16","308.62427279750244","281.0856374944393",18/12/21 22:54:22
"2","16","308.62427279750244","281.0856374944393",18/12/21 22:54:22
"2","16","309.29257107259536","282.2270845954456",18/12/21 22:54:22
"2","16","310.2228677020582","283.81602239515576",18/12/21 22:54:22
"2","16","310.95950661298326","285.07419465251627",18/12/21 22:54:22
"2","90","312.1541095728082","285.7473182038651",18/12/21 22:54:22
"2","90","313.5892610883616","286.4326796190325",18/12/21 22:54:22
"2","90","315.47985137537114","287.3355373455959",18/12/21 22:54:22
"2","90","317.1081379945118","288.01902405725787",18/12/21 22:54:22
"2","90","318.712285039619","287.99666111745813",18/12/21 22:54:22
"2","90","320.74666706638027","287.96830039894866",18/12/21 22:54:22
"2","90","322.9804262215094","287.9371602228248",18/12/21 22:54:22
"2","90","325.3057202012872","287.9047439867665",18/12/21 22:54:22
"2","90","325.3057202012872","287.9047439867665",18/12/21 22:54:22
"2","90","326.56816455202056","287.8871446232281",18/12/21 22:54:22
"2","90","328.7347823017688","287.8569404455909",18/12/21 22:54:22
"2","90","330.4733440390046","287.8327036702987",18/12/21 22:54:22
"2","90","331.79317233844057","287.81430433409304",18/12/21 22:54:22
"2","93","333.6098196773558","287.8613266638358",18/12/21 22:54:22
"2","93","335.0689995274577","287.90759683213435",18/12/21 22:54:22
"2","93","336.92488208203173","287.9664463277167",18/12/21 22:54:22
"2","93","338.7463078566266","288.02420320883584",18/12/21 22:54:22
"2","93","340.92741440690264","288.0933654626535",18/12/21 22:54:22
"2","93","339.7802542498259","287.0301887465891",18/12/21 22:54:22
"2","93","338.026297450719","285.7959909926056",18/12/21 22:54:22
"2","93","336.9105634967051","285.0108882233764",18/12/21 22:54:22
"2","93","335.459996530983","283.9901752320368",18/12/21 22:54:22
"2","93","334.05695742438957","283.0029059247252",18/12/21 22:54:22
"2","93","332.5635360335684","281.952037780629",18/12/21 22:54:22
"2","93","330.8082166211577","280.7168812035547",18/12/21 22:54:22
"3","95","332.3446164438951","281.3935796925079",18/12/21 22:54:22
"3","95","334.2230957656252","282.3035634347918",18/12/21 22:54:22
"3","95","336.1882368494271","283.2555283656098",18/12/21 22:54:22
"3","95","337.4353171937526","283.8596461887503",18/12/21 22:54:22
"3","95","339.2967313163941","284.7613631092758",18/12/21 22:54:22
"3","95","341.14346242146206","285.65596719809486",18/12/21 22:54:22
"3","95","339.25779892948844","284.74250325879854",18/12/21 22:54:22
"3","95","338.06683009431566","284.16556729520437",18/12/21 22:54:22
"3","95","336.7569351929755","283.5310204835726",18/12/21 22:54:22
"3","95","335.2280226744125","282.7903758998541",18/12/21 22:54:22
"3","95","333.1928374266755","281.8044797728364",18/12/21 22:54:22
"3","95","331.93841579989663","281.19680564348437",18/12/21 22:54:22
"3","95","330.7089693648892","280.60123013997804",18/12/21 22:54:22
"1","88","330.70222209525764","281.5261117833349",18/12/21 22:54:22
"1","88","331.17234084457147","283.91158003606466",18/12/21 22:54:22
"1","88","331.6386942452284","286.277942223158",18/12/21 22:54:22
"1","88","332.0148348822454","288.18654839867264",18/12/21 22:54:22
"1","30","330.42454638599884","287.98250134495316",18/12/21 22:54:23
"1","30","329.13225611951736","287.77609491598156",18/12/21 22:54:23
"1","30","327.1147418942642","287.45385469067384",18/12/21 22:54:23
"1","30","324.81207944565034","287.0860701878628",18/12/21 22:54:23
"1","88","323.3784927282323","286.8570956899204",18/12/21 22:54:23
"1","88","324.2394051395407","285.5097672582504",18/12/21 22:54:23
"1","88","324.21880316083127","285.5719588547702",18/12/21 22:54:23
"1","88","325.1302735494604","286.24905598149917",18/12/21 22:54:23
"1","88","325.1466834280584","286.221986279081",18/12/21 22:54:23
"1","88","323.43744367363183","287.97869618773944",18/12/21 22:54:23
"1","88","324.2616716092689","285.92567512078705",18/12/21 22:54:23
"1","88","324.8422828158101","286.19622708148785",18/12/21 22:54:23
"1","88","325.96661243005894","286.17498796344375",18/12/21 22:54:23
"1","88","324.8085978022565","287.5372030844774",18/12/21 22:54:23
"1","88","323.02200699204735","287.1713604888302",18/12/21 22:54:23
"1","88","323.188537850999","285.5117144154871",18/12/21 22:54:23
"1","88","324.26514953268213","285.89683851954254",18/12/21 22:54:23
"1","88","324.02074679388426","285.7953597360339",18/12/21 22:54:23
"1","88","323.7849929804174","286.76154122073444",18/12/21 22:54:23
"1","88","322.91067586256605","287.5093950885182",18/12/21 22:54:23
"1","88","320.8770041954067","287.2261225455059",18/12/21 22:54:23
"1","88","320.8720392286718","287.2193453978807",18/12/21 22:54:23
"1","88","320.1095709762622","287.1080078988314",18/12/21 22:54:23
"1","88","320.31849063664214","287.4030817367464",18/12/21 22:54:23
"1","88","319.58075254450955","287.5192011890575",18/12/21 22:54:23
"1","88","319.60655987149767","287.59095325001437",18/12/21 22:54:23
"1","88","319.30272352745067","287.34365586848156",18/12/21 22:54:23
"1","88","319.9046055626076","287.19200869467966",18/12/21 22:54:23
"1","88","319.9209839031629","285.8817204598404",18/12/21 22:54:23
"1","88","319.96262762832373","285.8820398583567",18/12/21 22:54:23
"1","88","320.59694591907765","286.32841022238205",18/12/21 22:54:23
"1","88","320.8593443187276","286.98432872875964",18/12/21 22:54:23
"1","88","320.76400988374695","287.16054376104904",18/12/21 22:54:23
"1","88","320.4272463321374","285.90240621016187",18/12/21 22:54:23
"1","88","320.0607669974362","286.3097281492911",18/12/21 22:54:23
"1","88","320.39967377414484","286.4989410194811",18/12/21 22:54:23
"1","88","320.7730728479782","287.5338009247602",18/12/21 22:54:23
"1","88","320.1656470706435","288.36953056050004",18/12/21 22:54:23
"1","88","317.7173030147274","288.5795316892449",18/12/21 22:54:23
"1","88","317.7521520582971","288.5519683142368",18/12/21 22:54:23
"1","88","318.92262325168815","287.0143253789963",18/12/21 22:54:23
"1","88","320.63776374334464","287.1220373896826",18/12/21 22:54:23
"1","88","321.4106998668564","286.8792680892587",18/12/21 22:54:23
"1","88","321.0388879284678","285.8797430257806",18/12/21 22:54:23
"1","88","318.5477780622216","285.75604192737364",18/12/21 22:54:23
"1","88","318.8027606135908","286.0220962587535",18/12/21 22:54:23
"1","88","318.1424092773527","286.20267872065637",18/12/21 22:54:23
"1","88","319.1295222569391","287.0780253708365",18/12/21 22:54:23
"1","88","316.92733440166324","287.93316694369946",18/12/21 22:54:23
"1","88","317.7226124805828","288.3658120248515",18/12/21 22:54:23
"1","88","317.7226124805828","288.3658120248515",18/12/21 22:54:24
"1","88","319.3474141283076","287.7013482873297",18/12/21 22:54:24
"1","88","318.94672783680795","285.72206313910954",18/12/21 22:54:24
"1","88","319.5965859046208","286.69638674035974",18/12/21 22:54:24
"1","88","321.2226558051696","286.29587879320604",18/12/21 22:54:24
"1","88","321.29250809009653","286.52598193807324",18/12/21 22:54:24
"1","88","319.2990481409205","287.2961970281227",18/12/21 22:54:24
"1","88","320.44720662487407","286.30864107581294",18/12/21 22:54:24
"1","88","320.83912614837544","286.630512326312",18/12/21 22:54:24
"1","88","319.16841826045027","286.10857237793454",18/12/21 22:54:24
"1","88","321.05865261277654","285.7938305169928",18/12/21 22:54:24
"1","88","319.2665047876064","286.78852768386406",18/12/21 22:54:24
"1","88","318.06028910963727","285.51965278130893",18/12/21 22:54:24
"1","88","317.0511400043105","286.98101711180544",18/12/21 22:54:24
"1","88","317.0653728740529","288.00606078371226",18/12/21 22:54:24
"1","88","317.04284486305346","288.0133318538757",18/12/21 22:54:24
"1","88","317.6505470162609","287.86330683975666",18/12/21 22:54:24
"1","88","318.56875143543397","286.4441149081606",18/12/21 22:54:24
"1","88","317.4247903679255","285.4938894939134",18/12/21 22:54:24
"1","88","317.74577390531607","285.4564003642172",18/12/21 22:54:24
"1","88","318.9515606378466","286.0724995031422",18/12/21 22:54:24
"1","88","318.671969736817","285.8009488992175",18/12/21 22:54:24
"1","88","318.9400555076594","286.0519461750244",18/12/21 22:54:24
"1","88","319.0533889906079","286.15441352794977",18/12/21 22:54:24
"1","88","318.7173125969806","286.43732661661846",18/12/21 22:54:24
"1","88","318.3615702062876","286.17020519102664",18/12/21 22:54:24
"1","88","317.1388931431873","286.0732111248187",18/12/21 22:54:24
"1","88","317.13929813312825","286.444203783486",18/12/21 22:54:24
"1","88","318.03873505548916","285.7171643520035",18/12/21 22:54:24
"1","88","316.92785182278413","286.0554597492343",18/12/21 22:54:24
"1","88","317.11659854136894","285.96710367128634",18/12/21 22:54:24
"1","88","317.74432644034744","287.8370746232649",18/12/21 22:54:24
"1","88","320.2343594052518","287.63922127320996",18/12/21 22:54:24
"1","88","318.7350601651124","287.7355014015443",18/12/21 22:54:24
"1","88","318.5822753221956","287.63355053633165",18/12/21 22:54:24
"1","88","320.5435318003816","288.62345768654114",18/12/21 22:54:24
"1","88","321.29291399769687","287.8163012065007",18/12/21 22:54:24
"1","88","319.75637525020227","287.46639994515425",18/12/21 22:54:24
"1","88","320.383303866118","287.5808340123313",18/12/21 22:54:24
"1","88","318.34628738131846","287.30974046845495",18/12/21 22:54:24
"1","88","317.5578158907423","287.80294808700535",18/12/21 22:54:24
"1","88","318.5876030464512","287.80294808700535",18/12/21 22:54:24
"1","88","318.5876030464512","287.80294808700535",18/12/21 22:54:24
"1","88","318.5876030464512","287.80294808700535",18/12/21 22:54:24
"1","88","322.76224216490954","287.1134995115314",18/12/21 22:54:24
"1","88","322.76224216490954","287.1134995115314",18/12/21 22:54:24
"1","88","324.78749748558243","286.7790252357467",18/12/21 22:54:24
"1","88","326.9594050840282","286.420331093015",18/12/21 22:54:24
"1","88","328.24634235931217","286.2077912671782",18/12/21 22:54:24
"1","88","330.33890548762577","285.8622009953087",18/12/21 22:54:24
"1","26","332.71226530387406","285.67582929633426",18/12/21 22:54:25
"1","26","334.06485015592403","285.857067904423",18/12/21 22:54:25
"1","26","336.3563706248488","286.1641184968981",18/12/21 22:54:25
"1","26","338.35053972744","286.4313257126964",18/12/21 22:54:25
"1","26","339.8067331117065","286.6264472695233",18/12/21 22:54:25
"1","26","341.83152910304005","286.7952572612703",18/12/21 22:54:25
"1","26","344.3022889333221","286.64226999127857",18/12/21 22:54:25
"1","26","346.4072277593195","286.5119340352936",18/12/21 22:54:25
"1","26","346.4072277593195","286.37911412818016",18/12/21 22:54:25
"1","26","348.5522826464046","286.37911412818016",18/12/21 22:54:25
"1","26","350.01135062774375","286.2887699253719",18/12/21 22:54:25
"1","26","351.34591503125387","286.20613487431643",18/12/21 22:54:25
"1","54","352.7325784243719","287.59372776998885",18/12/21 22:54:25
"1","54","353.940219441294","288.9338959290453",18/12/21 22:54:25
"1","54","355.1872554317146","290.3177822861175",18/12/21 22:54:25
"1","54","357.78120291698224","293.1963908935665",18/12/21 22:54:25
"1","54","357.78120291698224","293.1963908935665",18/12/21 22:54:25
"1","54","358.622473062694","294.12998245484124",18/12/21 22:54:25
"1","54","360.0528907403105","295.71737489914483",18/12/21 22:54:25
"1","54","360.4500464055944","296.15811463002854",18/12/21 22:54:25
"1","54","361.58723634985836","294.9888603243268",18/12/21 22:54:25
"1","54","361.70599996767606","295.60927199227973",18/12/21 22:54:25
"1","54","363.2514768832497","295.86681059722275",18/12/21 22:54:25
"1","54","363.5433179010961","294.4591932543617",18/12/21 22:54:25
"1","54","365.8344551097444","293.6056285579672",18/12/21 22:54:25
"1","54","365.82726968150604","293.65062904369313",18/12/21 22:54:25
"1","54","365.9875363321757","294.1305469058019",18/12/21 22:54:25
"1","54","365.93249619308057","293.9230312312862",18/12/21 22:54:25
"1","54","365.4108738361757","294.39261760661805",18/12/21 22:54:25
"1","54","366.1395116396897","294.190923835129",18/12/21 22:54:25
"1","54","364.67043857195193","294.190923835129",18/12/21 22:54:25
"1","54","363.72541623668553","294.242316257234",18/12/21 22:54:25
"1","54","362.9423113381787","294.56850947297124",18/12/21 22:54:25
"1","54","362.50887730523397","293.951678900766",18/12/21 22:54:25
"1","54","361.9142007494238","291.7020466739348",18/12/21 22:54:25
"1","54","362.4566893253537","290.8871983277076",18/12/21 22:54:25
"1","54","364.43496268930284","290.4153362230811",18/12/21 22:54:25
"1","54","363.9131701059922","288.72906755204065",18/12/21 22:54:25
"1","54","364.27859046413084","287.32375788464265",18/12/21 22:54:25
"1","54","364.42806239838916","287.32375788464265",18/12/21 22:54:25
"1","54","364.70288501700776","287.6083250947865",18/12/21 22:54:25
"1","54","364.02811083824247","286.7051523540333",18/12/21 22:54:25
"1","54","364.1806948619497","286.38182226378126",18/12/21 22:54:25
"1","54","364.22211453636686","286.4339957203006",18/12/21 22:54:25
"1","54","364.6602604011316","286.01251101794855",18/12/21 22:54:25
"1","54","366.8327794901704","285.6845903823966",18/12/21 22:54:25
"1","54","366.1347110516772","284.0299186887741",18/12/21 22:54:25
"1","54","365.937612347377","286.2032352042083",18/12/21 22:54:25
"1","54","367.0898402405312","285.3887377616735",18/12/21 22:54:25
"1","54","368.2316573851716","287.0675520432444",18/12/21 22:54:26
"1","54","368.1427786542256","287.6091574985069",18/12/21 22:54:26
"1","54","367.1911224837885","287.6477867395329",18/12/21 22:54:26
"1","54","366.4601941497958","287.6056984463969",18/12/21 22:54:26
"1","54","366.2288594443222","286.21443338851344",18/12/21 22:54:26
"1","54","367.3349893627586","286.21443338851344",18/12/21 22:54:26
"1","54","368.6852049134708","286.811863857529",18/12/21 22:54:26
"1","54","368.6733398186755","288.6645981833886",18/12/21 22:54:26
"1","54","370.1355069749388","287.53378761770864",18/12/21 22:54:26
"1","54","370.6761093252982","286.5265633667518",18/12/21 22:54:26
"1","54","370.4713927101954","286.84861028577757",18/12/21 22:54:26
"1","54","369.761891781204","286.3516023476077",18/12/21 22:54:26
"1","54","369.2577940628914","287.9658532070421",18/12/21 22:54:26
"1","54","370.5528056520041","286.8324825950334",18/12/21 22:54:26
"1","54","369.6097603935114","287.42354847217666",18/12/21 22:54:26
"1","54","369.8736161758497","287.42354847217666",18/12/21 22:54:26
"1","54","369.2274404505603","287.1296965396543",18/12/21 22:54:26
"1","54","368.6559895251536","284.7804675191635",18/12/21 22:54:26
"1","54","368.67601793022635","284.53675237251",18/12/21 22:54:26
"1","54","369.212363936635","284.3055267815382",18/12/21 22:54:26
"1","54","369.57690833951153","284.39822270387197",18/12/21 22:54:26
"1","54","370.0952580265898","286.23863012385164",18/12/21 22:54:26
"1","54","369.3880000935531","285.7411338615583",18/12/21 22:54:26
"1","54","371.04239782463105","286.130651473554",18/12/21 22:54:26
"1","54","369.0385345888828","285.81136420161283",18/12/21 22:54:26
"1","54","368.54937172346735","285.34750701090945",18/12/21 22:54:26
"1","54","367.9706056970697","286.87408759442314",18/12/21 22:54:26
"1","54","368.04581226384056","286.88025051818045",18/12/21 22:54:26
"1","54","367.2590059529307","288.1545192509622",18/12/21 22:54:26
"1","54","367.2590059529307","288.1545192509622",18/12/21 22:54:26
"1","54","365.7533410145896","288.01202037581515",18/12/21 22:54:26
"1","54","364.7358239564811","287.62369269926546",18/12/21 22:54:26
"1","54","364.5639125921113","287.4410164363882",18/12/21 22:54:26
"1","54","364.5712875947759","287.22353076536075",18/12/21 22:54:26
"1","54","363.35433033670375","285.75156986967244",18/12/21 22:54:26
"1","54","365.56733701370405","286.6818779692787",18/12/21 22:54:26
"1","54","364.0313479350706","286.6818779692787",18/12/21 22:54:26
"1","54","364.3639141818036","286.38182003876295",18/12/21 22:54:26
"1","54","366.10582646131417","286.38182003876295",18/12/21 22:54:26
"1","54","365.6231911965314","286.17689430624495",18/12/21 22:54:26
"1","54","365.61446625022984","285.3505456780214",18/12/21 22:54:26
"1","54","365.20859044336436","285.39049264534896",18/12/21 22:54:26
"1","54","365.9533007226189","287.5129406211929",18/12/21 22:54:26
"1","54","364.69806947730893","289.4968902438279",18/12/21 22:54:26
"1","54","363.1959090826499","288.7598410999655",18/12/21 22:54:26
"1","54","362.2828109538456","288.7598410999655",18/12/21 22:54:26
"1","54","360.6494013128682","289.874424637977",18/12/21 22:54:26
"1","54","361.67312077995274","288.4195614767909",18/12/21 22:54:26
"1","54","360.81043654181644","288.04402464540703",18/12/21 22:54:26
"1","54","362.07452999842263","287.7265310648295",18/12/21 22:54:26
"1","54","361.2864980585627","288.04385885036487",18/12/21 22:54:27
"1","54","361.3142852588556","288.21743962073526",18/12/21 22:54:27
"1","54","360.5887764645086","287.122819034771",18/12/21 22:54:27
"1","54","362.0763476338941","288.74870480300046",18/12/21 22:54:27
"1","54","363.5163894260019","287.31680635571894",18/12/21 22:54:27
"1","54","364.2548563898041","285.9485477887902",18/12/21 22:54:27
"1","54","364.3302226840843","285.9043493415666",18/12/21 22:54:27
"1","54","364.8938452836724","284.3997747104696",18/12/21 22:54:27
"1","54","364.74115259154127","284.46380983661953",18/12/21 22:54:27
"1","54","364.26113093767225","285.973255128361",18/12/21 22:54:27
"1","54","362.43480028882465","285.6062030017694",18/12/21 22:54:27
"1","54","362.43480028882465","285.6062030017694",18/12/21 22:54:27
"1","54","363.0252866732922","287.6224929582377",18/12/21 22:54:27
"1","54","362.9974086872344","287.69654834832454",18/12/21 22:54:27
"1","54","363.62249326204636","288.0575286481308",18/12/21 22:54:27
"1","54","364.61381553174715","289.8571321264301",18/12/21 22:54:27
"1","54","363.41782062072167","289.4509281496049",18/12/21 22:54:27
"1","54","363.49735294068114","290.65640973351407",18/12/21 22:54:27
"1","54","363.6132054986389","290.195702658289",18/12/21 22:54:27
"1","54","362.8925736780646","290.16972559753174",18/12/21 22:54:27
"1","54","362.8925736780646","290.16972559753174",18/12/21 22:54:27
"1","54","363.99363851241884","290.9424768192746",18/12/21 22:54:27
"1","54","364.5675969418127","292.58500348192666",18/12/21 22:54:27
"1","54","364.5675969418127","292.58500348192666",18/12/21 22:54:27
"1","54","365.98148865361213","292.0222122317127",18/12/21 22:54:27
"1","54","365.3359203766514","290.01693626993796",18/12/21 22:54:27
"1","54","365.3359203766514","290.01693626993796",18/12/21 22:54:27
"1","54","364.2846637558389","290.07843780313823",18/12/21 22:54:27
"1","54","364.33837265114545","290.01239403717614",18/12/21 22:54:27
"1","54","364.33837265114545","290.01239403717614",18/12/21 22:54:27
"1","54","363.2005186162706","288.68428480893726",18/12/21 22:54:27
"1","54","364.23387688361174","288.262767712425",18/12/21 22:54:27
"1","54","363.86913936940425","288.5057732446745",18/12/21 22:54:27
"1","54","364.5676010386883","287.91587726107997",18/12/21 22:54:27
"1","54","363.1520556570228","288.0956495882957",18/12/21 22:54:27
"1","54","362.6599176141987","288.20904685441246",18/12/21 22:54:27
"1","54","359.95587815180295","288.35102829275263",18/12/21 22:54:27
"1","54","359.95587815180295","288.35102829275263",18/12/21 22:54:27
"1","54","358.6652443973448","286.99309316301344",18/12/21 22:54:27
"1","54","357.4049742419933","286.571255954356",18/12/21 22:54:27
"1","54","358.1543417805381","286.6477318127434",18/12/21 22:54:27
"1","54","359.25224085364965","286.6934714186266",18/12/21 22:54:27
"1","54","360.3197789915565","285.44703533534874",18/12/21 22:54:27
"1","54","360.1953812564726","286.41601442709776",18/12/21 22:54:27
"1","54","360.1953812564726","286.41601442709776",18/12/21 22:54:27
"1","54","360.750099810966","288.0262946787067",18/12/21 22:54:27
"1","54","359.86640203388487","287.1261911718569",18/12/21 22:54:27
"1","54","359.9056881440018","286.9491097842368",18/12/21 22:54:27
"1","54","358.25149662991953","288.64773027216745",18/12/21 22:54:27
"1","54","358.3701023961","288.64773027216745",18/12/21 22:54:27
"1","54","359.7487910990166","287.8862187733132",18/12/21 22:54:28
"1","54","359.7487910990166","287.8862187733132",18/12/21 22:54:28
"1","54","359.50886939060007","288.2074582424467",18/12/21 22:54:28
"1","54","360.0260490174563","288.20687605645867",18/12/21 22:54:28
"1","54","360.2168845781057","287.00792205532645",18/12/21 22:54:28
"1","54","359.62446685286113","286.85709604755965",18/12/21 22:54:28
"1","54","359.42925683384925","284.82879678356255",18/12/21 22:54:28
"1","54","359.1627928906074","284.1117849570594",18/12/21 22:54:28
"1","54","360.54543072635863","285.4442709931259",18/12/21 22:54:28
"1","54","360.60500693819876","285.4394938426523",18/12/21 22:54:28
"1","54","362.7958990835689","284.6995325876878",18/12/21 22:54:28
"1","54","362.1482181482535","285.35226377903444",18/12/21 22:54:28
"1","54","362.98335222556165","286.58892701070664",18/12/21 22:54:28
"1","54","363.32567920600764","286.000233596787",18/12/21 22:54:28
"1","54","363.77480407755326","285.51148051929795",18/12/21 22:54:28
"1","54","363.77480407755326","285.51148051929795",18/12/21 22:54:28
"1","54","362.03475033130155","285.81314811905895",18/12/21 22:54:28
"1","54","362.03475033130155","285.81314811905895",18/12/21 22:54:28
"1","54","357.75014957927203","286.55595576369814",18/12/21 22:54:28
"1","54","357.75014957927203","286.55595576369814",18/12/21 22:54:28
"1","54","354.57386647842026","287.1066178919568",18/12/21 22:54:28
"1","54","354.57386647842026","287.1066178919568",18/12/21 22:54:28
"1","54","353.0852280129576","287.3646984217998",18/12/21 22:54:28
"1","26","350.20916581473074","285.08746054700765",18/12/21 22:54:28
"1","77","350.1599696307363","285.08746054700765",18/12/21 22:54:28
"1","77","349.3222992250798","282.8874496136315",18/12/21 22:54:28
"1","77","350.0877311447978","284.1499650477873",18/12/21 22:54:28
"1","77","350.0877311447978","284.1499650477873",18/12/21 22:54:28
"1","77","351.05307901967353","283.475650505014",18/12/21 22:54:28
"1","77","351.05307901967353","283.475650505014",18/12/21 22:54:28
"1","77","350.3293892425893","283.0993237288098",18/12/21 22:54:28
"1","77","349.0436729439282","283.5964861369853",18/12/21 22:54:28
"1","77","349.1905228968392","283.690616340603",18/12/21 22:54:28
"1","77","347.413565547136","281.9767093953956",18/12/21 22:54:28
"1","77","347.2115038770661","282.838450276011",18/12/21 22:54:28
"1","77","347.2115038770661","282.838450276011",18/12/21 22:54:28
"1","77","347.85932083281466","281.95780928586356",18/12/21 22:54:28
"1","77","347.4942142470303","282.1030407633374",18/12/21 22:54:28
"1","77","347.62223058801675","281.0754496856488",18/12/21 22:54:28
"1","77","348.9424388987991","279.41975086031607",18/12/21 22:54:28
"1","77","348.5971965168534","279.2890311667071",18/12/21 22:54:28
"1","77","347.386302579358","278.33820384783996",18/12/21 22:54:28
"1","77","347.4142709553639","278.47140907361864",18/12/21 22:54:28
"1","77","349.3683713701191","279.75949625655943",18/12/21 22:54:28
"1","77","350.11715579302216","278.6366768763382",18/12/21 22:54:28
"1","77","350.11715579302216","278.6366768763382",18/12/21 22:54:28
"1","77","350.38998848307205","278.89738872231936",18/12/21 22:54:28
"1","77","351.14514144434617","280.6691100269958",18/12/21 22:54:28
"1","77","350.90964352446485","280.1331857871842",18/12/21 22:54:28
"1","77","350.0667698442077","281.26280413247827",18/12/21 22:54:28
"1","77","350.0667698442077","281.26280413247827",18/12/21 22:54:29
"1","77","349.9887717209941","280.37655844245785",18/12/21 22:54:29
"1","77","349.9887717209941","280.37655844245785",18/12/21 22:54:29
"1","77","349.8296303539553","280.6288729236028",18/12/21 22:54:29
"1","77","351.0033121446374","280.23528866844975",18/12/21 22:54:29
"1","77","351.0033121446374","280.23528866844975",18/12/21 22:54:29
"1","77","349.31881497069674","281.82201658616486",18/12/21 22:54:29
"1","77","348.9180952973403","283.94300535005937",18/12/21 22:54:29
"1","77","350.526856360971","284.01445394471074",18/12/21 22:54:29
"1","77","351.0859526931401","283.1794819905555",18/12/21 22:54:29
"1","77","351.0859526931401","283.1794819905555",18/12/21 22:54:29
"1","77","350.9402034833309","283.35124257692263",18/12/21 22:54:29
"1","77","348.65757826099707","283.8725116896976",18/12/21 22:54:29
"1","77","348.6945237909129","280.9916358074572",18/12/21 22:54:29
"1","77","348.11436368604126","280.9916358074572",18/12/21 22:54:29
"1","77","348.0248026732343","281.1256186614878",18/12/21 22:54:29
"1","77","347.37807377215523","280.28751610799765",18/12/21 22:54:29
"1","77","347.7213311572987","278.9826116089065",18/12/21 22:54:29
"1","77","348.1587616593989","277.79980818956324",18/12/21 22:54:29
"1","77","348.1587616593989","277.79980818956324",18/12/21 22:54:29
"1","77","347.84020175196264","278.0521244109127",18/12/21 22:54:29
"1","77","348.50015973870165","277.8344422722542",18/12/21 22:54:29
"1","77","349.1071077732904","278.0231188174786",18/12/21 22:54:29
"1","77","349.1071077732904","278.0231188174786",18/12/21 22:54:29
"1","77","349.6960432367618","278.3895918046708",18/12/21 22:54:29
"1","77","349.8163186642421","278.1445566977384",18/12/21 22:54:29
"1","77","349.68320010773067","278.2170215229732",18/12/21 22:54:29
"1","77","348.3557464105061","278.3306786103053",18/12/21 22:54:29
"1","77","348.3557464105061","278.3306786103053",18/12/21 22:54:29
"1","77","348.69084076056544","278.96894634325037",18/12/21 22:54:29
"1","77","347.25658970237777","282.58970627920326",18/12/21 22:54:29
"1","77","348.4428349890575","282.07713299888826",18/12/21 22:54:29
"1","77","348.8276816640842","281.7645795103204",18/12/21 22:54:29
"1","77","348.8276816640842","281.7645795103204",18/12/21 22:54:29
"1","77","347.74325001849127","281.95218649948185",18/12/21 22:54:29
"1","77","347.69964324943027","280.285501645261",18/12/21 22:54:29
"1","77","347.3742207333257","280.87501111345233",18/12/21 22:54:29
"1","77","346.8904770786505","280.4055728215106",18/12/21 22:54:29
"1","77","347.54431165423335","280.75592892852853",18/12/21 22:54:29
"1","77","347.54431165423335","280.75592892852853",18/12/21 22:54:29
"1","77","348.66340790292526","282.3271285638109",18/12/21 22:54:29
"1","77","348.8272158388194","280.6592361612548",18/12/21 22:54:29
"1","77","348.390014409332","281.44870981559404",18/12/21 22:54:29
"1","77","349.5754981321437","278.81200340401585",18/12/21 22:54:29
"1","77","351.3126713393113","279.4477231928266",18/12/21 22:54:29
"1","77","351.3126713393113","279.4477231928266",18/12/21 22:54:29
"1","77","351.4893901747989","280.95887640004435",18/12/21 22:54:29
"1","77","351.4893901747989","280.95887640004435",18/12/21 22:54:29
"1","77","350.61217270882673","282.5045364652136",18/12/21 22:54:29
"1","77","349.57398116058704","282.2198802921933",18/12/21 22:54:29
"1","77","348.08820171617907","283.90027795318565",18/12/21 22:54:30
"1","77","348.08820171617907","283.90027795318565",18/12/21 22:54:30
"1","77","349.4048786792486","282.1294041025173",18/12/21 22:54:30
"1","77","350.48531053059315","282.2850429600702",18/12/21 22:54:30
"1","77","350.565522812487","280.7497915758205",18/12/21 22:54:30
"1","77","349.1701541141413","282.6391438093237",18/12/21 22:54:30
"1","77","347.9478010930992","283.7122659015477",18/12/21 22:54:30
"1","77","347.9478010930992","283.7122659015477",18/12/21 22:54:30
"1","77","347.94309528464123","283.70923576665757",18/12/21 22:54:30
"1","77","349.2177025742871","283.4660194387672",18/12/21 22:54:30
"1","77","349.8333247598782","282.7238055362412",18/12/21 22:54:30
"1","77","350.7879393514149","280.4160109426988",18/12/21 22:54:30
"1","77","350.6062634863695","281.8022284773174",18/12/21 22:54:30
"1","77","350.6062634863695","281.8022284773174",18/12/21 22:54:30
"1","77","350.1604382401134","284.0819130429663",18/12/21 22:54:30
"1","77","349.8708375873565","284.124664148206",18/12/21 22:54:30
"1","77","349.8708375873565","284.124664148206",18/12/21 22:54:30
"1","77","351.32070630600026","282.44788841172664",18/12/21 22:54:30
"1","77","351.32070630600026","282.44788841172664",18/12/21 22:54:30
"1","77","350.48509148307994","283.32567071724617",18/12/21 22:54:30
"1","77","349.91696618646847","281.00379700588473",18/12/21 22:54:30
"1","77","348.38619621209585","282.30828622859076",18/12/21 22:54:30
"1","77","350.6372405922702","281.8801334806851",18/12/21 22:54:30
"1","77","350.76274353838863","282.13147692414503",18/12/21 22:54:30
"1","77","349.61846801992516","282.2217337238215",18/12/21 22:54:30
"1","77","350.50612928105903","282.9816815995768",18/12/21 22:54:30
"1","77","350.18083353686967","283.4407761378211",18/12/21 22:54:30
"1","77","349.9324008926188","284.4405683526599",18/12/21 22:54:30
"1","77","349.8637335146833","284.0775449544614",18/12/21 22:54:30
"1","77","350.60153762647957","282.2096898302722",18/12/21 22:54:30
"1","77","351.0475709577654","281.91451218217884",18/12/21 22:54:30
"1","77","351.0475709577654","281.6576366939254",18/12/21 22:54:30
"1","77","351.2102589251432","281.6576366939254",18/12/21 22:54:30
"1","77","350.87426911934193","283.60197798979004",18/12/21 22:54:30
"1","77","351.08995199829843","283.7531050784407",18/12/21 22:54:30
"1","77","350.55136989177345","283.28935885407907",18/12/21 22:54:30
"1","77","349.02917778974654","282.6795850950775",18/12/21 22:54:30
"1","77","348.6186404439736","282.97025499267994",18/12/21 22:54:30
"1","77","348.6186404439736","282.97025499267994",18/12/21 22:54:30
"1","77","348.631766992165","283.3239060582138",18/12/21 22:54:30
"1","77","350.2333754217877","283.5418783182346",18/12/21 22:54:30
"1","77","350.00056827718896","283.38386767895383",18/12/21 22:54:30
"1","77","349.510126718188","284.41894347308374",18/12/21 22:54:30
"1","77","349.6562686008647","283.55194694324007",18/12/21 22:54:30
"1","77","349.388090453371","283.8338645357049",18/12/21 22:54:30
"1","77","349.40189020475634","284.7472089814294",18/12/21 22:54:30
"1","77","349.40189020475634","284.7472089814294",18/12/21 22:54:30
"1","77","348.4862316023478","281.5126250739473",18/12/21 22:54:30
"1","77","347.8642270416277","280.57634214034954",18/12/21 22:54:30
"1","77","347.79264778174155","280.57634214034954",18/12/21 22:54:30
"1","77","348.2261644742974","279.9200890778866",18/12/21 22:54:31
"1","77","348.1330097922002","279.766875726295",18/12/21 22:54:31
"1","77","349.44730921094197","281.26755425133183",18/12/21 22:54:31
"1","77","349.44730921094197","281.26755425133183",18/12/21 22:54:31
"1","77","348.91994777897804","281.4534748195513",18/12/21 22:54:31
"1","77","348.5893754737525","281.5001964751356",18/12/21 22:54:31
"1","77","350.83618932023995","282.1909966339057",18/12/21 22:54:31
"1","77","349.9837364597557","283.17820548970593",18/12/21 22:54:31
"1","77","348.61486817780104","282.992692355954",18/12/21 22:54:31
"1","77","348.61486817780104","282.992692355954",18/12/21 22:54:31
"1","77","350.28554265173585","283.76845785418016",18/12/21 22:54:31
"1","77","350.7484802280189","283.13192982572156",18/12/21 22:54:31
"1","77","350.7484802280189","283.13192982572156",18/12/21 22:54:31
"1","77","351.09122462583656","282.7565755582647",18/12/21 22:54:31
"1","77","351.4678292373598","282.3212725335203",18/12/21 22:54:31
"1","77","351.4678292373598","282.3212725335203",18/12/21 22:54:31
"1","77","351.28190840211624","281.3801132204908",18/12/21 22:54:31
"1","77","351.28190840211624","281.3801132204908",18/12/21 22:54:31
"1","77","351.0494634661503","281.3725595902328",18/12/21 22:54:31
"1","77","350.4903480989456","281.29647303829506",18/12/21 22:54:31
"1","77","350.4903480989456","281.29647303829506",18/12/21 22:54:31
"1","77","349.8471361147945","280.3703428475445",18/12/21 22:54:31
"1","77","349.8471361147945","280.3703428475445",18/12/21 22:54:31
"1","77","349.08127030178946","281.3577854724175",18/12/21 22:54:31
"1","77","348.9489404089266","281.0490279258978",18/12/21 22:54:31
"1","77","348.60361955713745","282.2374577955214",18/12/21 22:54:31
"1","77","348.6256715909422","282.2568981128039",18/12/21 22:54:31
"1","77","348.6502591120235","280.98941241672793",18/12/21 22:54:31
"1","77","347.57542686444094","284.005655061233",18/12/21 22:54:31
"1","77","347.57542686444094","284.005655061233",18/12/21 22:54:31
"1","77","348.3421093050917","284.17764524975206",18/12/21 22:54:31
"1","77","348.40812398764535","284.83723890540944",18/12/21 22:54:31
"1","77","347.64579963675556","284.8467670767412",18/12/21 22:54:31
"1","77","347.52555663992064","284.796999393645",18/12/21 22:54:31
"1","77","347.54343722185564","284.475328985046",18/12/21 22:54:31
"1","77","347.54343722185564","284.475328985046",18/12/21 22:54:31
"1","77","348.7872147128521","281.0136975795484",18/12/21 22:54:31
"1","77","348.7872147128521","281.0136975795484",18/12/21 22:54:31
"1","77","350.2161390909446","280.7202579132486",18/12/21 22:54:31
"1","77","350.2161390909446","280.7202579132486",18/12/21 22:54:31
"1","77","351.1127210056677","279.58368589521274",18/12/21 22:54:31
"1","77","351.1127210056677","279.58368589521274",18/12/21 22:54:31
"1","77","347.7910187108912","280.5988834519202",18/12/21 22:54:31
"1","77","349.04988301923333","279.67325865994906",18/12/21 22:54:31
"1","77","349.04988301923333","279.67325865994906",18/12/21 22:54:31
"1","77","348.99914246160216","281.5085968441617",18/12/21 22:54:31
"1","77","350.13473253256007","283.3838926622967",18/12/21 22:54:31
"1","77","350.70881407156327","281.36875535385093",18/12/21 22:54:31
"1","77","350.1705332559672","282.0923028047336",18/12/21 22:54:31
"1","77","350.1705332559672","282.0923028047336",18/12/21 22:54:32
"1","77","350.2825596936888","282.11388441440016",18/12/21 22:54:32
"1","77","350.2825596936888","282.11388441440016",18/12/21 22:54:32
"1","77","350.3591858681418","283.9248092722592",18/12/21 22:54:32
"1","77","350.3591858681418","283.9248092722592",18/12/21 22:54:32
"1","77","348.57688297901495","284.1730803341936",18/12/21 22:54:32
"1","77","348.57688297901495","284.1730803341936",18/12/21 22:54:32
"1","77","350.08303404432263","282.86092743133935",18/12/21 22:54:32
"1","77","349.48080274605593","283.43608138666485",18/12/21 22:54:32
"1","77","349.48080274605593","283.43608138666485",18/12/21 22:54:32
"1","77","349.4333691929214","283.2031156660149",18/12/21 22:54:32
"1","77","349.2065201253922","284.21129603535553",18/12/21 22:54:32
"1","77","349.2065201253922","284.21129603535553",18/12/21 22:54:32
"1","77","350.1800497849099","282.28896969410954",18/12/21 22:54:32
"1","77","350.57899146890037","282.16235560656565",18/12/21 22:54:32
"1","77","350.57081985692304","282.17555563953965",18/12/21 22:54:32
"1","77","351.4027715588616","279.82013708843056",18/12/21 22:54:32
"1","77","351.40539608138306","278.0036467485997",18/12/21 22:54:32
"1","77","351.40539608138306","278.0036467485997",18/12/21 22:54:32
"1","77","351.371617113211","278.86747427494436",18/12/21 22:54:32
"1","77","349.0682952469091","278.5521731353718",18/12/21 22:54:32
"1","77","349.0682952469091","279.0015555779927",18/12/21 22:54:32
"1","77","349.16897564253395","279.0015555779927",18/12/21 22:54:32
"1","77","348.75408261853937","279.2126314506999",18/12/21 22:54:32
"1","77","351.2997534520558","279.90559560596705",18/12/21 22:54:32
"1","77","351.2997534520558","279.90559560596705",18/12/21 22:54:32
"1","77","351.3003445878308","279.0552196865694",18/12/21 22:54:32
"1","77","351.3003445878308","279.0552196865694",18/12/21 22:54:32
"1","77","351.0637857571627","278.32726677624754",18/12/21 22:54:32
"1","77","349.8164071055722","280.16095544711123",18/12/21 22:54:32
"1","77","349.8164071055722","280.16095544711123",18/12/21 22:54:32
"1","77","348.9662324884254","283.1689601588024",18/12/21 22:54:32
"1","77","348.9662324884254","283.1689601588024",18/12/21 22:54:32
"1","77","347.61317948715197","281.06967947462823",18/12/21 22:54:32
"1","77","347.61317948715197","281.06967947462823",18/12/21 22:54:32
"1","77","349.19227717383416","280.5230039966622",18/12/21 22:54:32
"1","77","349.19227717383416","280.5230039966622",18/12/21 22:54:32
"1","77","349.89228528293063","282.1063276097346",18/12/21 22:54:32
"1","77","349.9116346428616","283.9859761230213",18/12/21 22:54:32
"1","77","349.9116346428616","283.9859761230213",18/12/21 22:54:32
"1","77","348.94247124713814","281.72279128997934",18/12/21 22:54:32
"1","77","349.81976984915747","282.6024954822342",18/12/21 22:54:32
"1","77","350.13422372411645","282.87986427085934",18/12/21 22:54:32
"1","77","350.8991740107711","281.0113464916962",18/12/21 22:54:32
"1","77","350.6914721508967","283.3961497426181",18/12/21 22:54:32
"1","77","350.6944674454714","283.4059039811276",18/12/21 22:54:32
"1","77","350.6944674454714","283.4059039811276",18/12/21 22:54:32
"1","77","350.73158654090025","282.6040548434367",18/12/21 22:54:32
"1","77","350.18529171981186","281.5245662915602",18/12/21 22:54:32
"1","77","350.18529171981186","281.5245662915602",18/12/21 22:54:32
"1","77","349.2335828710819","279.2601920758923",18/12/21 22:54:33
"1","77","351.0954994884123","278.75521719041683",18/12/21 22:54:33
"1","77","351.4061359404941","278.8146197696967",18/12/21 22:54:33
"1","77","350.2296006798382","279.10643445572776",18/12/21 22:54:33
"1","77","350.2296006798382","279.10643445572776",18/12/21 22:54:33
"1","77","350.84885898052926","279.5735480786535",18/12/21 22:54:33
"1","77","351.0575972564523","280.26840405402845",18/12/21 22:54:33
"1","77","349.3880868083581","279.9882386270126",18/12/21 22:54:33
"1","77","349.3880868083581","279.9882386270126",18/12/21 22:54:33
"1","77","349.42123332537534","278.48723808752936",18/12/21 22:54:33
"1","77","349.9557346823487","278.75717282230545",18/12/21 22:54:33
"1","77","349.10021641173233","278.75717282230545",18/12/21 22:54:33
"1","77","347.41499080039574","279.9214768318423",18/12/21 22:54:33
"1","77","347.41499080039574","279.9214768318423",18/12/21 22:54:33
"1","77","350.84308642325834","280.892105004383",18/12/21 22:54:33
"1","77","350.3886127809478","280.0292892165205",18/12/21 22:54:33
"1","77","350.3886127809478","280.0292892165205",18/12/21 22:54:33
"1","77","351.07018438745786","278.87698023571704",18/12/21 22:54:33
"1","77","350.54924417757456","278.7789798832402",18/12/21 22:54:33
"1","77","350.54924417757456","278.7789798832402",18/12/21 22:54:33
"1","77","350.54924417757456","278.7789798832402",18/12/21 22:54:33
"1","77","350.36311717785617","280.53361614499494",18/12/21 22:54:33
"1","77","350.2082880471824","281.99320453070555",18/12/21 22:54:33
"1","77","349.97263028398675","284.21477183309935",18/12/21 22:54:33
"1","26","348.81524409108516","285.21666666666664",18/12/21 22:54:33
"1","26","348.81524409108516","285.21666666666664",18/12/21 22:54:33
"1","26","346.98669429493185","285.21666666666664",18/12/21 22:54:33
"1","42","344.53277478235964","283.0297079044276",18/12/21 22:54:33
"1","42","344.53277478235964","283.0297079044276",18/12/21 22:54:33
"1","42","344.1646440043111","280.88197588783686",18/12/21 22:54:33
"1","42","344.1646440043111","280.88197588783686",18/12/21 22:54:33
"1","42","344.2678810046695","280.2348692591154",18/12/21 22:54:33
"1","42","344.2678810046695","280.2348692591154",18/12/21 22:54:33
"1","42","345.1864035828972","281.6121342628303",18/12/21 22:54:33
"1","42","345.29119267320954","282.5337135261672",18/12/21 22:54:33
"1","42","345.7513617489914","280.68082618437506",18/12/21 22:54:33
"1","42","343.9397106992964","281.0413201872259",18/12/21 22:54:33
"1","42","343.8326067058353","281.09964268959175",18/12/21 22:54:33
"1","42","344.7606585365042","281.52194119740676",18/12/21 22:54:33
"1","42","342.86782969574386","280.2335507415357",18/12/21 22:54:33
"1","42","342.31716199137935","280.6055354934856",18/12/21 22:54:33
"1","42","342.7766976240828","279.5204459234902",18/12/21 22:54:33
"1","42","343.91047603143073","281.82713430457704",18/12/21 22:54:33
"1","42","343.91047603143073","281.82713430457704",18/12/21 22:54:33
"1","42","341.8738327139853","282.8493252567759",18/12/21 22:54:33
"1","42","341.8738327139853","282.8493252567759",18/12/21 22:54:33
"1","42","342.6324205702875","284.13693193025887",18/12/21 22:54:33
"1","42","344.39977544483224","282.6279601822449",18/12/21 22:54:33
"1","42","344.39977544483224","282.6279601822449",18/12/21 22:54:33
"1","42","344.97302011992775","282.79427056640213",18/12/21 22:54:33
"1","42","344.2339441017781","282.7436095125275",18/12/21 22:54:34
"1","42","344.7388476041918","283.27886468857093",18/12/21 22:54:34
"1","42","342.0157562370344","283.8568914637642",18/12/21 22:54:34
"1","42","342.0157562370344","283.8568914637642",18/12/21 22:54:34
"1","42","343.88735872305836","284.66724496369056",18/12/21 22:54:34
"1","42","342.4864729069797","284.66724496369056",18/12/21 22:54:34
"1","42","343.773207143527","284.1596651693165",18/12/21 22:54:34
"1","42","343.773207143527","284.1596651693165",18/12/21 22:54:34
"1","42","345.0291820044103","283.9715961210995",18/12/21 22:54:34
"1","42","345.0291820044103","283.9715961210995",18/12/21 22:54:34
"1","42","343.83592939211957","282.9998137721991",18/12/21 22:54:34
"1","42","343.52352581015845","281.5333155707225",18/12/21 22:54:34
"1","42","343.52352581015845","281.5333155707225",18/12/21 22:54:34
"1","42","344.17458882686566","281.86330442662387",18/12/21 22:54:34
"1","42","345.11821289227464","283.41954745300137",18/12/21 22:54:34
"1","42","345.3669028463141","283.41954745300137",18/12/21 22:54:34
"1","42","344.5110118964823","284.7934036294868",18/12/21 22:54:34
"1","42","345.4191060546589","282.62990547320334",18/12/21 22:54:34
"1","42","345.4191060546589","282.62990547320334",18/12/21 22:54:34
"1","42","346.1995995503553","283.21785568599313",18/12/21 22:54:34
"1","42","346.1995995503553","283.21785568599313",18/12/21 22:54:34
"1","42","346.12693827323625","282.24496207894157",18/12/21 22:54:34
"1","42","346.0589685814176","282.24496207894157",18/12/21 22:54:34
"1","42","346.0595778200803","280.5981742787007",18/12/21 22:54:34
"1","42","346.0595778200803","280.5981742787007",18/12/21 22:54:34
"1","42","345.8589331772077","282.0129907954295",18/12/21 22:54:34
"1","42","345.62228691731895","280.56474609304445",18/12/21 22:54:34
"1","42","345.62228691731895","280.56474609304445",18/12/21 22:54:34
"1","42","343.23137097381624","279.8897652248632",18/12/21 22:54:34
"1","42","342.2674506316086","279.62338636398437",18/12/21 22:54:34
"1","42","343.2851274459184","279.43814397385063",18/12/21 22:54:34
"1","42","343.3715276879753","278.06733678960023",18/12/21 22:54:34
"1","42","343.3715276879753","278.06733678960023",18/12/21 22:54:34
"1","42","344.05555283517464","279.3660334706896",18/12/21 22:54:34
"1","42","345.75468875242643","281.1647255459043",18/12/21 22:54:34
"1","42","345.45517774392147","280.15023435098107",18/12/21 22:54:34
"1","42","344.63156798617536","280.4413880410952",18/12/21 22:54:34
"1","42","344.63156798617536","280.4413880410952",18/12/21 22:54:34
"1","42","344.6842249436149","280.3757578493626",18/12/21 22:54:34
"1","42","345.6315956043978","278.72967707703157",18/12/21 22:54:34
"1","42","345.2371403988462","278.5672669931919",18/12/21 22:54:34
"1","42","345.2371403988462","278.5672669931919",18/12/21 22:54:34
"1","42","345.1895157092842","278.4226864300141",18/12/21 22:54:34
"1","42","345.1895157092842","278.4226864300141",18/12/21 22:54:34
"1","42","345.06207167817746","278.8272412523703",18/12/21 22:54:34
"1","42","345.77456155401","280.0481011826935",18/12/21 22:54:34
"1","42","345.77456155401","280.0481011826935",18/12/21 22:54:34
"1","42","344.33747766668677","278.67087311338037",18/12/21 22:54:34
"1","42","344.33747766668677","278.67087311338037",18/12/21 22:54:34
"1","42","344.28712362020286","278.6647786007042",18/12/21 22:54:34
"1","42","345.6043237537259","279.664306194233",18/12/21 22:54:35
"1","42","345.4703631266699","279.6590063564531",18/12/21 22:54:35
"1","42","345.4762082784785","279.4829671819976",18/12/21 22:54:35
"1","42","344.8931443515583","278.5333927548061",18/12/21 22:54:35
"1","42","343.9245648168022","280.14474566760646",18/12/21 22:54:35
"1","42","344.335315890763","279.868708752797",18/12/21 22:54:35
"1","42","344.6867057152867","279.4363444784199",18/12/21 22:54:35
"1","42","344.54265327999815","278.77048624059887",18/12/21 22:54:35
"1","42","344.64461911682065","280.0809704162448",18/12/21 22:54:35
"1","42","342.31932217012906","279.8425771793605",18/12/21 22:54:35
"1","42","341.950781751142","280.0588342923698",18/12/21 22:54:35
"1","42","342.98149091433373","279.4550881193844",18/12/21 22:54:35
"1","42","343.1371195309398","279.5009622921599",18/12/21 22:54:35
"1","42","343.3975283501866","278.40159339434905",18/12/21 22:54:35
"1","42","341.9064377255336","280.757955019886",18/12/21 22:54:35
"1","42","341.9064377255336","280.757955019886",18/12/21 22:54:35
"1","42","342.3949072406631","280.88511516121184",18/12/21 22:54:35
"1","42","342.19393984182517","281.36332473136144",18/12/21 22:54:35
"1","42","343.42910481152626","282.2128559437589",18/12/21 22:54:35
"1","42","344.74010712993345","283.0123143084519",18/12/21 22:54:35
"1","42","343.91231430456355","283.4888042638458",18/12/21 22:54:35
"1","42","343.91231430456355","283.4888042638458",18/12/21 22:54:35
"1","42","342.6708728628674","284.49880995403475",18/12/21 22:54:35
"1","42","342.82900959479684","283.43720330923213",18/12/21 22:54:35
"1","42","343.1316033547114","284.7858205598717",18/12/21 22:54:35
"1","42","343.1316033547114","284.7858205598717",18/12/21 22:54:35
"1","42","342.9086800632871","284.547972429399",18/12/21 22:54:35
"1","42","342.9086800632871","284.547972429399",18/12/21 22:54:35
"1","42","342.20869271254537","284.5170501720753",18/12/21 22:54:35
"1","42","342.1183448233161","282.2488017736472",18/12/21 22:54:35
"1","42","342.1183448233161","282.2488017736472",18/12/21 22:54:35
"1","42","342.2792675564267","282.2378646236902",18/12/21 22:54:35
"1","42","342.45309598612994","282.3191645534166",18/12/21 22:54:35
"1","42","342.45309598612994","282.3191645534166",18/12/21 22:54:35
"1","42","343.3447509179908","279.5470411694842",18/12/21 22:54:35
"1","42","343.3447509179908","279.5470411694842",18/12/21 22:54:35
"1","42","345.062312883861","278.9663000400511",18/12/21 22:54:35
"1","42","345.062312883861","278.9663000400511",18/12/21 22:54:35
"1","42","346.40035715433544","277.930607051103",18/12/21 22:54:35
"1","42","346.40035715433544","278.6908780505298",18/12/21 22:54:35
"1","42","345.7326631731558","278.6908780505298",18/12/21 22:54:35
"1","42","345.78263382303015","279.7145065680398",18/12/21 22:54:35
"1","42","345.29979754006206","280.61529374307736",18/12/21 22:54:35
"1","42","345.2694981765074","280.359273349698",18/12/21 22:54:35
"1","42","345.2694981765074","280.359273349698",18/12/21 22:54:35
"1","42","342.89724651527905","279.31229788252165",18/12/21 22:54:35
"1","42","341.94200720139526","279.9763868332383",18/12/21 22:54:35
"1","42","341.94200720139526","279.9763868332383",18/12/21 22:54:35
"1","42","341.94200720139526","279.9763868332383",18/12/21 22:54:35
"1","42","341.94200720139526","279.9763868332383",18/12/21 22:54:35
"1","42","342.7982110910977","281.2432076235102",18/12/21 22:54:36
"1","42","344.73720051203355","284.1120945091007",18/12/21 22:54:36
"1","42","344.73720051203355","284.1120945091007",18/12/21 22:54:36
"1","26","342.45315759865105","285.45494945521955",18/12/21 22:54:36
"1","88","341.16189980403504","285.55829526892967",18/12/21 22:54:36
"1","88","341.16189980403504","285.55829526892967",18/12/21 22:54:36
"1","88","337.84767340034693","285.8600595648987",18/12/21 22:54:36
"1","88","335.82566026632963","286.04416629012053",18/12/21 22:54:36
"1","88","333.6985639817292","286.2378409624563",18/12/21 22:54:36
"1","88","333.6985639817292","286.2912486668769",18/12/21 22:54:36
"1","88","331.454918701638","286.2912486668769",18/12/21 22:54:36
"1","88","327.6580007373305","285.63206245803354",18/12/21 22:54:36
"1","88","326.0728135183337","285.3568567351235",18/12/21 22:54:36
"1","40","324.63966203332893","284.682115657752",18/12/21 22:54:36
"1","40","324.63966203332893","284.682115657752",18/12/21 22:54:36
"1","40","323.50279797098267","282.76042306243653",18/12/21 22:54:36
"1","40","324.7877453049746","281.2532584961997",18/12/21 22:54:36
"1","40","324.93741894996543","281.3094626459316",18/12/21 22:54:36
"1","40","324.93741894996543","281.3094626459316",18/12/21 22:54:36
"1","40","323.8470553924736","283.8299465704765",18/12/21 22:54:36
"1","40","323.8470553924736","283.8299465704765",18/12/21 22:54:36
"1","40","323.6464124990082","283.83367691838697",18/12/21 22:54:36
"1","40","322.25580968758857","281.9891913179534",18/12/21 22:54:36
"1","40","322.25580968758857","281.9891913179534",18/12/21 22:54:36
"1","40","322.7309875760873","281.8194976852931",18/12/21 22:54:36
"1","40","322.7309875760873","281.8194976852931",18/12/21 22:54:36
"1","40","323.3212041491454","280.6116844347098",18/12/21 22:54:36
"1","40","323.3212041491454","280.6116844347098",18/12/21 22:54:36
"1","40","323.7806186507574","281.61507809316095",18/12/21 22:54:36
"1","40","323.7806186507574","281.61507809316095",18/12/21 22:54:36
"1","40","323.8768495564513","282.17145325715353",18/12/21 22:54:36
"1","40","323.88614020767454","282.1893934064547",18/12/21 22:54:36
"1","40","325.3034075371613","280.0967428552361",18/12/21 22:54:36
"1","40","325.3034075371613","280.0967428552361",18/12/21 22:54:36
"1","40","325.7235990243653","279.6879434821914",18/12/21 22:54:36
"1","40","325.7235990243653","279.6879434821914",18/12/21 22:54:36
"1","40","325.22529688383713","278.0170763072132",18/12/21 22:54:36
"1","40","325.22529688383713","278.0170763072132",18/12/21 22:54:36
"1","40","324.54678747142435","278.40175775815464",18/12/21 22:54:36
"1","40","324.54678747142435","278.40175775815464",18/12/21 22:54:36
"1","40","324.9631144301873","278.7211432612698",18/12/21 22:54:36
"1","40","326.27829517247454","280.2478663608279",18/12/21 22:54:36
"1","40","326.27829517247454","280.2478663608279",18/12/21 22:54:36
"1","40","326.37561990291795","281.8754654948199",18/12/21 22:54:36
"1","40","325.4303325869525","279.61475565987644",18/12/21 22:54:36
"1","40","325.4303325869525","279.61475565987644",18/12/21 22:54:36
"1","40","323.59617872320865","279.2000593771809",18/12/21 22:54:36
"1","40","323.575334881283","279.27944032833625",18/12/21 22:54:36
"1","40","323.575334881283","279.27944032833625",18/12/21 22:54:36
"1","40","323.40724028459243","281.60674053811243",18/12/21 22:54:36
"1","40","323.40724028459243","281.60674053811243",18/12/21 22:54:37
"1","40","323.42378351600604","281.6124744166043",18/12/21 22:54:37
"1","40","324.35117785044486","283.0476573684531",18/12/21 22:54:37
"1","40","324.35117785044486","283.0476573684531",18/12/21 22:54:37
"1","40","324.95796622858757","280.26300729829956",18/12/21 22:54:37
"1","40","324.95796622858757","280.26300729829956",18/12/21 22:54:37
"1","40","323.1040641236181","279.1571871181097",18/12/21 22:54:37
"1","40","322.4473669728927","280.35897940845445",18/12/21 22:54:37
"1","40","322.4473669728927","280.35897940845445",18/12/21 22:54:37
"1","40","323.1760153602875","280.58356824726457",18/12/21 22:54:37
"1","40","322.756643917413","279.5423739114194",18/12/21 22:54:37
"1","40","322.756643917413","279.54468579515986",18/12/21 22:54:37
"1","40","322.76274195033847","279.54468579515986",18/12/21 22:54:37
"1","40","324.46614703393453","278.45107533125565",18/12/21 22:54:37
"1","40","324.26499510654133","279.0638531881742",18/12/21 22:54:37
"1","40","324.26499510654133","279.0638531881742",18/12/21 22:54:37
"1","40","324.4469670393188","278.98954207847197",18/12/21 22:54:37
"1","40","324.4469670393188","278.98954207847197",18/12/21 22:54:37
"1","40","324.14663279157946","281.2364102948081",18/12/21 22:54:37
"1","40","324.19057833974716","280.8021113293786",18/12/21 22:54:37
"1","40","325.4722720654294","280.5677855261701",18/12/21 22:54:37
"1","40","325.4722720654294","280.5677855261701",18/12/21 22:54:37
"1","40","324.3334740570194","281.6644565060989",18/12/21 22:54:37
"1","40","325.3242112711708","280.6180271755696",18/12/21 22:54:37
"1","40","325.3242112711708","280.6180271755696",18/12/21 22:54:37
"1","40","324.8631249769995","282.92523245803767",18/12/21 22:54:37
"1","40","324.8631249769995","282.92523245803767",18/12/21 22:54:37
"1","40","323.47325790431256","284.61545412870663",18/12/21 22:54:37
"1","40","323.47325790431256","284.61545412870663",18/12/21 22:54:37
"1","40","322.7346232040826","282.1417879139033",18/12/21 22:54:37
"1","40","322.7346232040826","282.1417879139033",18/12/21 22:54:37
"1","40","324.4507054662306","282.15634420082097",18/12/21 22:54:37
"1","40","324.44352532904776","282.15634420082097",18/12/21 22:54:37
"1","40","324.48909664503856","282.6188006663413",18/12/21 22:54:37
"1","40","324.48909664503856","282.6188006663413",18/12/21 22:54:37
"1","40","324.0350210684424","284.31711178824713",18/12/21 22:54:37
"1","40","322.7962415100095","283.1913004365263",18/12/21 22:54:37
"1","40","322.7962415100095","283.1913004365263",18/12/21 22:54:37
"1","40","321.91326135947776","279.8793306150156",18/12/21 22:54:37
"1","40","321.91326135947776","279.8793306150156",18/12/21 22:54:37
"1","40","321.9649527841868","280.55993467591543",18/12/21 22:54:37
"1","40","322.28821831684314","280.55993467591543",18/12/21 22:54:37
"1","40","322.11561602046135","280.44547076930417",18/12/21 22:54:37
"1","40","322.11561602046135","280.44547076930417",18/12/21 22:54:37
"1","40","322.25451832960573","281.17586514781243",18/12/21 22:54:37
"1","40","322.15854370194177","279.8243578858388",18/12/21 22:54:37
"1","40","322.15854370194177","279.8243578858388",18/12/21 22:54:37
"1","40","324.7814104437394","282.3700537823255",18/12/21 22:54:37
"1","40","324.7814104437394","282.28957023817304",18/12/21 22:54:37
"1","40","326.31722348153096","283.35584396958853",18/12/21 22:54:38
"1","40","326.31722348153096","283.35584396958853",18/12/21 22:54:38
"1","40","325.0002299178711","284.64194908742564",18/12/21 22:54:38
"1","40","325.0002299178711","284.64194908742564",18/12/21 22:54:38
"1","40","325.4674903339872","284.7627708392028",18/12/21 22:54:38
"1","40","325.4674903339872","284.7627708392028",18/12/21 22:54:38
"1","40","326.08772963095305","284.47371761900706",18/12/21 22:54:38
"1","40","326.08772963095305","284.47371761900706",18/12/21 22:54:38
"1","40","324.50457257478797","283.49354335735603",18/12/21 22:54:38
"1","40","324.50457257478797","283.49354335735603",18/12/21 22:54:38
"1","40","322.76780875756907","283.1434519139598",18/12/21 22:54:38
"1","40","322.76780875756907","283.1434519139598",18/12/21 22:54:38
"1","40","323.83295850777733","283.61213063657",18/12/21 22:54:38
"1","40","322.15884627676553","281.2928856295291",18/12/21 22:54:38
"1","40","322.15884627676553","280.9998233996564",18/12/21 22:54:38
"1","40","322.1752098398921","280.9998233996564",18/12/21 22:54:38
"1","40","322.70382526031966","282.8875416617968",18/12/21 22:54:38
"1","40","322.96439819875263","279.1820110456296",18/12/21 22:54:38
"1","40","322.96439819875263","277.8333261728357",18/12/21 22:54:38
"1","40","322.95463876338175","278.5360603246153",18/12/21 22:54:38
"1","40","322.95463876338175","278.5360603246153",18/12/21 22:54:38
"1","40","322.27383370168303","279.0617349715241",18/12/21 22:54:38
"1","40","322.27383370168303","279.0617349715241",18/12/21 22:54:38
"1","40","323.60174519849966","279.0693170738864",18/12/21 22:54:38
"1","40","323.60174519849966","279.0693170738864",18/12/21 22:54:38
"1","40","323.59648281053006","279.417408052171",18/12/21 22:54:38
"1","40","326.19631835982875","281.2092152319274",18/12/21 22:54:38
"1","40","325.3014311784283","280.8530193262544",18/12/21 22:54:38
"1","40","325.9762120968801","278.6147635514491",18/12/21 22:54:38
"1","40","325.0462727190664","278.970730621098",18/12/21 22:54:38
"1","40","325.0462727190664","278.970730621098",18/12/21 22:54:38
"1","40","324.0582603390355","280.89328448846277",18/12/21 22:54:38
"1","40","323.09222423800975","279.3568153073007",18/12/21 22:54:38
"1","40","323.09222423800975","279.3568153073007",18/12/21 22:54:38
"1","40","323.5591874381314","279.53198881180305",18/12/21 22:54:38
"1","40","323.4416146071061","279.39448236355327",18/12/21 22:54:38
"1","40","323.4416146071061","279.39448236355327",18/12/21 22:54:38
"1","40","325.06822882572163","278.70142851419547",18/12/21 22:54:38
"1","40","326.292965516604","279.49913428250784",18/12/21 22:54:38
"1","40","326.292965516604","279.49913428250784",18/12/21 22:54:38
"1","40","325.20339720873113","280.6038298806106",18/12/21 22:54:38
"1","40","325.20339720873113","280.6038298806106",18/12/21 22:54:38
"1","40","325.7086001858427","279.9835172516818",18/12/21 22:54:38
"1","40","325.0026423135463","279.9835172516818",18/12/21 22:54:38
"1","40","323.8679432491794","280.49405219279726",18/12/21 22:54:38
"1","40","323.8679432491794","280.49405219279726",18/12/21 22:54:38
"1","40","323.2298477473323","280.44650569632864",18/12/21 22:54:38
"1","40","323.2298477473323","280.44650569632864",18/12/21 22:54:38
"1","40","326.10080063480495","282.58860210022027",18/12/21 22:54:38
"1","40","326.10080063480495","282.58860210022027",18/12/21 22:54:38
"1","40","325.0141515845202","282.2357380453139",18/12/21 22:54:39
"1","40","324.0356221245081","282.8386892905125",18/12/21 22:54:39
"1","40","324.0356221245081","282.8386892905125",18/12/21 22:54:39
"1","40","323.9407913394805","281.8767108130951",18/12/21 22:54:39
"1","40","325.6286621198147","282.31343881162553",18/12/21 22:54:39
"1","40","325.2773587194062","283.49193182973374",18/12/21 22:54:39
"1","40","325.04199571933174","284.3824731590424",18/12/21 22:54:39
"1","40","325.8657201159618","284.7862804666321",18/12/21 22:54:39
"1","40","325.8657201159618","284.7862804666321",18/12/21 22:54:39
"1","40","325.77073674110136","281.8991330089784",18/12/21 22:54:39
"1","40","325.9840238982396","281.8991330089784",18/12/21 22:54:39
"1","40","325.9299756442131","282.07675222841794",18/12/21 22:54:39
"1","40","324.7999293370125","281.4849245856122",18/12/21 22:54:39
"1","40","324.3002015576232","281.77636128908193",18/12/21 22:54:39
"1","40","324.1835718951751","281.77636128908193",18/12/21 22:54:39
"1","40","324.7564400829834","282.0625727133944",18/12/21 22:54:39
"1","40","323.02148730423835","283.0093187033339",18/12/21 22:54:39
"1","40","322.1832057597531","281.3649829912166",18/12/21 22:54:39
"1","40","322.1832057597531","281.3649829912166",18/12/21 22:54:39
"1","40","322.0176303121589","279.73085095330117",18/12/21 22:54:39
"1","40","322.47625744191777","278.9640779828803",18/12/21 22:54:39
"1","40","322.68749744396433","278.9640779828803",18/12/21 22:54:39
"1","40","321.9402329486252","278.05859080444986",18/12/21 22:54:39
"1","40","322.9635753413274","277.96310537017814",18/12/21 22:54:39
"1","40","323.7750520691344","278.51829646468843",18/12/21 22:54:39
"1","40","323.2534446793863","278.2136451332374",18/12/21 22:54:39
"1","40","325.1192216516401","278.9582223297776",18/12/21 22:54:39
"1","40","325.1192216516401","278.9582223297776",18/12/21 22:54:39
"1","40","324.4667337089076","278.4646236905617",18/12/21 22:54:39
"1","40","324.4667337089076","278.4646236905617",18/12/21 22:54:39
"1","40","324.3924687653216","278.43579129399285",18/12/21 22:54:39
"1","40","322.7232404143776","277.91624840570665",18/12/21 22:54:39
"1","40","322.6393077472379","278.73517142895093",18/12/21 22:54:39
"1","40","322.766133070355","279.70698664063826",18/12/21 22:54:39
"1","40","324.93026858554725","280.6945121727025",18/12/21 22:54:39
"1","40","324.56881613710436","281.4816261684067",18/12/21 22:54:39
"1","40","324.4211592584431","282.98334532937287",18/12/21 22:54:39
"1","40","322.61961175945015","283.2471422158174",18/12/21 22:54:39
"1","40","322.61961175945015","283.2471422158174",18/12/21 22:54:39
"1","40","322.25709560423945","282.98047893473625",18/12/21 22:54:39
"1","40","322.93584725501","284.1857566743935",18/12/21 22:54:39
"1","40","323.70259322730834","284.3467511835698",18/12/21 22:54:39
"1","40","323.8061528422314","284.3467511835698",18/12/21 22:54:39
"1","40","323.7385042599996","282.08411386436467",18/12/21 22:54:39
"1","40","323.655757826472","282.17683442646273",18/12/21 22:54:39
"1","40","324.0146348218022","281.716423187315",18/12/21 22:54:39
"1","40","322.660711352855","280.15202923473487",18/12/21 22:54:39
"1","40","322.14185266859675","280.15202923473487",18/12/21 22:54:39
"1","40","322.5246477110192","279.33753680670276",18/12/21 22:54:39
"1","40","324.86675076110924","279.3455806643359",18/12/21 22:54:39
"1","40","322.9002360296298","279.5280184580193",18/12/21 22:54:40
"1","40","325.1455046479664","278.7061633402177",18/12/21 22:54:40
"1","40","325.5586981738456","279.1298950227719",18/12/21 22:54:40
"1","40","325.38986397409246","279.1298950227719",18/12/21 22:54:40
"1","40","325.0914218808134","281.3565393206907",18/12/21 22:54:40
"1","40","324.7449678574296","281.8799425155697",18/12/21 22:54:40
"1","40","323.75843895547433","280.3863753495628",18/12/21 22:54:40
"1","40","323.50504549536146","281.3030418516181",18/12/21 22:54:40
"1","40","322.92245792664426","281.02129910557176",18/12/21 22:54:40
"1","40","324.7552866357163","282.2474946901765",18/12/21 22:54:40
"1","40","324.7552866357163","282.2474946901765",18/12/21 22:54:40
"1","40","324.1782688054039","283.4751237559589",18/12/21 22:54:40
"1","40","325.9874974644313","281.073948018631",18/12/21 22:54:40
"1","40","325.06748247530885","281.073948018631",18/12/21 22:54:40
"1","40","322.99050694521003","281.6561467566851",18/12/21 22:54:40
"1","40","323.10168078152185","284.1413823271814",18/12/21 22:54:40
"1","40","322.34710391229015","284.4007862900044",18/12/21 22:54:40
"1","40","322.3130287422685","284.28371640183576",18/12/21 22:54:40
"1","40","322.1051086560748","283.2880038377998",18/12/21 22:54:40
"1","40","322.2000389234763","284.68925033979025",18/12/21 22:54:40
"1","40","322.5437219337334","284.55637739520574",18/12/21 22:54:40
"1","40","322.5918397625743","283.9746606025047",18/12/21 22:54:40
"1","40","323.13988113907783","281.79534934199694",18/12/21 22:54:40
"1","40","324.1910523482836","282.0842128256449",18/12/21 22:54:40
"1","40","324.42178151548393","281.5081562673664",18/12/21 22:54:40
"1","40","324.496203950563","281.2504920836411",18/12/21 22:54:40
"1","40","324.4086291158276","281.2701876879787",18/12/21 22:54:40
"1","40","325.2703987519472","282.26320384120237",18/12/21 22:54:40
"1","40","322.86094918575606","282.2782497622709",18/12/21 22:54:40
"1","40","322.66544332295894","283.03784844845285",18/12/21 22:54:40
"1","40","324.5303206228889","282.340187759458",18/12/21 22:54:40
"1","40","324.14971224792595","280.84001534217776",18/12/21 22:54:40
"1","40","322.46382191282805","280.8616497946063",18/12/21 22:54:40
"1","40","322.5625245507731","280.8765489881614",18/12/21 22:54:40
"1","40","322.64110170115043","282.2010479478702",18/12/21 22:54:40
"1","40","322.64110170115043","282.2010479478702",18/12/21 22:54:40
"1","40","322.4235019159037","283.75001490516786",18/12/21 22:54:40
"1","40","322.98376532102685","283.3943682809677",18/12/21 22:54:40
"1","40","322.06015143009137","281.4005935657473",18/12/21 22:54:40
"1","40","322.12623326455997","280.60233726318916",18/12/21 22:54:40
"1","40","322.4313310212805","279.7684567095717",18/12/21 22:54:40
"1","40","323.2308008776594","278.1889712879352",18/12/21 22:54:40
"1","40","323.15970728521756","278.6461659283366",18/12/21 22:54:40
"1","40","324.1542290712216","278.6242058541206",18/12/21 22:54:40
"1","40","324.4162010135637","279.13737782536657",18/12/21 22:54:40
"1","40","323.809872219501","281.0350842645312",18/12/21 22:54:40
"1","40","324.2334490079211","280.14471946333106",18/12/21 22:54:40
"1","40","321.97798641346947","280.62792462649463",18/12/21 22:54:40
"1","40","322.21376552575873","281.8336602782338",18/12/21 22:54:40
"1","40","322.1540592855508","281.8336602782338",18/12/21 22:54:40
"1","40","324.5246768122437","281.82771450249544",18/12/21 22:54:41
"1","40","325.2624201700999","280.93403603800476",18/12/21 22:54:41
"1","40","324.3111903172648","281.08788070533166",18/12/21 22:54:41
"1","40","324.3798035807114","280.5046129228334",18/12/21 22:54:41
"1","40","325.4036653317794","282.13205515741396",18/12/21 22:54:41
"1","40","325.5333039012398","282.12141666359776",18/12/21 22:54:41
"1","40","323.88043749065196","283.379893077716",18/12/21 22:54:41
"1","40","322.52175136852964","282.0712812984377",18/12/21 22:54:41
"1","40","322.07508686404907","282.918070826502",18/12/21 22:54:41
"1","40","322.1864762392921","282.7733368653619",18/12/21 22:54:41
"1","40","322.67126414258115","283.05450712876075",18/12/21 22:54:41
"1","40","324.03848105398436","284.0022616165008",18/12/21 22:54:41
"1","40","324.2692435528745","284.11074955085866",18/12/21 22:54:41
"1","40","323.7734744202249","284.35339680671797",18/12/21 22:54:41
"1","40","323.67995604085047","284.4067100217232",18/12/21 22:54:41
"1","40","322.6125523209046","284.2953348126154",18/12/21 22:54:41
"1","40","322.72339376504885","284.174443404529",18/12/21 22:54:41
"1","40","323.76046475251064","283.2292728475159",18/12/21 22:54:41
"1","40","325.19246977868266","284.27407237302305",18/12/21 22:54:41
"1","40","324.46770145267635","284.8471868313824",18/12/21 22:54:41
"1","40","324.3996403565308","284.55256864409273",18/12/21 22:54:41
"1","40","324.3520687805091","282.16109406723206",18/12/21 22:54:41
"1","40","324.69931847157716","281.8727102089429",18/12/21 22:54:41
"1","40","324.68218155567473","282.75779270447657",18/12/21 22:54:41
"1","40","322.95789735132934","284.37570022090796",18/12/21 22:54:41
"1","40","323.8683667991423","281.9062475642075",18/12/21 22:54:41
"1","40","323.8683667991423","281.9062475642075",18/12/21 22:54:41
"1","40","322.26336414004766","284.34823205569535",18/12/21 22:54:41
"1","40","324.47392647577163","283.35903171980243",18/12/21 22:54:41
"1","40","324.47392647577163","283.35903171980243",18/12/21 22:54:41
"1","40","323.67389702474674","282.058436256252",18/12/21 22:54:41
"1","40","323.67389702474674","282.3429274914585",18/12/21 22:54:41
"1","40","323.63750720363566","282.33838338102834",18/12/21 22:54:41
"1","40","324.58481614708626","282.40962937071816",18/12/21 22:54:41
"1","40","324.58481614708626","282.40962937071816",18/12/21 22:54:41
"1","40","324.55722422843536","281.114500582509",18/12/21 22:54:41
"1","40","324.55722422843536","281.114500582509",18/12/21 22:54:41
"1","40","324.09181102920667","281.2191477595119",18/12/21 22:54:41
"1","40","322.5871266904467","280.20549045200397",18/12/21 22:54:41
"1","40","322.96165179254984","278.1949808907501",18/12/21 22:54:41
"1","40","322.96165179254984","278.1949808907501",18/12/21 22:54:41
"1","40","321.9217053589495","278.74739731646054",18/12/21 22:54:41
"1","40","321.9217053589495","278.74739731646054",18/12/21 22:54:41
"1","40","321.86132324208404","278.74153636065046",18/12/21 22:54:41
"1","40","321.86132324208404","278.74153636065046",18/12/21 22:54:41
"1","40","323.4548510274943","279.71276094550916",18/12/21 22:54:41
"1","40","323.0724167724276","280.9993854488358",18/12/21 22:54:41
"1","40","323.0724167724276","280.9993854488358",18/12/21 22:54:41
"1","40","323.0562511640211","281.1804025264803",18/12/21 22:54:41
"1","40","323.0562511640211","281.1804025264803",18/12/21 22:54:41
"1","40","322.4875510868485","281.47467200580496",18/12/21 22:54:42
"1","40","323.06242563610647","279.61414507900656",18/12/21 22:54:42
"1","40","323.06242563610647","279.61414507900656",18/12/21 22:54:42
"1","40","323.2028068450162","278.8721987795259",18/12/21 22:54:42
"1","40","323.4410885449039","279.05461289542103",18/12/21 22:54:42
"1","40","323.4410885449039","279.05461289542103",18/12/21 22:54:42
"1","40","325.06426090269997","279.187723595174",18/12/21 22:54:42
"1","40","325.06426090269997","279.187723595174",18/12/21 22:54:42
"1","40","323.40513586301574","278.7060839586716",18/12/21 22:54:42
"1","40","323.40513586301574","278.7060839586716",18/12/21 22:54:42
"1","40","323.84563747540926","280.4392045719204",18/12/21 22:54:42
"1","40","323.84563747540926","280.4392045719204",18/12/21 22:54:42
"1","40","324.8790561403207","284.50511293611953",18/12/21 22:54:42
"1","88","325.9027658128231","285.2872211036043",18/12/21 22:54:42
"1","88","325.9027658128231","285.2872211036043",18/12/21 22:54:42
"1","88","329.4371902611073","285.5830832838643",18/12/21 22:54:42
"1","88","329.4371902611073","285.5830832838643",18/12/21 22:54:42
"1","26","332.1997550725095","285.825354613991",18/12/21 22:54:42
"1","26","332.1997550725095","285.825354613991",18/12/21 22:54:42
"1","26","335.79654638150123","286.3532610786406",18/12/21 22:54:42
"1","26","335.79654638150123","286.3532610786406",18/12/21 22:54:42
"1","26","337.2334365245842","286.5641556038883",18/12/21 22:54:42
"1","26","340.8301215338431","287.09204646676636",18/12/21 22:54:42
"1","26","340.8301215338431","287.09204646676636",18/12/21 22:54:42
"1","26","344.54179032920325","287.1481395530929",18/12/21 22:54:42
"1","26","344.54179032920325","287.1481395530929",18/12/21 22:54:42
"1","26","348.64019625916836","287.13027442551305",18/12/21 22:54:42
"1","26","348.64019625916836","287.13027442551305",18/12/21 22:54:42
"1","54","352.3332159612759","286.7729104506678",18/12/21 22:54:42
"1","54","352.3332159612759","286.7729104506678",18/12/21 22:54:42
"1","54","354.52531405865716","285.89167647392935",18/12/21 22:54:42
"1","54","358.1072712560518","284.45171245528536",18/12/21 22:54:42
"1","54","358.1072712560518","284.45171245528536",18/12/21 22:54:42
"1","54","360.26020592674803","283.2828079471729",18/12/21 22:54:42
"1","54","361.1488589781788","283.28453855918644",18/12/21 22:54:42
"1","54","361.1488589781788","283.66029893115103",18/12/21 22:54:42
"1","54","360.34613293540025","283.07162994359715",18/12/21 22:54:42
"1","54","360.34613293540025","283.07162994359715",18/12/21 22:54:42
"1","54","360.6438823728947","285.09129182001436",18/12/21 22:54:42
"1","54","360.6438823728947","285.09129182001436",18/12/21 22:54:42
"1","54","360.3361202507401","288.0280298931557",18/12/21 22:54:42
"1","54","360.3361202507401","288.0280298931557",18/12/21 22:54:42
"1","54","358.4964309818794","290.828444800079",18/12/21 22:54:42
"1","54","357.0581551881685","290.3040916700217",18/12/21 22:54:42
"1","54","357.0581551881685","290.3040916700217",18/12/21 22:54:42
"1","54","358.3468901898573","289.67834407151037",18/12/21 22:54:42
"1","54","358.3468901898573","289.67834407151037",18/12/21 22:54:42
"1","54","358.3893503959416","289.028060809857",18/12/21 22:54:42
"1","54","357.68581607890144","288.7375322100628",18/12/21 22:54:42
"1","54","357.68581607890144","288.7375322100628",18/12/21 22:54:43
"1","54","356.9679341540403","289.0154605228942",18/12/21 22:54:43
"1","54","356.9679341540403","289.0154605228942",18/12/21 22:54:43
"1","54","359.0446169386806","289.55973645698805",18/12/21 22:54:43
"1","54","359.0446169386806","289.55973645698805",18/12/21 22:54:43
"1","54","359.39413880167024","289.2824376873078",18/12/21 22:54:43
"1","54","359.48210293374575","290.6073115868298",18/12/21 22:54:43
"1","54","359.2851258253394","290.49701896934624",18/12/21 22:54:43
"1","54","359.2851258253394","290.544939661764",18/12/21 22:54:43
"1","54","359.7981289794949","290.544939661764",18/12/21 22:54:43
"1","54","359.88411091822184","291.6959420209707",18/12/21 22:54:43
"1","54","359.88411091822184","291.6959420209707",18/12/21 22:54:43
"1","54","361.114851819343","294.6647067461878",18/12/21 22:54:43
"1","54","361.92927153152885","293.16464460793134",18/12/21 22:54:43
"1","54","361.92927153152885","293.16464460793134",18/12/21 22:54:43
"1","54","362.53470591069294","295.0700398620839",18/12/21 22:54:43
"1","54","364.03938438038585","293.6683485964646",18/12/21 22:54:43
"1","54","364.2333368408255","293.5770845605657",18/12/21 22:54:43
"1","54","365.607517369112","292.75173154082665",18/12/21 22:54:43
"1","54","364.87244259236877","294.5286445832302",18/12/21 22:54:43
"1","54","364.87244259236877","294.5286445832302",18/12/21 22:54:43
"1","54","361.88242391152903","294.67663861573357",18/12/21 22:54:43
"1","54","361.88242391152903","294.67663861573357",18/12/21 22:54:43
"1","54","361.784757382241","295.67424983078655",18/12/21 22:54:43
"1","54","362.1068415596745","294.2218599748468",18/12/21 22:54:43
"1","54","362.3922221147208","294.92299877461244",18/12/21 22:54:43
"1","54","364.1653169433822","295.6412861285075",18/12/21 22:54:43
"1","54","364.1653169433822","295.6412861285075",18/12/21 22:54:43
"1","54","365.4358482122514","294.9775317495631",18/12/21 22:54:43
"1","54","362.4231400142133","292.2083301849807",18/12/21 22:54:43
"1","54","362.4231400142133","292.2083301849807",18/12/21 22:54:43
"1","54","363.1839791664292","291.9924078602902",18/12/21 22:54:43
"1","54","363.1511705446331","291.56821354658877",18/12/21 22:54:43
"1","54","363.1511705446331","291.56821354658877",18/12/21 22:54:43
"1","54","363.28812839006304","291.860284394067",18/12/21 22:54:43
"1","54","363.28812839006304","291.860284394067",18/12/21 22:54:43
"1","54","363.5070125293486","292.7641403210872",18/12/21 22:54:43
"1","54","363.5070125293486","292.7641403210872",18/12/21 22:54:43
"1","54","363.36292532317765","294.1198082657369",18/12/21 22:54:43
"1","54","363.36292532317765","294.1198082657369",18/12/21 22:54:43
"1","54","360.27638455723223","293.98121985002956",18/12/21 22:54:43
"1","54","360.8525364661271","293.55278386962283",18/12/21 22:54:43
"1","54","360.8525364661271","293.55278386962283",18/12/21 22:54:43
"1","54","361.21158294881155","292.7108000780446",18/12/21 22:54:43
"1","54","361.21158294881155","292.7108000780446",18/12/21 22:54:43
"1","54","360.9651511421327","292.8518092496101",18/12/21 22:54:43
"1","54","363.71994676503965","293.75286849192696",18/12/21 22:54:43
"1","54","363.71994676503965","293.75286849192696",18/12/21 22:54:43
"1","54","361.8539404598188","293.35738433781074",18/12/21 22:54:43
"1","54","362.6508689103465","291.92050315496874",18/12/21 22:54:43
"1","54","362.6508689103465","291.92050315496874",18/12/21 22:54:44
"1","54","362.62348799640176","291.2502527082357",18/12/21 22:54:44
"1","54","362.62348799640176","291.2502527082357",18/12/21 22:54:44
"1","54","362.2570610036877","292.6454815839336",18/12/21 22:54:44
"1","54","362.2570610036877","292.6454815839336",18/12/21 22:54:44
"1","54","365.28373657699325","293.403806794863",18/12/21 22:54:44
"1","54","365.28373657699325","293.403806794863",18/12/21 22:54:44
"1","54","365.9276310758301","295.8543058564013",18/12/21 22:54:44
"1","54","365.9276310758301","295.8543058564013",18/12/21 22:54:44
"1","54","367.01880363013674","295.6712292120945",18/12/21 22:54:44
"1","54","367.18489298257293","295.3402327028924",18/12/21 22:54:44
"1","54","367.18489298257293","295.3402327028924",18/12/21 22:54:44
"1","54","367.1353564435198","295.7322224127184",18/12/21 22:54:44
"1","54","368.9190670899042","295.7322224127184",18/12/21 22:54:44
"1","54","368.662372221088","295.3947654847435",18/12/21 22:54:44
"1","54","367.97088819578005","295.1936965536331",18/12/21 22:54:44
"1","54","367.97088819578005","295.79829892568245",18/12/21 22:54:44
"1","54","367.5337927250824","295.79829892568245",18/12/21 22:54:44
"1","54","367.03184611917135","293.37100751904904",18/12/21 22:54:44
"1","54","367.6147855568616","293.37100751904904",18/12/21 22:54:44
"1","54","367.3132789430696","293.1883375640207",18/12/21 22:54:44
"1","54","369.69520706455705","293.24009734211694",18/12/21 22:54:44
"1","54","369.69520706455705","293.24009734211694",18/12/21 22:54:44
"1","54","368.60278091910436","294.90952850769224",18/12/21 22:54:44
"1","54","368.60278091910436","294.90952850769224",18/12/21 22:54:44
"1","54","370.290675239828","294.8651309177809",18/12/21 22:54:44
"1","54","370.290675239828","294.8651309177809",18/12/21 22:54:44
"1","54","369.91091956630686","293.53655351679527",18/12/21 22:54:44
"1","54","369.91091956630686","293.53655351679527",18/12/21 22:54:44
"1","54","369.72185439538725","293.39319783874197",18/12/21 22:54:44
"1","54","369.35593185048054","294.64842641421086",18/12/21 22:54:44
"1","54","369.35593185048054","294.64842641421086",18/12/21 22:54:44
"1","54","366.7339992602155","294.79803594249296",18/12/21 22:54:44
"1","54","365.80879139228165","296.36194084528057",18/12/21 22:54:44
"1","54","365.80879139228165","296.36194084528057",18/12/21 22:54:44
"1","54","366.9105180483947","293.6571215939803",18/12/21 22:54:44
"1","54","366.9105180483947","293.6571215939803",18/12/21 22:54:44
"1","54","366.8940214628169","293.2331303336156",18/12/21 22:54:44
"1","54","366.8326591619645","295.5588867664917",18/12/21 22:54:44
"1","54","366.8326591619645","295.5588867664917",18/12/21 22:54:44
"1","54","365.0138197851596","294.92639791860154",18/12/21 22:54:44
"1","54","365.0138197851596","294.92639791860154",18/12/21 22:54:44
"1","54","364.4107191051945","293.8140898897021",18/12/21 22:54:44
"1","54","363.4669400037651","296.09074762382073",18/12/21 22:54:44
"1","54","363.4669400037651","296.09074762382073",18/12/21 22:54:44
"1","54","361.6201756224282","293.41564554283156",18/12/21 22:54:44
"1","54","361.6201756224282","293.41564554283156",18/12/21 22:54:44
"1","54","361.90586318514096","293.3140353663815",18/12/21 22:54:44
"1","54","361.90586318514096","293.3140353663815",18/12/21 22:54:44
"1","54","364.4566443771149","294.3113015174887",18/12/21 22:54:44
"1","54","364.16313147057605","292.70176811870743",18/12/21 22:54:45
"1","54","364.16313147057605","292.70176811870743",18/12/21 22:54:45
"1","54","366.92018243269183","290.9810848008353",18/12/21 22:54:45
"1","54","366.92018243269183","290.9810848008353",18/12/21 22:54:45
"1","54","368.1698262445827","289.8504815889668",18/12/21 22:54:45
"1","54","367.5512178607497","290.5308402651322",18/12/21 22:54:45
"1","54","367.5512178607497","290.5308402651322",18/12/21 22:54:45
"1","54","366.7963306400798","287.77746474917836",18/12/21 22:54:45
"1","54","366.7963306400798","287.77746474917836",18/12/21 22:54:45
"1","54","365.62601780605814","287.51406736389197",18/12/21 22:54:45
"1","54","365.62601780605814","287.51406736389197",18/12/21 22:54:45
"1","54","364.26286108028745","287.4387124492435",18/12/21 22:54:45
"1","54","364.26286108028745","287.4387124492435",18/12/21 22:54:45
"1","54","366.0729578794496","287.23448875741644",18/12/21 22:54:45
"1","54","366.73586858518473","286.6802563964547",18/12/21 22:54:45
"1","54","366.73586858518473","286.6802563964547",18/12/21 22:54:45
"1","54","368.31838324632537","286.0593660200672",18/12/21 22:54:45
"1","54","369.65698203722775","285.6123491788817",18/12/21 22:54:45
"1","54","368.0816650038264","284.39767982997256",18/12/21 22:54:45
"1","54","368.0816650038264","284.39767982997256",18/12/21 22:54:45
"1","54","367.7870417822257","284.36491753020323",18/12/21 22:54:45
"1","54","367.7870417822257","284.36491753020323",18/12/21 22:54:45
"1","54","366.5303065265173","284.50989912359023",18/12/21 22:54:45
"1","54","366.5303065265173","284.50989912359023",18/12/21 22:54:45
