"floorId","partitionId","location_x","location_y","timeStamp"
"5","9","321.49646800084093","278.7177880788753",18/12/21 22:50:11
"5","9","320.924981638592","281.06517100211573",18/12/21 22:50:11
"5","9","320.5649546599535","282.5439835117196",18/12/21 22:50:11
"5","9","320.2465949278022","283.85164761022656",18/12/21 22:50:11
"5","104","320.7394141691604","285.3017476776747",18/12/21 22:50:11
"5","104","323.08709957461383","285.5438191563397",18/12/21 22:50:11
"5","104","324.66448780271315","285.70646475609414",18/12/21 22:50:11
"5","104","326.8646429714094","285.93332428920775",18/12/21 22:50:11
"5","104","328.65676155944857","286.1181108860584",18/12/21 22:50:11
"5","104","330.67578153533725","286.32629344317706",18/12/21 22:50:11
"5","103","333.0053003603754","286.56317000209555",18/12/21 22:50:11
"5","103","334.52075114461195","286.7142940789008",18/12/21 22:50:11
"5","103","336.48772887655673","286.910445413493",18/12/21 22:50:11
"5","103","338.5155368092687","287.11266286915514",18/12/21 22:50:11
"5","103","340.20302840681717","287.28094323328764",18/12/21 22:50:11
"5","103","340.42504293312334","286.8279992302132",18/12/21 22:50:11
"5","103","338.938768656947","285.8803819212602",18/12/21 22:50:11
"5","103","337.762866724432","285.13065150962365",18/12/21 22:50:11
"5","103","336.1653340961989","284.1120982086639",18/12/21 22:50:11
"5","103","334.47223544458865","283.03261401537054",18/12/21 22:50:11
"5","103","333.35853317678146","282.32254080552576",18/12/21 22:50:11
"5","103","331.25657937453354","280.982379142529",18/12/21 22:50:11
"2","93","330.92425587845753","280.8099282382669",18/12/21 22:50:11
"2","93","332.16168762649164","281.7138993111912",18/12/21 22:50:11
"2","93","333.9113130879771","282.99203914245663",18/12/21 22:50:11
"2","93","335.6881276191578","284.2900411863599",18/12/21 22:50:11
"2","93","337.3426517243003","285.4987073878542",18/12/21 22:50:11
"2","93","338.8412152487994","286.5934409594139",18/12/21 22:50:11
"2","93","339.9150818702446","287.37792411455166",18/12/21 22:50:11
"2","92","341.94509750680703","288.354026338309",18/12/21 22:50:11
"2","92","344.0136787145203","288.2185650646899",18/12/21 22:50:11
"2","92","345.5537931326538","288.117710498371",18/12/21 22:50:11
"2","92","348.0017801595848","287.9574037919026",18/12/21 22:50:11
"2","92","350.0300508656317","287.82458225603017",18/12/21 22:50:11
"2","92","352.0352259022853","287.693273142672",18/12/21 22:50:12
"2","92","353.4197821332225","287.6026053217808",18/12/21 22:50:12
"2","92","355.5915860762211","287.4603844957033",18/12/21 22:50:12
"2","92","357.90228259761705","286.66086692055717",18/12/21 22:50:12
"2","92","359.4406000325298","285.8889340486479",18/12/21 22:50:12
"2","31","360.49610355121126","284.70749826611785",18/12/21 22:50:12
"2","31","359.6416001503947","283.1765791220376",18/12/21 22:50:12
"2","31","358.82614806061866","281.71562388871087",18/12/21 22:50:12
"2","31","357.90531896406014","280.06587633826166",18/12/21 22:50:12
"2","31","357.48708798069083","279.3165781862874",18/12/21 22:50:12
"2","31","358.42834198424845","281.4269258288359",18/12/21 22:50:12
"2","31","358.42974086784557","281.42485633714773",18/12/21 22:50:12
"2","31","358.76150199595077","281.49470441927855",18/12/21 22:50:12
"2","31","358.78269364347733","283.38461849844424",18/12/21 22:50:12
"2","31","357.87704538581136","283.6512060610097",18/12/21 22:50:12
"2","31","358.2360551699594","281.9960589449425",18/12/21 22:50:12
"2","31","358.46021594902606","282.171067616292",18/12/21 22:50:12
"2","31","358.70915694179183","281.5729816976415",18/12/21 22:50:12
"2","31","358.85706877502895","281.7273843921198",18/12/21 22:50:12
"2","31","356.91866089522887","283.27349619250674",18/12/21 22:50:12
"2","31","357.6369496490777","284.10515729746317",18/12/21 22:50:12
"2","31","357.6450003319428","284.0996546632136",18/12/21 22:50:12
"2","31","357.9370790036261","284.84612573229475",18/12/21 22:50:12
"2","31","357.8571775092674","284.72566334957463",18/12/21 22:50:12
"2","31","358.49995184206733","283.8088141361463",18/12/21 22:50:12
"2","31","358.20253213177114","283.3198243106731",18/12/21 22:50:12
"2","31","358.41993139571883","282.6171380713238",18/12/21 22:50:12
"2","31","358.40357974866276","283.02496426808455",18/12/21 22:50:12
"2","31","359.2199523815314","283.66612057896225",18/12/21 22:50:12
"2","31","359.31423030038616","283.542866102568",18/12/21 22:50:12
"2","31","359.4021255788857","283.55561239059375",18/12/21 22:50:12
"2","31","360.8324552896494","283.0482898928398",18/12/21 22:50:12
"2","31","360.8383235107675","283.0342992974621",18/12/21 22:50:12
"2","31","360.1042893702569","283.450700820926",18/12/21 22:50:12
"2","31","359.13965515432255","283.0772998951586",18/12/21 22:50:12
"2","31","361.48828633166414","282.37430448056887",18/12/21 22:50:12
"2","31","361.38290174958087","283.09550316440476",18/12/21 22:50:12
"2","31","361.00060970311404","282.2077063518113",18/12/21 22:50:12
"2","31","359.92221138139155","281.0480470974286",18/12/21 22:50:12
"2","31","358.7906603473932","282.72152658065266",18/12/21 22:50:12
"2","31","358.8672782732113","283.1476199930206",18/12/21 22:50:12
"2","31","357.98501383739386","281.24348721177256",18/12/21 22:50:12
"2","31","360.24596771413434","281.71861868861976",18/12/21 22:50:12
"2","31","360.0972102736288","280.5254171754084",18/12/21 22:50:12
"2","31","360.12454558603304","279.507290036739",18/12/21 22:50:12
"2","31","360.4611441683608","281.364194785871",18/12/21 22:50:12
"2","31","359.67928267554095","281.1510353178517",18/12/21 22:50:12
"2","31","358.2184213623783","281.3972333375764",18/12/21 22:50:12
"2","31","358.7925189674088","278.98182224528534",18/12/21 22:50:12
"2","31","358.9821628436484","279.48395564989727",18/12/21 22:50:12
"2","31","358.63887151728926","278.6247840094623",18/12/21 22:50:13
"2","31","359.55697294480694","279.6728367214876",18/12/21 22:50:13
"2","31","359.2758229567847","281.19313501422937",18/12/21 22:50:13
"2","31","358.08717464092996","279.6575155145858",18/12/21 22:50:13
"2","31","359.1312311459515","279.44741517145883",18/12/21 22:50:13
"2","31","358.13640654400484","278.8297901043933",18/12/21 22:50:13
"2","31","357.5250376146769","278.79713679659295",18/12/21 22:50:13
"2","31","357.26024290722484","279.6244125056831",18/12/21 22:50:13
"2","31","357.08821557010134","279.4716306675661",18/12/21 22:50:13
"2","31","357.19986435394355","279.7533644927699",18/12/21 22:50:13
"2","31","357.1701462510396","279.85725224586344",18/12/21 22:50:13
"2","31","357.2851091577081","278.6115319247048",18/12/21 22:50:13
"2","31","358.517038831458","278.3280458813601",18/12/21 22:50:13
"2","31","359.764948368876","280.20057975354956",18/12/21 22:50:13
"2","31","359.78890514230875","280.20427084429383",18/12/21 22:50:13
"2","31","360.3115847770959","278.30752774341033",18/12/21 22:50:13
"2","31","359.67241569690833","278.81912920507307",18/12/21 22:50:13
"2","31","358.51870812513533","277.7995517025212",18/12/21 22:50:13
"2","31","359.52709774225787","279.9004946568369",18/12/21 22:50:13
"2","31","359.79450659216076","281.34645324153814",18/12/21 22:50:13
"2","31","359.78728266824135","283.19764942916333",18/12/21 22:50:13
"2","31","360.9941373905219","284.6896096952408",18/12/21 22:50:13
"2","31","361.35600571772557","282.8151051024961",18/12/21 22:50:13
"2","31","361.1821268315993","282.8930828698775",18/12/21 22:50:13
"2","31","361.0553359696963","283.1251798975827",18/12/21 22:50:13
"2","31","361.2553222463871","283.69448528602237",18/12/21 22:50:13
"2","31","360.9699608228671","282.7636191959722",18/12/21 22:50:13
"2","31","361.13495819841285","283.11160789486144",18/12/21 22:50:13
"2","31","360.31126306847796","282.8585604210894",18/12/21 22:50:13
"2","31","358.6962671397155","282.299846721266",18/12/21 22:50:13
"2","31","360.04912212113214","282.48461411094235",18/12/21 22:50:13
"2","31","359.6762206404952","282.33919139260917",18/12/21 22:50:13
"2","31","360.53691603493854","284.6319040575789",18/12/21 22:50:13
"2","31","359.8886566781835","284.21275236180617",18/12/21 22:50:13
"2","31","359.23606860406267","283.09480459632135",18/12/21 22:50:13
"2","31","358.47942767003104","283.5371462008594",18/12/21 22:50:13
"2","31","359.15987070369596","282.249159331021",18/12/21 22:50:13
"2","31","360.2297699761408","282.6260649199389",18/12/21 22:50:13
"2","31","360.09168353416936","282.8209116377098",18/12/21 22:50:13
"2","31","360.0312028115027","282.06103199081736",18/12/21 22:50:13
"2","31","359.19301585996357","282.01250799881575",18/12/21 22:50:13
"2","31","358.0624912444549","282.56138922428585",18/12/21 22:50:13
"2","31","357.54487109600285","282.42327871786904",18/12/21 22:50:13
"2","31","357.51180453761043","281.0178645811201",18/12/21 22:50:13
"2","31","357.5544785086568","280.1139363964684",18/12/21 22:50:13
"2","31","357.3242948807678","278.8180681937457",18/12/21 22:50:13
"2","31","358.25250018615895","278.7131866863544",18/12/21 22:50:13
"2","31","358.7312151985547","278.61569972857495",18/12/21 22:50:13
"2","31","358.4114652902227","278.6482449938445",18/12/21 22:50:13
"2","31","359.1243388731579","279.75846755075924",18/12/21 22:50:14
"2","31","357.44569270081513","280.72579038114753",18/12/21 22:50:14
"2","31","357.6422978848223","281.50434992391536",18/12/21 22:50:14
"2","31","358.3897166233586","281.159631034437",18/12/21 22:50:14
"2","31","358.0668842544028","281.65330067518016",18/12/21 22:50:14
"2","31","357.0108889624845","282.0391783373886",18/12/21 22:50:14
"2","31","357.17886474414576","280.7665500674353",18/12/21 22:50:14
"2","31","357.6686269874223","279.32754982375064",18/12/21 22:50:14
"2","31","357.5054942390647","279.0913200092671",18/12/21 22:50:14
"2","31","357.6005854843698","278.92481552904303",18/12/21 22:50:14
"2","31","356.86373358726865","278.93252596874487",18/12/21 22:50:14
"2","31","356.863990918709","278.9326671280571",18/12/21 22:50:14
"2","31","357.97499759111537","281.14000805548665",18/12/21 22:50:14
"2","31","357.31600045191055","281.94292348879054",18/12/21 22:50:14
"2","31","357.3941596628065","282.4021601413398",18/12/21 22:50:14
"2","31","358.5630828017374","283.01920548507957",18/12/21 22:50:14
"2","31","359.33078491914205","281.38735819788764",18/12/21 22:50:14
"2","31","359.5530233217405","280.7153202657529",18/12/21 22:50:14
"2","31","360.8148102264737","281.2141530416023",18/12/21 22:50:14
"2","31","360.3353731836939","281.054475123309",18/12/21 22:50:14
"2","31","359.7857873624388","280.8653317188218",18/12/21 22:50:14
"2","31","360.1634119861703","281.41675965717707",18/12/21 22:50:14
"2","31","359.7098654121911","281.70458428566633",18/12/21 22:50:14
"2","31","359.67387488568187","281.67260146433745",18/12/21 22:50:14
"2","31","360.948092393018","279.8835231232984",18/12/21 22:50:14
"2","31","360.88207116400275","280.11093203686835",18/12/21 22:50:14
"2","31","361.2534926726445","279.5070259214616",18/12/21 22:50:14
"2","31","360.4523541487499","280.90301915821306",18/12/21 22:50:14
"2","31","359.227684003456","281.6641140434057",18/12/21 22:50:14
"2","31","358.0843621442411","281.3429043303697",18/12/21 22:50:14
"2","31","358.03578102997267","280.61707534360863",18/12/21 22:50:14
"2","31","358.1388189858242","280.181494863596",18/12/21 22:50:14
"2","31","358.1172794298066","280.3262224029507",18/12/21 22:50:14
"2","31","359.25333873566126","279.7694924203281",18/12/21 22:50:14
"2","31","359.086224154792","280.14645837568514",18/12/21 22:50:14
"2","31","358.1040283638414","279.2310813870539",18/12/21 22:50:14
"2","31","358.50405231670896","279.92336626116804",18/12/21 22:50:14
"2","31","359.2709963129998","280.9650487367066",18/12/21 22:50:14
"2","31","357.6632596417357","280.75322763594573",18/12/21 22:50:14
"2","31","358.6253799182897","280.4268779697369",18/12/21 22:50:14
"2","31","358.84577453266786","281.9079296643685",18/12/21 22:50:14
"2","31","358.95292039848226","282.12512645269965",18/12/21 22:50:14
"2","31","358.908837067431","281.95418025505364",18/12/21 22:50:14
"2","31","360.04925428325333","280.614666369365",18/12/21 22:50:14
"2","31","360.4328605605775","279.680470642245",18/12/21 22:50:14
"2","31","359.1368321430263","281.4115903236969",18/12/21 22:50:14
"2","31","359.12583142806807","281.27491561456736",18/12/21 22:50:14
"2","31","361.02012553613207","282.7389526447274",18/12/21 22:50:14
"2","31","360.7259837912555","280.55026055131947",18/12/21 22:50:14
"2","31","361.1875694507346","280.9597740582033",18/12/21 22:50:14
"2","31","359.6172885950898","282.8983798720795",18/12/21 22:50:15
"2","31","360.2339734948111","283.8882358366381",18/12/21 22:50:15
"2","31","360.16039867690864","283.9714784930575",18/12/21 22:50:15
"2","31","360.37293640384615","281.9132621392288",18/12/21 22:50:15
"2","31","359.4626894011536","282.4222139040015",18/12/21 22:50:15
"2","31","359.3166046379483","281.59290897071116",18/12/21 22:50:15
"2","31","358.8876239986544","283.4857991967766",18/12/21 22:50:15
"2","31","357.2445213377827","282.49837715665086",18/12/21 22:50:15
"2","31","357.9647809128757","283.85393226446024",18/12/21 22:50:15
"2","31","357.3244817947902","284.8213898672246",18/12/21 22:50:15
"2","31","356.8355110977978","284.40698331630796",18/12/21 22:50:15
"2","31","357.01686452979925","284.33619653545213",18/12/21 22:50:15
"2","31","359.2415407155113","283.2555952303762",18/12/21 22:50:15
"2","31","359.29402567958033","283.53914359566284",18/12/21 22:50:15
"2","31","359.26117248243736","283.3057749045136",18/12/21 22:50:15
"2","31","360.45120768073605","283.7382188020599",18/12/21 22:50:15
"2","31","360.64158334388986","284.2088586093331",18/12/21 22:50:15
"2","31","360.77165785048885","284.11493993838354",18/12/21 22:50:15
"2","31","360.60833747818896","284.0363878821564",18/12/21 22:50:15
"2","31","358.7520501823101","284.71666350153424",18/12/21 22:50:15
"2","31","360.3098133352668","282.91910458719417",18/12/21 22:50:15
"2","31","358.9717666171862","282.9169573810494",18/12/21 22:50:15
"2","31","361.0297451765586","282.3385934040565",18/12/21 22:50:15
"2","31","360.94505231271063","282.36432188981894",18/12/21 22:50:15
"2","31","360.94505231271063","282.36432188981894",18/12/21 22:50:15
"2","31","360.94505231271063","282.36432188981894",18/12/21 22:50:15
"2","31","361.1212020981767","284.7212081366118",18/12/21 22:50:15
"2","92","360.3728586317263","285.7229225180474",18/12/21 22:50:15
"2","92","358.6902946450759","286.8075124216664",18/12/21 22:50:15
"2","92","357.29686220658454","287.7057265556629",18/12/21 22:50:15
"2","93","355.03876916302823","288.35659993214307",18/12/21 22:50:15
"2","93","353.38448438989735","288.45684232827176",18/12/21 22:50:15
"2","93","351.8393042693883","288.55047346134273",18/12/21 22:50:15
"2","93","349.74758821288833","288.6772222732342",18/12/21 22:50:15
"2","93","347.45690869920105","288.81602739732443",18/12/21 22:50:15
"2","33","348.145898359188","290.0489134454282",18/12/21 22:50:15
"2","33","348.145898359188","290.0489134454282",18/12/21 22:50:15
"2","33","348.96675860168705","291.0727538429699",18/12/21 22:50:15
"2","33","349.7692026297974","292.07362411321753",18/12/21 22:50:15
"2","33","349.39092301559","292.63063629539414",18/12/21 22:50:15
"2","33","348.824762145813","292.81434707281375",18/12/21 22:50:15
"2","33","348.824762145813","292.81434707281375",18/12/21 22:50:15
"2","33","348.824762145813","292.81434707281375",18/12/21 22:50:15
"2","33","348.235805277774","290.97860831061763",18/12/21 22:50:15
"2","33","347.55383508087465","288.8529532872219",18/12/21 22:50:15
"2","93","345.5994225362792","288.33286456021483",18/12/21 22:50:15
"2","93","343.4784918619394","287.78800042875577",18/12/21 22:50:15
"2","93","341.51124999783843","287.2826187382453",18/12/21 22:50:15
"2","90","339.935464355615","287.3921686392382",18/12/21 22:50:15
"2","90","338.6685013808463","287.54137529687546",18/12/21 22:50:15
"2","90","336.5423804634215","287.79176256322756",18/12/21 22:50:16
"2","90","334.53701115303403","288.02792925324934",18/12/21 22:50:16
"2","90","333.07629176693655","288.1999540571986",18/12/21 22:50:16
"2","90","331.32398137793786","288.2976505164414",18/12/21 22:50:16
"2","90","329.6009875794763","288.2334732627652",18/12/21 22:50:16
"2","90","327.7240762927244","288.1635629636769",18/12/21 22:50:16
"2","90","325.8851467352662","288.09506738998004",18/12/21 22:50:16
"2","90","324.3538319805437","288.0380297061766",18/12/21 22:50:16
"2","90","322.605223835979","287.972898381517",18/12/21 22:50:16
"2","90","320.59134250710065","287.89788628743247",18/12/21 22:50:16
"2","90","318.8251696294475","287.8321007199473",18/12/21 22:50:16
"2","90","317.03369268818346","287.7653726387335",18/12/21 22:50:16
"2","91","315.43944001617774","287.4355705557737",18/12/21 22:50:16
"2","91","314.01805938886093","287.1224306639876",18/12/21 22:50:16
"2","91","312.68091244242305","286.8278480292853",18/12/21 22:50:16
"2","91","310.65911138147146","286.38243140176684",18/12/21 22:50:16
"2","91","308.72678703925","285.95672710849726",18/12/21 22:50:16
"2","91","306.7802431132937","285.5278901434954",18/12/21 22:50:16
"2","22","305.37111558850444","284.42089654592485",18/12/21 22:50:16
"2","22","305.381568726416","282.08052233165824",18/12/21 22:50:16
"2","22","305.3900498367784","280.18166935865975",18/12/21 22:50:16
"2","22","305.3991753975778","278.13852907235",18/12/21 22:50:16
"2","22","305.4014967120188","277.61880528156325",18/12/21 22:50:16
"2","22","305.3286804171117","277.8183899914647",18/12/21 22:50:16
"2","22","305.478097923696","277.66551940669297",18/12/21 22:50:16
"2","22","305.71501991077264","277.6813003032484",18/12/21 22:50:16
"2","22","305.1297099130248","278.37215448628854",18/12/21 22:50:16
"2","22","305.1353989829666","279.12237337043234",18/12/21 22:50:16
"2","22","305.2465199412259","278.8759412572217",18/12/21 22:50:16
"2","22","303.88039924121904","279.5779189455987",18/12/21 22:50:16
"2","22","305.221534384348","278.50297457779857",18/12/21 22:50:16
"2","22","304.752579276738","280.05421470857505",18/12/21 22:50:16
"2","22","305.3763300208515","280.63553277580786",18/12/21 22:50:16
"2","22","305.459320397525","280.57771528087",18/12/21 22:50:16
"2","22","305.84092918896545","280.8411300506791",18/12/21 22:50:16
"2","22","305.90001057497494","281.0914471948913",18/12/21 22:50:16
"2","22","305.83285193635345","281.06207601695803",18/12/21 22:50:16
"2","22","305.9947229262775","282.15056650149035",18/12/21 22:50:16
"2","22","305.90857568275305","281.968136729366",18/12/21 22:50:16
"2","22","305.78603535746794","281.13156875676094",18/12/21 22:50:16
"2","22","305.33576254920393","281.8388060660668",18/12/21 22:50:16
"2","22","305.41393175048995","281.8139259436271",18/12/21 22:50:16
"2","22","304.6456916264","283.60783425591376",18/12/21 22:50:16
"2","22","304.47287139016436","282.3074453982168",18/12/21 22:50:16
"2","22","304.5994373998752","281.5290876139838",18/12/21 22:50:16
"2","22","304.93886932903246","281.5493912497119",18/12/21 22:50:16
"2","22","305.1544880790209","280.4257536997882",18/12/21 22:50:16
"2","22","305.46258960701306","280.2491515557779",18/12/21 22:50:16
"2","22","305.29362154387167","278.65218733238737",18/12/21 22:50:16
"2","22","304.4992238443816","279.3328444278986",18/12/21 22:50:16
"2","22","305.629594989534","278.794723450632",18/12/21 22:50:17
"2","22","304.2383757612622","279.6206675330693",18/12/21 22:50:17
"2","22","306.0110939963053","280.35772154398677",18/12/21 22:50:17
"2","22","306.2084831251402","280.3283431337183",18/12/21 22:50:17
"2","22","306.33632048142294","280.06837307681934",18/12/21 22:50:17
"2","22","304.6233207790496","278.75764558024434",18/12/21 22:50:17
"2","22","304.61984129700215","278.68316124853436",18/12/21 22:50:17
"2","22","306.23420327767536","278.6013007040839",18/12/21 22:50:17
"2","22","304.6175370041151","278.62713088640254",18/12/21 22:50:17
"2","22","305.00752671274864","278.4628576112284",18/12/21 22:50:17
"2","22","304.49863887028715","280.21524449083984",18/12/21 22:50:17
"2","22","305.1236170992079","279.66857760356385",18/12/21 22:50:17
"2","22","305.2494301613849","279.1447405727556",18/12/21 22:50:17
"2","22","304.2781106719686","280.9390829415855",18/12/21 22:50:17
"2","22","305.0250615991932","281.345720143384",18/12/21 22:50:17
"2","22","306.17941400881847","282.80222275692284",18/12/21 22:50:17
"2","22","306.01639936286136","282.7300443924158",18/12/21 22:50:17
"2","22","305.36767388912176","283.8129697833336",18/12/21 22:50:17
"2","22","304.681967670219","282.8174595297539",18/12/21 22:50:17
"2","22","304.8355909733201","282.7633903313451",18/12/21 22:50:17
"2","22","305.77920167749687","282.97752531124195",18/12/21 22:50:17
"2","22","305.63642759219334","284.34201077975825",18/12/21 22:50:17
"2","22","304.80362669827247","284.8251243349012",18/12/21 22:50:17
"2","22","305.5051024822","283.20706060250495",18/12/21 22:50:17
"2","22","305.54871186306104","282.76471398262083",18/12/21 22:50:17
"2","22","305.314822016161","281.2887895416546",18/12/21 22:50:17
"2","22","304.7128569745426","280.95998069415265",18/12/21 22:50:17
"2","22","305.516138548113","279.71169472995547",18/12/21 22:50:17
"2","22","305.06563844734166","277.8627471025001",18/12/21 22:50:17
"2","22","305.589737146624","277.87693448666914",18/12/21 22:50:17
"2","22","305.8055257904843","277.56467725556945",18/12/21 22:50:17
"2","22","306.1594012066614","278.9083578160148",18/12/21 22:50:17
"2","22","306.30435169465846","278.8685085811949",18/12/21 22:50:17
"2","22","305.47605043642443","280.0147205886386",18/12/21 22:50:17
"2","22","305.9665107013943","280.1565692362739",18/12/21 22:50:17
"2","22","305.97767253417203","280.22902586768356",18/12/21 22:50:17
"2","22","305.3795070116189","280.2960210916892",18/12/21 22:50:17
"2","22","305.19296458555993","278.18641985757705",18/12/21 22:50:17
"2","22","305.72380631384607","280.4520819620977",18/12/21 22:50:17
"2","22","303.6764312932104","279.0243927935391",18/12/21 22:50:17
"2","22","303.3604570572721","280.8496905684578",18/12/21 22:50:17
"2","22","303.3001136385713","280.93226000026465",18/12/21 22:50:17
"2","22","302.7769719690177","278.65409058739385",18/12/21 22:50:17
"2","22","302.95944063237124","278.3272249342979",18/12/21 22:50:17
"2","22","303.2006076103557","278.12903445404436",18/12/21 22:50:17
"2","22","303.39160034314233","278.35894047438046",18/12/21 22:50:17
"2","22","302.40749469292814","279.375700830389",18/12/21 22:50:17
"2","22","302.6146025674949","277.9263319604021",18/12/21 22:50:17
"2","22","302.80758572094385","277.82916842819145",18/12/21 22:50:17
"2","22","302.8553871706811","277.98410496265853",18/12/21 22:50:18
"2","22","304.9501327047309","277.7962562878111",18/12/21 22:50:18
"2","22","303.98623920169314","277.66625365071513",18/12/21 22:50:18
"2","22","304.15673653877434","279.53751146238255",18/12/21 22:50:18
"2","22","304.64637715699627","280.2167855182334",18/12/21 22:50:18
"2","22","304.94863946538277","280.49124363438733",18/12/21 22:50:18
"2","22","304.03793284855203","281.950527157448",18/12/21 22:50:18
"2","22","304.08875526864074","280.7979761630039",18/12/21 22:50:18
"2","22","305.56314233234593","280.60835804513925",18/12/21 22:50:18
"2","22","305.8039893543347","281.3267109983889",18/12/21 22:50:18
"2","22","306.0518445734757","282.53100294744024",18/12/21 22:50:18
"2","22","306.3595587918995","282.75833484243844",18/12/21 22:50:18
"2","22","304.06520098765674","283.01233596227706",18/12/21 22:50:18
"2","22","302.79869170245564","282.5697517658281",18/12/21 22:50:18
"2","22","303.5415181287195","283.15689780542044",18/12/21 22:50:18
"2","22","304.06075993069794","284.6457048260802",18/12/21 22:50:18
"2","22","305.45845814790795","284.6951777327371",18/12/21 22:50:18
"2","22","305.0995956189779","284.09661978251034",18/12/21 22:50:18
"2","22","304.11193318547487","284.1294664766975",18/12/21 22:50:18
"2","22","303.36934792372296","283.20748997121024",18/12/21 22:50:18
"2","22","303.46857199993923","282.8502693268886",18/12/21 22:50:18
"2","22","303.63395565737295","283.3894582757826",18/12/21 22:50:18
"2","22","304.73211380291906","283.3842932335833",18/12/21 22:50:18
"2","22","305.9522985901494","283.5097642107281",18/12/21 22:50:18
"2","22","306.3747686927365","282.4169943011445",18/12/21 22:50:18
"2","22","306.38991542792394","282.3625276301823",18/12/21 22:50:18
"2","22","306.2970623398382","282.0981403864291",18/12/21 22:50:18
"2","22","306.39636871783654","282.0298539392913",18/12/21 22:50:18
"2","22","305.9554192018504","281.50388957235447",18/12/21 22:50:18
"2","22","306.17487036634316","281.2172326719594",18/12/21 22:50:18
"2","22","304.5844358409766","281.78599236794156",18/12/21 22:50:18
"2","22","303.2739131997859","279.9419893708641",18/12/21 22:50:18
"2","22","303.4204708795359","279.90116456340877",18/12/21 22:50:18
"2","22","303.6406469802411","278.6853716386972",18/12/21 22:50:18
"2","22","303.4377164389052","279.4020967556191",18/12/21 22:50:18
"2","22","302.9738571488615","278.7935857215154",18/12/21 22:50:18
"2","22","303.5732526564083","279.85927777250237",18/12/21 22:50:18
"2","22","302.52818633089976","281.53853318485403",18/12/21 22:50:18
"2","22","302.43556349026426","281.4738681806894",18/12/21 22:50:18
"2","22","302.229622382127","282.4102095087773",18/12/21 22:50:18
"2","22","303.3573842295575","281.21365666034853",18/12/21 22:50:18
"2","22","304.0641528528851","281.514010890589",18/12/21 22:50:18
"2","22","303.7379383479418","281.76134226786945",18/12/21 22:50:18
"2","22","303.96864741209055","281.68377824548674",18/12/21 22:50:18
"2","22","304.01279615673684","280.4993198240329",18/12/21 22:50:18
"2","22","305.07641952376855","282.09488577444586",18/12/21 22:50:18
"2","22","304.1674609257071","283.2801027706846",18/12/21 22:50:18
"2","22","305.1592744908239","282.48463996337875",18/12/21 22:50:18
"2","22","304.4007369197087","283.17014043466105",18/12/21 22:50:18
"2","22","305.00763016489856","283.57489025828073",18/12/21 22:50:18
"2","22","304.4447564216644","282.60079687018117",18/12/21 22:50:19
"2","22","303.68141449760816","281.48028969451536",18/12/21 22:50:19
"2","22","304.2718812082133","280.4662750869043",18/12/21 22:50:19
"2","22","303.92994553211054","282.1092070496103",18/12/21 22:50:19
"2","22","305.0523263628221","282.9844769858098",18/12/21 22:50:19
"2","22","304.4047601722685","281.8438553522962",18/12/21 22:50:19
"2","22","304.4366552228124","280.83275628469437",18/12/21 22:50:19
"2","22","303.3337133694644","280.7877174432362",18/12/21 22:50:19
"2","22","304.3313760882264","279.1641650837201",18/12/21 22:50:19
"2","22","302.7829441608883","278.5166975651867",18/12/21 22:50:19
"2","22","304.316369384366","279.141932134269",18/12/21 22:50:19
"2","22","306.249963896926","279.7382214950435",18/12/21 22:50:19
"2","22","306.249963896926","279.7382214950435",18/12/21 22:50:19
"2","22","306.249963896926","279.7382214950435",18/12/21 22:50:19
"2","22","306.2137628413126","281.13383456397975",18/12/21 22:50:19
"2","22","306.1623793107295","283.1147582026649",18/12/21 22:50:19
"2","22","306.1281445148352","284.4345685715305",18/12/21 22:50:19
"2","90","306.892244338024","285.2411687091256",18/12/21 22:50:19
"2","90","308.7889890196804","285.3004176899098",18/12/21 22:50:19
"2","90","310.0574005205449","285.34003930549574",18/12/21 22:50:19
"2","90","312.3438877824025","285.41146275070236",18/12/21 22:50:19
"2","90","314.3105702031629","285.47289639018123",18/12/21 22:50:19
"2","90","315.69295842966613","285.51607831880904",18/12/21 22:50:19
"2","90","317.06990863095376","285.5746053690726",18/12/21 22:50:19
"2","90","319.5106962440059","285.8979663872768",18/12/21 22:50:19
"2","90","320.90508620010803","286.08269829658667",18/12/21 22:50:19
"2","90","322.9964564259983","286.3597677155191",18/12/21 22:50:19
"2","90","325.11925274028147","286.64100053313757",18/12/21 22:50:19
"2","90","326.53024990102244","286.82793260217164",18/12/21 22:50:19
"2","90","328.90492511078986","287.14253490088396",18/12/21 22:50:19
"2","90","330.78272497677017","287.39131003944993",18/12/21 22:50:19
"2","93","333.21546810135425","287.32317354474657",18/12/21 22:50:19
"2","93","334.838483444174","287.0059021809752",18/12/21 22:50:19
"2","93","337.0725733871141","286.5691763261519",18/12/21 22:50:19
"2","93","338.42187841685245","286.30541058368834",18/12/21 22:50:19
"2","93","340.7259771167277","285.8549992305195",18/12/21 22:50:19
"2","93","340.5893981216396","285.3925338409577",18/12/21 22:50:19
"2","93","338.5366094700498","284.39709904641865",18/12/21 22:50:19
"2","93","336.61884965486996","283.4671422064291",18/12/21 22:50:19
"2","93","334.5599266067731","282.46873273073044",18/12/21 22:50:19
"2","93","333.2010127096381","281.8097705063713",18/12/21 22:50:19
"2","93","331.3382433943436","280.90647956640635",18/12/21 22:50:19
"3","95","331.8301868213482","281.12281307207115",18/12/21 22:50:19
"3","95","333.1423784214728","281.7372005163786",18/12/21 22:50:19
"3","95","334.5361316965039","282.38977633881194",18/12/21 22:50:19
"3","95","335.76350657953157","282.9644513462719",18/12/21 22:50:19
"3","95","337.5453231171626","283.798724106954",18/12/21 22:50:19
"3","95","339.03990901190764","284.49851124785874",18/12/21 22:50:19
"3","95","340.3528767346773","285.11326208422594",18/12/21 22:50:19
"3","95","340.5982426714811","285.22814603167586",18/12/21 22:50:19
"3","95","339.17809239163074","284.5632107425863",18/12/21 22:50:20
"3","95","337.0832608616785","283.5823797497498",18/12/21 22:50:20
"3","95","335.6357461321694","282.90463202207343",18/12/21 22:50:20
"3","95","334.390386580389","282.3215363276721",18/12/21 22:50:20
"3","95","332.8687172712766","281.6090683330455",18/12/21 22:50:20
"3","95","330.8695448315368","280.6730263359279",18/12/21 22:50:20
"1","88","330.83031982484886","282.1196179181313",18/12/21 22:50:20
"1","88","331.2439484558307","284.1477139989432",18/12/21 22:50:20
"1","88","331.56295783795457","285.71187476821046",18/12/21 22:50:20
"1","88","331.905946253297","287.3936090796591",18/12/21 22:50:20
"1","88","331.181997252972","287.9341669841315",18/12/21 22:50:20
"1","88","329.0775831699431","287.8263649800153",18/12/21 22:50:20
"1","88","327.00198735620495","287.72003923820404",18/12/21 22:50:20
"1","88","325.5466789427993","287.64548871849524",18/12/21 22:50:20
"1","88","323.95872427193837","287.5641431803975",18/12/21 22:50:20
"1","88","322.46346460525893","287.4875460933308",18/12/21 22:50:20
"1","88","320.7455091859044","287.3995410573057",18/12/21 22:50:20
"1","88","318.90653036603675","287.30533640247677",18/12/21 22:50:20
"1","88","317.1820400160159","287.21699660409274",18/12/21 22:50:20
"1","89","315.16885629657384","287.86809284705157",18/12/21 22:50:20
"1","89","313.1861435943306","288.62211637417784",18/12/21 22:50:20
"1","24","313.24074447555114","289.6360934906928",18/12/21 22:50:20
"1","24","314.5047236085183","291.29949561644054",18/12/21 22:50:20
"1","24","315.72249037639705","292.9020820654742",18/12/21 22:50:20
"1","24","316.4714408259931","293.88770416748895",18/12/21 22:50:20
"1","24","314.3098114451382","294.07076063899285",18/12/21 22:50:20
"1","24","314.11778369132765","295.7613454749252",18/12/21 22:50:20
"1","24","313.89106510122497","296.37822343731534",18/12/21 22:50:20
"1","24","313.2467262370782","295.7588071340106",18/12/21 22:50:20
"1","24","314.8835373245596","295.636847316851",18/12/21 22:50:20
"1","24","312.69670420459875","295.45359058408286",18/12/21 22:50:20
"1","24","313.094362916815","295.6038209538332",18/12/21 22:50:20
"1","24","313.0659859974586","295.57207055360385",18/12/21 22:50:20
"1","24","313.90714729160385","296.1342246121289",18/12/21 22:50:20
"1","24","315.0513880847211","296.236080000264",18/12/21 22:50:20
"1","24","315.01111809305377","296.2226146899135",18/12/21 22:50:20
"1","24","313.1535806974793","295.93515604186456",18/12/21 22:50:20
"1","24","312.50481892200025","295.62194964105197",18/12/21 22:50:20
"1","24","312.7282147542577","294.39187289437035",18/12/21 22:50:20
"1","24","313.7049021651751","294.895289558503",18/12/21 22:50:20
"1","24","314.5192253127712","293.11298287661214",18/12/21 22:50:20
"1","24","315.76762780994","294.9785867178256",18/12/21 22:50:20
"1","24","315.85447832537034","294.2215106670479",18/12/21 22:50:20
"1","24","316.0711704381775","292.3797668466942",18/12/21 22:50:20
"1","24","317.6540766397117","292.41204628735636",18/12/21 22:50:20
"1","24","316.37884643211584","293.7895965984391",18/12/21 22:50:20
"1","24","316.9174289165696","293.6612845228049",18/12/21 22:50:20
"1","24","316.9334261834084","293.6628505644394",18/12/21 22:50:20
"1","24","316.92309655175615","293.75959590538287",18/12/21 22:50:20
"1","24","316.8548886529677","293.0153963046884",18/12/21 22:50:20
"1","24","316.7582477182877","292.35276503699066",18/12/21 22:50:21
"1","24","316.98473827230765","292.5602037479517",18/12/21 22:50:21
"1","24","316.187335853173","292.8735641924572",18/12/21 22:50:21
"1","24","316.73062076549036","291.7113395433395",18/12/21 22:50:21
"1","24","314.8801660287013","291.25810249347126",18/12/21 22:50:21
"1","24","314.79148752839217","291.43171254602794",18/12/21 22:50:21
"1","24","315.073546816829","291.2310169311046",18/12/21 22:50:21
"1","24","315.0676719334619","290.7406665616502",18/12/21 22:50:21
"1","24","314.144464595466","292.9710622320126",18/12/21 22:50:21
"1","24","315.79979111537506","292.80561981929213",18/12/21 22:50:21
"1","24","315.42570662877125","293.45535156905385",18/12/21 22:50:21
"1","24","313.63605930354413","294.4335632268245",18/12/21 22:50:21
"1","24","313.58051688907983","292.36213443425066",18/12/21 22:50:21
"1","24","314.08785546541037","294.7212634166824",18/12/21 22:50:21
"1","24","314.91044684207895","294.9401317377854",18/12/21 22:50:21
"1","24","314.6232789111257","292.8414009625243",18/12/21 22:50:21
"1","24","312.6074368344346","294.2508778256406",18/12/21 22:50:21
"1","24","312.78209939526096","294.39408246279453",18/12/21 22:50:21
"1","24","313.0713156214137","295.2676201821466",18/12/21 22:50:21
"1","24","312.653929212262","294.70217303235864",18/12/21 22:50:21
"1","24","312.1430359714908","294.3661018716031",18/12/21 22:50:21
"1","24","313.208724270213","296.1340193384149",18/12/21 22:50:21
"1","24","313.1874643830529","296.1394495146189",18/12/21 22:50:21
"1","24","312.57240099440907","295.7778891832746",18/12/21 22:50:21
"1","24","313.0742964573647","296.1321221092757",18/12/21 22:50:21
"1","24","314.42731121897543","295.71726584831407",18/12/21 22:50:21
"1","24","314.27231724724516","295.7500729621609",18/12/21 22:50:21
"1","24","313.85992217004554","296.12131272674736",18/12/21 22:50:21
"1","24","314.2708198273958","293.85896391296603",18/12/21 22:50:21
"1","24","313.9994132803609","293.42615136876964",18/12/21 22:50:21
"1","24","314.69768196712715","294.66639579006653",18/12/21 22:50:21
"1","24","312.63562558842335","294.93629018443846",18/12/21 22:50:21
"1","24","312.4808765407686","294.96201588585365",18/12/21 22:50:21
"1","24","314.41374845262527","294.83371920477407",18/12/21 22:50:21
"1","24","314.8818412840518","294.2979841109586",18/12/21 22:50:21
"1","24","315.19924243183704","293.2535226389224",18/12/21 22:50:21
"1","24","315.4692844697708","293.6657094643067",18/12/21 22:50:21
"1","24","314.90684617403286","294.76878060144156",18/12/21 22:50:21
"1","24","314.40210000219463","294.90126710550993",18/12/21 22:50:21
"1","24","315.68377612374246","296.0262550781661",18/12/21 22:50:21
"1","24","315.68887108347667","296.0618079952896",18/12/21 22:50:21
"1","24","315.1956145199096","296.515339125697",18/12/21 22:50:21
"1","24","315.192445761787","296.4369821266476",18/12/21 22:50:21
"1","24","314.86400586397673","294.3601640654835",18/12/21 22:50:21
"1","24","314.4598847749794","294.2397772453106",18/12/21 22:50:21
"1","24","312.74043833981585","294.18701567347426",18/12/21 22:50:21
"1","24","311.95890929923587","294.58442445731396",18/12/21 22:50:21
"1","24","313.6145391924736","293.90321213014863",18/12/21 22:50:21
"1","24","313.8494717170016","295.481925643353",18/12/21 22:50:21
"1","24","314.7939895576861","294.3200570225808",18/12/21 22:50:22
"1","24","315.62457947854284","295.4076614760311",18/12/21 22:50:22
"1","24","314.5501035827012","294.995210122383",18/12/21 22:50:22
"1","24","313.62408191090134","296.1829544812121",18/12/21 22:50:22
"1","24","315.90417108702354","296.34177095510756",18/12/21 22:50:22
"1","24","317.48330066953343","295.90973146617625",18/12/21 22:50:22
"1","24","316.33756930155937","295.7783231183643",18/12/21 22:50:22
"1","24","315.869182764005","295.7845631351715",18/12/21 22:50:22
"1","24","315.8753907457558","295.68871053524646",18/12/21 22:50:22
"1","24","317.74062170403715","295.515950114844",18/12/21 22:50:22
"1","24","318.6991947923146","293.38503341577535",18/12/21 22:50:22
"1","24","318.9139620564468","293.14849840977195",18/12/21 22:50:22
"1","24","320.0575554799174","293.12041079914263",18/12/21 22:50:22
"1","24","320.77713544030763","293.53723379607203",18/12/21 22:50:22
"1","24","320.5930940838949","294.86600939229766",18/12/21 22:50:22
"1","24","319.5335932127142","295.0289303632212",18/12/21 22:50:22
"1","24","319.3126808544875","296.3323853705754",18/12/21 22:50:22
"1","24","319.21583586321367","296.40715913897725",18/12/21 22:50:22
"1","24","317.3204002016944","295.8387249200217",18/12/21 22:50:22
"1","24","317.4541928091101","295.80236767720936",18/12/21 22:50:22
"1","24","318.063847610303","294.4801301586295",18/12/21 22:50:22
"1","24","317.5907741181144","295.4170348166918",18/12/21 22:50:22
"1","24","317.6447917129201","293.9524868985831",18/12/21 22:50:22
"1","24","317.11396707559453","293.31644229719524",18/12/21 22:50:22
"1","24","316.50103391030626","293.1827712313659",18/12/21 22:50:22
"1","24","316.5938952796489","294.4554617684917",18/12/21 22:50:22
"1","24","314.4911852586161","293.97259153562106",18/12/21 22:50:22
"1","24","314.18727797023746","293.7649458356093",18/12/21 22:50:22
"1","24","312.760323683834","294.12591227489895",18/12/21 22:50:22
"1","24","311.8493173529348","293.6507541845057",18/12/21 22:50:22
"1","24","312.08671450626525","293.9357785230572",18/12/21 22:50:22
"1","24","312.33504962834866","294.5306704025151",18/12/21 22:50:22
"1","24","312.2598259021734","294.6574719208148",18/12/21 22:50:22
"1","24","313.76830786677493","295.21765534651183",18/12/21 22:50:22
"1","24","314.2967944159411","294.88620397480184",18/12/21 22:50:22
"1","24","314.7822269795403","294.83721860132255",18/12/21 22:50:22
"1","24","314.55875003785957","294.24104872770215",18/12/21 22:50:22
"1","24","313.7674604914953","294.82241491928613",18/12/21 22:50:22
"1","24","314.97459783901655","294.8513736671523",18/12/21 22:50:22
"1","24","315.91300629469555","294.50672697633",18/12/21 22:50:22
"1","24","315.66687976750467","294.5535893459063",18/12/21 22:50:22
"1","24","314.2981321223751","294.1180520969395",18/12/21 22:50:22
"1","24","314.5694009909772","293.3390429217644",18/12/21 22:50:22
"1","24","314.25989021827326","293.53147090764213",18/12/21 22:50:22
"1","24","316.04301734716563","291.92818413466",18/12/21 22:50:22
"1","24","315.52081967315354","290.23666794229746",18/12/21 22:50:22
"1","24","315.28597474256713","290.75317446411793",18/12/21 22:50:22
"1","24","313.03972684227523","291.0561232940756",18/12/21 22:50:22
"1","24","313.0445398407896","292.2346955942548",18/12/21 22:50:22
"1","24","313.5755921577068","293.6155850456937",18/12/21 22:50:22
"1","24","312.87653363522503","291.4025177140577",18/12/21 22:50:23
"1","24","314.77996090209865","290.24722834507867",18/12/21 22:50:23
"1","24","315.1222330211069","292.0328172931329",18/12/21 22:50:23
"1","24","314.92406406842036","292.32880026174075",18/12/21 22:50:23
"1","24","315.5055335189812","292.41601465129025",18/12/21 22:50:23
"1","24","316.3747204577943","291.6338079753228",18/12/21 22:50:23
"1","24","315.66057468033625","292.61837044449953",18/12/21 22:50:23
"1","24","315.4537278737357","292.555909547797",18/12/21 22:50:23
"1","24","316.87657018106745","293.26342672409476",18/12/21 22:50:23
"1","24","316.90535768195565","292.4180973165832",18/12/21 22:50:23
"1","24","316.58032804357543","292.2098858209771",18/12/21 22:50:23
"1","24","316.95887544273006","292.02762378008356",18/12/21 22:50:23
"1","24","317.0242642725933","292.6631687040538",18/12/21 22:50:23
"1","24","317.76557045856407","292.5414651026529",18/12/21 22:50:23
"1","24","317.7643252531795","291.5708084396702",18/12/21 22:50:23
"1","24","318.86797541319834","291.09924117113553",18/12/21 22:50:23
"1","24","320.6391175813911","292.5213363426215",18/12/21 22:50:23
"1","24","321.00734141630556","293.4643802031537",18/12/21 22:50:23
"1","24","320.5360927114284","292.2207016260296",18/12/21 22:50:23
"1","24","319.73275532941784","294.0398647938968",18/12/21 22:50:23
"1","24","319.0893110609561","293.5741295924008",18/12/21 22:50:23
"1","24","319.5074297606201","291.69752647215597",18/12/21 22:50:23
"1","24","319.5681644555931","291.90204876128473",18/12/21 22:50:23
"1","24","320.8964963407232","293.30267630270816",18/12/21 22:50:23
"1","24","320.3155133031348","293.64413123925914",18/12/21 22:50:23
"1","24","320.69865806877266","293.8874415274286",18/12/21 22:50:23
"1","24","320.70747810237043","295.51573008561024",18/12/21 22:50:23
"1","24","320.12341655284393","296.17975042439565",18/12/21 22:50:23
"1","24","320.0614846618557","296.07231888963315",18/12/21 22:50:23
"1","24","318.89838670529235","295.41016050881234",18/12/21 22:50:23
"1","24","319.50474122508604","295.6914979556231",18/12/21 22:50:23
"1","24","319.34772906368005","295.191866872606",18/12/21 22:50:23
"1","24","318.7946443540429","294.32323637015264",18/12/21 22:50:23
"1","24","318.5415621608696","292.84892348399967",18/12/21 22:50:23
"1","24","318.86149728426125","293.05171005593803",18/12/21 22:50:23
"1","24","318.3118194089477","291.47149448478757",18/12/21 22:50:23
"1","24","320.4083380381714","290.6249342606351",18/12/21 22:50:23
"1","24","320.79717665026106","292.48963750761413",18/12/21 22:50:23
"1","24","319.70612943944013","291.4884378327002",18/12/21 22:50:23
"1","24","318.3364874976419","291.0588765789853",18/12/21 22:50:23
"1","24","318.0920568777169","291.4114887834906",18/12/21 22:50:23
"1","24","315.9942130692257","290.8067082074005",18/12/21 22:50:23
"1","24","314.90804563098027","291.4166863660574",18/12/21 22:50:23
"1","24","316.28347179320394","291.1655242502437",18/12/21 22:50:23
"1","24","317.5156743967446","289.7366498144824",18/12/21 22:50:23
"1","24","316.19142607454086","290.21880787403325",18/12/21 22:50:23
"1","24","317.6648845522407","290.55722456590763",18/12/21 22:50:23
"1","24","317.79245046007577","291.2358643552615",18/12/21 22:50:23
"1","24","318.2115294585192","291.7007659011054",18/12/21 22:50:23
"1","24","317.15373512099046","290.19590902734325",18/12/21 22:50:23
"1","24","317.59711237440047","291.8491580128688",18/12/21 22:50:24
"1","24","317.4271415622576","292.67694439388004",18/12/21 22:50:24
"1","24","317.23603159778077","293.44044979724254",18/12/21 22:50:24
"1","24","316.3813802448837","293.1748020155645",18/12/21 22:50:24
"1","24","315.5674152469975","292.21034875161996",18/12/21 22:50:24
"1","24","315.79823735040833","292.62793963856654",18/12/21 22:50:24
"1","24","316.69343635236976","291.9713145213763",18/12/21 22:50:24
"1","24","316.0429948131128","290.7367737505872",18/12/21 22:50:24
"1","24","315.5290667636837","290.7578512954365",18/12/21 22:50:24
"1","24","315.2525582976687","291.2683131504595",18/12/21 22:50:24
"1","24","314.1421322698115","292.0463353742594",18/12/21 22:50:24
"1","24","314.17249627428623","292.14173389419443",18/12/21 22:50:24
"1","24","314.5203517645379","293.2850836788085",18/12/21 22:50:24
"1","24","314.5141494394569","293.27029296906926",18/12/21 22:50:24
"1","24","315.2281671695564","293.5197847128929",18/12/21 22:50:24
"1","24","315.3979455868405","293.43392462551543",18/12/21 22:50:24
"1","24","314.9096670057729","291.0774969351629",18/12/21 22:50:24
"1","24","313.87836426328556","292.4310140235983",18/12/21 22:50:24
"1","24","311.83627869101184","293.34935674988145",18/12/21 22:50:24
"1","24","312.17698324403926","293.3760004797418",18/12/21 22:50:24
"1","24","312.55826320492054","292.24822068096404",18/12/21 22:50:24
"1","24","313.41193740614057","291.7528370373746",18/12/21 22:50:24
"1","24","312.4210573954535","293.1992186949868",18/12/21 22:50:24
"1","24","312.57012843633305","293.1698087620385",18/12/21 22:50:24
"1","24","312.11604521097297","293.8384073936372",18/12/21 22:50:24
"1","24","313.1237929428321","294.8003778670801",18/12/21 22:50:24
"1","24","313.69082358412123","293.5891750635081",18/12/21 22:50:24
"1","24","312.9964157493871","292.37995082469024",18/12/21 22:50:24
"1","24","314.1815191092478","292.1902598070337",18/12/21 22:50:24
"1","24","312.42092135586","292.2854917533511",18/12/21 22:50:24
"1","24","314.2596398981172","292.1593892679293",18/12/21 22:50:24
"1","24","312.7422331548856","292.23349616995034",18/12/21 22:50:24
"1","24","312.7422331548856","292.23349616995034",18/12/21 22:50:24
"1","24","312.7422331548856","292.23349616995034",18/12/21 22:50:24
"1","24","312.7422762766941","290.118685264551",18/12/21 22:50:24
"1","89","312.21276858744676","287.7467274877058",18/12/21 22:50:24
"1","89","311.3998231852765","286.078560011748",18/12/21 22:50:24
"1","8","310.7907165948758","284.45659530594025",18/12/21 22:50:24
"1","8","310.2036410871824","282.09666409881197",18/12/21 22:50:24
"1","8","309.76407030058203","280.329673646228",18/12/21 22:50:24
"1","8","309.4428705388706","279.03851206402663",18/12/21 22:50:24
"1","8","310.3848502532875","279.85614225277175",18/12/21 22:50:24
"1","8","308.3589521263399","281.2630522018447",18/12/21 22:50:24
"1","8","310.32726666866506","280.61067037592363",18/12/21 22:50:24
"1","8","310.38262635536455","280.0209771966565",18/12/21 22:50:24
"1","8","310.22359481720645","281.1239754995304",18/12/21 22:50:24
"1","8","309.52793387999577","279.98648679161806",18/12/21 22:50:24
"1","8","310.74074866448217","279.9856679638843",18/12/21 22:50:24
"1","8","310.3460166167183","280.63136390282034",18/12/21 22:50:24
"1","8","309.29988400552435","279.77028112857823",18/12/21 22:50:24
"1","8","308.53714501451054","279.4057700972204",18/12/21 22:50:25
"1","8","308.38409849972726","278.9458242868243",18/12/21 22:50:25
"1","8","309.543022544542","278.30252356466025",18/12/21 22:50:25
"1","8","309.0899181570426","278.09366386300024",18/12/21 22:50:25
"1","8","309.0955610900371","278.73628757335285",18/12/21 22:50:25
"1","8","308.08037119821813","278.96723250178815",18/12/21 22:50:25
"1","8","308.8108655520297","279.12673663922493",18/12/21 22:50:25
"1","8","309.3250415321959","278.84900748183446",18/12/21 22:50:25
"1","8","309.9409530427265","279.5576223739746",18/12/21 22:50:25
"1","8","309.9318308470806","278.0407199663754",18/12/21 22:50:25
"1","8","308.4766936346977","279.6467265763272",18/12/21 22:50:25
"1","8","308.3319112956454","278.25783057698374",18/12/21 22:50:25
"1","8","308.82111423428677","279.70553016047",18/12/21 22:50:25
"1","8","310.8530966203083","279.65770978636255",18/12/21 22:50:25
"1","8","310.57836829728313","280.9697976066797",18/12/21 22:50:25
"1","8","308.879409902223","282.3468685865855",18/12/21 22:50:25
"1","8","307.83793430064804","283.7551608255074",18/12/21 22:50:25
"1","8","307.73965007366695","283.63489292701524",18/12/21 22:50:25
"1","8","307.7493219996801","283.61265051187905",18/12/21 22:50:25
"1","8","307.69311615241554","282.8434332733392",18/12/21 22:50:25
"1","8","307.6512941724188","282.98505810367794",18/12/21 22:50:25
"1","8","306.8591213836428","282.14954448375414",18/12/21 22:50:25
"1","8","309.05245923613114","282.64221705644707",18/12/21 22:50:25
"1","8","310.42924680544843","283.53006028635446",18/12/21 22:50:25
"1","8","311.0390325217267","283.00717953262773",18/12/21 22:50:25
"1","8","311.3287641944994","282.77841163717454",18/12/21 22:50:25
"1","8","311.23199085430275","282.7428151468101",18/12/21 22:50:25
"1","8","310.0838656475946","282.3101272429648",18/12/21 22:50:25
"1","8","310.1654627436075","283.5681641034609",18/12/21 22:50:25
"1","8","310.16270826137367","284.42232145912027",18/12/21 22:50:25
"1","8","310.18638532212265","284.3976696521445",18/12/21 22:50:25
"1","8","310.5967295816856","284.23990571207315",18/12/21 22:50:25
"1","8","310.4101452729071","284.2079502504159",18/12/21 22:50:25
"1","8","310.2174716026953","283.5548069029523",18/12/21 22:50:25
"1","8","307.91988435109965","283.83481715785507",18/12/21 22:50:25
"1","8","308.55681527491043","283.56040841379047",18/12/21 22:50:25
"1","8","308.5679706967084","283.45283595958256",18/12/21 22:50:25
"1","8","309.4332950173716","282.025149962226",18/12/21 22:50:25
"1","8","307.80361570161915","281.21688180140944",18/12/21 22:50:25
"1","8","306.99106678416985","281.328936612367",18/12/21 22:50:25
"1","8","307.03376016624657","281.3798864390968",18/12/21 22:50:25
"1","8","307.04342486489986","281.44713070529934",18/12/21 22:50:25
"1","8","308.7073858979755","280.6480387030477",18/12/21 22:50:25
"1","8","308.8283005467253","280.9909940369044",18/12/21 22:50:25
"1","8","307.86851728263684","280.74730096815",18/12/21 22:50:25
"1","8","308.3540217248288","281.15366275892114",18/12/21 22:50:25
"1","8","308.6072850817932","281.52228658767643",18/12/21 22:50:25
"1","8","308.51934771083","282.26217448806375",18/12/21 22:50:25
"1","8","308.466682202729","282.20591658765096",18/12/21 22:50:25
"1","8","307.12114036028805","282.2463598819035",18/12/21 22:50:25
"1","8","307.2399150317376","282.69348017654715",18/12/21 22:50:26
"1","8","307.3387096965147","283.49250562600326",18/12/21 22:50:26
"1","8","307.3427312523318","283.35748261029585",18/12/21 22:50:26
"1","8","307.500408784449","283.2604639152487",18/12/21 22:50:26
"1","8","308.2391935264794","283.80865632382665",18/12/21 22:50:26
"1","8","308.8228679341166","282.8067681333226",18/12/21 22:50:26
"1","8","310.8538312300392","283.97218929663205",18/12/21 22:50:26
"1","8","311.3170498032274","284.1899544647674",18/12/21 22:50:26
"1","8","310.47759545439095","283.0961096318523",18/12/21 22:50:26
"1","8","311.1560825422767","282.699988568475",18/12/21 22:50:26
"1","8","311.02883853113167","281.47359461210107",18/12/21 22:50:26
"1","8","310.7996033800052","281.681901937602",18/12/21 22:50:26
"1","8","311.0800207993066","283.5608305679887",18/12/21 22:50:26
"1","8","310.88331230893743","282.56967082074436",18/12/21 22:50:26
"1","8","310.88618252145676","280.6300995000841",18/12/21 22:50:26
"1","8","309.62804376387845","281.41807915662326",18/12/21 22:50:26
"1","8","308.41165888749276","283.2458199882241",18/12/21 22:50:26
"1","8","307.5659228553638","282.6102614687442",18/12/21 22:50:26
"1","8","308.3416957691508","282.80206092465727",18/12/21 22:50:26
"1","8","310.21193014364644","281.29830907029265",18/12/21 22:50:26
"1","8","310.8412852643166","281.7432968155809",18/12/21 22:50:26
"1","8","310.83541656031014","281.7470351501346",18/12/21 22:50:26
"1","8","310.50541453244034","281.10392750316345",18/12/21 22:50:26
"1","8","310.47114666899665","279.5592937174124",18/12/21 22:50:26
"1","8","309.3278541385317","277.7474520581983",18/12/21 22:50:26
"1","8","308.45922792439825","279.6797000129908",18/12/21 22:50:26
"1","8","309.5535456037906","280.31279126516205",18/12/21 22:50:26
"1","8","308.27613635245905","281.1463435411158",18/12/21 22:50:26
"1","8","308.335953788682","281.4928879159804",18/12/21 22:50:26
"1","8","309.31377435966294","283.62112752146743",18/12/21 22:50:26
"1","8","308.41653644472336","283.9014769355938",18/12/21 22:50:26
"1","8","309.187908559399","281.8965910894556",18/12/21 22:50:26
"1","8","309.04863786373915","281.7817584694468",18/12/21 22:50:26
"1","8","309.94538629189674","280.83753724309884",18/12/21 22:50:26
"1","8","308.1070292016997","280.97925345284045",18/12/21 22:50:26
"1","8","307.998799685114","280.9417800739753",18/12/21 22:50:26
"1","8","309.1058684208405","282.06253050528477",18/12/21 22:50:26
"1","8","309.668469147887","283.06847579388926",18/12/21 22:50:26
"1","8","309.05300784413873","283.78191321691486",18/12/21 22:50:26
"1","8","309.2275039361028","284.0537443145725",18/12/21 22:50:26
"1","8","309.9228119808306","284.04040742534085",18/12/21 22:50:26
"1","8","309.98111695823815","283.5710411352857",18/12/21 22:50:26
"1","8","308.7380222098438","282.80421287309593",18/12/21 22:50:26
"1","8","308.78733597208344","282.4776430483013",18/12/21 22:50:26
"1","8","310.0785057614381","280.38322127105283",18/12/21 22:50:26
"1","8","310.2553097743444","278.2481374914336",18/12/21 22:50:26
"1","8","310.5700188624814","278.87225056315225",18/12/21 22:50:26
"1","8","311.4043561031358","279.124469907277",18/12/21 22:50:26
"1","8","311.1969950756133","279.3734906426722",18/12/21 22:50:26
"1","8","310.6817783870316","280.26424080455826",18/12/21 22:50:26
"1","8","310.51029371553494","280.5521394065611",18/12/21 22:50:27
"1","8","311.3397391243747","278.74945449824",18/12/21 22:50:27
"1","8","311.4751333498966","278.9488727165102",18/12/21 22:50:27
"1","8","310.05568148360385","277.607885293994",18/12/21 22:50:27
"1","8","309.9298413087526","278.4991885078277",18/12/21 22:50:27
"1","8","309.6001278037484","279.07218588070214",18/12/21 22:50:27
"1","8","309.558996005156","279.3542378376469",18/12/21 22:50:27
"1","8","309.1719819449341","279.7927603686757",18/12/21 22:50:27
"1","8","309.368406546453","279.97405372231844",18/12/21 22:50:27
"1","8","309.19769249396563","280.0579254463225",18/12/21 22:50:27
"1","8","307.4145499283759","278.75505931075077",18/12/21 22:50:27
"1","8","307.69916970960855","278.16567096195416",18/12/21 22:50:27
"1","8","307.7048689756588","279.1262899598358",18/12/21 22:50:27
"1","8","310.1250400348124","279.5651176331167",18/12/21 22:50:27
"1","8","310.1299579690277","279.4572548419034",18/12/21 22:50:27
"1","8","310.80686161347813","280.75401487449375",18/12/21 22:50:27
"1","8","311.3180351374089","283.08881558040594",18/12/21 22:50:27
"1","8","309.6616551736335","284.2140617400375",18/12/21 22:50:27
"1","8","309.3345296493483","284.1742579343504",18/12/21 22:50:27
"1","8","309.5410048555771","283.55895139507027",18/12/21 22:50:27
"1","8","307.55050486324404","282.44576277203623",18/12/21 22:50:27
"1","8","306.95388276338804","283.2850419574963",18/12/21 22:50:27
"1","8","308.94772306035753","284.6634348489075",18/12/21 22:50:27
"1","8","310.1169964365479","282.5440835605172",18/12/21 22:50:27
"1","8","307.9965353055005","282.86191359268526",18/12/21 22:50:27
"1","8","309.6000578693179","283.8347268809714",18/12/21 22:50:27
"1","8","309.6716253085883","283.886949304628",18/12/21 22:50:27
"1","8","308.26137820979517","283.8102079842268",18/12/21 22:50:27
"1","8","308.6671160938918","284.07136872051115",18/12/21 22:50:27
"1","8","308.6774113264112","283.9762479766888",18/12/21 22:50:27
"1","8","308.58973186295816","284.1743553805346",18/12/21 22:50:27
"1","8","307.8848505868043","283.6101362261638",18/12/21 22:50:27
"1","8","308.1094268192334","284.2787484136277",18/12/21 22:50:27
"1","8","309.07373084595775","283.58108829087763",18/12/21 22:50:27
"1","8","309.06452412029705","284.2463372012451",18/12/21 22:50:27
"1","8","308.9270479524016","283.2640738310768",18/12/21 22:50:27
"1","8","308.7728309477299","282.3187611718519",18/12/21 22:50:27
"1","8","307.6561437172867","283.7682777384385",18/12/21 22:50:27
"1","8","307.6646823453621","282.66647876901294",18/12/21 22:50:27
"1","8","307.66658861031874","282.48452608256133",18/12/21 22:50:27
"1","8","307.3555635343169","283.450641933843",18/12/21 22:50:27
"1","8","307.6235965444603","282.6929143746914",18/12/21 22:50:27
"1","8","307.59272468410023","281.82845395480166",18/12/21 22:50:27
"1","8","307.024339063253","281.85779346625617",18/12/21 22:50:27
"1","8","307.0839552666786","281.5173974775144",18/12/21 22:50:27
"1","8","306.96609327147667","281.23614680695215",18/12/21 22:50:27
"1","8","307.28185205808353","280.3191764052671",18/12/21 22:50:27
"1","8","306.8546403515723","278.07610319155475",18/12/21 22:50:27
"1","8","308.02917582335255","280.04130401229014",18/12/21 22:50:27
"1","8","308.6457761215938","278.4074956768507",18/12/21 22:50:27
"1","8","307.47797007234533","278.45303886416343",18/12/21 22:50:28
"1","8","307.54621712658115","279.6042989422256",18/12/21 22:50:28
"1","8","307.54109244636567","279.6142608385923",18/12/21 22:50:28
"1","8","308.7768332911629","279.56342376269225",18/12/21 22:50:28
"1","8","309.7905597426528","281.44425032394764",18/12/21 22:50:28
"1","8","308.0308194346683","283.0749572613076",18/12/21 22:50:28
"1","8","309.61416332701117","282.8852718200332",18/12/21 22:50:28
"1","8","308.8347845490087","282.0257464472347",18/12/21 22:50:28
"1","8","307.3552637193697","280.4461236251461",18/12/21 22:50:28
"1","8","308.76559016390473","280.97246976054697",18/12/21 22:50:28
"1","8","309.66108875289336","278.9838927920095",18/12/21 22:50:28
"1","8","309.8880825215986","278.8459512082766",18/12/21 22:50:28
"1","8","310.4555665618432","278.9349950854932",18/12/21 22:50:28
"1","8","308.6905523604008","277.84707198069344",18/12/21 22:50:28
"1","8","310.79170635680595","278.8429866740639",18/12/21 22:50:28
"1","8","309.73071253501325","277.57851855043486",18/12/21 22:50:28
"1","8","308.78179389754683","277.8928218532509",18/12/21 22:50:28
"1","8","308.31928463082426","278.27773117813314",18/12/21 22:50:28
"1","8","308.3125880952918","278.5504337440219",18/12/21 22:50:28
"1","8","306.8360915124288","279.63702348363336",18/12/21 22:50:28
"1","8","308.71288357433116","279.4722479231213",18/12/21 22:50:28
"1","8","308.76749984278894","277.886362290672",18/12/21 22:50:28
"1","8","308.42864460728885","278.1852702163592",18/12/21 22:50:28
"1","8","309.34701742998885","279.0757145969288",18/12/21 22:50:28
"1","8","309.3266672811269","280.3799718889473",18/12/21 22:50:28
"1","8","309.7806096357925","281.2792741580472",18/12/21 22:50:28
"1","8","309.6742531371113","279.6715231146278",18/12/21 22:50:28
"1","8","310.82643849660525","280.4760429063448",18/12/21 22:50:28
"1","8","309.97905731092766","278.5235206416667",18/12/21 22:50:28
"1","8","308.2781424517005","279.66297274718113",18/12/21 22:50:28
"1","8","308.33297725569474","279.7253650040112",18/12/21 22:50:28
"1","8","306.83591935310073","279.9160331963235",18/12/21 22:50:28
"1","8","307.7358285505618","277.8261780744234",18/12/21 22:50:28
"1","8","307.4596792172868","277.96022573973306",18/12/21 22:50:28
"1","8","307.86394746102906","278.46679012104113",18/12/21 22:50:28
"1","8","307.79524534884104","278.9811757599209",18/12/21 22:50:28
"1","8","308.0190824162387","278.31651075981097",18/12/21 22:50:28
"1","8","309.0361844004441","280.1578387179258",18/12/21 22:50:28
"1","8","307.16443157083705","280.55287786769895",18/12/21 22:50:28
"1","8","308.4410057806017","279.33405344360443",18/12/21 22:50:28
"1","8","309.8696718326401","280.6786550133284",18/12/21 22:50:28
"1","8","307.8875750932323","282.1069140958715",18/12/21 22:50:28
"1","8","307.9078759093057","281.5022061506831",18/12/21 22:50:28
"1","8","308.21067375388657","281.413501545159",18/12/21 22:50:28
"1","8","307.7259006056966","281.32313682982874",18/12/21 22:50:28
"1","8","309.6994853314005","280.5922377995785",18/12/21 22:50:28
"1","8","308.76962453839786","281.423490686302",18/12/21 22:50:28
"1","8","308.33280882389107","281.9236739645201",18/12/21 22:50:28
"1","8","308.3993196889568","280.9621667538044",18/12/21 22:50:28
"1","8","308.9256076510037","281.191343925863",18/12/21 22:50:29
"1","8","309.98445663304585","281.24118499464856",18/12/21 22:50:29
"1","8","309.563284524972","280.7832751753738",18/12/21 22:50:29
"1","8","309.52117226803523","281.1169769076549",18/12/21 22:50:29
"1","8","309.4430089181879","278.6790797034704",18/12/21 22:50:29
"1","8","309.9053432865991","280.0956565234727",18/12/21 22:50:29
"1","8","310.04164173886227","280.0187528820477",18/12/21 22:50:29
"1","8","309.5429997276995","280.0665792308837",18/12/21 22:50:29
"1","8","308.7062489513128","279.11975994454093",18/12/21 22:50:29
"1","8","309.7670191944248","277.6224390010924",18/12/21 22:50:29
"1","8","310.97258239444227","278.53705623405097",18/12/21 22:50:29
"1","8","310.8413011004478","278.57963486472886",18/12/21 22:50:29
"1","8","310.9572603314575","280.2601567633458",18/12/21 22:50:29
"1","8","311.3591454926269","278.78175638482105",18/12/21 22:50:29
"1","8","310.4903486773668","280.4036091668252",18/12/21 22:50:29
"1","8","310.3423279378356","280.4367226416203",18/12/21 22:50:29
"1","8","310.5183547528007","281.01481299256443",18/12/21 22:50:29
"1","8","310.50241428490637","280.97110085438135",18/12/21 22:50:29
"1","8","308.21259100490704","281.0686397695958",18/12/21 22:50:29
"1","8","310.2828179602206","280.70561785477935",18/12/21 22:50:29
"1","8","309.73657446575487","279.48283151618494",18/12/21 22:50:29
"1","8","309.5254258107555","279.50224833739526",18/12/21 22:50:29
"1","8","307.85147985837824","279.69846141766277",18/12/21 22:50:29
"1","8","309.2666192882456","278.2088536039014",18/12/21 22:50:29
"1","8","309.4085917405629","279.72449053358457",18/12/21 22:50:29
"1","8","309.17251509313763","278.56457120105995",18/12/21 22:50:29
"1","8","309.2459716195694","278.0843586767051",18/12/21 22:50:29
"1","8","311.2803486883192","278.04462170518536",18/12/21 22:50:29
"1","8","311.2812293390941","278.11161128954205",18/12/21 22:50:29
"1","8","310.1907786917491","277.99479946302904",18/12/21 22:50:29
"1","8","310.6596391741778","278.2934281099078",18/12/21 22:50:29
"1","8","309.86834231998733","278.385862160408",18/12/21 22:50:29
"1","8","309.5387251282338","277.8256621835096",18/12/21 22:50:29
"1","8","310.0070713103165","278.71166478700684",18/12/21 22:50:29
"1","8","310.0790880686487","278.6342453070185",18/12/21 22:50:29
"1","8","310.41303453427145","278.51489461688897",18/12/21 22:50:29
"1","8","309.95663450588887","278.03367909735493",18/12/21 22:50:29
"1","8","309.5337673713016","277.9740593828945",18/12/21 22:50:29
"1","8","310.04997399018924","277.5752840585464",18/12/21 22:50:29
"1","8","310.0280367098901","277.539851962369",18/12/21 22:50:29
"1","8","310.3637748682865","277.9323157643068",18/12/21 22:50:29
"1","8","309.8885060483673","279.50020887535044",18/12/21 22:50:29
"1","8","308.1530044710781","277.8974849743063",18/12/21 22:50:29
"1","8","308.5705470765119","277.94323489975926",18/12/21 22:50:29
"1","8","309.4945382187356","278.22877997995136",18/12/21 22:50:29
"1","8","308.96400467586056","278.15966304908653",18/12/21 22:50:29
"1","8","309.167455675329","278.6226740068324",18/12/21 22:50:29
"1","8","310.964113493303","280.1039206847049",18/12/21 22:50:29
"1","8","311.0883847463439","279.8245825915347",18/12/21 22:50:29
"1","8","311.0883847463439","279.8245825915347",18/12/21 22:50:29
"1","8","311.0883847463439","279.8245825915347",18/12/21 22:50:30
"1","8","309.5604945432183","280.09077224600463",18/12/21 22:50:30
"1","8","308.2319708041257","280.32222819378194",18/12/21 22:50:30
"1","8","306.86188485889136","280.560925126068",18/12/21 22:50:30
"1","8","306.9128589337933","280.1564412338029",18/12/21 22:50:30
"1","8","306.91049468640733","280.2122534856977",18/12/21 22:50:30
"1","8","307.2786557099992","278.05966871246005",18/12/21 22:50:30
"1","8","307.4047932953617","278.0121026077677",18/12/21 22:50:30
"1","8","308.04267025869365","278.9362065144841",18/12/21 22:50:30
"1","8","309.7517704540223","279.7654708432839",18/12/21 22:50:30
"1","8","309.9049216353635","279.059306536215",18/12/21 22:50:30
"1","8","308.8785638779627","277.6658291701208",18/12/21 22:50:30
"1","8","307.77305338471655","278.1215956727373",18/12/21 22:50:30
"1","8","307.7538067682157","277.78626504062623",18/12/21 22:50:30
"1","8","309.0528600978638","277.79595316058345",18/12/21 22:50:30
"1","8","310.19471909447867","278.4918411545362",18/12/21 22:50:30
"1","8","310.2609877027483","278.75863124476933",18/12/21 22:50:30
"1","8","310.2877696442193","278.38584531010565",18/12/21 22:50:30
"1","8","310.0906941388635","279.8453212618979",18/12/21 22:50:30
"1","8","310.8633680852669","280.13910334418046",18/12/21 22:50:30
"1","8","310.0117288514052","278.4456343866749",18/12/21 22:50:30
"1","8","309.1388378726558","278.15231852778976",18/12/21 22:50:30
"1","8","308.44498594903536","279.1504427714386",18/12/21 22:50:30
"1","8","309.65219039760257","279.3890751018911",18/12/21 22:50:30
"1","8","309.42087023498794","279.2866189411258",18/12/21 22:50:30
"1","8","307.50890729893825","278.3659652091503",18/12/21 22:50:30
"1","8","308.0657646389311","278.17045608115353",18/12/21 22:50:30
"1","8","308.04555801261665","278.77596072510437",18/12/21 22:50:30
"1","8","307.8095604543868","278.86294256180685",18/12/21 22:50:30
"1","8","307.1730277092909","278.954256146908",18/12/21 22:50:30
"1","8","307.54164034157645","278.62445095239167",18/12/21 22:50:30
"1","8","307.4180034009171","278.3303261940116",18/12/21 22:50:30
"1","8","307.14263141701065","279.4291031654916",18/12/21 22:50:30
"1","8","308.64194224144165","280.6712135585933",18/12/21 22:50:30
"1","8","308.47887723163285","281.04826388137894",18/12/21 22:50:30
"1","8","307.29212232265075","280.04347142961285",18/12/21 22:50:30
"1","8","307.075277979129","278.4179769338837",18/12/21 22:50:30
"1","8","307.3679002292583","278.1106828543159",18/12/21 22:50:30
"1","8","307.0841482626081","279.75718627284886",18/12/21 22:50:30
"1","8","308.4551356927783","278.5079619952949",18/12/21 22:50:30
"1","8","310.19598481249704","277.58320555561636",18/12/21 22:50:30
"1","8","310.33930052170786","277.56768882852884",18/12/21 22:50:30
"1","8","310.10165884921327","277.75703897728835",18/12/21 22:50:30
"1","8","310.05405419098537","277.76509251352996",18/12/21 22:50:30
"1","8","309.5557028682693","277.6175016141312",18/12/21 22:50:30
"1","8","308.92991522388667","278.3314247263908",18/12/21 22:50:30
"1","8","308.26194306778046","279.388001961176",18/12/21 22:50:30
"1","8","309.37339378004197","278.5528412463372",18/12/21 22:50:30
"1","8","309.92629820453243","278.15088029372413",18/12/21 22:50:30
"1","8","307.5116292634567","278.17394919558456",18/12/21 22:50:30
"1","8","307.0958511603513","278.4805691561399",18/12/21 22:50:31
"1","8","307.3673165906886","280.23115292237975",18/12/21 22:50:31
"1","8","307.3325694684165","280.25204328686465",18/12/21 22:50:31
"1","8","307.3179069980425","280.661966603804",18/12/21 22:50:31
"1","8","308.27247429622986","281.31027660232854",18/12/21 22:50:31
"1","8","308.01267089415677","280.3906006893501",18/12/21 22:50:31
"1","8","308.0383684274532","280.350853042614",18/12/21 22:50:31
"1","8","307.7405307834648","280.44917255291966",18/12/21 22:50:31
"1","8","307.14176173662327","279.17499741622566",18/12/21 22:50:31
"1","8","307.0689440247834","279.18577557484275",18/12/21 22:50:31
"1","8","308.6169033757222","279.2228445444347",18/12/21 22:50:31
"1","8","308.6700597114809","279.15647731327914",18/12/21 22:50:31
"1","8","307.6659755692718","279.07035491222507",18/12/21 22:50:31
"1","8","307.3605451023828","279.1377959170967",18/12/21 22:50:31
"1","8","308.39455560987955","277.65019670835204",18/12/21 22:50:31
"1","8","310.1569453054028","278.1948890558215",18/12/21 22:50:31
"1","8","310.5804381272587","280.02380217946603",18/12/21 22:50:31
"1","8","309.1471337506771","281.2485495474384",18/12/21 22:50:31
"1","8","309.27568022040765","279.47420694727015",18/12/21 22:50:31
"1","8","309.54774162270445","281.86125301967826",18/12/21 22:50:31
"1","8","309.8131499477582","280.89244147332005",18/12/21 22:50:31
"1","8","309.79389254850383","280.93164419595337",18/12/21 22:50:31
"1","8","309.93622473626806","281.57777888651856",18/12/21 22:50:31
"1","8","308.88413370967316","281.8508453987682",18/12/21 22:50:31
"1","8","308.70878344594","280.09258374006015",18/12/21 22:50:31
"1","8","309.57168906826695","282.09245122047366",18/12/21 22:50:31
"1","8","309.85718204358744","283.38648557314195",18/12/21 22:50:31
"1","8","309.1781045161407","283.33702503743956",18/12/21 22:50:31
"1","8","309.33830091189793","284.4702262766453",18/12/21 22:50:31
"1","8","310.4409796663195","283.16294850525304",18/12/21 22:50:31
"1","8","310.0658073677077","281.1821505633923",18/12/21 22:50:31
"1","8","309.8241323582365","282.25656526802817",18/12/21 22:50:31
"1","8","309.64826910566836","279.8111343439759",18/12/21 22:50:31
"1","8","310.7775371872136","280.8798808671862",18/12/21 22:50:31
"1","8","311.45152768626906","281.9192882990017",18/12/21 22:50:31
"1","8","311.3299869083555","281.91872372576006",18/12/21 22:50:31
"1","8","310.97387947835387","282.5519469721452",18/12/21 22:50:31
"1","8","311.3084970274759","282.44650103049906",18/12/21 22:50:31
"1","8","310.93889702431477","282.61712426682965",18/12/21 22:50:31
"1","8","311.4965852150117","282.16327026505485",18/12/21 22:50:31
"1","8","311.40921291241716","282.25178098318514",18/12/21 22:50:31
"1","8","311.38713587301777","281.89217732748136",18/12/21 22:50:31
"1","8","309.79763344209556","281.5069254142959",18/12/21 22:50:31
"1","8","310.5465657212562","283.12292145951307",18/12/21 22:50:31
"1","8","308.82601320202286","281.3712612550795",18/12/21 22:50:31
"1","8","310.6425479856573","282.1912639313262",18/12/21 22:50:31
"1","8","309.8266625883112","282.2570367140488",18/12/21 22:50:31
"1","8","308.635569973735","282.3250069866438",18/12/21 22:50:31
"1","8","308.62953452970464","282.33600191494736",18/12/21 22:50:31
"1","8","309.99164497557064","282.00155307377753",18/12/21 22:50:31
"1","8","309.8284621570636","280.01241160438104",18/12/21 22:50:32
"1","8","309.0685471215965","278.9331111626233",18/12/21 22:50:32
"1","8","309.80456147492475","279.6291655865105",18/12/21 22:50:32
"1","8","308.3654754031875","280.44103177651624",18/12/21 22:50:32
"1","8","308.67271363659097","278.6972092402307",18/12/21 22:50:32
"1","8","308.15783528246465","278.5323826585507",18/12/21 22:50:32
"1","8","308.6319043081798","280.87518763508",18/12/21 22:50:32
"1","8","309.10704742661716","280.20016750715143",18/12/21 22:50:32
"1","8","308.7077993032822","279.1972138718357",18/12/21 22:50:32
"1","8","308.5253868676173","278.44656517072474",18/12/21 22:50:32
"1","8","308.96703497958475","278.51075313181803",18/12/21 22:50:32
"1","8","308.49086302271394","277.9158886833869",18/12/21 22:50:32
"1","8","308.3610414270955","279.27011383649346",18/12/21 22:50:32
"1","8","307.6256970927877","280.52091531986173",18/12/21 22:50:32
"1","8","309.5763613428674","280.52670812098097",18/12/21 22:50:32
"1","8","309.5791857545432","280.5264394266772",18/12/21 22:50:32
"1","8","310.65517555373964","280.5031382376042",18/12/21 22:50:32
"1","8","310.0578397987979","279.3205101106519",18/12/21 22:50:32
"1","8","307.80072326872715","278.6638248705523",18/12/21 22:50:32
"1","8","308.0987182529032","280.1804266435779",18/12/21 22:50:32
"1","8","308.0907118379714","280.866028056076",18/12/21 22:50:32
"1","8","308.76481458005736","282.1037547202468",18/12/21 22:50:32
"1","8","309.1792800026049","282.10479970129074",18/12/21 22:50:32
"1","8","310.2935593650107","282.35191778953254",18/12/21 22:50:32
"1","8","310.03845901209115","282.13687931889",18/12/21 22:50:32
"1","8","308.1293228833127","281.164276703946",18/12/21 22:50:32
"1","8","308.31688534137163","282.8556756601282",18/12/21 22:50:32
"1","8","307.8354665754832","282.6581196965841",18/12/21 22:50:32
"1","8","309.24957790490487","280.70810508590404",18/12/21 22:50:32
"1","8","309.0864961113256","278.4888314646047",18/12/21 22:50:32
"1","8","307.9434579878816","279.72299053752477",18/12/21 22:50:32
"1","8","308.85519716275184","281.4057787966962",18/12/21 22:50:32
"1","8","309.4754276427556","282.4792654445769",18/12/21 22:50:32
"1","8","309.05503674571395","282.59887261996266",18/12/21 22:50:32
"1","8","308.99874631758854","281.8755463562965",18/12/21 22:50:32
"1","8","307.88289479924435","284.07599547626324",18/12/21 22:50:32
"1","8","307.4950676023578","283.9142509981678",18/12/21 22:50:32
"1","8","307.5307897302658","283.3679529579218",18/12/21 22:50:32
"1","8","308.4415890432489","283.16461021724626",18/12/21 22:50:32
"1","8","309.4641340723373","283.7042736639939",18/12/21 22:50:32
"1","8","309.3762006656561","284.256194574793",18/12/21 22:50:32
"1","8","308.0165122574878","284.2659998683661",18/12/21 22:50:32
"1","8","307.84463123938485","284.4106914792749",18/12/21 22:50:32
"1","8","306.95147130476846","284.1749151131495",18/12/21 22:50:32
"1","8","307.8963114689719","282.0731425969069",18/12/21 22:50:32
"1","8","308.2199662464642","283.91091756013395",18/12/21 22:50:32
"1","8","309.08550966420296","284.4598297931067",18/12/21 22:50:32
"1","8","310.1393370910186","284.74825251750883",18/12/21 22:50:32
"1","8","308.82614708867567","284.61315439385027",18/12/21 22:50:32
"1","8","307.3337659661904","284.33537252248925",18/12/21 22:50:32
"1","8","307.3337659661904","284.33537252248925",18/12/21 22:50:33
"1","8","307.3337659661904","284.33537252248925",18/12/21 22:50:33
"1","8","309.1342842661583","284.8019372327597",18/12/21 22:50:33
"1","8","310.4437777503194","285.14126366340446",18/12/21 22:50:33
"1","8","311.1179002858055","286.5683778973359",18/12/21 22:50:33
"1","89","311.56299114035085","288.4683789223372",18/12/21 22:50:33
"1","89","312.5526315302571","287.7953336447055",18/12/21 22:50:33
"1","89","310.78619023727146","286.3242449210437",18/12/21 22:50:33
"1","89","311.6139624088121","286.77953746476646",18/12/21 22:50:33
"1","89","310.0949513382726","288.3509490434846",18/12/21 22:50:33
"1","89","310.0198555531697","288.3024899566323",18/12/21 22:50:33
"1","89","310.7572311855413","286.47554941964904",18/12/21 22:50:33
"1","89","309.333943562977","286.46342389289725",18/12/21 22:50:33
"1","89","309.06386629096073","286.3966921637563",18/12/21 22:50:33
"1","89","311.3440732713878","287.34308197777307",18/12/21 22:50:33
"1","89","310.79946879258097","288.59720546839816",18/12/21 22:50:33
"1","89","310.8020721201553","288.6831833453243",18/12/21 22:50:33
"1","89","310.9017433930568","286.6609636594478",18/12/21 22:50:33
"1","89","310.7151982789781","287.0679223277678",18/12/21 22:50:33
"1","89","309.7777531267204","286.9102930655807",18/12/21 22:50:33
"1","89","309.06710808340006","287.4619783716612",18/12/21 22:50:33
"1","89","310.36414695637546","286.7670305649105",18/12/21 22:50:33
"1","89","310.0475714061972","287.03048074282543",18/12/21 22:50:33
"1","89","309.34238217219314","287.7637953167918",18/12/21 22:50:33
"1","89","310.1787446184663","287.92716303236915",18/12/21 22:50:33
"1","89","309.8257328760927","286.2720820736296",18/12/21 22:50:33
"1","89","309.354818650634","285.73492207633416",18/12/21 22:50:33
"1","89","309.6874632429047","285.8367929660025",18/12/21 22:50:33
"1","89","309.5492867199257","286.8624791887395",18/12/21 22:50:33
"1","89","310.6677084302123","285.8894640477108",18/12/21 22:50:33
"1","89","311.03631597392047","285.3999862653145",18/12/21 22:50:33
"1","89","311.4886275396955","285.4030349712395",18/12/21 22:50:33
"1","89","309.2721618255399","286.28037874025",18/12/21 22:50:33
"1","89","311.1189473224455","286.1658934004546",18/12/21 22:50:33
"1","89","310.5769363598503","285.4412429541438",18/12/21 22:50:33
"1","89","310.64645168906884","285.63984122852844",18/12/21 22:50:33
"1","89","310.44403725462394","285.75757402713117",18/12/21 22:50:33
"1","89","310.3873832491691","286.7081505900936",18/12/21 22:50:33
"1","89","311.3492457938733","288.28369178177775",18/12/21 22:50:33
"1","89","311.0590472800427","288.249072193161",18/12/21 22:50:33
"1","89","311.33535994054796","287.96380627010626",18/12/21 22:50:33
"1","89","310.73617347007854","287.2072127388865",18/12/21 22:50:33
"1","89","310.2162507472153","286.41921886230773",18/12/21 22:50:33
"1","89","309.56250697998644","287.0471370285248",18/12/21 22:50:33
"1","89","310.03900742152933","286.7461808573289",18/12/21 22:50:33
"1","89","310.4712167351067","285.4593620280303",18/12/21 22:50:33
"1","89","309.92159003702784","287.3568536415596",18/12/21 22:50:33
"1","89","308.94372412460916","288.4701167992351",18/12/21 22:50:33
"1","89","308.7324043079262","288.0884618336685",18/12/21 22:50:33
"1","89","308.7803261069511","288.0695748448946",18/12/21 22:50:33
"1","89","309.0453622396007","288.2585924024175",18/12/21 22:50:34
"1","89","308.588150209157","288.31703405977703",18/12/21 22:50:34
"1","89","307.7019196568413","288.4852336280127",18/12/21 22:50:34
"1","89","307.7616504337136","288.4759847804147",18/12/21 22:50:34
"1","89","307.72995564863515","288.5138566107023",18/12/21 22:50:34
"1","89","309.1121763003629","288.6581246747641",18/12/21 22:50:34
"1","89","307.42361123202016","288.35216324014357",18/12/21 22:50:34
"1","89","307.8704800123144","287.47848317545663",18/12/21 22:50:34
"1","89","305.59265648230803","286.771804148217",18/12/21 22:50:34
"1","89","305.7823722132296","286.216338918807",18/12/21 22:50:34
"1","89","305.6031235390957","286.1018695545045",18/12/21 22:50:34
"1","89","305.63732089909115","286.29736724427363",18/12/21 22:50:34
"1","89","304.78935917460745","287.78471794793035",18/12/21 22:50:34
"1","89","304.9311442692737","286.43489331714704",18/12/21 22:50:34
"1","89","304.9749803157032","286.0906139144417",18/12/21 22:50:34
"1","89","307.0578221717202","286.48301563557953",18/12/21 22:50:34
"1","89","307.3882657561159","288.1421005772058",18/12/21 22:50:34
"1","89","307.43112604592267","288.13213964076454",18/12/21 22:50:34
"1","89","306.74943104985533","288.3635230905407",18/12/21 22:50:34
"1","89","305.0589028129478","288.2230311350297",18/12/21 22:50:34
"1","89","305.9007090524195","287.1067099358572",18/12/21 22:50:34
"1","89","307.3270535388914","285.95245551996595",18/12/21 22:50:34
"1","89","306.00099486269187","286.191955947126",18/12/21 22:50:34
"1","89","305.99860711497104","286.19706751652",18/12/21 22:50:34
"1","89","305.2767721076455","288.16011310981685",18/12/21 22:50:34
"1","89","304.2115279367597","287.0415965551403",18/12/21 22:50:34
"1","89","302.41363940911776","287.9551281866638",18/12/21 22:50:34
"1","89","302.2531236248534","286.06304348468956",18/12/21 22:50:34
"1","89","302.24354197013605","286.1036790180217",18/12/21 22:50:34
"1","89","303.0849904193771","286.5430633832666",18/12/21 22:50:34
"1","89","304.5041849487375","288.4616922069229",18/12/21 22:50:34
"1","89","303.8165551834868","287.91497800759214",18/12/21 22:50:34
"1","89","305.18494945328086","287.86760716037634",18/12/21 22:50:34
"1","89","303.2021869264695","287.9819606212964",18/12/21 22:50:34
"1","89","302.75336819849485","288.0937166866987",18/12/21 22:50:34
"1","89","303.0653522279467","287.5225695140144",18/12/21 22:50:34
"1","89","302.5850000375132","287.36275708898586",18/12/21 22:50:34
"1","89","302.7651192509365","287.3118009273914",18/12/21 22:50:34
"1","89","302.729667457651","287.65613725649655",18/12/21 22:50:34
"1","89","302.4019250590281","288.31988135554263",18/12/21 22:50:34
"1","89","302.38520077412977","288.33246021892575",18/12/21 22:50:34
"1","89","302.34097762839156","288.34870304871436",18/12/21 22:50:34
"1","89","302.3773366031744","288.67362871736265",18/12/21 22:50:34
"1","89","302.81545400014556","288.68696278887825",18/12/21 22:50:34
"1","89","304.84422162183745","287.54171079503",18/12/21 22:50:34
"1","89","305.6193236806489","286.70210269518606",18/12/21 22:50:34
"1","89","306.13983919701076","286.83629566407376",18/12/21 22:50:34
"1","89","306.14116542340975","286.73931244490245",18/12/21 22:50:34
"1","89","306.18107118511557","286.415238083172",18/12/21 22:50:34
"1","89","306.05438239205984","286.7918655126812",18/12/21 22:50:34
"1","89","305.0516676323316","287.0307258354261",18/12/21 22:50:35
"1","89","304.57262079644613","287.0208615792971",18/12/21 22:50:35
"1","89","303.74602774256095","288.4400504308678",18/12/21 22:50:35
"1","89","303.63910228519563","287.4391205160634",18/12/21 22:50:35
"1","89","304.6447802286722","287.34887922923815",18/12/21 22:50:35
"1","89","304.435311517292","287.7131837758526",18/12/21 22:50:35
"1","89","304.5490875095433","288.07012672759595",18/12/21 22:50:35
"1","89","304.2228313531841","287.84776578344383",18/12/21 22:50:35
"1","89","303.1238249483527","285.7831304330103",18/12/21 22:50:35
"1","89","303.2023104756571","285.78912395399",18/12/21 22:50:35
"1","89","303.88232487420555","285.7536985028644",18/12/21 22:50:35
"1","89","302.84819747411916","285.467430767843",18/12/21 22:50:35
"1","89","302.8653147136551","285.44259939400325",18/12/21 22:50:35
"1","89","304.87548086931","286.44449793915146",18/12/21 22:50:35
"1","89","305.37255939737355","287.5407073538423",18/12/21 22:50:35
"1","89","305.4253410081238","287.44047294376134",18/12/21 22:50:35
"1","89","306.54327000573295","286.7484628970486",18/12/21 22:50:35
"1","89","306.40522558001027","286.9528077533416",18/12/21 22:50:35
"1","89","307.17284178652886","287.78272462233974",18/12/21 22:50:35
"1","89","305.67687627763314","286.0468456969084",18/12/21 22:50:35
"1","89","304.2426066205331","286.9146899109197",18/12/21 22:50:35
"1","89","304.69306236328583","287.9235263919196",18/12/21 22:50:35
"1","89","302.90835253908267","288.1253934775653",18/12/21 22:50:35
"1","89","303.502310224293","287.56926890113425",18/12/21 22:50:35
"1","89","302.30669875406863","287.3738074693258",18/12/21 22:50:35
"1","89","302.29417122382677","288.5134351316415",18/12/21 22:50:35
"1","89","302.2137693584646","288.2037841866853",18/12/21 22:50:35
"1","89","303.7014503490337","288.4776759254906",18/12/21 22:50:35
"1","89","303.76973192812454","288.4800440166808",18/12/21 22:50:35
"1","89","303.228639110278","287.6548109880327",18/12/21 22:50:35
"1","89","303.1873929935599","287.7381326472874",18/12/21 22:50:35
"1","89","303.3613649597305","288.3150137195818",18/12/21 22:50:35
"1","89","303.668776453211","287.37508677550056",18/12/21 22:50:35
"1","89","303.4273883485791","286.7224181608087",18/12/21 22:50:35
"1","89","303.15263792849527","287.1806640718186",18/12/21 22:50:35
"1","89","302.941630529433","286.29508416139964",18/12/21 22:50:35
"1","89","302.9096664578529","286.5147625975566",18/12/21 22:50:35
"1","89","302.8596991796509","285.91067973491823",18/12/21 22:50:35
"1","89","304.8803036458775","285.5963323409027",18/12/21 22:50:35
"1","89","304.82374258109536","285.98238315567636",18/12/21 22:50:35
"1","89","304.69254642013834","287.0148406653514",18/12/21 22:50:35
"1","89","306.08823870122455","287.0715315379815",18/12/21 22:50:35
"1","89","306.49163787542716","286.41343063853805",18/12/21 22:50:35
"1","89","305.4592551936953","286.8305794042009",18/12/21 22:50:35
"1","89","305.028846164807","288.38965461507655",18/12/21 22:50:35
"1","89","307.25528061618485","288.2649980741049",18/12/21 22:50:35
"1","89","308.4862082284478","287.8816799563921",18/12/21 22:50:35
"1","89","308.21266095395845","287.7526150550457",18/12/21 22:50:35
"1","89","306.7568778780079","286.4116569585396",18/12/21 22:50:35
"1","89","306.4161611595091","288.51934930121695",18/12/21 22:50:35
"1","89","306.68889907299945","286.2769405304328",18/12/21 22:50:36
"1","89","307.6869688172039","286.09739968191633",18/12/21 22:50:36
"1","89","307.36052723701556","288.1221478883683",18/12/21 22:50:36
"1","89","308.0911962410312","288.6808744804153",18/12/21 22:50:36
"1","89","308.27018115008525","288.3820479677995",18/12/21 22:50:36
"1","89","309.22307990184936","288.288769398987",18/12/21 22:50:36
"1","89","311.0060746226537","287.30886165415427",18/12/21 22:50:36
"1","89","311.0152055902072","287.05042912875996",18/12/21 22:50:36
"1","89","313.35951938865725","286.8709358660199",18/12/21 22:50:36
"1","89","313.54466499167677","286.9144937645538",18/12/21 22:50:36
"1","89","314.2885397205128","286.75700981990246",18/12/21 22:50:36
"1","89","313.3869325458763","286.8916328476886",18/12/21 22:50:36
"1","89","313.48222381838735","286.52585810574004",18/12/21 22:50:36
"1","89","314.6164820051606","285.5424367198019",18/12/21 22:50:36
"1","89","314.61414413673396","287.5658402695071",18/12/21 22:50:36
"1","89","313.7156969691272","287.0574630898345",18/12/21 22:50:36
"1","89","312.27120066898834","287.7083287292211",18/12/21 22:50:36
"1","89","312.01166898352955","285.8871248570771",18/12/21 22:50:36
"1","89","310.8699079927351","286.7255288463275",18/12/21 22:50:36
"1","89","311.5966262789716","286.7513335503878",18/12/21 22:50:36
"1","89","311.0240201742665","286.30093151504826",18/12/21 22:50:36
"1","89","311.1926166347201","287.8881298708775",18/12/21 22:50:36
"1","89","310.7476372245348","288.0108666114135",18/12/21 22:50:36
"1","89","310.71021239503307","288.017870002362",18/12/21 22:50:36
"1","89","310.5716641306605","288.4697704810621",18/12/21 22:50:36
"1","89","308.9971050435728","287.2170349473356",18/12/21 22:50:36
"1","89","307.73298096807616","287.214480823046",18/12/21 22:50:36
"1","89","307.92531324881594","287.3337297766102",18/12/21 22:50:36
"1","89","306.7315983174462","287.53888641380087",18/12/21 22:50:36
"1","89","306.6405895159883","287.42308307427317",18/12/21 22:50:36
"1","89","306.6821434849054","287.4928429342839",18/12/21 22:50:36
"1","89","304.3554601434201","288.2971983049158",18/12/21 22:50:36
"1","89","304.8867201439955","288.3819186597213",18/12/21 22:50:36
"1","89","305.00620053372603","288.5930141405686",18/12/21 22:50:36
"1","89","305.00620053372603","288.5930141405686",18/12/21 22:50:36
"1","89","305.00620053372603","288.5930141405686",18/12/21 22:50:36
"1","89","307.29966069161213","288.29759202531415",18/12/21 22:50:36
"1","89","308.57081748305427","288.13385348080243",18/12/21 22:50:36
"1","89","310.4526605904171","287.8914520292479",18/12/21 22:50:36
"1","89","312.23649225046455","287.66167549685116",18/12/21 22:50:36
"1","89","314.5621366576821","287.3621077072179",18/12/21 22:50:36
"1","89","316.6349946080788","287.0951015077762",18/12/21 22:50:36
"1","88","318.1544349041947","287.03390151496706",18/12/21 22:50:36
"1","88","319.51895688263534","287.0064321942394",18/12/21 22:50:36
"1","88","321.90906912541465","286.958316619108",18/12/21 22:50:36
"1","88","323.97158438843064","286.91679592969393",18/12/21 22:50:36
"1","88","325.2844563492169","286.8903663803462",18/12/21 22:50:36
"1","88","325.2844563492169","286.8903663803462",18/12/21 22:50:36
"1","88","326.69696026597796","286.8619311306898",18/12/21 22:50:36
"1","88","328.3122787144619","286.82941300255425",18/12/21 22:50:37
"1","88","330.46385438860415","286.78609942959855",18/12/21 22:50:37
"1","26","332.2584398646991","286.75306331925634",18/12/21 22:50:37
"1","26","333.6809082979412","286.7432616584465",18/12/21 22:50:37
"1","26","334.977722822444","286.73432582844464",18/12/21 22:50:37
"1","26","336.86701944970616","286.7213074413389",18/12/21 22:50:37
"1","26","339.03774215833687","286.70634985971185",18/12/21 22:50:37
"1","26","340.41054187844964","286.69689044613057",18/12/21 22:50:37
"1","26","341.79428662634996","286.91764227348006",18/12/21 22:50:37
"1","26","343.1827807982085","287.5660632263552",18/12/21 22:50:37
"1","26","345.25913287802155","288.53571093635924",18/12/21 22:50:37
"1","73","347.5006920000339","289.63017230419973",18/12/21 22:50:37
"1","73","349.4398796047592","290.5933786522757",18/12/21 22:50:37
"1","73","350.80650846253627","291.27219156757445",18/12/21 22:50:37
"1","73","350.81561980070455","292.17669773780693",18/12/21 22:50:37
"1","73","350.3710055867494","289.9849020457086",18/12/21 22:50:37
"1","73","350.0970734612259","289.994262393078",18/12/21 22:50:37
"1","73","350.43718161231504","291.53090123516563",18/12/21 22:50:37
"1","73","349.113946575807","290.5795768540626",18/12/21 22:50:37
"1","73","348.69052040997127","290.9685900930521",18/12/21 22:50:37
"1","73","347.2870901899329","291.44020846821286",18/12/21 22:50:37
"1","73","348.10308262442504","293.58238209237123",18/12/21 22:50:37
"1","73","348.547562087269","292.01843487915903",18/12/21 22:50:37
"1","73","347.209684100501","290.7585671387572",18/12/21 22:50:37
"1","73","347.99394862503414","290.35753142787223",18/12/21 22:50:37
"1","73","348.0757484372543","292.2366826300181",18/12/21 22:50:37
"1","73","349.6337229155486","290.2822227354703",18/12/21 22:50:37
"1","73","349.76140865858366","289.5354733287506",18/12/21 22:50:37
"1","73","348.61082754278937","290.7601290908501",18/12/21 22:50:37
"1","73","350.699654718516","289.70393917170617",18/12/21 22:50:37
"1","73","348.6181999580454","289.27795806526177",18/12/21 22:50:37
"1","73","347.98633828033263","289.3840466652669",18/12/21 22:50:37
"1","73","347.7695504001569","289.25921500653675",18/12/21 22:50:37
"1","73","348.01459438190733","289.76320814895274",18/12/21 22:50:37
"1","73","349.3040809381329","289.38991482628296",18/12/21 22:50:37
"1","73","349.07097097677666","291.011985930855",18/12/21 22:50:37
"1","73","349.41922739419056","292.18214930065284",18/12/21 22:50:37
"1","73","350.55269416582195","291.9174274673992",18/12/21 22:50:37
"1","73","349.19136787661034","293.366527927709",18/12/21 22:50:37
"1","73","347.7196508100349","293.23745483505706",18/12/21 22:50:37
"1","73","349.45224647367905","294.9339446171959",18/12/21 22:50:37
"1","73","347.9386640627959","293.41776345677704",18/12/21 22:50:37
"1","73","349.7624298195341","294.70241802313484",18/12/21 22:50:37
"1","73","348.25118945176087","296.43491873446175",18/12/21 22:50:37
"1","73","348.32831251104307","296.4173336061007",18/12/21 22:50:37
"1","73","348.3126731887857","296.4322425352463",18/12/21 22:50:37
"1","73","347.45427573899997","295.7660802824998",18/12/21 22:50:37
"1","73","346.759105286769","295.8046787095502",18/12/21 22:50:37
"1","73","346.7231967871396","295.7222327078544",18/12/21 22:50:37
"1","73","346.4046351010319","295.3629117683702",18/12/21 22:50:37
"1","73","344.4958211717236","294.5491665314469",18/12/21 22:50:38
"1","73","344.8067736918839","294.4537192828139",18/12/21 22:50:38
"1","73","343.8455655919365","294.3615977780051",18/12/21 22:50:38
"1","73","342.74368106754724","293.4739864796301",18/12/21 22:50:38
"1","73","345.04533415354524","294.253232098043",18/12/21 22:50:38
"1","73","347.0483969561451","293.0946500601267",18/12/21 22:50:38
"1","73","344.7860653983009","292.08626168924553",18/12/21 22:50:38
"1","73","345.2824545159524","293.0735213890596",18/12/21 22:50:38
"1","73","345.47126396510396","294.48536934220994",18/12/21 22:50:38
"1","73","344.82769436779523","295.84717155204453",18/12/21 22:50:38
"1","73","344.7034012603735","295.48016195333787",18/12/21 22:50:38
"1","73","345.97945483152495","295.7206118278621",18/12/21 22:50:38
"1","73","345.8501250562535","295.5830966889932",18/12/21 22:50:38
"1","73","345.4187687101138","295.75119353521274",18/12/21 22:50:38
"1","73","345.2594189567325","296.0154764169749",18/12/21 22:50:38
"1","73","345.3063011897398","296.07294792569894",18/12/21 22:50:38
"1","73","345.6832413753946","293.9093516488255",18/12/21 22:50:38
"1","73","346.55001212110477","292.4352762340636",18/12/21 22:50:38
"1","73","348.5434059414081","291.2938109564665",18/12/21 22:50:38
"1","73","348.26239078891865","289.68310049829233",18/12/21 22:50:38
"1","73","347.6494860808555","289.2203337341971",18/12/21 22:50:38
"1","73","347.2342990784682","289.52916210592264",18/12/21 22:50:38
"1","73","348.35275187560165","289.6392228764575",18/12/21 22:50:38
"1","73","350.33497173220354","290.30452892837366",18/12/21 22:50:38
"1","73","350.8960145657321","290.02482953658676",18/12/21 22:50:38
"1","73","349.72149461861557","291.9079297285286",18/12/21 22:50:38
"1","73","349.31761268030937","294.05333201488384",18/12/21 22:50:38
"1","73","350.03068604388415","294.74415342279895",18/12/21 22:50:38
"1","73","350.6756654717311","294.4708737802848",18/12/21 22:50:38
"1","73","349.93093114919344","294.09338116476863",18/12/21 22:50:38
"1","73","348.20043125892835","295.3372385234366",18/12/21 22:50:38
"1","73","347.57397870055246","294.8105425772696",18/12/21 22:50:38
"1","73","347.29826205286327","292.414246903043",18/12/21 22:50:38
"1","73","346.37210827210095","290.6297331981495",18/12/21 22:50:38
"1","73","347.738144950465","291.39955351095153",18/12/21 22:50:38
"1","73","347.1107319015735","291.72498146860556",18/12/21 22:50:38
"1","73","346.9977389577311","291.489661637276",18/12/21 22:50:38
"1","73","349.13373268831174","291.9081419528472",18/12/21 22:50:38
"1","73","347.154717443841","291.8510115433067",18/12/21 22:50:38
"1","73","347.7568749468244","289.6307626147866",18/12/21 22:50:38
"1","73","348.3692560609992","291.3648362733333",18/12/21 22:50:38
"1","73","347.5110408427411","289.96735194539593",18/12/21 22:50:38
"1","73","349.4491128921548","289.572718531343",18/12/21 22:50:38
"1","73","348.1000378849236","289.472013894814",18/12/21 22:50:38
"1","73","347.2036334922625","290.11656842778433",18/12/21 22:50:38
"1","73","346.6753280810997","291.0054447536059",18/12/21 22:50:38
"1","73","347.3797083217782","290.79620121071076",18/12/21 22:50:38
"1","73","347.80076025599527","291.0252126197675",18/12/21 22:50:38
"1","73","347.67810831877904","291.8709839388465",18/12/21 22:50:38
"1","73","348.58612951702133","291.9880475324593",18/12/21 22:50:38
"1","73","349.4961770115216","292.6613309834745",18/12/21 22:50:39
"1","73","349.90030422635283","290.42969673345857",18/12/21 22:50:39
"1","73","349.4300463186006","291.48254672611444",18/12/21 22:50:39
"1","73","349.51217433087254","290.7650215136156",18/12/21 22:50:39
"1","73","349.6901148328053","290.92420100180686",18/12/21 22:50:39
"1","73","350.91023190074725","289.4935462539625",18/12/21 22:50:39
"1","73","350.9053675907192","289.4798619818372",18/12/21 22:50:39
"1","73","350.9178490763376","289.4991696923213",18/12/21 22:50:39
"1","73","350.91943708075837","289.5079505127989",18/12/21 22:50:39
"1","73","350.2750262343952","289.97584054362346",18/12/21 22:50:39
"1","73","348.4972341016083","290.95216857161495",18/12/21 22:50:39
"1","73","350.84962057065957","290.1481021772492",18/12/21 22:50:39
"1","73","350.468974473648","289.77332259047733",18/12/21 22:50:39
"1","73","350.59045264144913","289.9533768858277",18/12/21 22:50:39
"1","73","349.9696877753619","289.19179638198926",18/12/21 22:50:39
"1","73","348.52624687584745","289.3538040261846",18/12/21 22:50:39
"1","73","350.33719131717015","289.64998783396794",18/12/21 22:50:39
"1","73","349.4809971787321","290.77594337224406",18/12/21 22:50:39
"1","73","349.28277122968024","292.91320008883605",18/12/21 22:50:39
"1","73","351.2137510989335","292.32455387002113",18/12/21 22:50:39
"1","73","351.12356659663584","292.48010480201555",18/12/21 22:50:39
"1","73","350.3757874997176","294.04978302832586",18/12/21 22:50:39
"1","73","350.33918293023487","294.42657345147967",18/12/21 22:50:39
"1","73","350.24797217467636","293.9635179040637",18/12/21 22:50:39
"1","73","349.7228322769334","292.16384147211545",18/12/21 22:50:39
"1","73","348.79793684805315","291.74257118263864",18/12/21 22:50:39
"1","73","349.5973377685625","291.99021269456296",18/12/21 22:50:39
"1","73","348.63874145735286","291.319142866756",18/12/21 22:50:39
"1","73","346.696551638656","289.8142487476859",18/12/21 22:50:39
"1","73","345.93824421204783","289.24222214158897",18/12/21 22:50:39
"1","73","345.72032275958156","289.6013083983977",18/12/21 22:50:39
"1","73","344.83728401624285","291.74452097836866",18/12/21 22:50:39
"1","73","344.71062135596094","291.9015614975077",18/12/21 22:50:39
"1","73","345.0948013199917","292.14108535570665",18/12/21 22:50:39
"1","73","346.5557120747596","292.06647761035805",18/12/21 22:50:39
"1","73","346.3653686376862","291.9834923106999",18/12/21 22:50:39
"1","73","346.7155839695292","291.2432981751529",18/12/21 22:50:39
"1","73","345.2398650097795","291.6797165650434",18/12/21 22:50:39
"1","73","346.6116394527911","292.3767649324135",18/12/21 22:50:39
"1","73","347.54336471633917","292.805309354329",18/12/21 22:50:39
"1","73","347.5590063945217","292.4568065455918",18/12/21 22:50:39
"1","73","347.5590063945217","292.4568065455918",18/12/21 22:50:39
