"floorId","partitionId","location_x","location_y","timeStamp"
"1","6","340.62450366872605","293.5599328272111",18/12/21 22:47:24
"1","6","339.8439837810617","292.0875635565674",18/12/21 22:47:24
"1","6","339.0766410129078","290.6400515460005",18/12/21 22:47:24
"1","6","338.3933630730981","289.3511190565349",18/12/21 22:47:24
"1","95","337.2736999013978","287.908898327795",18/12/21 22:47:24
"1","95","335.5910933586164","286.0685066684926",18/12/21 22:47:24
"1","95","334.6935482347222","285.0867949504745",18/12/21 22:47:24
"1","95","333.5915575700169","283.8814659704741",18/12/21 22:47:24
"1","95","332.7340348746159","282.94352975297323",18/12/21 22:47:24
"1","95","331.76551265095986","281.8841851130082",18/12/21 22:47:24
"1","95","330.91045532880025","280.9489454572021",18/12/21 22:47:24
"3","95","331.2745779695176","280.9831982039308",18/12/21 22:47:24
"3","95","333.01838994251807","282.07102518392037",18/12/21 22:47:24
"3","95","334.36335792307784","282.9100448025078",18/12/21 22:47:24
"3","95","336.1977678423146","284.0543887073571",18/12/21 22:47:24
"3","95","337.27880279677987","284.7287612933852",18/12/21 22:47:24
"3","95","338.5318885727438","285.5104628394466",18/12/21 22:47:24
"3","95","340.4616208700168","286.71427087014774",18/12/21 22:47:24
"3","93","340.2777605538512","286.59957489628636",18/12/21 22:47:24
"3","93","338.62570024814687","285.56898455688025",18/12/21 22:47:24
"3","93","337.06893656800185","284.5978422783835",18/12/21 22:47:24
"3","93","335.8245375620878","283.821559724149",18/12/21 22:47:24
"3","93","334.1275315640877","282.7629313064003",18/12/21 22:47:24
"3","93","332.09463014939234","281.4947641870064",18/12/21 22:47:24
"3","93","330.9896397273956","280.8054476710693",18/12/21 22:47:24
"2","93","331.1269994124043","280.8900231838885",18/12/21 22:47:24
"2","93","332.3249729352877","281.63521917349476",18/12/21 22:47:24
"2","93","334.4242894032794","282.9410929536567",18/12/21 22:47:24
"2","93","335.49724173010964","283.6085198672901",18/12/21 22:47:24
"2","93","336.81546523350386","284.4285170119429",18/12/21 22:47:24
"2","93","338.8418521235601","285.6890251575871",18/12/21 22:47:24
"2","93","340.28572372950333","286.58718134359816",18/12/21 22:47:24
"2","90","340.1767496394765","287.0661895492548",18/12/21 22:47:24
"2","90","338.1891400699995","286.79024023211684",18/12/21 22:47:24
"2","90","336.7535267756534","286.59092719079695",18/12/21 22:47:24
"2","90","334.3162646889707","286.2525504699185",18/12/21 22:47:24
"2","90","334.3162646889707","286.2525504699185",18/12/21 22:47:24
"2","90","332.64123853128734","286.0199985988171",18/12/21 22:47:24
"2","90","331.031176622132","285.87567285174623",18/12/21 22:47:24
"2","90","328.70124725637663","285.7378909150882",18/12/21 22:47:24
"2","90","326.9205767280768","285.63258976839035",18/12/21 22:47:24
"2","90","325.3040887915514","285.5369976694399",18/12/21 22:47:24
"2","90","323.20629732108006","285.4129433630071",18/12/21 22:47:24
"2","90","321.88562792962665","285.33484469224317",18/12/21 22:47:24
"2","90","320.3008446660135","285.24112747040243",18/12/21 22:47:24
"2","14","320.52483444054457","284.2442927195699",18/12/21 22:47:24
"2","14","321.4071155754038","282.8988271593066",18/12/21 22:47:24
"2","14","319.7422641882136","282.14747975233956",18/12/21 22:47:24
"2","14","319.40789568182464","280.95551933738653",18/12/21 22:47:25
"2","14","318.00079267033055","279.5897309193661",18/12/21 22:47:25
"2","14","318.2237421782071","280.4025430003595",18/12/21 22:47:25
"2","14","317.5654518883478","279.1557636699487",18/12/21 22:47:25
"2","14","319.36429736715814","279.93184303438295",18/12/21 22:47:25
"2","14","318.9953554673512","280.0013641871534",18/12/21 22:47:25
"2","14","317.9679976389965","279.4361374407337",18/12/21 22:47:25
"2","14","316.8844428213215","278.4484431505348",18/12/21 22:47:25
"2","14","318.3541546332518","280.15323464969975",18/12/21 22:47:25
"2","14","319.41680943550176","280.57605381949503",18/12/21 22:47:25
"2","14","319.3710413932785","279.60068246124416",18/12/21 22:47:25
"2","14","320.1507412086699","281.42893027192696",18/12/21 22:47:25
"2","14","320.1431522283189","281.45802307549917",18/12/21 22:47:25
"2","14","319.54056742703796","281.08218859563533",18/12/21 22:47:25
"2","14","319.9289349689748","279.77395469972396",18/12/21 22:47:25
"2","14","318.8269991446476","279.8726802280605",18/12/21 22:47:25
"2","14","320.5622358629183","281.39986848820735",18/12/21 22:47:25
"2","14","320.4113767118325","282.10418391375225",18/12/21 22:47:25
"2","14","319.440139734703","280.7737018827265",18/12/21 22:47:25
"2","14","319.1566235715413","278.9215533128709",18/12/21 22:47:25
"2","14","318.36056742964814","278.2463184933965",18/12/21 22:47:25
"2","14","319.7771674267097","279.2481918281625",18/12/21 22:47:25
"2","14","319.35635208140707","279.38456097441997",18/12/21 22:47:25
"2","14","318.4884451106519","278.5706069036323",18/12/21 22:47:25
"2","14","318.4488120454967","279.1310544341359",18/12/21 22:47:25
"2","14","318.9968349755955","279.3523240730051",18/12/21 22:47:25
"2","14","319.3354485040182","279.9424855502539",18/12/21 22:47:25
"2","14","318.10943409349994","280.82396295431766",18/12/21 22:47:25
"2","14","317.6365820195962","278.70854548325707",18/12/21 22:47:25
"2","14","317.1579221488553","279.2285597820369",18/12/21 22:47:25
"2","14","317.4947156963043","278.88791339532895",18/12/21 22:47:25
"2","14","317.2811605605366","278.58510498492126",18/12/21 22:47:25
"2","14","317.29551454417776","278.5943828277417",18/12/21 22:47:25
"2","14","317.2908326238548","278.4652265968348",18/12/21 22:47:25
"2","14","318.2885687988352","278.70181240326895",18/12/21 22:47:25
"2","14","319.8615086546994","278.7635335400658",18/12/21 22:47:25
"2","14","317.846622686734","278.97315809520967",18/12/21 22:47:25
"2","14","317.30921744843005","279.30138285876217",18/12/21 22:47:25
"2","14","317.33278983432524","279.93062275933164",18/12/21 22:47:25
"2","14","317.68237632189835","280.94022361807805",18/12/21 22:47:25
"2","14","319.6413950525053","282.321518163393",18/12/21 22:47:25
"2","14","318.2595263213843","281.4219608109374",18/12/21 22:47:25
"2","14","319.96644077889164","281.5754437672326",18/12/21 22:47:25
"2","14","319.2399357656163","282.37208011581686",18/12/21 22:47:25
"2","14","318.78077850114056","283.7355770422853",18/12/21 22:47:25
"2","14","319.1329363420063","282.87472625392064",18/12/21 22:47:25
"2","14","319.3339633414155","282.52012774928977",18/12/21 22:47:25
"2","14","317.9429147331607","283.0323335621907",18/12/21 22:47:25
"2","14","317.1691298067112","284.18408315623816",18/12/21 22:47:25
"2","14","317.79376755006575","284.2514289052426",18/12/21 22:47:25
"2","14","317.7337605398838","284.24633510179365",18/12/21 22:47:26
"2","14","317.8733799934164","284.135299048746",18/12/21 22:47:26
"2","14","319.335870097618","282.34154722545185",18/12/21 22:47:26
"2","14","317.77859483161905","282.5411515263563",18/12/21 22:47:26
"2","14","317.7405617525945","282.42843132329153",18/12/21 22:47:26
"2","14","317.2677999307001","281.35324248182116",18/12/21 22:47:26
"2","14","317.7428289238587","280.03397746409314",18/12/21 22:47:26
"2","14","318.966728324424","280.92370206942036",18/12/21 22:47:26
"2","14","318.16107789621276","281.55551195091783",18/12/21 22:47:26
"2","14","317.5864565589179","279.6666496160934",18/12/21 22:47:26
"2","14","317.38429203772415","281.6913053881756",18/12/21 22:47:26
"2","14","317.27600667328295","281.13859720550147",18/12/21 22:47:26
"2","14","317.5998284722025","280.59877483831036",18/12/21 22:47:26
"2","14","316.96269701832296","278.5291617070518",18/12/21 22:47:26
"2","14","317.08716320837254","277.72089592384214",18/12/21 22:47:26
"2","14","316.9990931100781","277.6467337015874",18/12/21 22:47:26
"2","14","317.1080901432834","278.6886748162639",18/12/21 22:47:26
"2","14","317.54172267844416","278.61427559481297",18/12/21 22:47:26
"2","14","317.229922724287","278.85947974580466",18/12/21 22:47:26
"2","14","317.2450654946354","279.46244552668986",18/12/21 22:47:26
"2","14","318.662333218522","279.0814571791947",18/12/21 22:47:26
"2","14","320.76700333589315","279.05122298841655",18/12/21 22:47:26
"2","14","321.22105407690145","278.00934159072966",18/12/21 22:47:26
"2","14","321.49270933326875","278.70168368539123",18/12/21 22:47:26
"2","14","320.707718347724","279.7089576090592",18/12/21 22:47:26
"2","14","320.40067660877855","279.4553548158103",18/12/21 22:47:26
"2","14","318.83049752930583","279.06314066726395",18/12/21 22:47:26
"2","14","317.3977552781342","278.2009659484836",18/12/21 22:47:26
"2","14","317.3903365631571","279.9072382063927",18/12/21 22:47:26
"2","14","318.0049129530362","278.6823166947636",18/12/21 22:47:26
"2","14","317.9457435923343","277.98055374897615",18/12/21 22:47:26
"2","14","317.2755252511757","278.28675341198317",18/12/21 22:47:26
"2","14","317.2851553729856","278.28533578617674",18/12/21 22:47:26
"2","14","317.70774169430945","278.506328977156",18/12/21 22:47:26
"2","14","317.8181883046627","277.85825952918935",18/12/21 22:47:26
"2","14","318.6184885337437","277.7346373521876",18/12/21 22:47:26
"2","14","318.6323684961294","279.6610207814439",18/12/21 22:47:26
"2","14","318.947454049904","280.4244227877305",18/12/21 22:47:26
"2","14","320.68698101924116","279.06298828137005",18/12/21 22:47:26
"2","14","319.9651257877562","281.119585693778",18/12/21 22:47:26
"2","14","319.5754672517148","280.8446186569176",18/12/21 22:47:26
"2","14","318.87015354152055","279.1935205876289",18/12/21 22:47:26
"2","14","317.8039222188014","278.7703931339145",18/12/21 22:47:26
"2","14","317.2476712506939","278.35271846188056",18/12/21 22:47:26
"2","14","319.42410016569727","278.49657065884253",18/12/21 22:47:26
"2","14","319.8165870814287","278.1785484329176",18/12/21 22:47:26
"2","14","320.32684753505845","279.144202056492",18/12/21 22:47:26
"2","14","319.8320872537381","281.352913106707",18/12/21 22:47:26
"2","14","321.1083034707582","279.67536173752825",18/12/21 22:47:26
"2","14","321.20826857525003","281.22780039063366",18/12/21 22:47:26
"2","14","321.0895231551322","281.22605152869346",18/12/21 22:47:27
"2","14","320.51314845544107","281.4403834149022",18/12/21 22:47:27
"2","14","320.4463980067096","281.2275150769005",18/12/21 22:47:27
"2","14","319.5830517381296","281.41974464826745",18/12/21 22:47:27
"2","14","319.36062863771485","282.03412320324827",18/12/21 22:47:27
"2","14","317.4476768261768","282.8374759195872",18/12/21 22:47:27
"2","14","317.32935569774025","282.5440651208258",18/12/21 22:47:27
"2","14","317.0531769305189","280.8976884643387",18/12/21 22:47:27
"2","14","317.82508061160365","280.30641556264476",18/12/21 22:47:27
"2","14","317.1754505522421","280.25426513932496",18/12/21 22:47:27
"2","14","318.443469302971","280.328025308012",18/12/21 22:47:27
"2","14","318.71914641810133","280.2953578998773",18/12/21 22:47:27
"2","14","320.29694540295435","282.1868436011278",18/12/21 22:47:27
"2","14","320.3822457800073","282.070894614269",18/12/21 22:47:27
"2","14","321.39115601831605","281.14036132453936",18/12/21 22:47:27
"2","14","321.39115601831605","281.14036132453936",18/12/21 22:47:27
"2","14","321.43104855729916","281.2235031753372",18/12/21 22:47:27
"2","14","320.44033785487386","282.09681261473867",18/12/21 22:47:27
"2","14","319.67492318444397","281.59196215827836",18/12/21 22:47:27
"2","14","320.6929614589688","281.72143224535813",18/12/21 22:47:27
"2","14","321.2843414190329","281.46407940123066",18/12/21 22:47:27
"2","14","320.54629514779344","280.54197048662115",18/12/21 22:47:27
"2","14","320.37920103642466","280.69101362959117",18/12/21 22:47:27
"2","14","318.8293021183543","280.17170155012514",18/12/21 22:47:27
"2","14","319.66669434423756","278.3028608364587",18/12/21 22:47:27
"2","14","320.4741978239246","279.8223362009452",18/12/21 22:47:27
"2","14","320.9743345532236","279.04396903045193",18/12/21 22:47:27
"2","14","321.00772315909467","278.92330429152116",18/12/21 22:47:27
"2","14","320.79128534992213","278.76897076090796",18/12/21 22:47:27
"2","14","320.20038194902173","280.60670424752163",18/12/21 22:47:27
"2","14","320.5078581502564","282.0497679882516",18/12/21 22:47:27
"2","14","320.9981318901679","282.2892668368163",18/12/21 22:47:27
"2","14","320.97247287435636","281.8835369350556",18/12/21 22:47:27
"2","14","319.5187422237605","282.7767357967926",18/12/21 22:47:27
"2","14","318.0212474594017","283.52388118175276",18/12/21 22:47:27
"2","14","319.30770361481837","282.57836094188355",18/12/21 22:47:27
"2","14","318.5708324604863","283.1961140224909",18/12/21 22:47:27
"2","14","318.72538468768676","281.6446291493861",18/12/21 22:47:27
"2","14","317.59941022907856","281.1645909986519",18/12/21 22:47:27
"2","14","317.51781531855835","280.88618643909547",18/12/21 22:47:27
"2","14","317.36024488508866","280.9694776264104",18/12/21 22:47:27
"2","14","319.19166548258664","279.5793805865811",18/12/21 22:47:27
"2","14","319.91396612218796","278.4727290385291",18/12/21 22:47:27
"2","14","320.4794818693766","277.8535311736233",18/12/21 22:47:27
"2","14","319.97713438330004","278.59853260384125",18/12/21 22:47:27
"2","14","320.455430995856","278.4888314020876",18/12/21 22:47:27
"2","14","318.5790878399842","279.38153880330344",18/12/21 22:47:27
"2","14","319.8558353368473","278.0528635597117",18/12/21 22:47:27
"2","14","319.2574871548145","278.0210109159011",18/12/21 22:47:27
"2","14","318.9963390240851","278.03523402619516",18/12/21 22:47:27
"2","14","319.2946972903538","277.77067224361576",18/12/21 22:47:28
"2","14","319.31481442503195","277.8044548543083",18/12/21 22:47:28
"2","14","317.0457478230372","278.68028289723503",18/12/21 22:47:28
"2","14","318.0074711983342","279.1364566000922",18/12/21 22:47:28
"2","14","317.6522913717801","279.1131051722727",18/12/21 22:47:28
"2","14","317.67657880064195","280.600667422677",18/12/21 22:47:28
"2","14","318.8513754102511","279.02004016466685",18/12/21 22:47:28
"2","14","318.72223683699093","279.1909371629215",18/12/21 22:47:28
"2","14","319.09236351832277","280.8761716475966",18/12/21 22:47:28
"2","14","319.3756036231947","279.9599757364422",18/12/21 22:47:28
"2","14","318.6712701424666","278.9485328952803",18/12/21 22:47:28
"2","14","318.9753246610474","278.35755945118217",18/12/21 22:47:28
"2","14","319.3695055928229","278.1640028376495",18/12/21 22:47:28
"2","14","319.7464388655994","279.5352465327812",18/12/21 22:47:28
"2","14","319.89568627292783","278.3777305867511",18/12/21 22:47:28
"2","14","320.61916783970213","279.0910180500162",18/12/21 22:47:28
"2","14","320.74757568489775","279.16393953230147",18/12/21 22:47:28
"2","14","320.0216469843301","281.1411649972131",18/12/21 22:47:28
"2","14","320.1734387367568","279.6989507157911",18/12/21 22:47:28
"2","14","319.44867118156753","278.4267446874412",18/12/21 22:47:28
"2","14","319.5229777624241","278.16529171216604",18/12/21 22:47:28
"2","14","319.5344096503602","278.09224563893486",18/12/21 22:47:28
"2","14","319.2728900399359","279.0186846732189",18/12/21 22:47:28
"2","14","320.8815704547698","278.0257836243345",18/12/21 22:47:28
"2","14","321.1536707347042","277.77179812986515",18/12/21 22:47:28
"2","14","320.6940592401171","278.06442557913175",18/12/21 22:47:28
"2","14","320.8406441382549","277.96726379415315",18/12/21 22:47:28
"2","14","319.9920808098801","278.75443862636234",18/12/21 22:47:28
"2","14","319.11247256847645","280.07740693665295",18/12/21 22:47:28
"2","14","318.16901769162564","280.4984621465221",18/12/21 22:47:28
"2","14","318.0858871736488","280.5578274562458",18/12/21 22:47:28
"2","14","318.41425944906916","279.88730651451687",18/12/21 22:47:28
"2","14","318.40734813743705","279.90912924281923",18/12/21 22:47:28
"2","14","318.63012438204277","280.2741653065086",18/12/21 22:47:28
"2","14","318.27987898470286","280.1676189614026",18/12/21 22:47:28
"2","14","316.92656154326215","280.7191056721118",18/12/21 22:47:28
"2","14","318.32333306477784","279.5552746468154",18/12/21 22:47:28
"2","14","318.9988167887338","278.0854671641404",18/12/21 22:47:28
"2","14","320.1765133078999","280.01663158904466",18/12/21 22:47:28
"2","14","318.9242282385819","278.57557380888164",18/12/21 22:47:28
"2","14","317.98949250602465","279.9481458136925",18/12/21 22:47:28
"2","14","319.46910142722","281.6964554357374",18/12/21 22:47:28
"2","14","318.74358830105695","282.09137363479823",18/12/21 22:47:28
"2","14","317.05061895332796","282.6649611660693",18/12/21 22:47:28
"2","14","316.9139862119443","282.3858403846542",18/12/21 22:47:28
"2","14","317.7887134355346","282.2092303797911",18/12/21 22:47:28
"2","14","318.87398427388194","281.67251432582685",18/12/21 22:47:28
"2","14","318.6191161166309","279.9996699699828",18/12/21 22:47:28
"2","14","318.5214028776763","280.1957000365756",18/12/21 22:47:28
"2","14","319.7897095919762","280.00574969290864",18/12/21 22:47:29
"2","14","318.04985623723263","279.2918583205906",18/12/21 22:47:29
"2","14","319.2725851502111","280.291935137161",18/12/21 22:47:29
"2","14","319.5030948975422","280.626835763304",18/12/21 22:47:29
"2","14","320.2996130760928","281.1732930768017",18/12/21 22:47:29
"2","14","320.23583527732524","281.00086319703735",18/12/21 22:47:29
"2","14","319.48957075837785","278.8987539744381",18/12/21 22:47:29
"2","14","319.7376827119631","281.3228989529113",18/12/21 22:47:29
"2","14","319.61873149370325","281.5505908726138",18/12/21 22:47:29
"2","14","318.5809952147145","282.2821948328255",18/12/21 22:47:29
"2","14","318.28321500246017","282.41412395890046",18/12/21 22:47:29
"2","14","318.8440298576677","283.1120325616841",18/12/21 22:47:29
"2","14","319.67548953630774","284.5417980371864",18/12/21 22:47:29
"2","14","317.8246269826604","283.15739272716536",18/12/21 22:47:29
"2","14","317.8253152493336","283.1562370255137",18/12/21 22:47:29
"2","14","318.8308080534302","282.2969291114287",18/12/21 22:47:29
"2","14","319.75055076178137","282.6943059643806",18/12/21 22:47:29
"2","14","318.188687564429","281.24944032354307",18/12/21 22:47:29
"2","14","317.8284965853596","279.34513257654754",18/12/21 22:47:29
"2","14","318.01565093882573","279.2420190437096",18/12/21 22:47:29
"2","14","317.1767051680428","280.44552235748864",18/12/21 22:47:29
"2","14","317.68704483782125","280.4878269238272",18/12/21 22:47:29
"2","14","319.530759511006","279.4071125037249",18/12/21 22:47:29
"2","14","320.0519860517938","278.93037270404653",18/12/21 22:47:29
"2","14","320.32927043923183","280.8634632561847",18/12/21 22:47:29
"2","14","319.9919139776596","281.103878099102",18/12/21 22:47:29
"2","14","320.129112831491","280.5331749606342",18/12/21 22:47:29
"2","14","318.41495848786815","281.0880018956137",18/12/21 22:47:29
"2","14","317.9011657879992","282.77358427145765",18/12/21 22:47:29
"2","14","317.6821865808229","283.1381022007192",18/12/21 22:47:29
"2","14","317.08148971315245","284.2139048198565",18/12/21 22:47:29
"2","14","318.76021195466933","283.33981704394813",18/12/21 22:47:29
"2","14","319.1214680422921","283.004336930103",18/12/21 22:47:29
"2","14","318.70184129888077","284.8196617128571",18/12/21 22:47:29
"2","14","318.9921241284555","284.32704240414",18/12/21 22:47:29
"2","14","318.98216442847297","284.2382868003432",18/12/21 22:47:29
"2","14","319.5480959757029","284.27400792807236",18/12/21 22:47:29
"2","14","320.32543960397425","281.9367182766902",18/12/21 22:47:29
"2","14","320.5301265988085","281.462462338589",18/12/21 22:47:29
"2","14","319.2988815972364","280.7916178145585",18/12/21 22:47:29
"2","14","321.419047706054","280.5452032179667",18/12/21 22:47:29
"2","14","321.28943209167073","282.4218092075334",18/12/21 22:47:29
"2","14","321.2912958667864","282.436710626156",18/12/21 22:47:29
"2","14","321.23184131408163","282.6086394627278",18/12/21 22:47:29
"2","14","320.56185374492986","282.2021148353405",18/12/21 22:47:29
"2","14","320.03069899528674","280.46370144948503",18/12/21 22:47:29
"2","14","318.44937264678697","278.6912524208007",18/12/21 22:47:29
"2","14","318.53612817038163","278.7970827289401",18/12/21 22:47:29
"2","14","318.7045877125261","279.29245564370535",18/12/21 22:47:29
"2","14","318.92139793125557","279.6274846504248",18/12/21 22:47:29
"2","14","318.7703625316369","278.76304689654853",18/12/21 22:47:30
"2","14","320.3399820527343","278.1149945055493",18/12/21 22:47:30
"2","14","320.28315847527006","277.6862832820126",18/12/21 22:47:30
"2","14","319.7360805142465","278.1012681376526",18/12/21 22:47:30
"2","14","321.32002383644","279.58089780653626",18/12/21 22:47:30
"2","14","320.4150112406326","279.46624344940335",18/12/21 22:47:30
"2","14","319.6486226839229","278.8616383661709",18/12/21 22:47:30
"2","14","320.68107682626385","278.6161063546343",18/12/21 22:47:30
"2","14","320.1595279934587","278.1124881646757",18/12/21 22:47:30
"2","14","318.4613264074718","278.5628246199183",18/12/21 22:47:30
"2","14","318.1531711078945","279.1296586406856",18/12/21 22:47:30
"2","14","318.4011381448989","278.2942733762181",18/12/21 22:47:30
"2","14","317.70699970701975","278.02278787783416",18/12/21 22:47:30
"2","14","319.0895911434211","277.58585101235883",18/12/21 22:47:30
"2","14","319.0427492352159","278.40064727604044",18/12/21 22:47:30
"2","14","318.96464299490606","278.5485667314994",18/12/21 22:47:30
"2","14","318.1050316993809","279.323460069742",18/12/21 22:47:30
"2","14","317.5402383045063","279.01353923054086",18/12/21 22:47:30
"2","14","317.74523215525875","279.7335507801867",18/12/21 22:47:30
"2","14","317.5798036234592","279.77388202187194",18/12/21 22:47:30
"2","14","317.890938166137","278.9890844847878",18/12/21 22:47:30
"2","14","318.64564303461225","281.3526386602269",18/12/21 22:47:30
"2","14","318.4066141194816","281.0216381028048",18/12/21 22:47:30
"2","14","317.0772537657057","282.70515413113327",18/12/21 22:47:30
"2","14","317.6358242552292","282.29645062152935",18/12/21 22:47:30
"2","14","317.62027223039337","282.4462306340614",18/12/21 22:47:30
"2","14","317.62027223039337","282.4462306340614",18/12/21 22:47:30
"2","14","317.62027223039337","282.4462306340614",18/12/21 22:47:30
"2","14","318.825868733111","283.932931944059",18/12/21 22:47:30
"2","14","319.6315837471528","284.92651276829037",18/12/21 22:47:30
"2","90","321.7043438698688","285.7048396913364",18/12/21 22:47:30
"2","90","323.577012764508","286.2023646788486",18/12/21 22:47:30
"2","90","324.82692682833186","286.5344380532585",18/12/21 22:47:30
"2","90","326.6729942939154","287.0248956538468",18/12/21 22:47:30
"2","90","328.32019433832994","287.4625187616335",18/12/21 22:47:30
"2","90","329.7501518559773","287.8424255343401",18/12/21 22:47:30
"2","90","331.0918212522887","288.19887618696544",18/12/21 22:47:30
"2","93","332.4312817125181","288.3655108844931",18/12/21 22:47:30
"2","93","334.1976188969729","288.0120997299237",18/12/21 22:47:30
"2","93","335.57501073175627","287.7365092917507",18/12/21 22:47:30
"2","93","337.87277154191025","287.2767701728624",18/12/21 22:47:30
"2","93","339.6790489187403","286.91536773009204",18/12/21 22:47:30
"2","93","341.16981831814536","286.61709255405134",18/12/21 22:47:30
"2","93","341.16981831814536","286.61709255405134",18/12/21 22:47:30
"2","93","340.1173340457716","285.9183733283454",18/12/21 22:47:30
"2","93","338.6193853117855","285.0744341006103",18/12/21 22:47:30
"2","93","336.7399026831089","284.01553997279456",18/12/21 22:47:30
"2","93","335.528168872703","283.3328532606444",18/12/21 22:47:30
"2","93","334.1080032604396","282.5327367794347",18/12/21 22:47:30
"2","93","333.0102126731502","281.91424529208814",18/12/21 22:47:30
"2","93","331.47040584046204","281.04672335374914",18/12/21 22:47:31
"3","95","330.8830806223484","280.69761523928054",18/12/21 22:47:31
"3","95","332.7428807438031","281.65700818315275",18/12/21 22:47:31
"3","95","334.1065484922306","282.3604672272377",18/12/21 22:47:31
"3","95","335.94961905605015","283.3112300934128",18/12/21 22:47:31
"3","95","337.8898744039779","284.3121265169791",18/12/21 22:47:31
"3","95","339.84863274112223","285.3225678572761",18/12/21 22:47:31
"3","95","340.85789345922893","285.8432031665811",18/12/21 22:47:31
"3","95","340.85789345922893","285.8432031665811",18/12/21 22:47:31
"3","95","339.43400212396506","285.1086772978418",18/12/21 22:47:31
"3","95","337.5657466737896","284.1449226042206",18/12/21 22:47:31
"3","95","336.1823976240415","283.43131080157025",18/12/21 22:47:31
"3","95","334.2573084090095","282.4382379503965",18/12/21 22:47:31
"3","95","332.51058703479623","281.5371775934264",18/12/21 22:47:31
"3","95","330.8285520707756","280.6694862446563",18/12/21 22:47:31
"1","88","330.9744288827382","282.30794372215377",18/12/21 22:47:31
"1","88","331.59011627602763","284.6541924393111",18/12/21 22:47:31
"1","88","331.60191075864776","286.27332373170583",18/12/21 22:47:31
"1","88","330.03858964369095","286.13248985532823",18/12/21 22:47:31
"1","88","328.5327718884704","285.996836246126",18/12/21 22:47:31
"1","88","326.6931990760346","285.8311158656005",18/12/21 22:47:31
"1","88","324.64760360983627","285.6468356583872",18/12/21 22:47:31
"1","88","322.68506887241506","285.47003808816794",18/12/21 22:47:31
"1","88","320.52933180487673","285.2758356272866",18/12/21 22:47:31
"1","55","320.2150435698929","284.7154076027283",18/12/21 22:47:31
"1","55","321.22177941710714","283.24208206289705",18/12/21 22:47:31
"1","55","321.03627814657386","281.61430968144407",18/12/21 22:47:31
"1","55","320.9249358102434","281.7673558702861",18/12/21 22:47:31
"1","55","319.9399460539682","283.17900075461284",18/12/21 22:47:31
"1","55","318.59973300754876","281.8532700003163",18/12/21 22:47:31
"1","55","320.45221475237247","280.4717032193622",18/12/21 22:47:31
"1","55","320.3035040093774","278.8613104049728",18/12/21 22:47:31
"1","55","320.2797113103798","278.26937924086127",18/12/21 22:47:31
"1","55","319.46762717077456","279.21404905534826",18/12/21 22:47:31
"1","55","321.2358841028314","278.02234740872547",18/12/21 22:47:31
"1","55","320.61281712679533","280.0038510498984",18/12/21 22:47:31
"1","55","319.90494439429114","280.12846277005394",18/12/21 22:47:31
"1","55","320.24994062619993","282.19744208448355",18/12/21 22:47:31
"1","55","319.29302204255174","282.1614981331753",18/12/21 22:47:31
"1","55","319.4599221337155","280.5819675226891",18/12/21 22:47:31
"1","55","319.1477853253419","279.84813182660747",18/12/21 22:47:31
"1","55","318.13413351396434","278.01149500149825",18/12/21 22:47:31
"1","55","317.11333553362584","277.7746512271636",18/12/21 22:47:31
"1","55","317.5784397109337","278.21052393875874",18/12/21 22:47:31
"1","55","317.6237355380663","278.2471799091137",18/12/21 22:47:31
"1","55","319.76162325784304","278.8031454304328",18/12/21 22:47:31
"1","55","319.2190031249823","278.36933950066293",18/12/21 22:47:31
"1","55","320.1169527559161","277.68387811588224",18/12/21 22:47:31
"1","55","319.6903606446624","280.01191094193274",18/12/21 22:47:31
"1","55","319.47834047859067","281.40707733552296",18/12/21 22:47:31
"1","55","319.8969787704843","281.63752562794366",18/12/21 22:47:32
"1","55","319.8892256502982","281.58033184064146",18/12/21 22:47:32
"1","55","319.7045913136499","281.5936301848549",18/12/21 22:47:32
"1","55","319.79960724708576","281.33769475513225",18/12/21 22:47:32
"1","55","319.1499261677539","281.36924109024676",18/12/21 22:47:32
"1","55","319.48705959658133","280.9105168173886",18/12/21 22:47:32
"1","55","321.4747251020912","280.9153484034922",18/12/21 22:47:32
"1","55","320.3042198773886","281.4979895606006",18/12/21 22:47:32
"1","55","320.5014309686388","281.2254226883896",18/12/21 22:47:32
"1","55","320.1345490192492","282.6930361910202",18/12/21 22:47:32
"1","55","320.52031788378883","284.26973561202976",18/12/21 22:47:32
"1","55","320.4400362593204","283.1500070038474",18/12/21 22:47:32
"1","55","320.8434434527336","283.43689436443026",18/12/21 22:47:32
"1","55","320.8297374872475","283.4246005836274",18/12/21 22:47:32
"1","55","321.34466101525476","283.93927222669095",18/12/21 22:47:32
"1","55","320.7308096982814","283.438628250239",18/12/21 22:47:32
"1","55","320.6177130337082","283.2845239276622",18/12/21 22:47:32
"1","55","318.4965640129154","282.8649057008398",18/12/21 22:47:32
"1","55","318.48511211441183","283.26400861485604",18/12/21 22:47:32
"1","55","319.26274445676245","282.1090881581098",18/12/21 22:47:32
"1","55","318.6743405600743","282.0258058039224",18/12/21 22:47:32
"1","55","318.85976330716625","282.90569165799894",18/12/21 22:47:32
"1","55","319.65919998633206","284.1508526682703",18/12/21 22:47:32
"1","55","318.1295730692536","284.5123728662776",18/12/21 22:47:32
"1","55","317.9975899341007","284.4301591680966",18/12/21 22:47:32
"1","55","317.19619947071124","284.0915243046948",18/12/21 22:47:32
"1","55","318.2633846635107","283.6855256755817",18/12/21 22:47:32
"1","55","318.6699433643142","282.43059318551286",18/12/21 22:47:32
"1","55","318.31100208728344","282.9442175041413",18/12/21 22:47:32
"1","55","317.69635485005244","283.5442746073334",18/12/21 22:47:32
"1","55","317.5993552537751","283.60182240572425",18/12/21 22:47:32
"1","55","318.9568581670392","283.63579871436417",18/12/21 22:47:32
"1","55","320.33578573915264","284.5805946724159",18/12/21 22:47:32
"1","55","320.77217601728177","284.7891626397852",18/12/21 22:47:32
"1","55","320.5499328323732","284.0324368110371",18/12/21 22:47:32
"1","55","318.882584193835","284.2895415413042",18/12/21 22:47:32
"1","55","317.67688856360434","282.89844303417954",18/12/21 22:47:32
"1","55","317.44632791437033","282.64682202976377",18/12/21 22:47:32
"1","55","317.15186013979013","283.27033851615766",18/12/21 22:47:32
"1","55","317.71807290622144","282.0748445486025",18/12/21 22:47:32
"1","55","318.52725965905046","282.1407519544659",18/12/21 22:47:32
"1","55","316.92762807192156","282.15296338085324",18/12/21 22:47:32
"1","55","317.8460648907848","281.9009337753354",18/12/21 22:47:32
"1","55","319.0594530622253","283.2484736660869",18/12/21 22:47:32
"1","55","317.94134775447634","284.3707629774505",18/12/21 22:47:32
"1","55","317.5241141923097","283.85345088322845",18/12/21 22:47:32
"1","55","317.08011329101464","282.6122929854715",18/12/21 22:47:32
"1","55","317.18346724600366","282.5829103668591",18/12/21 22:47:32
"1","55","316.86511378514825","284.4896239555011",18/12/21 22:47:32
"1","55","317.32019198494544","284.2524504644518",18/12/21 22:47:32
"1","55","317.844655735435","284.10879388701915",18/12/21 22:47:33
"1","55","317.9039420535094","284.1594133870564",18/12/21 22:47:33
"1","55","318.5203429078433","283.20147115501834",18/12/21 22:47:33
"1","55","319.20738977327716","283.44158436166805",18/12/21 22:47:33
"1","55","317.75225759461966","282.8665841629914",18/12/21 22:47:33
"1","55","318.77358073916804","284.5305453051294",18/12/21 22:47:33
"1","55","320.1932523122882","283.51729866987984",18/12/21 22:47:33
"1","55","320.24879632833586","283.3952561042744",18/12/21 22:47:33
"1","55","318.9182504523514","284.6581742933873",18/12/21 22:47:33
"1","55","319.1370004533635","283.07566681755355",18/12/21 22:47:33
"1","55","319.2719606212876","283.5511484384231",18/12/21 22:47:33
"1","55","318.70765025971974","283.8331715765793",18/12/21 22:47:33
"1","55","319.2484664835158","282.89453030446526",18/12/21 22:47:33
"1","55","319.63186091039205","282.9851202913743",18/12/21 22:47:33
"1","55","318.01873757806885","284.4345205827566",18/12/21 22:47:33
"1","55","319.1572663512895","283.6414549113664",18/12/21 22:47:33
"1","55","318.2761957037697","281.5803113343534",18/12/21 22:47:33
"1","55","318.4509813525291","281.7121636206792",18/12/21 22:47:33
"1","55","317.9569189756593","280.68111629696114",18/12/21 22:47:33
"1","55","317.8101697634189","280.92823392281525",18/12/21 22:47:33
"1","55","318.1492241655461","281.18863448941886",18/12/21 22:47:33
"1","55","319.1975626090973","279.72099939459514",18/12/21 22:47:33
"1","55","318.53122928174207","279.4739382221236",18/12/21 22:47:33
"1","55","320.0300291545754","278.4961952032415",18/12/21 22:47:33
"1","55","317.6026731655175","278.67431780550635",18/12/21 22:47:33
"1","55","316.8978621240868","280.02936262828115",18/12/21 22:47:33
"1","55","317.5519969397615","280.177145150306",18/12/21 22:47:33
"1","55","317.7100706393755","279.0153440457935",18/12/21 22:47:33
"1","55","318.41122581461167","279.9375315258904",18/12/21 22:47:33
"1","55","319.88758029784555","280.4197849949431",18/12/21 22:47:33
"1","55","318.76845817452136","279.1440453089759",18/12/21 22:47:33
"1","55","317.50645792383824","279.8964251871031",18/12/21 22:47:33
"1","55","317.7811749783396","280.4966322682768",18/12/21 22:47:33
"1","55","317.71100755126275","280.3622094655267",18/12/21 22:47:33
"1","55","317.6870557735695","281.59248570766664",18/12/21 22:47:33
"1","55","318.3480805651777","282.6867807798274",18/12/21 22:47:33
"1","55","319.4633906989029","282.56261159064394",18/12/21 22:47:33
"1","55","318.6551554456237","281.6403101115774",18/12/21 22:47:33
"1","55","317.7915411199393","282.0320993918746",18/12/21 22:47:33
"1","55","318.4457162646219","283.65432732403207",18/12/21 22:47:33
"1","55","318.69961776211215","284.10574045729527",18/12/21 22:47:33
"1","55","318.67401069069683","284.13818834003155",18/12/21 22:47:33
"1","55","317.24066084864484","282.7880413789689",18/12/21 22:47:33
"1","55","317.45405571142993","283.35208018278183",18/12/21 22:47:33
"1","55","318.32074863710903","282.6633218135331",18/12/21 22:47:33
"1","55","318.29190343950955","282.92491671186605",18/12/21 22:47:33
"1","55","318.5229572024647","282.66495581733074",18/12/21 22:47:33
"1","55","319.52748666764785","281.58213832126603",18/12/21 22:47:33
"1","55","319.6779396034053","281.6353138934437",18/12/21 22:47:33
"1","55","318.69098686187186","283.25349027748035",18/12/21 22:47:34
"1","55","318.69578233243595","283.23487217166456",18/12/21 22:47:34
"1","55","318.8071435509903","281.92791234025043",18/12/21 22:47:34
"1","55","318.2953446904053","281.3736855935737",18/12/21 22:47:34
"1","55","318.46037505259306","280.8698539170286",18/12/21 22:47:34
"1","55","317.9711446204703","281.1824034368769",18/12/21 22:47:34
"1","55","318.3989807792274","281.0378735177166",18/12/21 22:47:34
"1","55","318.8413469322267","282.964913318405",18/12/21 22:47:34
"1","55","317.33755821340236","282.68585777147706",18/12/21 22:47:34
"1","55","317.19095081581827","282.79093927611916",18/12/21 22:47:34
"1","55","316.94090069252275","284.31690596465955",18/12/21 22:47:34
"1","55","316.9729234517031","284.13867330388405",18/12/21 22:47:34
"1","55","316.9004000857363","283.8094917186551",18/12/21 22:47:34
"1","55","316.9353019883989","283.9346226498796",18/12/21 22:47:34
"1","55","318.50543264426733","283.7072828770828",18/12/21 22:47:34
"1","55","319.63788899222624","281.72479130230545",18/12/21 22:47:34
"1","55","318.8023111288759","281.0068449419078",18/12/21 22:47:34
"1","55","318.91819802134063","280.97566040269714",18/12/21 22:47:34
"1","55","321.2503602850144","280.80209268000624",18/12/21 22:47:34
"1","55","320.37280972704866","281.2077734025033",18/12/21 22:47:34
"1","55","319.70289745408905","281.51401530100844",18/12/21 22:47:34
"1","55","319.6549874772141","281.9142877982063",18/12/21 22:47:34
"1","55","320.72489527926723","282.74751303132285",18/12/21 22:47:34
"1","55","320.6802497307174","281.0324367427082",18/12/21 22:47:34
"1","55","320.64176405706485","281.22125218964294",18/12/21 22:47:34
"1","55","319.56835709325384","282.4797565246523",18/12/21 22:47:34
"1","55","319.7027993017111","282.79329472593565",18/12/21 22:47:34
"1","55","319.7762503752243","282.6943345702054",18/12/21 22:47:34
"1","55","318.14334352679487","281.4207985044795",18/12/21 22:47:34
"1","55","317.07564843683616","281.0116211660201",18/12/21 22:47:34
"1","55","317.31800954299945","278.78356004468765",18/12/21 22:47:34
"1","55","317.8252353202543","278.48048604532124",18/12/21 22:47:34
"1","55","317.4537545781452","278.7609637256996",18/12/21 22:47:34
"1","55","317.20279543250706","278.985788774676",18/12/21 22:47:34
"1","55","318.6329380691342","280.14712699412013",18/12/21 22:47:34
"1","55","318.2996606577939","281.000525440536",18/12/21 22:47:34
"1","55","317.87722832572024","281.7886873874577",18/12/21 22:47:34
"1","55","317.5820992348823","281.8817568607021",18/12/21 22:47:34
"1","55","317.5977541389385","282.0022456996343",18/12/21 22:47:34
"1","55","319.27733456885966","280.5491892302746",18/12/21 22:47:34
"1","55","318.96700487576845","279.9347737671823",18/12/21 22:47:34
"1","55","319.65743925655875","282.0442078657703",18/12/21 22:47:34
"1","55","320.31720353399885","281.1687398657209",18/12/21 22:47:34
"1","55","318.29131359856495","282.0074303220688",18/12/21 22:47:34
"1","55","319.8165403140443","282.7213940614636",18/12/21 22:47:34
"1","55","318.9964779797404","282.8446453484577",18/12/21 22:47:34
"1","55","319.3329514479265","283.9957517305625",18/12/21 22:47:34
"1","55","319.2679839449943","284.04511067383106",18/12/21 22:47:34
"1","55","318.2461399479986","283.85649105621314",18/12/21 22:47:34
"1","55","318.39112881295125","281.52747612248123",18/12/21 22:47:34
"1","55","318.30292286915517","281.6391020830219",18/12/21 22:47:35
"1","55","318.75158678594585","281.7235554986595",18/12/21 22:47:35
"1","55","318.16538519409295","282.3035864620504",18/12/21 22:47:35
"1","55","320.0721629447035","281.76049692901904",18/12/21 22:47:35
"1","55","320.31732928773346","283.8004154836772",18/12/21 22:47:35
"1","55","319.3672488690782","284.2533980074617",18/12/21 22:47:35
"1","55","320.36682479938565","284.56735231780823",18/12/21 22:47:35
"1","55","320.6390164383606","284.2200165847288",18/12/21 22:47:35
"1","55","320.83447637939554","284.85249392513924",18/12/21 22:47:35
"1","55","318.80898532579863","283.4328175021494",18/12/21 22:47:35
"1","55","319.47150769554736","283.714584898158",18/12/21 22:47:35
"1","55","318.5594614875631","284.6076980559583",18/12/21 22:47:35
"1","55","319.87269923747766","282.7201509242041",18/12/21 22:47:35
"1","55","319.5696174952076","282.0206440571603",18/12/21 22:47:35
"1","55","320.78756399890847","279.9780230695229",18/12/21 22:47:35
"1","55","321.30762582812525","278.60028608866975",18/12/21 22:47:35
"1","55","321.0080093456203","279.13516301984754",18/12/21 22:47:35
"1","55","320.94411071437844","279.58403439209826",18/12/21 22:47:35
"1","55","320.61654440427776","279.81175290965723",18/12/21 22:47:35
"1","55","319.5494402876722","278.6989299703466",18/12/21 22:47:35
"1","55","319.33624475090016","280.5904572991606",18/12/21 22:47:35
"1","55","317.9536819965555","281.9116623998812",18/12/21 22:47:35
"1","55","318.734809545406","281.22677349382053",18/12/21 22:47:35
"1","55","319.58597458689354","281.16140563947",18/12/21 22:47:35
"1","55","320.54477794208094","283.36741633764524",18/12/21 22:47:35
"1","55","318.96849660766384","281.9859435478592",18/12/21 22:47:35
"1","55","320.72233064402184","281.73364560839764",18/12/21 22:47:35
"1","55","319.81710946989364","281.40384893199086",18/12/21 22:47:35
"1","55","319.8774993988834","281.52496619814576",18/12/21 22:47:35
"1","55","319.46548126544997","282.64525610079704",18/12/21 22:47:35
"1","55","318.7264397775542","283.9832030883588",18/12/21 22:47:35
"1","55","318.8591072143073","282.84472662529396",18/12/21 22:47:35
"1","55","318.1147653803416","282.30777436490206",18/12/21 22:47:35
"1","55","318.26477852625516","280.24719101116096",18/12/21 22:47:35
"1","55","318.297541121492","279.01382662116157",18/12/21 22:47:35
"1","55","317.9855835706928","278.77418241122143",18/12/21 22:47:35
"1","55","318.7761735285586","278.12493083410783",18/12/21 22:47:35
"1","55","319.67993183763565","279.73736429006897",18/12/21 22:47:35
"1","55","320.24793863242326","279.335406409129",18/12/21 22:47:35
"1","55","319.55130770244654","278.85555863634",18/12/21 22:47:35
"1","55","317.8803996233749","278.8013345231532",18/12/21 22:47:35
"1","55","319.2454006189218","278.77134286902844",18/12/21 22:47:35
"1","55","319.4329616489123","278.9454208314864",18/12/21 22:47:35
"1","55","317.4278807824889","279.7563348862018",18/12/21 22:47:35
"1","55","317.912037003797","279.365166965864",18/12/21 22:47:35
"1","55","316.90955235355125","279.83878916031347",18/12/21 22:47:35
"1","55","317.1384199318558","280.692039703812",18/12/21 22:47:35
"1","55","317.20827440003814","280.4511409209952",18/12/21 22:47:35
"1","55","317.4850708758549","281.1939395013778",18/12/21 22:47:35
"1","55","317.29630715786504","280.3342050044529",18/12/21 22:47:35
"1","55","317.5131263339633","278.12643252612924",18/12/21 22:47:36
"1","55","317.5916425849038","277.65063157362",18/12/21 22:47:36
"1","55","317.37745144906324","277.8323428868577",18/12/21 22:47:36
"1","55","317.8947597300779","278.75740658385723",18/12/21 22:47:36
"1","55","318.0076914034381","279.4916088981893",18/12/21 22:47:36
"1","55","319.0785385773345","280.4667475611072",18/12/21 22:47:36
"1","55","318.70302387617096","281.7725340381972",18/12/21 22:47:36
"1","55","320.0919496883144","280.45622202933953",18/12/21 22:47:36
"1","55","319.7079695233445","278.77584437622244",18/12/21 22:47:36
"1","55","318.7324443953279","279.9159395891261",18/12/21 22:47:36
"1","55","318.65968424136645","279.4631181934488",18/12/21 22:47:36
"1","55","318.10039333862795","280.1086907244497",18/12/21 22:47:36
"1","55","319.78546687971175","278.9886279712423",18/12/21 22:47:36
"1","55","318.59868287272167","277.65192113061755",18/12/21 22:47:36
"1","55","318.95266921161846","280.1042069745006",18/12/21 22:47:36
"1","55","318.7938544015705","280.34916359934914",18/12/21 22:47:36
"1","55","319.44725563588906","280.2011383680975",18/12/21 22:47:36
"1","55","319.4689809136399","280.19181975179015",18/12/21 22:47:36
"1","55","319.4509463093834","280.2158486582509",18/12/21 22:47:36
"1","55","319.0973718473237","279.38251224168954",18/12/21 22:47:36
"1","55","319.2721551381424","281.0853474662331",18/12/21 22:47:36
"1","55","318.62915277290233","281.304791295424",18/12/21 22:47:36
"1","55","318.47309361175695","280.9195400717034",18/12/21 22:47:36
"1","55","317.86239048656995","282.5447090520595",18/12/21 22:47:36
"1","55","317.49229636598847","281.59988678030527",18/12/21 22:47:36
"1","55","317.5437112978767","280.3269526437928",18/12/21 22:47:36
"1","55","316.9902138621573","280.20707378758084",18/12/21 22:47:36
"1","55","316.83741482249917","278.67152586214456",18/12/21 22:47:36
"1","55","316.83741482249917","278.67152586214456",18/12/21 22:47:36
"1","55","316.83741482249917","278.67152586214456",18/12/21 22:47:36
"1","55","317.62981299053246","280.492911115349",18/12/21 22:47:36
"1","55","318.130255591906","281.6432151051719",18/12/21 22:47:36
"1","55","318.7084044767449","282.9721326815663",18/12/21 22:47:36
"1","55","319.3176431267269","284.3725123612842",18/12/21 22:47:36
"1","88","319.30890656893234","285.394256477004",18/12/21 22:47:36
"1","88","317.1705166681356","286.4042788097203",18/12/21 22:47:36
"1","89","315.8424025645771","286.71729275165734",18/12/21 22:47:36
"1","89","313.48000462614164","287.1419654442726",18/12/21 22:47:36
"1","89","311.14152663235376","287.5623382062388",18/12/21 22:47:36
"1","89","309.50060934597144","287.85731508165395",18/12/21 22:47:36
"1","89","310.5123164992615","286.6373775997142",18/12/21 22:47:36
"1","89","310.85583716888283","285.6709956947783",18/12/21 22:47:36
"1","89","310.9085056573408","285.8256481136053",18/12/21 22:47:36
"1","89","311.96084673587944","287.11370671285994",18/12/21 22:47:36
"1","89","313.0332884331012","287.51368153555086",18/12/21 22:47:36
"1","89","313.40371876455686","286.60934588266645",18/12/21 22:47:36
"1","89","313.9901815234231","286.4700642033068",18/12/21 22:47:36
"1","89","312.66716410419144","286.8276578657703",18/12/21 22:47:36
"1","89","311.7413960010743","286.82425177615636",18/12/21 22:47:36
"1","89","312.62700644442054","286.8835102962134",18/12/21 22:47:37
"1","89","311.70230787922463","287.04784684153844",18/12/21 22:47:37
"1","89","311.64107631909934","287.0172312908767",18/12/21 22:47:37
"1","89","310.86989207985306","286.9111252943478",18/12/21 22:47:37
"1","89","311.1339937507177","286.6329216954377",18/12/21 22:47:37
"1","89","309.5983507897067","287.69323690247234",18/12/21 22:47:37
"1","89","309.83076361402976","287.7271914192125",18/12/21 22:47:37
"1","89","310.18784575636715","287.2093687022368",18/12/21 22:47:37
"1","89","308.398678554812","287.1712307248288",18/12/21 22:47:37
"1","89","308.39579310317396","287.21605851532115",18/12/21 22:47:37
"1","89","308.90354964400103","286.477532740664",18/12/21 22:47:37
"1","89","309.57348215363976","286.2663691458702",18/12/21 22:47:37
"1","89","309.6511761660812","285.80109453996135",18/12/21 22:47:37
"1","89","309.20729476200023","286.3392442124457",18/12/21 22:47:37
"1","89","308.46354894693604","286.18936638182464",18/12/21 22:47:37
"1","89","308.5681903498803","286.3025769395605",18/12/21 22:47:37
"1","89","306.9110612981121","285.65958136601506",18/12/21 22:47:37
"1","89","309.02740448917876","286.57879434213453",18/12/21 22:47:37
"1","89","308.90337478669915","286.5338474597687",18/12/21 22:47:37
"1","89","307.7342570447009","285.9360176123989",18/12/21 22:47:37
"1","89","306.36676651444895","287.56771213343546",18/12/21 22:47:37
"1","89","308.80775109166365","287.41254097609624",18/12/21 22:47:37
"1","89","310.46025801327113","288.6819437205059",18/12/21 22:47:37
"1","89","309.23736355380373","287.4963339487225",18/12/21 22:47:37
"1","89","307.81533150238823","287.415896227576",18/12/21 22:47:37
"1","89","307.3316849703764","288.06229739935446",18/12/21 22:47:37
"1","89","306.90145703515304","285.7253888420536",18/12/21 22:47:37
"1","89","308.64083239855336","285.70120629549905",18/12/21 22:47:37
"1","89","308.49251110400104","286.0250166733033",18/12/21 22:47:37
"1","89","309.6626375624047","286.9881472434297",18/12/21 22:47:37
"1","89","309.1300534222215","287.81063269883873",18/12/21 22:47:37
"1","89","309.1109399033539","287.7836700746687",18/12/21 22:47:37
"1","89","310.15872790335953","287.2605056919402",18/12/21 22:47:37
"1","89","309.14422152929006","285.82246092693896",18/12/21 22:47:37
"1","89","310.7853507471294","286.51362745396625",18/12/21 22:47:37
"1","89","308.53096526315005","286.4594137191473",18/12/21 22:47:37
"1","89","308.5420722392393","286.12500010571546",18/12/21 22:47:37
"1","89","308.64743881124986","286.840197277407",18/12/21 22:47:37
"1","89","309.57557948206846","287.14954069500476",18/12/21 22:47:37
"1","89","307.37731078375793","287.7764329870342",18/12/21 22:47:37
"1","89","308.251906059369","288.3320734971823",18/12/21 22:47:37
"1","89","306.85916401539333","287.4248828719326",18/12/21 22:47:37
"1","89","307.6906084662268","287.4636592802356",18/12/21 22:47:37
"1","89","310.04480595458836","287.481205001327",18/12/21 22:47:37
"1","89","309.03813737653496","287.85877558072065",18/12/21 22:47:37
"1","89","309.0888342269983","286.38234993530205",18/12/21 22:47:37
"1","89","309.4256372984183","286.10855723134756",18/12/21 22:47:37
"1","89","309.41841036021486","286.10371315240604",18/12/21 22:47:37
"1","89","309.73674042099196","285.4348259862791",18/12/21 22:47:37
"1","89","309.97675258704305","285.51913990694584",18/12/21 22:47:37
"1","89","310.8194825327029","286.4248865911838",18/12/21 22:47:38
"1","89","312.16074447636623","288.1923340482457",18/12/21 22:47:38
"1","89","312.0004640620728","286.4842441300405",18/12/21 22:47:38
"1","89","313.5025645896912","287.8849034030959",18/12/21 22:47:38
"1","89","314.6186677741646","288.2302748179046",18/12/21 22:47:38
"1","89","314.6125076932653","288.25958331168965",18/12/21 22:47:38
"1","89","316.52010378206097","287.2872396854252",18/12/21 22:47:38
"1","89","316.1781112239546","287.8473905014245",18/12/21 22:47:38
"1","89","316.1711655189916","286.1815863992199",18/12/21 22:47:38
"1","89","316.35683032538566","288.26013730265936",18/12/21 22:47:38
"1","89","315.41926354026714","288.6047600531347",18/12/21 22:47:38
"1","89","316.0264624752376","288.1773464336689",18/12/21 22:47:38
"1","89","316.25919702991547","288.37957039774443",18/12/21 22:47:38
"1","89","314.6900449497276","288.11192499477596",18/12/21 22:47:38
"1","89","314.1651006627001","288.28816742648866",18/12/21 22:47:38
"1","89","316.56746155790574","288.60282258281006",18/12/21 22:47:38
"1","89","316.3576254283349","287.87429835534243",18/12/21 22:47:38
"1","89","316.5750301458407","287.7455749477002",18/12/21 22:47:38
"1","89","316.6115739318047","287.3552777710703",18/12/21 22:47:38
"1","89","316.3101595515932","287.2792672153462",18/12/21 22:47:38
"1","89","314.8055719802443","285.9682058316716",18/12/21 22:47:38
"1","89","315.85630232771297","287.1401626953927",18/12/21 22:47:38
"1","89","315.8305012604075","287.3094450327808",18/12/21 22:47:38
"1","89","314.27848733590474","288.2769779413726",18/12/21 22:47:38
"1","89","314.27848733590474","288.2769779413726",18/12/21 22:47:38
"1","89","314.27848733590474","288.2769779413726",18/12/21 22:47:38
"1","89","315.76368598179505","288.48443922953675",18/12/21 22:47:38
"1","88","318.13271585021585","288.6800781187625",18/12/21 22:47:38
"1","88","319.85180127543043","288.728967950333",18/12/21 22:47:38
"1","88","321.27538541889294","288.7694538901121",18/12/21 22:47:38
"1","88","322.7287967687802","288.81078809902135",18/12/21 22:47:38
"1","7","323.82675930322233","289.3170029077736",18/12/21 22:47:38
"1","7","324.6079023101738","290.5548592635848",18/12/21 22:47:38
"1","7","325.5343004479205","292.02289752625404",18/12/21 22:47:38
"1","7","326.4963056317354","293.5473613190696",18/12/21 22:47:38
"1","7","327.2211539699362","294.6960090243633",18/12/21 22:47:38
"1","7","328.00499946529993","295.9381479410216",18/12/21 22:47:38
"1","7","328.3415740262757","294.4431091616536",18/12/21 22:47:38
"1","7","328.6874539382686","293.5620803275692",18/12/21 22:47:38
"1","7","327.1332671407551","292.98697685162125",18/12/21 22:47:38
"1","7","326.1903908491986","293.39431374694817",18/12/21 22:47:38
"1","7","328.21053961912463","293.0612462204839",18/12/21 22:47:38
"1","7","327.9208004498495","291.30392835723603",18/12/21 22:47:38
"1","7","329.3589178316848","292.42915748723453",18/12/21 22:47:38
"1","7","329.57323291122253","294.51946313149193",18/12/21 22:47:38
"1","7","329.55012428654334","294.50647467817726",18/12/21 22:47:38
"1","7","329.1109674311391","294.13967345699615",18/12/21 22:47:38
"1","7","329.7695141913456","294.52068958755285",18/12/21 22:47:38
"1","7","329.86393243035576","295.50483440999835",18/12/21 22:47:38
"1","7","329.9376558214681","295.1439921831986",18/12/21 22:47:38
"1","7","330.46765098161836","294.70746757296723",18/12/21 22:47:39
"1","7","330.33219012565894","296.2932848695795",18/12/21 22:47:39
"1","7","330.12441462473146","296.3046322872578",18/12/21 22:47:39
"1","7","329.72591961947506","295.79802840429267",18/12/21 22:47:39
"1","7","329.3538627696353","293.692197820664",18/12/21 22:47:39
"1","7","328.9384828670422","292.5467808195125",18/12/21 22:47:39
"1","7","328.5666218212079","292.18926335681374",18/12/21 22:47:39
"1","7","328.08323589368814","293.118107569167",18/12/21 22:47:39
"1","7","326.46108846226576","293.63698746208587",18/12/21 22:47:39
"1","7","326.2666061314119","293.9041681453545",18/12/21 22:47:39
"1","7","325.2737681087318","294.4706018984499",18/12/21 22:47:39
"1","7","326.54820744821484","296.4423523878049",18/12/21 22:47:39
"1","7","326.3473017091225","295.2730681478736",18/12/21 22:47:39
"1","7","325.60651984208005","293.2226182174022",18/12/21 22:47:39
"1","7","325.6062123125228","292.1797236262166",18/12/21 22:47:39
"1","7","324.5649244542647","292.92502369858624",18/12/21 22:47:39
"1","7","323.70991651648507","291.022814669971",18/12/21 22:47:39
"1","7","323.4001136918384","291.06472055613403",18/12/21 22:47:39
"1","7","323.4617515596229","291.20499098923085",18/12/21 22:47:39
"1","7","323.4763313338877","291.7282393822561",18/12/21 22:47:39
"1","7","323.6545773444087","291.50291882399915",18/12/21 22:47:39
"1","7","322.7038981367623","293.2826070403614",18/12/21 22:47:39
"1","7","322.23401262970395","293.90278615887945",18/12/21 22:47:39
"1","7","322.1357185382221","293.2997959249411",18/12/21 22:47:39
"1","7","322.12647423081273","292.26401251517836",18/12/21 22:47:39
"1","7","323.1714418260885","291.2425217654265",18/12/21 22:47:39
"1","7","324.950397740966","291.19894393471594",18/12/21 22:47:39
"1","7","324.0524967439736","292.716669116648",18/12/21 22:47:39
"1","7","324.5895881299514","291.8575652471934",18/12/21 22:47:39
"1","7","324.56317944958363","291.42985829656874",18/12/21 22:47:39
"1","7","324.49426560502013","289.7602827819238",18/12/21 22:47:39
"1","7","324.63067085379686","289.7458749347384",18/12/21 22:47:39
"1","7","322.9586192220635","289.26334667849414",18/12/21 22:47:39
"1","7","323.3723817435948","289.29313317776774",18/12/21 22:47:39
"1","7","323.14374315903837","289.4698165546703",18/12/21 22:47:39
"1","7","324.0055792342198","290.2360875547566",18/12/21 22:47:39
"1","7","322.74885026948397","289.54337951268707",18/12/21 22:47:39
"1","7","322.6161598397173","289.288773308002",18/12/21 22:47:39
"1","7","322.68229167715987","291.3829947621556",18/12/21 22:47:39
"1","7","322.6286425701444","291.3512336336215",18/12/21 22:47:39
"1","7","323.8089961083996","292.57548116120626",18/12/21 22:47:39
"1","7","323.4329767216042","292.64609396282094",18/12/21 22:47:39
"1","7","323.55554060512","291.0513915620606",18/12/21 22:47:39
"1","7","323.86418840222217","290.49833377452626",18/12/21 22:47:39
"1","7","324.4303457098453","289.6344852294657",18/12/21 22:47:39
"1","7","323.70747569881223","290.42077134183154",18/12/21 22:47:39
"1","7","324.7065500741847","290.8330149912012",18/12/21 22:47:39
"1","7","325.50311533207554","290.7890081333238",18/12/21 22:47:39
"1","7","325.3619447044854","290.710774279156",18/12/21 22:47:39
"1","7","327.2064233383301","290.94969815480846",18/12/21 22:47:39
"1","7","327.9156724597454","290.28902805520505",18/12/21 22:47:40
"1","7","325.8072523713339","289.7912415193736",18/12/21 22:47:40
"1","7","325.55587392586466","289.846416847386",18/12/21 22:47:40
"1","7","325.436069255858","289.64064556943026",18/12/21 22:47:40
"1","7","324.3343685861926","289.7930617600612",18/12/21 22:47:40
"1","7","324.5246484920848","290.53904930734774",18/12/21 22:47:40
"1","7","326.06312372682527","291.4091549258512",18/12/21 22:47:40
"1","7","324.4127943428946","292.50416542612675",18/12/21 22:47:40
"1","7","326.1533673416491","292.5669727829328",18/12/21 22:47:40
"1","7","325.24806529828305","293.20552160891845",18/12/21 22:47:40
"1","7","325.6386796676064","295.1962481101033",18/12/21 22:47:40
"1","7","324.47593501351275","295.53446922323343",18/12/21 22:47:40
"1","7","323.2284444043075","294.7611028531492",18/12/21 22:47:40
"1","7","323.09249503186055","293.86934510111917",18/12/21 22:47:40
"1","7","322.960369750174","294.45985139505314",18/12/21 22:47:40
"1","7","323.1410425474878","294.5233136844033",18/12/21 22:47:40
"1","7","322.8899845092448","295.50512499060693",18/12/21 22:47:40
"1","7","325.24774709785333","295.0021669476971",18/12/21 22:47:40
"1","7","322.81428360250897","295.02391993126554",18/12/21 22:47:40
"1","7","322.51647122555863","295.74990873719184",18/12/21 22:47:40
"1","7","322.51589656758944","295.7602436187501",18/12/21 22:47:40
"1","7","322.4028069044636","294.9243759653874",18/12/21 22:47:40
"1","7","322.3633261566783","296.1187189593198",18/12/21 22:47:40
"1","7","323.98739980321557","294.59789376881275",18/12/21 22:47:40
"1","7","323.6169790599055","295.14371353495886",18/12/21 22:47:40
"1","7","321.9537002415007","296.3652643288251",18/12/21 22:47:40
"1","7","321.96127366491834","296.4671381323795",18/12/21 22:47:40
"1","7","322.16160554540625","295.77788348782644",18/12/21 22:47:40
"1","7","322.0699395236825","296.1549922475041",18/12/21 22:47:40
"1","7","322.62594752658856","296.30891011872427",18/12/21 22:47:40
"1","7","323.22977807594145","296.32199046594206",18/12/21 22:47:40
"1","7","324.27218797009675","296.19144969302414",18/12/21 22:47:40
"1","7","325.0988172553034","296.45855003276694",18/12/21 22:47:40
"1","7","326.22698966766376","295.28720832355424",18/12/21 22:47:40
"1","7","327.2537026025445","296.1901673877231",18/12/21 22:47:40
"1","7","326.0440762196731","295.0603223667486",18/12/21 22:47:40
"1","7","326.2603138221159","294.8943970029174",18/12/21 22:47:40
"1","7","326.21787069125304","295.0207747063544",18/12/21 22:47:40
"1","7","326.2464256950907","294.9200291324716",18/12/21 22:47:40
"1","7","323.9909591097468","295.07557638078885",18/12/21 22:47:40
"1","7","323.9909591097468","295.07557638078885",18/12/21 22:47:40
"1","7","322.6456375626513","293.0379528596448",18/12/21 22:47:40
"1","7","322.6456375626513","293.0379528596448",18/12/21 22:47:40
"1","7","322.79759598337847","291.9335322064113",18/12/21 22:47:40
"1","7","323.5209954523318","293.8431849789325",18/12/21 22:47:40
"1","7","323.5209954523318","293.8431849789325",18/12/21 22:47:40
"1","7","323.34622425546326","294.39827427390117",18/12/21 22:47:40
"1","7","322.4171093557629","293.85205600860206",18/12/21 22:47:40
"1","7","322.4171093557629","293.85205600860206",18/12/21 22:47:40
"1","7","322.39853415005825","294.288707367431",18/12/21 22:47:41
"1","7","322.90499867805136","294.130340863569",18/12/21 22:47:41
"1","7","322.90499867805136","294.130340863569",18/12/21 22:47:41
"1","7","322.35866927907523","292.25072602697753",18/12/21 22:47:41
"1","7","322.35866927907523","292.25072602697753",18/12/21 22:47:41
"1","7","325.14140965561745","290.34298949321453",18/12/21 22:47:41
"1","7","325.14140965561745","290.34298949321453",18/12/21 22:47:41
"1","7","325.9153335187953","290.0213410030197",18/12/21 22:47:41
"1","7","325.9153335187953","290.0213410030197",18/12/21 22:47:41
"1","7","325.80249252387927","290.29299406687",18/12/21 22:47:41
"1","7","325.80249252387927","290.29299406687",18/12/21 22:47:41
"1","7","325.77138119925877","289.4396769608885",18/12/21 22:47:41
"1","7","329.43734202841557","291.886971136814",18/12/21 22:47:41
"1","7","329.43734202841557","291.886971136814",18/12/21 22:47:41
"1","7","329.0749852592383","292.15257296920646",18/12/21 22:47:41
"1","7","329.0749852592383","292.15257296920646",18/12/21 22:47:41
"1","7","329.8961620336408","292.8472273032719",18/12/21 22:47:41
"1","7","329.8961620336408","292.8472273032719",18/12/21 22:47:41
"1","7","329.041819554832","291.7933624859898",18/12/21 22:47:41
"1","7","329.59190916220416","291.750736266267",18/12/21 22:47:41
"1","7","329.59190916220416","291.750736266267",18/12/21 22:47:41
"1","7","328.84685774872355","291.6323404268795",18/12/21 22:47:41
"1","7","328.84685774872355","291.6323404268795",18/12/21 22:47:41
"1","7","330.0757871053721","290.5189194363805",18/12/21 22:47:41
"1","7","329.72862817546735","290.671614018687",18/12/21 22:47:41
"1","7","327.80713740330185","290.870427361645",18/12/21 22:47:41
"1","7","327.80713740330185","290.870427361645",18/12/21 22:47:41
"1","7","327.31794394781383","291.0118432813747",18/12/21 22:47:41
"1","7","327.31794394781383","291.0118432813747",18/12/21 22:47:41
"1","7","326.475110377518","291.3082853157641",18/12/21 22:47:41
"1","7","326.475110377518","291.3082853157641",18/12/21 22:47:41
"1","7","328.6183465600865","291.1702363228335",18/12/21 22:47:41
"1","7","328.6183465600865","291.1702363228335",18/12/21 22:47:41
"1","7","328.69263635039505","290.9734742098625",18/12/21 22:47:41
"1","7","328.69263635039505","290.9734742098625",18/12/21 22:47:41
"1","7","328.62372158706177","290.9108901242616",18/12/21 22:47:41
"1","7","328.62372158706177","290.9108901242616",18/12/21 22:47:41
"1","7","330.65139442838415","293.75311243906634",18/12/21 22:47:41
"1","7","330.65139442838415","293.75311243906634",18/12/21 22:47:41
"1","7","330.1117794873773","294.1470438761359",18/12/21 22:47:41
"1","7","330.1117794873773","294.1470438761359",18/12/21 22:47:41
"1","7","331.3364700544868","295.2362065900011",18/12/21 22:47:41
"1","7","330.9503487500042","293.12460142569904",18/12/21 22:47:41
"1","7","330.9503487500042","293.12460142569904",18/12/21 22:47:41
"1","7","330.72894696241195","294.66836848647165",18/12/21 22:47:41
"1","7","331.142165962538","295.13495062218874",18/12/21 22:47:41
"1","7","331.142165962538","295.13495062218874",18/12/21 22:47:41
"1","7","329.186621544394","295.4260714869891",18/12/21 22:47:41
"1","7","329.186621544394","295.4260714869891",18/12/21 22:47:41
"1","7","329.3507879913157","295.44197497933857",18/12/21 22:47:41
"1","7","331.49241341691857","295.4816908455779",18/12/21 22:47:42
"1","7","331.49241341691857","295.4816908455779",18/12/21 22:47:42
"1","7","330.75144694223735","295.22333883566773",18/12/21 22:47:42
"1","7","330.75144694223735","296.44513461709",18/12/21 22:47:42
"1","7","329.4524427971987","296.44513461709",18/12/21 22:47:42
"1","7","325.9279231877555","296.07268518498495",18/12/21 22:47:42
"1","7","325.9279231877555","295.03284999537317",18/12/21 22:47:42
"1","7","324.13761366781324","294.2111979249979",18/12/21 22:47:42
"1","7","325.05013230902784","294.03454934738204",18/12/21 22:47:42
"1","7","325.05013230902784","294.03454934738204",18/12/21 22:47:42
"1","7","324.45502406460304","291.5491503539619",18/12/21 22:47:42
"1","7","324.45502406460304","291.5491503539619",18/12/21 22:47:42
"1","7","323.09467533719004","292.84101534201955",18/12/21 22:47:42
"1","7","322.4730223324388","292.70201650771656",18/12/21 22:47:42
"1","7","322.4730223324388","292.70201650771656",18/12/21 22:47:42
"1","7","323.9371276741102","294.76461619837045",18/12/21 22:47:42
"1","7","323.9371276741102","294.76461619837045",18/12/21 22:47:42
"1","7","325.4117505258413","293.75341338972595",18/12/21 22:47:42
"1","7","325.4117505258413","293.75341338972595",18/12/21 22:47:42
"1","7","325.3659051471452","295.2627736378219",18/12/21 22:47:42
"1","7","325.3659051471452","295.2627736378219",18/12/21 22:47:42
"1","7","324.1792478597694","295.8025445685229",18/12/21 22:47:42
"1","7","324.48077823693234","295.8137592494527",18/12/21 22:47:42
"1","7","324.48077823693234","295.8137592494527",18/12/21 22:47:42
"1","7","324.5231753289561","295.8151300681479",18/12/21 22:47:42
"1","7","325.28153891396965","295.6037881853904",18/12/21 22:47:42
"1","7","325.28153891396965","295.6037881853904",18/12/21 22:47:42
"1","7","324.9229629687451","294.08944070133714",18/12/21 22:47:42
"1","7","324.9229629687451","294.08944070133714",18/12/21 22:47:42
"1","7","324.71057665237","295.2420784823062",18/12/21 22:47:42
"1","7","324.46669846985714","296.4226119007805",18/12/21 22:47:42
"1","7","324.46669846985714","296.4226119007805",18/12/21 22:47:42
"1","7","325.8656980318014","295.92591986824186",18/12/21 22:47:42
"1","7","325.8656980318014","295.92591986824186",18/12/21 22:47:42
"1","7","324.30582819903066","296.159911645159",18/12/21 22:47:42
"1","7","324.30582819903066","296.159911645159",18/12/21 22:47:42
"1","7","322.7159551038034","295.4235047133238",18/12/21 22:47:42
"1","7","322.7159551038034","295.4235047133238",18/12/21 22:47:42
"1","7","323.23689123240456","294.73887291905567",18/12/21 22:47:42
"1","7","321.85857302070235","294.87112745027366",18/12/21 22:47:42
"1","7","321.85857302070235","294.87112745027366",18/12/21 22:47:42
"1","7","323.73023951232096","295.1437262455485",18/12/21 22:47:42
"1","7","323.73023951232096","295.1437262455485",18/12/21 22:47:42
"1","7","323.8733911555392","294.33351804275037",18/12/21 22:47:42
"1","7","323.8733911555392","294.33351804275037",18/12/21 22:47:42
"1","7","323.61967046217217","296.03188527378956",18/12/21 22:47:42
"1","7","323.61967046217217","296.03188527378956",18/12/21 22:47:42
"1","7","324.63005737628447","295.6381452534961",18/12/21 22:47:42
"1","7","322.63473520975606","295.2356897885547",18/12/21 22:47:42
"1","7","322.63473520975606","295.2356897885547",18/12/21 22:47:42
"1","7","322.93222769748724","296.02328304114656",18/12/21 22:47:43
"1","7","324.21402638062864","295.2683791070112",18/12/21 22:47:43
"1","7","324.21402638062864","295.2683791070112",18/12/21 22:47:43
"1","7","325.9193345842039","296.50962507318343",18/12/21 22:47:43
"1","7","325.9193345842039","296.50962507318343",18/12/21 22:47:43
"1","7","325.081070856616","294.4784542822487",18/12/21 22:47:43
"1","7","325.081070856616","294.4784542822487",18/12/21 22:47:43
"1","7","323.5575784528177","293.0196306037768",18/12/21 22:47:43
"1","7","323.5575784528177","293.0196306037768",18/12/21 22:47:43
"1","7","324.64401559123127","295.2219228189622",18/12/21 22:47:43
"1","7","325.7955966844056","293.5767892624722",18/12/21 22:47:43
"1","7","325.7955966844056","293.5767892624722",18/12/21 22:47:43
"1","7","328.16640633140736","294.1523996520169",18/12/21 22:47:43
"1","7","328.16640633140736","294.1523996520169",18/12/21 22:47:43
"1","7","328.03219392763754","293.77096969890124",18/12/21 22:47:43
"1","7","326.77916454290937","290.49727424014196",18/12/21 22:47:43
"1","7","326.77916454290937","290.49727424014196",18/12/21 22:47:43
"1","7","328.0745445278414","290.0729517557526",18/12/21 22:47:43
"1","7","327.63261550735695","290.18962593452244",18/12/21 22:47:43
"1","7","327.63261550735695","290.18962593452244",18/12/21 22:47:43
"1","7","325.8747428500505","290.6634602907039",18/12/21 22:47:43
"1","7","325.8747428500505","290.6634602907039",18/12/21 22:47:43
"1","7","327.4040845500286","293.23988850227465",18/12/21 22:47:43
"1","7","328.3990127756091","295.01468070093074",18/12/21 22:47:43
"1","7","328.3990127756091","295.01468070093074",18/12/21 22:47:43
"1","7","329.16021496322554","295.91579162471834",18/12/21 22:47:43
"1","7","329.16021496322554","295.91579162471834",18/12/21 22:47:43
"1","7","326.7487960475406","295.41857871224744",18/12/21 22:47:43
"1","7","326.7487960475406","295.41857871224744",18/12/21 22:47:43
"1","7","325.2430104347431","296.1182659230568",18/12/21 22:47:43
"1","7","325.2430104347431","296.1182659230568",18/12/21 22:47:43
"1","7","322.6287812555238","295.2793803902897",18/12/21 22:47:43
"1","7","322.6287812555238","295.2793803902897",18/12/21 22:47:43
"1","7","322.10512942580937","295.67954602873465",18/12/21 22:47:43
"1","7","322.10512942580937","295.67954602873465",18/12/21 22:47:43
"1","7","323.2720005870998","292.55322155302883",18/12/21 22:47:43
"1","7","323.2720005870998","292.55322155302883",18/12/21 22:47:43
"1","7","323.25509183139076","292.65054812099413",18/12/21 22:47:43
"1","7","323.25509183139076","292.65054812099413",18/12/21 22:47:43
"1","7","323.0378096301856","293.49323979006357",18/12/21 22:47:43
"1","7","322.16232228392204","294.4839937756148",18/12/21 22:47:43
"1","7","322.16232228392204","294.4839937756148",18/12/21 22:47:43
"1","7","322.687272861591","294.3409214556505",18/12/21 22:47:43
"1","7","322.687272861591","294.3409214556505",18/12/21 22:47:43
"1","7","322.04094932622615","294.3087826611128",18/12/21 22:47:43
"1","7","322.04094932622615","294.3087826611128",18/12/21 22:47:43
"1","7","322.31912591466755","291.92505626528083",18/12/21 22:47:43
"1","7","322.31912591466755","291.92505626528083",18/12/21 22:47:43
"1","88","322.25197283255324","288.1876106104966",18/12/21 22:47:43
"1","88","322.25197283255324","288.1876106104966",18/12/21 22:47:43
"1","88","321.55682061533554","287.13871725847207",18/12/21 22:47:44
"1","88","320.282984979025","285.21666666666664",18/12/21 22:47:44
"1","55","319.95690792478996","284.2200656236049",18/12/21 22:47:44
"1","55","319.1084810596988","281.6269880435374",18/12/21 22:47:44
"1","55","319.1084810596988","281.6269880435374",18/12/21 22:47:44
"1","55","318.44819295783645","279.60892574050007",18/12/21 22:47:44
"1","55","317.32819526193333","278.69969261743904",18/12/21 22:47:44
"1","55","317.32819526193333","278.69969261743904",18/12/21 22:47:44
"1","55","317.9023112063436","278.318243442853",18/12/21 22:47:44
"1","55","317.9023112063436","278.318243442853",18/12/21 22:47:44
"1","55","320.01340989811337","279.3223842291659",18/12/21 22:47:44
"1","55","320.5524718013851","280.7791329322785",18/12/21 22:47:44
"1","55","320.5524718013851","280.7791329322785",18/12/21 22:47:44
"1","55","319.37525312131925","278.3587324754631",18/12/21 22:47:44
"1","55","319.37525312131925","278.3587324754631",18/12/21 22:47:44
"1","55","318.02142917475896","278.1859731077325",18/12/21 22:47:44
"1","55","318.02142917475896","278.1859731077325",18/12/21 22:47:44
"1","55","318.2537077681329","279.81191874302505",18/12/21 22:47:44
"1","55","318.2537077681329","279.81191874302505",18/12/21 22:47:44
"1","55","318.8363601558533","279.2675180101473",18/12/21 22:47:44
"1","55","319.36604689588864","277.71185749549585",18/12/21 22:47:44
"1","55","319.36604689588864","277.71185749549585",18/12/21 22:47:44
"1","55","317.260669129009","279.81502155632415",18/12/21 22:47:44
"1","55","317.260669129009","279.81502155632415",18/12/21 22:47:44
"1","55","317.61885306044735","280.3950703085533",18/12/21 22:47:44
"1","55","317.8296026239468","279.37264399229423",18/12/21 22:47:44
"1","55","317.8296026239468","279.37264399229423",18/12/21 22:47:44
"1","55","317.0949590517318","279.63085446239234",18/12/21 22:47:44
"1","55","319.07591579362935","279.4120086167042",18/12/21 22:47:44
"1","55","319.07591579362935","279.4120086167042",18/12/21 22:47:44
"1","55","320.37725421219534","279.1171443027536",18/12/21 22:47:44
"1","55","320.37725421219534","279.1171443027536",18/12/21 22:47:44
"1","55","319.7468870779008","278.17575945037584",18/12/21 22:47:44
"1","55","319.7468870779008","278.17575945037584",18/12/21 22:47:44
"1","55","320.14802771034067","279.58982842868403",18/12/21 22:47:44
"1","55","320.14802771034067","279.58982842868403",18/12/21 22:47:44
"1","55","318.75543550432076","278.86623555473795",18/12/21 22:47:44
"1","55","319.2945989487485","278.3890746467184",18/12/21 22:47:44
"1","55","319.2945989487485","278.3890746467184",18/12/21 22:47:44
"1","55","317.2919786820301","280.8036160305329",18/12/21 22:47:44
"1","55","317.2919786820301","280.8036160305329",18/12/21 22:47:44
"1","55","317.74599664462954","279.9676666111814",18/12/21 22:47:44
"1","55","317.77830087118855","278.70433229293917",18/12/21 22:47:44
"1","55","317.77830087118855","278.70433229293917",18/12/21 22:47:44
"1","55","317.16583294099144","278.4808895703863",18/12/21 22:47:44
"1","55","317.16583294099144","278.4808895703863",18/12/21 22:47:44
"1","55","319.4086345190473","279.3973948020789",18/12/21 22:47:44
"1","55","316.99217592654077","278.86132857950713",18/12/21 22:47:44
"1","55","316.99217592654077","278.86132857950713",18/12/21 22:47:44
"1","55","318.82908990079636","277.8488995501116",18/12/21 22:47:45
"1","55","318.13121347502323","279.81750743864706",18/12/21 22:47:45
"1","55","318.13121347502323","279.81750743864706",18/12/21 22:47:45
"1","55","318.03248421361087","279.36054386077967",18/12/21 22:47:45
"1","55","318.03248421361087","279.36054386077967",18/12/21 22:47:45
"1","55","319.23246289869985","280.84454382185004",18/12/21 22:47:45
"1","55","319.17041850321624","280.605256136548",18/12/21 22:47:45
"1","55","319.17041850321624","280.605256136548",18/12/21 22:47:45
"1","55","319.3571260143478","279.13296747553676",18/12/21 22:47:45
"1","55","319.3571260143478","279.13296747553676",18/12/21 22:47:45
"1","55","317.9199381637438","279.3541121069543",18/12/21 22:47:45
"1","55","317.9199381637438","279.3541121069543",18/12/21 22:47:45
"1","55","317.3724724314807","280.7433491224841",18/12/21 22:47:45
"1","55","317.3724724314807","280.7433491224841",18/12/21 22:47:45
"1","55","318.1576307634715","278.6982327086185",18/12/21 22:47:45
"1","55","318.76657738836997","280.0539716470485",18/12/21 22:47:45
"1","55","318.76657738836997","280.0539716470485",18/12/21 22:47:45
"1","55","318.2794717657175","278.2948951941693",18/12/21 22:47:45
"1","55","318.2794717657175","278.2948951941693",18/12/21 22:47:45
"1","55","319.0296057789172","280.6135429863564",18/12/21 22:47:45
"1","55","319.0296057789172","280.6135429863564",18/12/21 22:47:45
"1","55","319.68588113163577","282.6420757163375",18/12/21 22:47:45
"1","88","321.818839507925","285.21666666666664",18/12/21 22:47:45
"1","88","323.4152286253649","285.21666666666664",18/12/21 22:47:45
"1","88","323.4152286253649","285.21666666666664",18/12/21 22:47:45
"1","78","327.06404788860925","284.81709874481015",18/12/21 22:47:45
"1","78","327.130968091531","283.05742900742825",18/12/21 22:47:45
"1","78","327.130968091531","283.05742900742825",18/12/21 22:47:45
"1","78","327.26598269906043","279.50721384666514",18/12/21 22:47:45
"1","78","327.26598269906043","279.50721384666514",18/12/21 22:47:45
"1","78","327.0450463020814","278.0708791066932",18/12/21 22:47:45
"1","78","327.0450463020814","278.0708791066932",18/12/21 22:47:45
"1","78","329.96144444581523","280.7151972983019",18/12/21 22:47:45
"1","78","329.96144444581523","280.7151972983019",18/12/21 22:47:45
"1","78","327.51133437984856","277.5857375027756",18/12/21 22:47:45
"1","78","328.02847651560023","277.5982264485422",18/12/21 22:47:45
"1","78","328.02847651560023","277.5982264485422",18/12/21 22:47:45
"1","78","327.10912977695324","278.6595724673298",18/12/21 22:47:45
"1","78","327.10912977695324","278.6595724673298",18/12/21 22:47:45
"1","78","327.0191995792199","280.0279094205919",18/12/21 22:47:45
"1","78","329.94868644792496","281.67884967427483",18/12/21 22:47:45
"1","78","329.94868644792496","281.67884967427483",18/12/21 22:47:45
"1","78","331.61317804321186","280.93169873531986",18/12/21 22:47:45
"1","78","331.61317804321186","280.93169873531986",18/12/21 22:47:45
"1","78","330.94873839049484","280.6124368830195",18/12/21 22:47:45
"1","78","330.9836516139506","280.7204335553078",18/12/21 22:47:45
"1","78","330.9836516139506","280.7204335553078",18/12/21 22:47:45
"1","78","330.21241728376947","281.1974133771781",18/12/21 22:47:45
"1","78","330.6334228948223","279.1658287713715",18/12/21 22:47:45
"1","78","330.6334228948223","279.1658287713715",18/12/21 22:47:45
"1","78","330.3936429178631","279.3870650879333",18/12/21 22:47:46
"1","78","330.3936429178631","279.3870650879333",18/12/21 22:47:46
"1","78","326.988788688172","281.55943245276364",18/12/21 22:47:46
"1","78","326.988788688172","281.55943245276364",18/12/21 22:47:46
"1","78","326.86669821111275","278.31398208754507",18/12/21 22:47:46
"1","78","326.86669821111275","278.31398208754507",18/12/21 22:47:46
"1","78","328.5317929248616","279.44514988519165",18/12/21 22:47:46
"1","78","328.5317929248616","279.44514988519165",18/12/21 22:47:46
"1","78","329.76090610125567","280.9247689773922",18/12/21 22:47:46
"1","78","329.76090610125567","280.9247689773922",18/12/21 22:47:46
"1","78","330.7473267525188","282.71574975863797",18/12/21 22:47:46
"1","78","330.7473267525188","282.71574975863797",18/12/21 22:47:46
"1","78","329.9746191043998","283.97949993983406",18/12/21 22:47:46
"1","78","329.9746191043998","283.97949993983406",18/12/21 22:47:46
"1","78","330.324440210548","281.92563928759535",18/12/21 22:47:46
"1","78","331.3928406654019","279.8652430917978",18/12/21 22:47:46
"1","78","331.3928406654019","279.8652430917978",18/12/21 22:47:46
"1","78","330.36490227427635","280.90807962442733",18/12/21 22:47:46
"1","78","330.36490227427635","280.90807962442733",18/12/21 22:47:46
"1","78","330.3468767091712","279.07617605550104",18/12/21 22:47:46
"1","78","330.8930626704534","280.46964295892104",18/12/21 22:47:46
"1","78","330.8930626704534","280.46964295892104",18/12/21 22:47:46
"1","78","329.8708889335598","281.580460284355",18/12/21 22:47:46
"1","78","329.9384042578715","281.02306905486483",18/12/21 22:47:46
"1","78","329.9384042578715","281.02306905486483",18/12/21 22:47:46
"1","78","330.40159213778065","281.9625442694883",18/12/21 22:47:46
"1","78","330.40159213778065","281.9625442694883",18/12/21 22:47:46
"1","78","328.019717284029","283.99162553458",18/12/21 22:47:46
"1","78","327.4656903943626","284.12411332988313",18/12/21 22:47:46
"1","78","327.4656903943626","284.12411332988313",18/12/21 22:47:46
"1","78","326.9727830651088","284.1992636555325",18/12/21 22:47:46
"1","78","326.9727830651088","284.1992636555325",18/12/21 22:47:46
"1","78","327.0019355140869","284.286991806052",18/12/21 22:47:46
"1","78","329.0008280859412","282.7886955378151",18/12/21 22:47:46
"1","78","329.0008280859412","282.7886955378151",18/12/21 22:47:46
"1","78","329.5515647269725","284.4100577275586",18/12/21 22:47:46
"1","78","328.7711105266806","284.14214751093635",18/12/21 22:47:46
"1","78","328.7711105266806","284.14214751093635",18/12/21 22:47:46
"1","78","327.5753509776554","283.0680599352438",18/12/21 22:47:46
"1","78","327.5753509776554","283.0680599352438",18/12/21 22:47:46
"1","78","328.248546023531","282.0272786664609",18/12/21 22:47:46
"1","78","328.248546023531","282.0272786664609",18/12/21 22:47:46
"1","78","330.5344361396955","283.23524731389153",18/12/21 22:47:46
"1","78","330.5344361396955","283.23524731389153",18/12/21 22:47:46
"1","78","331.61370197376743","282.42193805108843",18/12/21 22:47:46
"1","78","331.3649084287738","280.10017139678484",18/12/21 22:47:46
"1","78","331.3649084287738","280.10017139678484",18/12/21 22:47:46
"1","78","330.04727160091903","280.06842369402915",18/12/21 22:47:46
"1","78","330.04727160091903","280.06842369402915",18/12/21 22:47:46
"1","78","329.9247877241882","280.424792089465",18/12/21 22:47:46
"1","78","329.3025111416191","281.7074381453483",18/12/21 22:47:47
"1","78","329.3025111416191","281.7074381453483",18/12/21 22:47:47
"1","78","330.6571112882787","281.6142280774388",18/12/21 22:47:47
"1","78","330.60852248961584","281.6567807017806",18/12/21 22:47:47
"1","78","330.60852248961584","281.6567807017806",18/12/21 22:47:47
"1","78","327.3443068726352","280.4338862917398",18/12/21 22:47:47
"1","78","327.3443068726352","280.4338862917398",18/12/21 22:47:47
"1","78","329.45739853701565","279.0372935007188",18/12/21 22:47:47
"1","78","329.45739853701565","279.0372935007188",18/12/21 22:47:47
"1","78","330.45159470844","280.3705374769714",18/12/21 22:47:47
"1","78","330.45159470844","280.3705374769714",18/12/21 22:47:47
"1","78","329.6740413557623","280.15765763409195",18/12/21 22:47:47
"1","78","329.6740413557623","280.15765763409195",18/12/21 22:47:47
"1","78","329.9219242332789","277.81297643873813",18/12/21 22:47:47
"1","78","329.9219242332789","277.81297643873813",18/12/21 22:47:47
"1","78","331.2367811051477","278.5890956523234",18/12/21 22:47:47
"1","78","331.33369279737246","277.81969509710814",18/12/21 22:47:47
"1","78","331.33369279737246","277.81969509710814",18/12/21 22:47:47
"1","78","329.63065993677986","279.0280517589871",18/12/21 22:47:47
"1","78","329.63065993677986","279.0280517589871",18/12/21 22:47:47
"1","78","329.9435516097679","279.57982056617624",18/12/21 22:47:47
"1","78","327.74634919600413","280.8515107984545",18/12/21 22:47:47
"1","78","327.74634919600413","280.8515107984545",18/12/21 22:47:47
"1","78","327.3797374217459","281.9629487088335",18/12/21 22:47:47
"1","78","327.3797374217459","281.9629487088335",18/12/21 22:47:47
"1","78","328.4057269206043","282.53973750942714",18/12/21 22:47:47
"1","78","328.4057269206043","282.53973750942714",18/12/21 22:47:47
"1","78","330.1172213578852","282.3393177907542",18/12/21 22:47:47
"1","78","331.23122344397353","280.7199987458198",18/12/21 22:47:47
"1","78","331.23122344397353","280.7199987458198",18/12/21 22:47:47
"1","78","330.1021222646467","282.01482417288304",18/12/21 22:47:47
"1","78","330.1021222646467","282.01482417288304",18/12/21 22:47:47
"1","78","328.17247710274887","283.2830575058509",18/12/21 22:47:47
"1","78","328.17247710274887","283.2830575058509",18/12/21 22:47:47
"1","78","327.16207875066124","284.3796965842115",18/12/21 22:47:47
"1","78","327.16207875066124","284.3796965842115",18/12/21 22:47:47
"1","78","327.16207875066124","284.3796965842115",18/12/21 22:47:47
"1","78","327.16207875066124","284.3796965842115",18/12/21 22:47:47
"1","88","325.78956994233454","285.3702503287707",18/12/21 22:47:47
"1","88","325.78956994233454","285.3702503287707",18/12/21 22:47:47
"1","88","321.91681559668365","285.60165461061644",18/12/21 22:47:47
"1","88","319.7449395912873","285.7314282452006",18/12/21 22:47:47
"1","88","319.7449395912873","285.7314282452006",18/12/21 22:47:47
"1","89","315.8208704220587","286.1554560907495",18/12/21 22:47:47
"1","89","315.8208704220587","286.1554560907495",18/12/21 22:47:47
"1","89","311.5554569856783","287.14817928632556",18/12/21 22:47:47
"1","89","311.5554569856783","287.14817928632556",18/12/21 22:47:47
"1","89","308.6135697735506","287.832867820698",18/12/21 22:47:47
"1","89","308.6135697735506","287.832867820698",18/12/21 22:47:47
"1","89","305.3538582714323","288.59152610020703",18/12/21 22:47:47
"1","89","305.02578002047915","287.7023483432134",18/12/21 22:47:48
"1","89","305.02578002047915","287.7023483432134",18/12/21 22:47:48
"1","89","304.2908043844637","287.0322477927486",18/12/21 22:47:48
"1","89","304.2908043844637","287.0322477927486",18/12/21 22:47:48
"1","89","304.51585720830724","287.0411459301125",18/12/21 22:47:48
"1","89","306.3503992972526","288.15554704897977",18/12/21 22:47:48
"1","89","306.3503992972526","288.15554704897977",18/12/21 22:47:48
"1","89","305.43829419273413","288.13242178199783",18/12/21 22:47:48
"1","89","303.7068548611858","286.7194343338994",18/12/21 22:47:48
"1","89","303.7068548611858","286.7194343338994",18/12/21 22:47:48
"1","89","302.6115414757824","285.8595594898806",18/12/21 22:47:48
"1","89","302.6115414757824","285.8595594898806",18/12/21 22:47:48
"1","89","302.4085336397635","286.3197197090835",18/12/21 22:47:48
"1","89","302.4085336397635","286.3197197090835",18/12/21 22:47:48
"1","89","304.6526909438239","287.2144867541458",18/12/21 22:47:48
"1","89","304.6526909438239","287.2144867541458",18/12/21 22:47:48
"1","89","303.7685578535822","286.71344201130256",18/12/21 22:47:48
"1","89","305.4925966874457","285.4518250765358",18/12/21 22:47:48
"1","89","305.4925966874457","285.4518250765358",18/12/21 22:47:48
"1","89","304.6838885557534","286.0029899705283",18/12/21 22:47:48
"1","89","304.6838885557534","286.0029899705283",18/12/21 22:47:48
"1","89","305.1315965818145","286.6095570181204",18/12/21 22:47:48
"1","89","303.61422690056503","288.25638495497986",18/12/21 22:47:48
"1","89","303.61422690056503","288.25638495497986",18/12/21 22:47:48
"1","89","302.84025470730205","286.43280436288285",18/12/21 22:47:48
"1","89","303.50277334816616","285.99661568377337",18/12/21 22:47:48
"1","89","303.50277334816616","285.99661568377337",18/12/21 22:47:48
"1","89","303.5176476686139","286.14147774325795",18/12/21 22:47:48
"1","89","303.5176476686139","286.14147774325795",18/12/21 22:47:48
"1","89","303.28652588162","285.53565125549846",18/12/21 22:47:48
"1","89","303.28652588162","285.53565125549846",18/12/21 22:47:48
"1","89","303.14741734770473","286.9077725211266",18/12/21 22:47:48
"1","89","303.14741734770473","286.9077725211266",18/12/21 22:47:48
"1","89","303.09936671236346","288.1843531183098",18/12/21 22:47:48
"1","89","302.9977749458245","286.8006957152426",18/12/21 22:47:48
"1","89","302.9977749458245","286.8006957152426",18/12/21 22:47:48
"1","89","302.86601123981734","287.0487830082866",18/12/21 22:47:48
"1","89","302.86601123981734","287.0487830082866",18/12/21 22:47:48
"1","89","302.90785580901826","286.9521178723928",18/12/21 22:47:48
"1","89","303.84523488622125","287.4192701139797",18/12/21 22:47:48
"1","89","303.84523488622125","287.4192701139797",18/12/21 22:47:48
"1","89","304.102475657872","287.8675238100874",18/12/21 22:47:48
"1","89","304.102475657872","287.8675238100874",18/12/21 22:47:48
"1","89","303.66887648767647","287.14229560551394",18/12/21 22:47:48
"1","89","303.66887648767647","287.14229560551394",18/12/21 22:47:48
"1","89","303.41429117968187","287.13179348158246",18/12/21 22:47:48
"1","89","303.41429117968187","287.13179348158246",18/12/21 22:47:48
"1","89","303.74640499586116","287.9419433266597",18/12/21 22:47:48
"1","89","303.74640499586116","287.9419433266597",18/12/21 22:47:48
"1","89","303.2474997718664","288.410490517269",18/12/21 22:47:48
"1","89","303.2474997718664","288.410490517269",18/12/21 22:47:49
"1","89","303.05512102097015","287.642362185502",18/12/21 22:47:49
"1","89","303.05512102097015","287.642362185502",18/12/21 22:47:49
"1","89","302.80563696607345","285.67705497760267",18/12/21 22:47:49
"1","89","302.80563696607345","285.67705497760267",18/12/21 22:47:49
"1","89","302.34744651807875","286.1578893082373",18/12/21 22:47:49
"1","89","302.7248778809957","286.5961344412437",18/12/21 22:47:49
"1","89","302.7248778809957","286.5961344412437",18/12/21 22:47:49
"1","89","303.763635165756","287.84087253744815",18/12/21 22:47:49
"1","89","303.763635165756","287.84087253744815",18/12/21 22:47:49
"1","89","304.13503597285006","287.55000700983425",18/12/21 22:47:49
"1","89","304.13503597285006","287.55000700983425",18/12/21 22:47:49
"1","89","305.91659450984974","288.39369491062547",18/12/21 22:47:49
"1","89","305.91659450984974","288.39369491062547",18/12/21 22:47:49
"1","89","305.13318951199363","285.6950803798723",18/12/21 22:47:49
"1","89","305.13318951199363","285.6950803798723",18/12/21 22:47:49
"1","89","307.4092922630858","286.38027363253906",18/12/21 22:47:49
"1","89","307.4092922630858","286.38027363253906",18/12/21 22:47:49
"1","89","307.6430742609456","286.9574878329706",18/12/21 22:47:49
"1","89","306.4857051482676","285.35947803334193",18/12/21 22:47:49
"1","89","306.4857051482676","285.35947803334193",18/12/21 22:47:49
"1","89","305.64426412696116","287.241910079856",18/12/21 22:47:49
"1","89","304.47707477066774","287.10190791553214",18/12/21 22:47:49
"1","89","304.47707477066774","287.10190791553214",18/12/21 22:47:49
"1","89","306.28966067659326","286.63666816007856",18/12/21 22:47:49
"1","89","306.28966067659326","286.63666816007856",18/12/21 22:47:49
"1","89","305.65612494043035","286.3852927907746",18/12/21 22:47:49
"1","89","305.65612494043035","286.3852927907746",18/12/21 22:47:49
"1","89","304.74344602568164","288.0126748530523",18/12/21 22:47:49
"1","89","304.74344602568164","288.0126748530523",18/12/21 22:47:49
"1","89","304.5739989588704","288.2368633756257",18/12/21 22:47:49
"1","89","305.286831747009","288.0101053413462",18/12/21 22:47:49
"1","89","305.286831747009","288.0101053413462",18/12/21 22:47:49
"1","89","304.5529845231401","286.93000507141693",18/12/21 22:47:49
"1","89","304.9982655439223","286.93000507141693",18/12/21 22:47:49
"1","89","305.2699149125424","285.52985493703227",18/12/21 22:47:49
"1","89","305.6568420700228","286.3275357800535",18/12/21 22:47:49
"1","89","305.6568420700228","286.3275357800535",18/12/21 22:47:49
"1","89","308.99503183667895","287.1107994842462",18/12/21 22:47:49
"1","89","308.99503183667895","287.1107994842462",18/12/21 22:47:49
"1","89","310.7350472039408","287.01220493919857",18/12/21 22:47:49
"1","89","310.7350472039408","287.01220493919857",18/12/21 22:47:49
"1","89","310.81324368123256","288.38511312277086",18/12/21 22:47:49
"1","89","312.97447931380856","287.99694306224455",18/12/21 22:47:49
"1","89","312.97447931380856","287.99694306224455",18/12/21 22:47:49
"1","89","314.0339049550415","287.13152979415366",18/12/21 22:47:49
"1","89","314.0339049550415","287.13152979415366",18/12/21 22:47:49
"1","89","313.83823309704013","286.6876142292352",18/12/21 22:47:49
"1","89","314.2762966172341","288.53257995332433",18/12/21 22:47:49
"1","89","314.2762966172341","288.53257995332433",18/12/21 22:47:49
"1","89","315.5601768026139","286.3398175878935",18/12/21 22:47:50
"1","89","315.5601768026139","286.3398175878935",18/12/21 22:47:50
"1","89","313.64639459493","286.66662291491065",18/12/21 22:47:50
"1","89","313.64639459493","286.66662291491065",18/12/21 22:47:50
"1","89","313.974875151446","287.1406661863121",18/12/21 22:47:50
"1","89","313.974875151446","287.1406661863121",18/12/21 22:47:50
"1","89","314.0004868137723","287.80884606256706",18/12/21 22:47:50
"1","89","315.8722552888584","287.9381124041016",18/12/21 22:47:50
"1","89","315.8722552888584","287.9381124041016",18/12/21 22:47:50
"1","89","315.9319158228159","288.1857607692879",18/12/21 22:47:50
"1","89","315.9319158228159","288.1857607692879",18/12/21 22:47:50
"1","89","314.28787243502813","287.3892256426746",18/12/21 22:47:50
"1","89","314.28787243502813","287.3892256426746",18/12/21 22:47:50
"1","89","315.67292331788974","288.380624559747",18/12/21 22:47:50
"1","89","315.67292331788974","288.380624559747",18/12/21 22:47:50
"1","89","315.98058516554346","287.8951050829711",18/12/21 22:47:50
"1","89","314.27431609760805","287.4640615814361",18/12/21 22:47:50
"1","89","314.27431609760805","287.4640615814361",18/12/21 22:47:50
"1","89","313.8706871908231","285.9968866887516",18/12/21 22:47:50
"1","89","315.1510364783073","286.08521263214936",18/12/21 22:47:50
"1","89","315.1510364783073","286.08521263214936",18/12/21 22:47:50
"1","89","316.82600164125563","286.24406331388747",18/12/21 22:47:50
"1","89","316.82600164125563","286.24406331388747",18/12/21 22:47:50
"1","89","316.22077723110084","287.0636124693728",18/12/21 22:47:50
"1","89","316.22077723110084","287.0636124693728",18/12/21 22:47:50
"1","89","315.5863796739708","286.9839692319948",18/12/21 22:47:50
"1","89","315.5863796739708","286.9839692319948",18/12/21 22:47:50
"1","89","315.27295407483564","285.39402852871024",18/12/21 22:47:50
"1","89","312.912729316063","285.85898460221676",18/12/21 22:47:50
"1","89","312.912729316063","285.85898460221676",18/12/21 22:47:50
"1","89","311.0534471364372","285.68296062885986",18/12/21 22:47:50
"1","89","311.0534471364372","285.68296062885986",18/12/21 22:47:50
"1","89","312.78486174358176","286.0541108140449",18/12/21 22:47:50
"1","89","314.2938987547185","287.94395471581515",18/12/21 22:47:50
"1","89","314.2938987547185","287.94395471581515",18/12/21 22:47:50
"1","89","314.14248552863273","287.89335842544176",18/12/21 22:47:50
"1","89","312.92619762172245","286.75921048536094",18/12/21 22:47:50
"1","89","312.92619762172245","286.75921048536094",18/12/21 22:47:50
"1","89","313.132439571836","287.04441059986704",18/12/21 22:47:50
"1","89","313.132439571836","287.04441059986704",18/12/21 22:47:50
"1","89","310.4854526578698","287.38242297776844",18/12/21 22:47:50
"1","89","310.4854526578698","287.38242297776844",18/12/21 22:47:50
"1","89","309.1429623823806","287.04831275317804",18/12/21 22:47:50
"1","89","309.1429623823806","287.04831275317804",18/12/21 22:47:50
"1","89","307.01615751661956","285.9466524257175",18/12/21 22:47:50
"1","89","307.5189976151617","285.7188284561529",18/12/21 22:47:50
"1","89","308.9016592951371","285.5502094044799",18/12/21 22:47:50
"1","89","308.9016592951371","285.5502094044799",18/12/21 22:47:50
"1","89","310.4879661416549","287.0545611655914",18/12/21 22:47:50
"1","89","310.4879661416549","287.0545611655914",18/12/21 22:47:51
"1","89","311.61050844567427","288.0285597414653",18/12/21 22:47:51
"1","89","311.61050844567427","288.0285597414653",18/12/21 22:47:51
"1","89","311.92033508529465","286.2594945791737",18/12/21 22:47:51
"1","89","311.69679394488907","286.74019054584966",18/12/21 22:47:51
"1","89","311.69679394488907","286.74019054584966",18/12/21 22:47:51
"1","89","313.61331104230544","286.84992172637004",18/12/21 22:47:51
"1","89","313.61331104230544","286.84992172637004",18/12/21 22:47:51
"1","89","313.6855998824406","287.35205965759945",18/12/21 22:47:51
"1","89","314.71846303659447","287.35205965759945",18/12/21 22:47:51
"1","89","313.63229459985047","286.8720171677548",18/12/21 22:47:51
"1","89","313.63229459985047","286.8720171677548",18/12/21 22:47:51
"1","89","315.292752967333","286.5601454632579",18/12/21 22:47:51
"1","89","315.292752967333","287.4157311224996",18/12/21 22:47:51
"1","89","313.24480643415086","287.4157311224996",18/12/21 22:47:51
"1","89","314.18978584014127","288.41989427673934",18/12/21 22:47:51
"1","89","314.18978584014127","288.41989427673934",18/12/21 22:47:51
"1","89","313.33119110227454","288.50053482366735",18/12/21 22:47:51
"1","89","315.18529387863884","287.53785545747144",18/12/21 22:47:51
"1","89","315.18529387863884","287.53785545747144",18/12/21 22:47:51
"1","89","314.91618004255787","286.05173715791886",18/12/21 22:47:51
"1","89","314.91618004255787","286.05173715791886",18/12/21 22:47:51
