"floorId","partitionId","location_x","location_y","timeStamp"
"1","89","306.71271982193025","287.90746825281934",18/12/21 22:56:27
"1","89","309.07746186296947","287.6485956543046",18/12/21 22:56:27
"1","89","310.63417781788456","287.4781791363908",18/12/21 22:56:27
"1","89","310.63417781788456","287.4781791363908",18/12/21 22:56:27
"1","89","311.90103979806065","287.33949345859753",18/12/21 22:56:27
"1","89","313.8016316089607","287.1314322272814",18/12/21 22:56:27
"1","89","315.3501155868021","286.9619168788224",18/12/21 22:56:28
"1","88","317.2955333369023","286.72531538621354",18/12/21 22:56:28
"1","88","318.573247043826","286.5057400548143",18/12/21 22:56:28
"1","88","319.958261247531","286.26772511365544",18/12/21 22:56:28
"1","88","321.58710876590555","285.9878073733135",18/12/21 22:56:28
"1","88","323.62602053628467","285.6374200171719",18/12/21 22:56:28
"1","88","324.86772866082737","285.4240322516105",18/12/21 22:56:28
"1","40","325.9420169940202","284.58381700372195",18/12/21 22:56:28
"1","40","325.43800150723735","282.1742819582514",18/12/21 22:56:28
"1","40","325.07670294951146","280.44703039644855",18/12/21 22:56:28
"1","40","324.68986479476234","278.59768228069385",18/12/21 22:56:28
"1","40","324.56244659052095","277.98853705281545",18/12/21 22:56:28
"1","40","325.16173778194434","277.55282834301823",18/12/21 22:56:28
"1","40","325.16173778194434","277.55282834301823",18/12/21 22:56:28
"1","40","325.16173778194434","277.55282834301823",18/12/21 22:56:28
"1","40","325.37892620642543","279.8652487124247",18/12/21 22:56:28
"1","40","325.6095810958581","282.32104747749094",18/12/21 22:56:28
"1","40","325.78387316976404","284.1767473974522",18/12/21 22:56:28
"1","88","325.2511506907439","286.070144397388",18/12/21 22:56:28
"1","88","324.4556035359694","287.1472190548894",18/12/21 22:56:28
"1","88","323.5185344829564","288.4158972511117",18/12/21 22:56:28
"1","7","323.9034275974148","289.44927405750815",18/12/21 22:56:28
"1","7","325.0020618056445","290.42543522490854",18/12/21 22:56:28
"1","7","326.0821853549997","291.3851492561822",18/12/21 22:56:28
"1","7","327.75855712400283","292.87464322129733",18/12/21 22:56:28
"1","7","329.59246973653217","294.5041157639752",18/12/21 22:56:28
"1","7","329.8503836458452","294.7332780646918",18/12/21 22:56:28
"1","7","328.4586378518615","293.30292223715657",18/12/21 22:56:28
"1","7","328.68776013131185","292.5041715265998",18/12/21 22:56:28
"1","7","328.910922772273","292.68210737184216",18/12/21 22:56:28
"1","7","328.50080822806774","291.36129958995207",18/12/21 22:56:28
"1","7","327.03398793668305","290.0669068190533",18/12/21 22:56:28
"1","7","325.94637836841713","290.3011094644879",18/12/21 22:56:28
"1","7","326.359716002589","290.3670280968634",18/12/21 22:56:28
"1","7","325.2917929651194","290.7048525547052",18/12/21 22:56:28
"1","7","325.11198872852907","290.5816170437623",18/12/21 22:56:28
"1","7","323.3196175679057","290.82700768095964",18/12/21 22:56:28
"1","7","323.1691040074917","290.2643467289583",18/12/21 22:56:28
"1","7","321.99107907801647","289.98276956179313",18/12/21 22:56:28
"1","7","322.18780257605636","289.97521962672573",18/12/21 22:56:28
"1","7","323.1286540439745","292.21884580311973",18/12/21 22:56:28
"1","7","322.7189221533088","292.8685184040179",18/12/21 22:56:28
"1","7","322.0441155676377","293.15123272586396",18/12/21 22:56:28
"1","7","322.2479222064796","293.2936882626814",18/12/21 22:56:28
"1","7","323.4465601141917","294.0329444987428",18/12/21 22:56:28
"1","7","324.0751053374195","294.88360386525454",18/12/21 22:56:28
"1","7","324.3016071134136","295.1859804688564",18/12/21 22:56:28
"1","7","325.6854960841082","293.21520570774464",18/12/21 22:56:28
"1","7","326.33779677831177","291.5144040945876",18/12/21 22:56:28
"1","7","326.9316704108643","291.2849077139375",18/12/21 22:56:28
"1","7","327.20487006040673","290.65224703871723",18/12/21 22:56:29
"1","7","327.31655800532695","290.6067538157888",18/12/21 22:56:29
"1","7","329.6458953997615","289.92582725308915",18/12/21 22:56:29
"1","7","329.16271930746467","290.12394356076476",18/12/21 22:56:29
"1","7","328.5563817481376","291.0632418829185",18/12/21 22:56:29
"1","7","329.5564783357235","292.9996910151366",18/12/21 22:56:29
"1","7","330.6512949401951","291.47051681918634",18/12/21 22:56:29
"1","7","330.83323239122507","292.2911318304172",18/12/21 22:56:29
"1","7","330.9036119930102","292.20442542300003",18/12/21 22:56:29
"1","7","330.9036119930102","292.20442542300003",18/12/21 22:56:29
"1","7","330.9036119930102","292.20442542300003",18/12/21 22:56:29
"1","7","329.4683770432802","291.5426186122083",18/12/21 22:56:29
"1","7","328.1469954009982","290.9333111460809",18/12/21 22:56:29
"1","7","326.1624128184593","290.0181924960298",18/12/21 22:56:29
"1","7","323.98916058908225","289.0160756459345",18/12/21 22:56:29
"1","88","321.9854436710576","288.1407740485135",18/12/21 22:56:29
"1","88","319.9310866418845","287.25564616281326",18/12/21 22:56:29
"1","88","317.6413627200269","286.26910951654844",18/12/21 22:56:29
"1","89","315.4244980147268","285.86317743355016",18/12/21 22:56:29
"1","89","313.08812056312695","285.7164752907466",18/12/21 22:56:29
"1","89","310.59628155536427","285.5600116501178",18/12/21 22:56:29
"1","89","308.5167031902224","285.42943403215406",18/12/21 22:56:29
"1","89","306.9797819043038","285.332930085067",18/12/21 22:56:29
"1","89","305.70989466365495","285.2531933202756",18/12/21 22:56:29
"1","15","305.741157254341","283.72802093298867",18/12/21 22:56:29
"1","15","306.49095782927344","281.9071185224201",18/12/21 22:56:29
"1","15","306.4599806504275","284.01819668473564",18/12/21 22:56:29
"1","15","306.27458489806185","284.2333398224772",18/12/21 22:56:29
"1","15","305.6145757639609","284.02856826747177",18/12/21 22:56:29
"1","15","305.97406837642","283.2264124964533",18/12/21 22:56:29
"1","15","303.86410503674665","283.4104143241098",18/12/21 22:56:29
"1","15","305.68926923919537","283.19268150352264",18/12/21 22:56:29
"1","15","305.12588451471976","281.70451021739683",18/12/21 22:56:29
"1","15","304.21826149141083","280.46748318307186",18/12/21 22:56:29
"1","15","303.9079603584561","279.92192036250003",18/12/21 22:56:29
"1","15","302.63015297008604","282.0621176573384",18/12/21 22:56:29
"1","15","302.33486935169725","282.55663722597615",18/12/21 22:56:29
"1","15","302.17767193954563","281.29367705860454",18/12/21 22:56:29
"1","15","302.1810673534273","280.8771571578794",18/12/21 22:56:29
"1","15","303.54609850674836","281.68995105682455",18/12/21 22:56:29
"1","15","303.30879168529077","280.9572175233716",18/12/21 22:56:29
"1","15","303.3604041592076","279.90370629690966",18/12/21 22:56:29
"1","15","303.47860300408314","279.99422040919336",18/12/21 22:56:29
"1","15","305.1083920979163","281.65551176674313",18/12/21 22:56:29
"1","15","303.4939733667165","282.58212180896055",18/12/21 22:56:29
"1","15","303.43642713574184","281.54858906556547",18/12/21 22:56:29
"1","15","302.6863518698545","281.09878469689767",18/12/21 22:56:29
"1","15","303.1992688042984","283.33687362779375",18/12/21 22:56:29
"1","15","303.2915706410741","282.11114143405496",18/12/21 22:56:29
"1","15","304.0411479276748","284.2631634512029",18/12/21 22:56:30
"1","15","304.2708304292866","284.14541907989883",18/12/21 22:56:30
"1","15","302.30657544614354","282.9625401456476",18/12/21 22:56:30
"1","15","302.6978547179383","283.32485707559533",18/12/21 22:56:30
"1","15","302.466540780724","283.56003084605516",18/12/21 22:56:30
"1","15","304.41876514849685","282.60692380434136",18/12/21 22:56:30
"1","15","302.6183208412393","282.4414414099161",18/12/21 22:56:30
"1","15","302.4373036711075","282.56074770414625",18/12/21 22:56:30
"1","15","303.63808831314867","281.89087248375256",18/12/21 22:56:30
"1","15","303.2974833972593","282.63222965888014",18/12/21 22:56:30
"1","15","303.237025820067","282.5458473501055",18/12/21 22:56:30
"1","15","302.38563153769053","283.3283947696092",18/12/21 22:56:30
"1","15","302.24947460663714","283.42092797541096",18/12/21 22:56:30
"1","15","303.8985436954616","283.5486282922552",18/12/21 22:56:30
"1","15","306.0664785691453","282.5025855793829",18/12/21 22:56:30
"1","15","306.1605973238198","282.4769009885873",18/12/21 22:56:30
"1","15","305.9252147950681","284.16513437471025",18/12/21 22:56:30
"1","15","305.29756803490056","284.72811485032946",18/12/21 22:56:30
"1","15","304.1795126459067","283.6783672333159",18/12/21 22:56:30
"1","15","302.39757876331134","283.9851901669204",18/12/21 22:56:30
"1","15","302.51211822383686","284.26730814264073",18/12/21 22:56:30
"1","15","303.55274851908575","284.80200418705033",18/12/21 22:56:30
"1","15","304.08189006730686","284.8581404652351",18/12/21 22:56:30
"1","15","302.50485064132505","283.6911522023772",18/12/21 22:56:30
"1","15","302.5040329010618","283.7102461498767",18/12/21 22:56:30
"1","15","303.42945345939734","284.3761383186964",18/12/21 22:56:30
"1","15","303.51553713206306","284.3678815397123",18/12/21 22:56:30
"1","15","304.86722877594843","282.72385856591393",18/12/21 22:56:30
"1","15","304.43730130911365","282.4448256017512",18/12/21 22:56:30
"1","15","306.33808231123925","282.1768269741075",18/12/21 22:56:30
"1","15","305.1411754318861","284.1224435080026",18/12/21 22:56:30
"1","15","305.14379804219067","284.1192430264389",18/12/21 22:56:30
"1","15","305.2827410603495","283.94177570314815",18/12/21 22:56:30
"1","15","305.255991149921","284.0415401665769",18/12/21 22:56:30
"1","15","305.57500735833156","284.18719422267577",18/12/21 22:56:30
"1","15","305.6954336002373","284.23866062544164",18/12/21 22:56:30
"1","15","305.7767081658482","283.02572200083955",18/12/21 22:56:30
"1","15","305.7877273416662","284.33102130817207",18/12/21 22:56:30
"1","15","305.99558176106876","284.0842325252181",18/12/21 22:56:30
"1","15","305.21574083702683","283.7549681955194",18/12/21 22:56:30
"1","15","305.05890445513415","282.9314398130403",18/12/21 22:56:30
"1","15","305.95446825604535","281.6863356943749",18/12/21 22:56:30
"1","15","304.1684328421539","281.1063308102338",18/12/21 22:56:30
"1","15","305.0166726816651","281.00954860718406",18/12/21 22:56:30
"1","15","303.40329076449825","280.3649147033029",18/12/21 22:56:30
"1","15","304.4549132724234","281.3615992713489",18/12/21 22:56:30
"1","15","305.2939033108154","281.90089946038813",18/12/21 22:56:30
"1","15","304.92032258628205","280.8561708731392",18/12/21 22:56:30
"1","15","305.4006566029842","280.79451553352817",18/12/21 22:56:30
"1","15","303.8138520106221","279.745824027974",18/12/21 22:56:30
"1","15","304.7593938802885","277.54408607522794",18/12/21 22:56:31
"1","15","304.6508593480269","278.00952661769327",18/12/21 22:56:31
"1","15","305.2647728166727","277.8118457950812",18/12/21 22:56:31
"1","15","304.19569759737277","279.26361105884473",18/12/21 22:56:31
"1","15","306.19146571879736","280.25443573565485",18/12/21 22:56:31
"1","15","305.9625134417898","280.428485962696",18/12/21 22:56:31
"1","15","305.85717639466594","280.0827590434688",18/12/21 22:56:31
"1","15","306.1493297055319","280.50704466480676",18/12/21 22:56:31
"1","15","304.2189641776682","279.95946306307917",18/12/21 22:56:31
"1","15","303.0400111804661","278.13150630013786",18/12/21 22:56:31
"1","15","302.96020805445204","278.17299319211145",18/12/21 22:56:31
"1","15","303.5141439960064","278.1849060432778",18/12/21 22:56:31
"1","15","304.85469198956645","279.5492635661088",18/12/21 22:56:31
"1","15","304.59693132461393","279.1449635568297",18/12/21 22:56:31
"1","15","305.28460169783557","279.9800755502719",18/12/21 22:56:31
"1","15","305.9177936677892","280.1558426461442",18/12/21 22:56:31
"1","15","306.31947381967746","278.66085892801755",18/12/21 22:56:31
"1","15","306.12799007996983","278.1925419708638",18/12/21 22:56:31
"1","15","304.9650778382889","278.4229040239686",18/12/21 22:56:31
"1","15","305.17805103739363","277.9855291904799",18/12/21 22:56:31
"1","15","305.5384921789316","277.7785477253442",18/12/21 22:56:31
"1","15","304.97042777225806","279.08301457613896",18/12/21 22:56:31
"1","15","305.06502046740616","279.2750742152372",18/12/21 22:56:31
"1","15","305.3262190343697","279.5865153428535",18/12/21 22:56:31
"1","15","305.3529378026231","281.0806909491795",18/12/21 22:56:31
"1","15","303.89632257481196","282.86241501919966",18/12/21 22:56:31
"1","15","303.4899338763441","283.9887705244422",18/12/21 22:56:31
"1","15","303.7251275751982","282.2374951240747",18/12/21 22:56:31
"1","15","304.22330003237425","282.7576811587809",18/12/21 22:56:31
"1","15","304.90968709246965","282.5147118810614",18/12/21 22:56:31
"1","15","304.74571654444316","282.3464209151933",18/12/21 22:56:31
"1","15","304.43194986789837","284.53618265405305",18/12/21 22:56:31
"1","15","304.7154520654542","284.7119460812729",18/12/21 22:56:31
"1","15","304.8991957627353","284.15729531032775",18/12/21 22:56:31
"1","15","302.8632903681075","283.9861512744142",18/12/21 22:56:31
"1","15","302.6897764444834","283.60700640622815",18/12/21 22:56:31
"1","15","304.8072705811316","284.2751711071748",18/12/21 22:56:31
"1","15","304.48745495875386","284.7658799510733",18/12/21 22:56:31
"1","15","304.48745495875386","284.7658799510733",18/12/21 22:56:31
"1","15","304.48745495875386","284.7658799510733",18/12/21 22:56:31
"1","88","306.6059794592353","285.2761733691953",18/12/21 22:56:31
"1","88","307.8527174734641","285.5232524304957",18/12/21 22:56:31
"1","88","309.2459119176875","285.7993562883704",18/12/21 22:56:31
"1","88","310.82826102578304","286.11294689667443",18/12/21 22:56:31
"1","88","312.15325857608576","286.3755354655781",18/12/21 22:56:31
"1","88","314.3035266577754","286.80167649368866",18/12/21 22:56:31
"1","88","315.9691593291468","287.1317722734089",18/12/21 22:56:31
"1","88","318.03990679433605","287.1007341818887",18/12/21 22:56:31
"1","88","319.4813996866104","286.8199206952374",18/12/21 22:56:31
"1","88","321.60587979026775","286.40605624371864",18/12/21 22:56:31
"1","88","323.7028765815547","285.997545744906",18/12/21 22:56:32
"1","88","325.7402198742998","285.60065618921857",18/12/21 22:56:32
"1","78","327.7137711774087","285.1935299885164",18/12/21 22:56:32
"1","78","327.9405272555347","283.0322389590239",18/12/21 22:56:32
"1","78","328.148759887197","281.0475013388513",18/12/21 22:56:32
"1","78","328.3065172848285","279.54386072575375",18/12/21 22:56:32
"1","78","328.4329536589899","278.338751678468",18/12/21 22:56:32
"1","78","328.5257183667031","278.3575420351148",18/12/21 22:56:32
"1","78","330.7526318559946","278.4600621537816",18/12/21 22:56:32
"1","78","330.2757110101455","277.6653124566559",18/12/21 22:56:32
"1","78","331.2932577142878","278.55056552480613",18/12/21 22:56:32
"1","78","330.98357681305976","278.3131021131807",18/12/21 22:56:32
"1","78","331.2568930420102","278.1403178890633",18/12/21 22:56:32
"1","78","330.78211956334326","278.12447676963586",18/12/21 22:56:32
"1","78","330.9045323014764","278.0695637782053",18/12/21 22:56:32
"1","78","331.2292832216763","280.1126855936328",18/12/21 22:56:32
"1","78","329.9768197078841","280.91332730365446",18/12/21 22:56:32
"1","78","331.28745577062176","280.73074810684074",18/12/21 22:56:32
"1","78","331.1419878403861","281.95364686943515",18/12/21 22:56:32
"1","78","330.31764294683245","283.6092398314984",18/12/21 22:56:32
"1","78","331.6149551774339","284.5462259985224",18/12/21 22:56:32
"1","78","331.64606266259983","282.2980341640664",18/12/21 22:56:32
"1","78","330.99555944909287","283.4476326149565",18/12/21 22:56:32
"1","78","330.72795989529754","284.10483547633015",18/12/21 22:56:32
"1","78","331.03918267256273","283.6808414428054",18/12/21 22:56:32
"1","78","330.21023945540986","283.4672506402055",18/12/21 22:56:32
"1","78","329.9391287203113","282.9987755011706",18/12/21 22:56:32
"1","78","330.98943047062625","284.59991351543255",18/12/21 22:56:32
"1","78","329.8201856791975","284.6770066312712",18/12/21 22:56:32
"1","78","330.2897266084395","283.92190818783575",18/12/21 22:56:32
"1","78","329.34313414304074","283.7777560284834",18/12/21 22:56:32
"1","78","330.7870900014055","281.91306546782585",18/12/21 22:56:32
"1","78","330.46152246038326","281.1953209258502",18/12/21 22:56:32
"1","78","330.3485902967798","281.11893557138063",18/12/21 22:56:32
"1","78","329.5070341725667","281.99788039239047",18/12/21 22:56:32
"1","78","328.61059142343856","282.2219401350068",18/12/21 22:56:32
"1","78","330.1181131254942","283.05521760556445",18/12/21 22:56:32
"1","78","330.867902700528","281.90631307687636",18/12/21 22:56:32
"1","78","331.2220977973494","282.0200061692594",18/12/21 22:56:32
"1","78","330.86448040162645","282.09532292194444",18/12/21 22:56:32
"1","78","330.892162926688","283.84457251402694",18/12/21 22:56:32
"1","78","330.94895814589506","284.211643523604",18/12/21 22:56:32
"1","78","330.0307016124617","283.8083681395078",18/12/21 22:56:32
"1","78","330.5181200152762","284.12085083517593",18/12/21 22:56:32
"1","78","330.6268700928493","284.34218918888746",18/12/21 22:56:32
"1","78","330.7132517209643","284.3679053609449",18/12/21 22:56:32
"1","78","329.05910832268455","283.0285922453467",18/12/21 22:56:32
"1","78","327.99125585724556","281.6264592955465",18/12/21 22:56:32
"1","78","328.1181799291441","279.38399305629866",18/12/21 22:56:32
"1","78","328.09341578841696","279.3953281525068",18/12/21 22:56:32
"1","78","328.3155809396156","279.7429867227115",18/12/21 22:56:33
"1","78","327.86592957819715","278.7778765403459",18/12/21 22:56:33
"1","78","329.1989251728677","279.9061684163509",18/12/21 22:56:33
"1","78","326.9954458791844","280.23438318469",18/12/21 22:56:33
"1","78","327.01966140775596","280.1980853108247",18/12/21 22:56:33
"1","78","327.7655064622","282.2315616309216",18/12/21 22:56:33
"1","78","328.9469608916483","281.81816326768944",18/12/21 22:56:33
"1","78","327.854581072986","281.6301753415346",18/12/21 22:56:33
"1","78","327.82270922605005","281.68591232353117",18/12/21 22:56:33
"1","78","327.7548988917358","281.71441650851364",18/12/21 22:56:33
"1","78","327.9824573445338","282.82474237567163",18/12/21 22:56:33
"1","78","328.19614687297417","283.18435677094453",18/12/21 22:56:33
"1","78","327.39986284817223","284.07342770550963",18/12/21 22:56:33
"1","78","326.902629721978","281.7362785735458",18/12/21 22:56:33
"1","78","327.4492043633859","282.53856206492884",18/12/21 22:56:33
"1","78","327.7414147369334","281.2913426889066",18/12/21 22:56:33
"1","78","329.76314445464664","280.6272880410575",18/12/21 22:56:33
"1","78","330.4292485757645","280.60787547817296",18/12/21 22:56:33
"1","78","329.8936673775756","281.5207248418153",18/12/21 22:56:33
"1","78","329.91451124641446","281.52270968754345",18/12/21 22:56:33
"1","78","330.48825480305686","282.6570616114077",18/12/21 22:56:33
"1","78","329.8506454234652","282.7821743020494",18/12/21 22:56:33
"1","78","329.85371212758906","282.7747590518279",18/12/21 22:56:33
"1","78","327.85298535642016","282.78415653262715",18/12/21 22:56:33
"1","78","326.88556876838703","283.1789364265535",18/12/21 22:56:33
"1","78","326.90637597552444","283.2166650286589",18/12/21 22:56:33
"1","78","327.79522854035645","284.45148266038177",18/12/21 22:56:33
"1","78","326.8348465249349","282.46372123877273",18/12/21 22:56:33
"1","78","329.01667003073885","283.38177644883217",18/12/21 22:56:33
"1","78","329.50384538796027","283.5690725055552",18/12/21 22:56:33
"1","78","329.76389483951436","282.69369139105845",18/12/21 22:56:33
"1","78","327.4666828555358","283.3740164486442",18/12/21 22:56:33
"1","78","327.08436281716155","283.9654342845865",18/12/21 22:56:33
"1","78","328.432201888133","282.87629199985",18/12/21 22:56:33
"1","78","329.07336161517117","282.3870276489684",18/12/21 22:56:33
"1","78","330.597644108641","281.72891322755794",18/12/21 22:56:33
"1","78","329.9517190329447","282.6321039880917",18/12/21 22:56:33
"1","78","329.6699523534761","282.44617929900267",18/12/21 22:56:33
"1","78","330.44449241093304","281.8311550587236",18/12/21 22:56:33
"1","78","329.8630635159951","279.89878605048847",18/12/21 22:56:33
"1","78","329.5740912166309","278.84205372288056",18/12/21 22:56:33
"1","78","329.21081811176435","280.52044856464653",18/12/21 22:56:33
"1","78","328.687423663501","278.3585908382031",18/12/21 22:56:33
"1","78","328.0620885992389","278.12101776573746",18/12/21 22:56:33
"1","78","329.2389320432401","277.5907747076078",18/12/21 22:56:33
"1","78","330.5631276244386","278.11582207705266",18/12/21 22:56:33
"1","78","330.6083768309981","277.99836464907463",18/12/21 22:56:33
"1","78","330.2433949422252","279.3800902922487",18/12/21 22:56:33
"1","78","329.52577648098844","278.5121413154949",18/12/21 22:56:33
"1","78","327.6713032427925","279.4916282385791",18/12/21 22:56:33
"1","78","328.87407608782036","277.9620641263767",18/12/21 22:56:34
"1","78","328.89074097929404","278.0997295184866",18/12/21 22:56:34
"1","78","328.3264715792581","279.3842668299484",18/12/21 22:56:34
"1","78","328.50414001278597","279.85464379028804",18/12/21 22:56:34
"1","78","329.5893353708006","279.7833560130666",18/12/21 22:56:34
"1","78","329.3841169566781","278.75485698916714",18/12/21 22:56:34
"1","78","329.30968150252","278.7737468200746",18/12/21 22:56:34
"1","78","329.7410295370454","279.23231531368634",18/12/21 22:56:34
"1","78","329.4042942976469","279.011761739442",18/12/21 22:56:34
"1","78","329.87117098693466","278.78911369542084",18/12/21 22:56:34
"1","78","329.2184173355562","278.18806809296063",18/12/21 22:56:34
"1","78","328.85146813903134","279.5172668377849",18/12/21 22:56:34
"1","78","327.13782778750294","280.5641241917009",18/12/21 22:56:34
"1","78","327.50772800035327","280.7410437694184",18/12/21 22:56:34
"1","78","327.2235139488041","280.61346811459885",18/12/21 22:56:34
"1","78","327.3452934359003","280.51077145309665",18/12/21 22:56:34
"1","78","327.6113642949471","280.0461978205961",18/12/21 22:56:34
"1","78","328.7605266784287","281.96396210316124",18/12/21 22:56:34
"1","78","329.7160559602515","280.5374974993801",18/12/21 22:56:34
"1","78","328.34956599218003","281.8665820807365",18/12/21 22:56:34
"1","78","329.0984041882431","280.6264737433036",18/12/21 22:56:34
"1","78","330.08461500028915","279.308008444944",18/12/21 22:56:34
"1","78","331.1872561717625","278.1588983847474",18/12/21 22:56:34
"1","78","329.5386393373903","278.2848242542939",18/12/21 22:56:34
"1","78","330.47290244159063","278.1266238263423",18/12/21 22:56:34
"1","78","330.54189098557686","278.10438390153894",18/12/21 22:56:34
"1","78","330.72406454322703","279.2070079727406",18/12/21 22:56:34
"1","78","331.05914408058896","277.9958775245788",18/12/21 22:56:34
"1","78","331.0640817933435","278.0010834377772",18/12/21 22:56:34
"1","78","331.08510539183885","278.9437804587186",18/12/21 22:56:34
"1","78","330.6212105140207","279.29668719502826",18/12/21 22:56:34
"1","78","330.4755845785297","279.43559674683553",18/12/21 22:56:34
"1","78","330.487722800724","279.44146913599434",18/12/21 22:56:34
"1","78","328.4804575385865","279.5909366215162",18/12/21 22:56:34
"1","78","330.8169832610629","280.43463459601037",18/12/21 22:56:34
"1","78","328.97369159883283","279.7868838193198",18/12/21 22:56:34
"1","78","329.60935844236366","278.88798581691543",18/12/21 22:56:34
"1","78","327.9638877274921","278.11358362234245",18/12/21 22:56:34
"1","78","328.14827741276633","278.32424867500896",18/12/21 22:56:34
"1","78","327.44825425802634","277.5391739086634",18/12/21 22:56:34
"1","78","327.2811965507301","279.11416971525944",18/12/21 22:56:34
"1","78","327.6009894286212","279.16973697007506",18/12/21 22:56:34
"1","78","327.5189939641808","279.0682602801145",18/12/21 22:56:34
"1","78","327.6226576081858","278.74178804047256",18/12/21 22:56:34
"1","78","328.0445476728864","278.67133932598114",18/12/21 22:56:34
"1","78","327.92323167942516","278.7960227487524",18/12/21 22:56:34
"1","78","327.5109344004363","278.69557830798516",18/12/21 22:56:34
"1","78","327.12603246100724","279.62245216675626",18/12/21 22:56:34
"1","78","328.2727764309821","278.8395012739064",18/12/21 22:56:34
"1","78","328.3659038914587","281.0150370857682",18/12/21 22:56:34
"1","78","329.1204277752564","281.5024141612794",18/12/21 22:56:35
"1","78","327.5036560189973","282.5190068891362",18/12/21 22:56:35
"1","78","328.2898253756926","280.49992734309785",18/12/21 22:56:35
"1","78","327.65133238753685","280.44132679738544",18/12/21 22:56:35
"1","78","327.54692404765905","280.5208534074004",18/12/21 22:56:35
"1","78","326.9724627866837","279.87211820265935",18/12/21 22:56:35
"1","78","327.75924257100917","281.6955581989844",18/12/21 22:56:35
"1","78","326.89893304254304","280.82142339610095",18/12/21 22:56:35
"1","78","327.1522167682841","280.4179814090227",18/12/21 22:56:35
"1","78","328.48526336590066","279.2633166676821",18/12/21 22:56:35
"1","78","328.5153645904151","279.65230520417896",18/12/21 22:56:35
"1","78","327.76228202747154","280.59599846481734",18/12/21 22:56:35
"1","78","327.99322254669823","280.53323672614835",18/12/21 22:56:35
"1","78","327.81228616526727","279.17669602666217",18/12/21 22:56:35
"1","78","328.7393182576316","279.1218800806857",18/12/21 22:56:35
"1","78","328.95991096898723","279.4448731953134",18/12/21 22:56:35
"1","78","328.7775605346835","279.4468384696975",18/12/21 22:56:35
"1","78","328.9105564249013","279.75940404319783",18/12/21 22:56:35
"1","78","329.1212338941707","279.735320128627",18/12/21 22:56:35
"1","78","327.1535270234851","279.37961839611495",18/12/21 22:56:35
"1","78","327.20463486587704","279.32830941813324",18/12/21 22:56:35
"1","78","328.96901534814674","280.683173982233",18/12/21 22:56:35
"1","78","329.0470044593467","280.6523472052657",18/12/21 22:56:35
"1","78","329.0135904872317","280.6049558785751",18/12/21 22:56:35
"1","78","329.19847695788866","279.8495830111764",18/12/21 22:56:35
"1","78","329.23604951064357","279.5561389382662",18/12/21 22:56:35
"1","78","330.2226328283408","279.40120521076733",18/12/21 22:56:35
"1","78","330.6454177986387","280.7773891595536",18/12/21 22:56:35
"1","78","331.5116745417661","281.068624700073",18/12/21 22:56:35
"1","78","330.3834714451771","281.455728899314",18/12/21 22:56:35
"1","78","330.0095857579673","281.753388544342",18/12/21 22:56:35
"1","78","331.0251897059426","279.8489324159967",18/12/21 22:56:35
"1","78","329.89041793389066","280.8720549605126",18/12/21 22:56:35
"1","78","331.25002471077215","281.5002359194626",18/12/21 22:56:35
"1","78","330.9551457630631","282.53109764042165",18/12/21 22:56:35
"1","78","330.9411472810798","282.55898238308237",18/12/21 22:56:35
"1","78","330.9074845068128","282.54840822814987",18/12/21 22:56:35
"1","78","330.744605268289","282.7263232245218",18/12/21 22:56:35
"1","78","331.3992971639043","284.6904429529212",18/12/21 22:56:35
"1","78","331.34633305714186","284.50340259163687",18/12/21 22:56:35
"1","78","331.383801714543","284.5533730125878",18/12/21 22:56:35
"1","78","331.28685162365775","284.03605726672015",18/12/21 22:56:35
"1","78","330.9790358508556","284.04620751553665",18/12/21 22:56:35
"1","78","330.93027423099653","283.41648920239277",18/12/21 22:56:35
"1","78","328.89412866351137","283.0818945870259",18/12/21 22:56:35
"1","78","329.40653266986664","283.09806803019717",18/12/21 22:56:35
"1","78","327.86343300986994","281.2638847931794",18/12/21 22:56:35
"1","78","330.0749842078656","281.2363706219601",18/12/21 22:56:35
"1","78","329.9529960970455","281.2927977440695",18/12/21 22:56:35
"1","78","331.62184443221804","282.55849123758674",18/12/21 22:56:35
"1","78","331.01098599485044","282.62966517912366",18/12/21 22:56:36
"1","78","330.6079337587215","283.4314096959111",18/12/21 22:56:36
"1","78","330.6490321000306","283.301688510235",18/12/21 22:56:36
"1","78","330.55314115547196","283.4334377058115",18/12/21 22:56:36
"1","78","330.202840333864","283.92642343260354",18/12/21 22:56:36
"1","78","329.72891866477886","283.95276721740316",18/12/21 22:56:36
"1","78","329.4306580096121","284.22990038341544",18/12/21 22:56:36
"1","78","331.58035743406555","284.0371956832302",18/12/21 22:56:36
"1","78","330.5550978165321","282.02087784357127",18/12/21 22:56:36
"1","78","329.1809745160976","281.23051909187177",18/12/21 22:56:36
"1","78","331.16284255158115","281.08364776582397",18/12/21 22:56:36
"1","78","331.4229850038264","282.97873090445194",18/12/21 22:56:36
"1","78","331.4138218451976","280.9178112570549",18/12/21 22:56:36
"1","78","331.65632372429616","280.83268758744595",18/12/21 22:56:36
"1","78","331.0157585323382","280.8808629491197",18/12/21 22:56:36
"1","78","331.65968468084856","282.17478776886355",18/12/21 22:56:36
"1","78","331.18700444242734","281.41549287638054",18/12/21 22:56:36
"1","78","330.61996052832933","281.5151528385919",18/12/21 22:56:36
"1","78","329.09027777509283","282.9164067695703",18/12/21 22:56:36
"1","78","329.5356602638736","283.8365157118438",18/12/21 22:56:36
"1","78","328.4598369950952","283.3632312086988",18/12/21 22:56:36
"1","78","327.9672995445833","284.74154807768633",18/12/21 22:56:36
"1","78","329.58388222980363","284.60943079627356",18/12/21 22:56:36
"1","78","330.5128351678276","282.60536552735863",18/12/21 22:56:36
"1","78","328.8802798948914","284.30765116628874",18/12/21 22:56:36
"1","78","328.97286960060984","284.02962825353825",18/12/21 22:56:36
"1","78","328.9762341057427","282.2703966925023",18/12/21 22:56:36
"1","78","329.32632261464914","282.36186672615486",18/12/21 22:56:36
"1","78","329.61098136845635","282.16221823129194",18/12/21 22:56:36
"1","78","328.6772507169995","280.9371059146628",18/12/21 22:56:36
"1","78","327.7195651662695","283.13045029440946",18/12/21 22:56:36
"1","78","328.6496760534045","281.6369088060679",18/12/21 22:56:36
"1","78","328.54305147445194","281.8835062095625",18/12/21 22:56:36
"1","78","329.3584562367086","281.3368292392789",18/12/21 22:56:36
"1","78","329.10898667537265","279.4450271632332",18/12/21 22:56:36
"1","78","328.0451151566934","280.8125359798436",18/12/21 22:56:36
"1","78","328.86868832575095","282.7149306809966",18/12/21 22:56:36
"1","78","329.1269893225767","283.82325906640585",18/12/21 22:56:36
"1","78","327.9189239014876","284.11971303015287",18/12/21 22:56:36
"1","78","328.28307889444164","283.5178117389149",18/12/21 22:56:36
"1","78","328.7643316535381","283.26610406287534",18/12/21 22:56:36
"1","78","329.16798496477986","283.73111249552215",18/12/21 22:56:36
"1","78","329.1766393284284","283.7183091349032",18/12/21 22:56:36
"1","78","328.3715924904096","283.7355192697969",18/12/21 22:56:36
"1","78","328.62443965471044","283.82892952499066",18/12/21 22:56:36
"1","78","329.672969262906","283.84069946924365",18/12/21 22:56:36
"1","78","329.57300399453635","283.49792829346006",18/12/21 22:56:36
"1","78","329.9563550405429","284.0938700169273",18/12/21 22:56:36
"1","78","328.87916585693864","284.5451525705442",18/12/21 22:56:36
"1","78","326.9485876707978","283.6036885676558",18/12/21 22:56:37
"1","78","326.95285597878274","283.5872614381873",18/12/21 22:56:37
"1","78","326.8833336236432","283.76043402570906",18/12/21 22:56:37
"1","78","328.5955924614477","282.3240011676123",18/12/21 22:56:37
"1","78","329.3557665035076","282.55296491762226",18/12/21 22:56:37
"1","78","330.6928300813527","284.3759319263688",18/12/21 22:56:37
"1","78","330.7070096051634","284.7652122481076",18/12/21 22:56:37
"1","78","329.9985437374222","282.9113546797987",18/12/21 22:56:37
"1","78","329.2258496319192","283.7447742979462",18/12/21 22:56:37
"1","78","328.9845733877816","283.9267429763775",18/12/21 22:56:37
"1","78","327.535833767323","283.5926300191781",18/12/21 22:56:37
"1","78","329.0435090895736","282.7140858674647",18/12/21 22:56:37
"1","78","329.77156757140847","284.1921874623609",18/12/21 22:56:37
"1","78","330.9352394880852","284.5624205137231",18/12/21 22:56:37
"1","78","329.3303188463929","283.36491647388823",18/12/21 22:56:37
"1","78","330.4759095206847","284.0838699575588",18/12/21 22:56:37
"1","78","328.9111426838551","284.55433560952935",18/12/21 22:56:37
"1","78","328.32582146071064","284.16682994334025",18/12/21 22:56:37
"1","78","327.3731551508369","284.37901549749773",18/12/21 22:56:37
"1","78","329.24817027691404","284.43300307009923",18/12/21 22:56:37
"1","78","329.9351674662685","284.59917228177204",18/12/21 22:56:37
"1","78","329.63552458935897","284.1469817792201",18/12/21 22:56:37
"1","78","330.07860738931237","283.3594864937185",18/12/21 22:56:37
"1","78","330.12623334421346","283.3562654639179",18/12/21 22:56:37
"1","78","330.41295408704224","282.4619831824279",18/12/21 22:56:37
"1","78","330.41295408704224","282.4619831824279",18/12/21 22:56:37
"1","78","330.41295408704224","282.4619831824279",18/12/21 22:56:37
"1","78","328.908677233196","284.1372900893001",18/12/21 22:56:37
"1","88","327.3170872194531","285.269461577651",18/12/21 22:56:37
"1","88","325.64276765549016","285.4114839830269",18/12/21 22:56:37
"1","88","323.9264687405385","285.5570672429326",18/12/21 22:56:37
"1","88","322.07479027015876","285.71413393199623",18/12/21 22:56:37
"1","88","320.0346922649886","285.887183110978",18/12/21 22:56:37
"1","88","317.86458421229116","286.07126025622756",18/12/21 22:56:37
"1","89","316.41591050852645","286.0790840893451",18/12/21 22:56:37
"1","89","314.4606684403218","285.79568082628236",18/12/21 22:56:37
"1","89","312.7356032057698","285.54564062695454",18/12/21 22:56:37
"1","89","311.3672770701979","285.3473081043165",18/12/21 22:56:37
"1","8","310.32326850735853","284.81614338945315",18/12/21 22:56:37
"1","8","309.78674352004657","283.3101829063466",18/12/21 22:56:37
"1","8","309.01973582198394","281.1572854442771",18/12/21 22:56:37
"1","8","308.46734848416105","279.60680126963047",18/12/21 22:56:37
"1","8","309.4802629454518","278.56066054141877",18/12/21 22:56:37
"1","8","310.46238302871046","279.67845461835674",18/12/21 22:56:37
"1","8","310.5532862161684","280.74236690591664",18/12/21 22:56:37
"1","8","309.1359693118707","282.7220927835714",18/12/21 22:56:37
"1","8","307.15739577869385","282.1200226827765",18/12/21 22:56:37
"1","8","307.41175051376894","282.64063550205634",18/12/21 22:56:37
"1","8","307.6902695582487","282.7963177845123",18/12/21 22:56:37
"1","8","307.87334831992433","283.0974032949859",18/12/21 22:56:37
"1","8","309.40097985117944","284.0747714957637",18/12/21 22:56:38
"1","8","309.7255811188049","282.0252754004406",18/12/21 22:56:38
"1","8","310.715990163852","281.86528972870883",18/12/21 22:56:38
"1","8","309.5064405229282","280.7104519980417",18/12/21 22:56:38
"1","8","310.9383227417952","281.06577885086733",18/12/21 22:56:38
"1","8","308.9129535640272","280.6982363762666",18/12/21 22:56:38
"1","8","307.37851307613596","279.61717832174156",18/12/21 22:56:38
"1","8","307.3072362650291","280.27611171134066",18/12/21 22:56:38
"1","8","307.4245456440677","279.4536174169654",18/12/21 22:56:38
"1","8","306.90111223497445","278.2243358031107",18/12/21 22:56:38
"1","8","308.3964377740721","278.72640150721946",18/12/21 22:56:38
"1","8","309.02565664145504","279.1117084147941",18/12/21 22:56:38
"1","8","309.05967879783253","278.5966419393678",18/12/21 22:56:38
"1","8","306.8348306563918","278.11547843410955",18/12/21 22:56:38
"1","8","307.1291237078118","277.5693567004748",18/12/21 22:56:38
"1","8","306.8977858578965","277.58267681368113",18/12/21 22:56:38
"1","8","308.06701902021683","278.0794873575432",18/12/21 22:56:38
"1","8","308.73622775224504","278.5548271629469",18/12/21 22:56:38
"1","8","308.91705718906826","280.0942564275545",18/12/21 22:56:38
"1","8","307.1107781204884","279.4804934031066",18/12/21 22:56:38
"1","8","308.2733623766914","278.37882476268084",18/12/21 22:56:38
"1","8","307.9460358206605","278.4463718548492",18/12/21 22:56:38
"1","8","310.30563206842544","278.8157478353678",18/12/21 22:56:38
"1","8","310.70453423608456","278.54019848223146",18/12/21 22:56:38
"1","8","310.03853591788925","279.6724370273898",18/12/21 22:56:38
"1","8","311.4039084725498","278.07253777471743",18/12/21 22:56:38
"1","8","310.40554511698883","277.574487176689",18/12/21 22:56:38
"1","8","310.9930504665234","278.5087465021071",18/12/21 22:56:38
"1","8","310.5248333991282","278.5239711380289",18/12/21 22:56:38
"1","8","309.9178408717224","277.561138203497",18/12/21 22:56:38
"1","8","309.92145845511726","277.5623474119183",18/12/21 22:56:38
"1","8","310.95733029947417","278.8510442121981",18/12/21 22:56:38
"1","8","310.2971510956542","279.135505514641",18/12/21 22:56:38
"1","8","309.94226288136895","279.473333728967",18/12/21 22:56:38
"1","8","309.9919857731627","279.46719058104776",18/12/21 22:56:38
"1","8","310.24800905061915","280.6804466940823",18/12/21 22:56:38
"1","8","309.9817612236032","280.7655561780255",18/12/21 22:56:38
"1","8","309.45207172630774","281.5334538363627",18/12/21 22:56:38
"1","8","309.80135336318614","281.1367568306317",18/12/21 22:56:38
"1","8","310.3675972492434","281.6154163128184",18/12/21 22:56:38
"1","8","310.11101792069843","283.2376357291011",18/12/21 22:56:38
"1","8","309.04258980953483","284.49805996393394",18/12/21 22:56:38
"1","8","308.69285556713135","284.1754220292768",18/12/21 22:56:38
"1","8","307.5568457946064","284.25823997032523",18/12/21 22:56:38
"1","8","308.94232097220373","283.12530489263935",18/12/21 22:56:38
"1","8","309.7474111453293","281.9555738759957",18/12/21 22:56:38
"1","8","307.64270889475364","282.3707128495722",18/12/21 22:56:38
"1","8","307.8033907553006","282.7608387184048",18/12/21 22:56:38
"1","8","309.0147330002994","281.6905728605536",18/12/21 22:56:38
"1","8","309.02167035833884","281.7261881902836",18/12/21 22:56:38
"1","8","308.65069809901166","281.54672902848955",18/12/21 22:56:39
"1","8","307.8028513751813","282.4195946557444",18/12/21 22:56:39
"1","8","307.39667812503717","282.8836673741825",18/12/21 22:56:39
"1","8","308.1702623715351","283.9998585098772",18/12/21 22:56:39
"1","8","307.4495930521866","283.42334268948787",18/12/21 22:56:39
"1","8","307.76364888823883","283.60620345214",18/12/21 22:56:39
"1","8","306.9051655795142","282.81717648625823",18/12/21 22:56:39
"1","8","307.58487030729293","281.8220607400725",18/12/21 22:56:39
"1","8","308.0110045928516","281.35988437226376",18/12/21 22:56:39
"1","8","308.8589258471344","281.9867242887966",18/12/21 22:56:39
"1","8","308.52974215122975","280.5582580360515",18/12/21 22:56:39
"1","8","308.78046505443217","279.0973864735045",18/12/21 22:56:39
"1","8","310.81723501664067","280.4725645767129",18/12/21 22:56:39
"1","8","309.88620542385763","280.50625666246157",18/12/21 22:56:39
"1","8","309.3602219063541","281.13129363624256",18/12/21 22:56:39
"1","8","308.50084825851826","282.8038565746244",18/12/21 22:56:39
"1","8","308.45573665471176","282.77864314061",18/12/21 22:56:39
"1","8","308.085334086207","282.3825062696357",18/12/21 22:56:39
"1","8","307.01806362144055","280.558509249426",18/12/21 22:56:39
"1","8","307.0817988111136","278.06000327876393",18/12/21 22:56:39
"1","8","309.49462343234217","278.4007886245114",18/12/21 22:56:39
"1","8","309.64991143926943","279.3235765750534",18/12/21 22:56:39
"1","8","309.59443861214584","279.4577261101316",18/12/21 22:56:39
"1","8","307.37631709637765","278.4847620536936",18/12/21 22:56:39
"1","8","307.4387904570397","279.3167772337926",18/12/21 22:56:39
"1","8","307.3312938712274","278.8125743801428",18/12/21 22:56:39
"1","8","307.38753472486366","279.33396294245443",18/12/21 22:56:39
"1","8","307.964485793723","279.0804786442903",18/12/21 22:56:39
"1","8","310.00158776505003","279.678886508802",18/12/21 22:56:39
"1","8","309.1125043587956","278.84557229032674",18/12/21 22:56:39
"1","8","308.89860728344286","277.5974638630403",18/12/21 22:56:39
"1","8","307.8311537119527","277.89401134873367",18/12/21 22:56:39
"1","8","307.8311537119527","277.89401134873367",18/12/21 22:56:39
"1","8","307.8493046767988","278.4783456197271",18/12/21 22:56:39
"1","8","307.4401488349397","279.59448718705306",18/12/21 22:56:39
"1","8","307.4401488349397","279.59448718705306",18/12/21 22:56:39
"1","8","307.1978872869857","280.29945274855567",18/12/21 22:56:39
"1","8","307.1978872869857","280.29945274855567",18/12/21 22:56:39
"1","8","310.3203329102425","281.27401563719366",18/12/21 22:56:39
"1","8","310.3203329102425","281.27401563719366",18/12/21 22:56:39
"1","8","308.3301573224506","279.103285033498",18/12/21 22:56:39
"1","8","308.3301573224506","279.103285033498",18/12/21 22:56:39
"1","8","309.30310381141186","278.52567341914533",18/12/21 22:56:39
"1","8","310.7883080225523","278.49365464235433",18/12/21 22:56:39
"1","8","310.7883080225523","278.49365464235433",18/12/21 22:56:39
"1","8","310.50299510427925","278.38242754724087",18/12/21 22:56:39
"1","8","310.50299510427925","278.38242754724087",18/12/21 22:56:39
"1","8","310.40646276373917","277.94804159099664",18/12/21 22:56:39
"1","8","310.40646276373917","277.94804159099664",18/12/21 22:56:39
"1","8","310.1354269867307","278.71293519438643",18/12/21 22:56:39
"1","8","309.36979358676285","278.2286935315689",18/12/21 22:56:40
"1","8","309.7941915984397","279.9089659605221",18/12/21 22:56:40
"1","8","309.7941915984397","279.9089659605221",18/12/21 22:56:40
"1","8","307.40074478046654","280.3319801749203",18/12/21 22:56:40
"1","8","306.88954128832626","279.59016725782914",18/12/21 22:56:40
"1","8","306.88954128832626","279.59016725782914",18/12/21 22:56:40
"1","8","308.18763795344756","278.8999516313906",18/12/21 22:56:40
"1","8","308.18763795344756","278.8999516313906",18/12/21 22:56:40
"1","8","308.5706053583227","279.1418635809932",18/12/21 22:56:40
"1","8","308.44861723624894","280.6534942321795",18/12/21 22:56:40
"1","8","308.44861723624894","280.6534942321795",18/12/21 22:56:40
"1","8","310.40388743597913","280.8229125371777",18/12/21 22:56:40
"1","8","310.40388743597913","280.8229125371777",18/12/21 22:56:40
"1","8","311.0239622858105","280.7656466139703",18/12/21 22:56:40
"1","8","310.7407519701927","282.43550429003835",18/12/21 22:56:40
"1","8","310.7407519701927","282.43550429003835",18/12/21 22:56:40
"1","8","309.1824834306787","282.84896792468004",18/12/21 22:56:40
"1","8","309.43474437474305","282.97228666525166",18/12/21 22:56:40
"1","8","309.43474437474305","282.97228666525166",18/12/21 22:56:40
"1","8","310.4080468060885","283.436298796626",18/12/21 22:56:40
"1","8","310.4080468060885","283.436298796626",18/12/21 22:56:40
"1","8","309.9043137906781","283.40790662872774",18/12/21 22:56:40
"1","8","309.9043137906781","283.40790662872774",18/12/21 22:56:40
"1","8","308.9730922573259","284.6791370190033",18/12/21 22:56:40
"1","8","308.9730922573259","284.6791370190033",18/12/21 22:56:40
"1","8","308.7501068727164","284.29899709619633",18/12/21 22:56:40
"1","8","308.1720438386775","283.75583911809053",18/12/21 22:56:40
"1","8","308.1720438386775","283.75583911809053",18/12/21 22:56:40
"1","8","310.02576257818583","284.54879332029503",18/12/21 22:56:40
"1","8","310.02576257818583","284.54879332029503",18/12/21 22:56:40
"1","8","311.0424717676602","284.6372369705732",18/12/21 22:56:40
"1","8","309.9666212692759","284.41982286011154",18/12/21 22:56:40
"1","8","309.9666212692759","284.41982286011154",18/12/21 22:56:40
"1","8","311.2192208647971","284.6911204412582",18/12/21 22:56:40
"1","8","309.9580568964842","284.8327135451687",18/12/21 22:56:40
"1","8","309.9580568964842","284.8327135451687",18/12/21 22:56:40
"1","8","311.3439945840709","283.1476047774988",18/12/21 22:56:40
"1","8","311.3439945840709","283.1476047774988",18/12/21 22:56:40
"1","8","311.4136086737571","282.1350052029372",18/12/21 22:56:40
"1","8","311.4136086737571","282.1350052029372",18/12/21 22:56:40
"1","8","308.5898528785448","284.4472389999385",18/12/21 22:56:40
"1","8","308.5898528785448","284.4472389999385",18/12/21 22:56:40
"1","8","307.2991699609354","283.5934337266946",18/12/21 22:56:40
"1","8","307.2991699609354","283.5934337266946",18/12/21 22:56:40
"1","8","307.31205128621093","283.0400455863822",18/12/21 22:56:40
"1","8","307.31205128621093","283.0400455863822",18/12/21 22:56:40
"1","8","306.9296078465797","283.9835614458429",18/12/21 22:56:40
"1","8","307.352030118433","282.1045685266039",18/12/21 22:56:40
"1","8","307.352030118433","282.1045685266039",18/12/21 22:56:40
"1","8","308.46870653862896","282.93366014780054",18/12/21 22:56:40
"1","8","308.46870653862896","282.93366014780054",18/12/21 22:56:41
"1","8","308.4030717156652","283.1261753682203",18/12/21 22:56:41
"1","8","308.4030717156652","283.1261753682203",18/12/21 22:56:41
"1","8","308.4030717156652","283.1261753682203",18/12/21 22:56:41
"1","89","311.42564038936524","285.61694644224445",18/12/21 22:56:41
"1","89","312.1184707209513","287.11167923127164",18/12/21 22:56:41
"1","89","312.1184707209513","287.11167923127164",18/12/21 22:56:41
"1","24","313.92231898401735","291.10087647470976",18/12/21 22:56:41
"1","24","313.92231898401735","291.10087647470976",18/12/21 22:56:41
"1","24","314.44532324722394","294.3190817754803",18/12/21 22:56:41
"1","24","315.3498502420028","294.3190817754803",18/12/21 22:56:41
"1","24","315.1727206400319","291.54330476560904",18/12/21 22:56:41
"1","24","315.1727206400319","291.54330476560904",18/12/21 22:56:41
"1","24","315.24287704330277","289.77744586722497",18/12/21 22:56:41
"1","24","312.9914270861154","289.3246032090253",18/12/21 22:56:41
"1","24","312.9914270861154","289.3246032090253",18/12/21 22:56:41
"1","24","312.5637083690163","289.626543625915",18/12/21 22:56:41
"1","24","312.5637083690163","289.626543625915",18/12/21 22:56:41
"1","24","313.2641816819207","291.0412112034952",18/12/21 22:56:41
"1","24","313.2641816819207","291.0412112034952",18/12/21 22:56:41
"1","24","312.6796019638165","290.8477596641569",18/12/21 22:56:41
"1","24","312.6796019638165","290.8477596641569",18/12/21 22:56:41
"1","24","312.5146729741837","290.64212907001456",18/12/21 22:56:41
"1","24","312.5894815876438","291.3915155737736",18/12/21 22:56:41
"1","24","312.5894815876438","291.3915155737736",18/12/21 22:56:41
"1","24","313.2865409429711","290.46316821851553",18/12/21 22:56:41
"1","24","313.2865409429711","290.46316821851553",18/12/21 22:56:41
"1","24","315.0174465838203","292.563615266273",18/12/21 22:56:41
"1","24","315.0174465838203","292.563615266273",18/12/21 22:56:41
"1","24","315.5367227071201","294.35510017096374",18/12/21 22:56:41
"1","24","315.5367227071201","294.35510017096374",18/12/21 22:56:41
"1","24","315.1714093969839","293.89384445629486",18/12/21 22:56:41
"1","24","316.7809008215953","294.16319157259005",18/12/21 22:56:41
"1","24","316.7809008215953","294.16319157259005",18/12/21 22:56:41
"1","24","316.7297806341775","294.55606468099523",18/12/21 22:56:41
"1","24","315.92352603914696","295.8478419649133",18/12/21 22:56:41
"1","24","315.92352603914696","295.8478419649133",18/12/21 22:56:41
"1","24","315.95751547652367","295.9304859558741",18/12/21 22:56:41
"1","24","315.95751547652367","295.9304859558741",18/12/21 22:56:41
"1","24","315.95751547652367","295.9304859558741",18/12/21 22:56:41
"1","24","314.34438813788125","292.53518211992633",18/12/21 22:56:41
"1","24","314.34438813788125","292.53518211992633",18/12/21 22:56:41
"1","88","312.60367888118674","288.81921444711946",18/12/21 22:56:41
"1","88","312.60367888118674","288.81921444711946",18/12/21 22:56:41
"1","88","315.2266305284321","286.7685677454134",18/12/21 22:56:41
"1","88","315.2266305284321","286.7685677454134",18/12/21 22:56:41
"1","88","318.05282806127485","285.46276750139725",18/12/21 22:56:41
"1","88","318.05282806127485","285.46276750139725",18/12/21 22:56:41
"1","88","321.05699771183487","285.5037117305405",18/12/21 22:56:41
"1","88","321.05699771183487","285.5037117305405",18/12/21 22:56:41
"1","88","322.5060266930231","285.52346073993147",18/12/21 22:56:42
"1","88","322.5060266930231","285.52346073993147",18/12/21 22:56:42
"1","88","323.9847781444267","285.54361484083614",18/12/21 22:56:42
"1","88","327.506591883649","285.5916141103553",18/12/21 22:56:42
"1","88","327.506591883649","285.5916141103553",18/12/21 22:56:42
"1","88","330.91244682308127","285.63803296191475",18/12/21 22:56:42
"1","30","332.83617380190583","286.0982249937193",18/12/21 22:56:42
"1","30","332.83617380190583","286.0982249937193",18/12/21 22:56:42
"1","30","336.659521029271","288.195802592814",18/12/21 22:56:42
"1","30","336.659521029271","288.195802592814",18/12/21 22:56:42
"1","6","337.7745750736774","289.07088168169105",18/12/21 22:56:42
"1","6","337.4859587893048","290.5295696627524",18/12/21 22:56:42
"1","6","337.24901580239674","291.72709698852634",18/12/21 22:56:42
"1","6","335.82586247406886","289.90580091120626",18/12/21 22:56:42
"1","6","335.82586247406886","289.90580091120626",18/12/21 22:56:42
"1","6","333.54102840328244","290.7361467517166",18/12/21 22:56:42
"1","6","333.54102840328244","290.7361467517166",18/12/21 22:56:42
"1","6","333.5413982003038","291.79127845128784",18/12/21 22:56:42
"1","6","333.5413982003038","291.79127845128784",18/12/21 22:56:42
"1","6","333.8180690082691","290.3019086161594",18/12/21 22:56:42
"1","6","333.7197637211246","289.74299031010105",18/12/21 22:56:42
"1","6","333.7197637211246","289.74299031010105",18/12/21 22:56:42
"1","6","333.9794010830833","289.9004478323296",18/12/21 22:56:42
"1","6","334.26342869782775","291.951726352485",18/12/21 22:56:42
"1","6","334.26342869782775","291.951726352485",18/12/21 22:56:42
"1","6","332.366814796157","289.7967509874833",18/12/21 22:56:42
"1","6","332.366814796157","289.7967509874833",18/12/21 22:56:42
"1","6","333.3244651885298","289.7826219442381",18/12/21 22:56:42
"1","6","334.1609762863047","292.10755783767326",18/12/21 22:56:42
"1","6","334.1609762863047","292.10755783767326",18/12/21 22:56:42
"1","6","333.0580593734028","293.42049431086684",18/12/21 22:56:42
"1","6","333.0580593734028","294.90506823277633",18/12/21 22:56:42
"1","6","333.5857147521322","294.82251113273117",18/12/21 22:56:42
"1","6","333.5857147521322","294.82251113273117",18/12/21 22:56:42
"1","6","334.4477315854145","295.170105375342",18/12/21 22:56:42
"1","6","334.4477315854145","295.170105375342",18/12/21 22:56:42
"1","6","335.41153410469695","295.9451865080889",18/12/21 22:56:42
"1","6","335.41153410469695","295.9451865080889",18/12/21 22:56:42
"1","6","333.4242811745115","295.05599422755506",18/12/21 22:56:42
"1","6","333.4242811745115","295.05599422755506",18/12/21 22:56:42
"1","6","332.56591924334003","293.8743538973866",18/12/21 22:56:42
"1","6","332.9889995695586","293.4235200278487",18/12/21 22:56:42
"1","6","333.75985186762193","293.2251520292473",18/12/21 22:56:42
"1","6","333.75985186762193","293.2251520292473",18/12/21 22:56:42
"1","6","334.499035609408","293.1240079091511",18/12/21 22:56:42
"1","6","334.52334201405756","292.97491962412505",18/12/21 22:56:42
"1","6","334.52334201405756","292.97491962412505",18/12/21 22:56:42
"1","6","334.80528231183365","292.62764038645616",18/12/21 22:56:42
"1","6","334.80528231183365","292.62764038645616",18/12/21 22:56:42
"1","6","337.1842441255472","293.34814994372476",18/12/21 22:56:42
"1","6","337.08954475707895","293.34123206399204",18/12/21 22:56:43
"1","6","337.180214841034","293.34123206399204",18/12/21 22:56:43
"1","6","339.6645132756965","292.3086657488901",18/12/21 22:56:43
"1","6","339.6645132756965","292.3086657488901",18/12/21 22:56:43
"1","6","338.75394036628114","289.2984664212886",18/12/21 22:56:43
"1","6","338.75394036628114","289.2984664212886",18/12/21 22:56:43
"1","6","340.8021422110631","289.93780844150416",18/12/21 22:56:43
"1","6","340.8021422110631","289.93780844150416",18/12/21 22:56:43
"1","6","340.35324201948777","290.2428188752188",18/12/21 22:56:43
"1","6","336.7433832225776","291.9227203027795",18/12/21 22:56:43
"1","6","336.7433832225776","291.9227203027795",18/12/21 22:56:43
"1","6","335.4887217670906","293.26950178141317",18/12/21 22:56:43
"1","6","335.4887217670906","293.26950178141317",18/12/21 22:56:43
"1","6","336.1344309401676","294.1495398038109",18/12/21 22:56:43
"1","6","336.1344309401676","294.1495398038109",18/12/21 22:56:43
"1","6","335.9656010381205","295.488485869442",18/12/21 22:56:43
"1","6","335.9656010381205","295.488485869442",18/12/21 22:56:43
"1","6","339.35808097231967","296.5193009349326",18/12/21 22:56:43
"1","6","339.35808097231967","296.5193009349326",18/12/21 22:56:43
"1","6","336.7945661778825","294.59793801385365",18/12/21 22:56:43
"1","6","337.98317479602724","293.34453997490704",18/12/21 22:56:43
"1","6","338.2428734107159","292.571956369365",18/12/21 22:56:43
"1","6","338.2428734107159","292.571956369365",18/12/21 22:56:43
"1","6","338.5101621411099","293.6511282658884",18/12/21 22:56:43
"1","6","338.5101621411099","293.6511282658884",18/12/21 22:56:43
"1","6","338.4941409005627","292.72027333628847",18/12/21 22:56:43
"1","6","340.5014957318973","291.5796923597622",18/12/21 22:56:43
"1","6","338.43831540571574","292.9171291334372",18/12/21 22:56:43
"1","6","338.0586421999296","292.68357242392807",18/12/21 22:56:43
"1","6","338.52518833172996","292.7095379606852",18/12/21 22:56:43
"1","6","338.52518833172996","292.7095379606852",18/12/21 22:56:43
"1","6","337.5805857764109","293.06217403465047",18/12/21 22:56:43
"1","6","337.5805857764109","293.06217403465047",18/12/21 22:56:43
"1","6","336.60129853746054","293.8643142616417",18/12/21 22:56:43
"1","6","335.9508982793553","294.1489475722672",18/12/21 22:56:43
"1","6","338.5359584187733","294.4432426304375",18/12/21 22:56:43
"1","6","338.5359584187733","294.4432426304375",18/12/21 22:56:43
"1","6","340.6299986747201","296.0596023866197",18/12/21 22:56:43
"1","6","340.71920296319337","293.9576023437921",18/12/21 22:56:43
"1","6","340.71920296319337","293.9576023437921",18/12/21 22:56:43
"1","6","337.21401389468684","293.9905931336757",18/12/21 22:56:43
"1","6","337.21401389468684","293.9905931336757",18/12/21 22:56:43
"1","6","339.3916828878564","293.36422486517284",18/12/21 22:56:43
"1","6","337.7337795152308","293.0971308200494",18/12/21 22:56:43
"1","6","337.7337795152308","293.0971308200494",18/12/21 22:56:43
"1","6","336.0198791959704","293.1685481336144",18/12/21 22:56:43
"1","6","337.68460353030605","293.7749021701715",18/12/21 22:56:43
"1","6","337.68460353030605","293.7749021701715",18/12/21 22:56:43
"1","6","335.6549138033043","295.32084398293415",18/12/21 22:56:43
"1","6","335.6549138033043","295.32084398293415",18/12/21 22:56:44
"1","6","335.63411709204377","294.13099409839606",18/12/21 22:56:44
"1","6","336.39928493038457","296.3672595922562",18/12/21 22:56:44
"1","6","336.39928493038457","296.3672595922562",18/12/21 22:56:44
"1","6","336.45184728062657","296.2110040116868",18/12/21 22:56:44
"1","6","336.45184728062657","296.2110040116868",18/12/21 22:56:44
"1","6","336.4927461843497","295.29554582369866",18/12/21 22:56:44
"1","6","337.5795003975054","294.734452275963",18/12/21 22:56:44
"1","6","337.5795003975054","294.734452275963",18/12/21 22:56:44
"1","6","337.1274935005715","295.8186340506107",18/12/21 22:56:44
"1","6","336.680629089802","295.1480589286181",18/12/21 22:56:44
"1","6","336.680629089802","295.1480589286181",18/12/21 22:56:44
"1","6","337.601660207802","294.7678888638663",18/12/21 22:56:44
"1","6","337.601660207802","294.7678888638663",18/12/21 22:56:44
"1","6","337.97002642039337","295.7194844719956",18/12/21 22:56:44
"1","6","338.00917324374944","295.49478266877884",18/12/21 22:56:44
"1","6","338.00917324374944","295.49478266877884",18/12/21 22:56:44
"1","6","336.7268713501492","295.83465973908915",18/12/21 22:56:44
"1","6","336.7268713501492","295.83465973908915",18/12/21 22:56:44
"1","6","335.7534234478415","296.51700380178033",18/12/21 22:56:44
"1","6","335.7534234478415","296.51700380178033",18/12/21 22:56:44
"1","6","335.2778259030137","293.2957988141174",18/12/21 22:56:44
"1","6","335.2778259030137","293.2957988141174",18/12/21 22:56:44
"1","6","336.047248516409","292.5609008151562",18/12/21 22:56:44
"1","6","336.047248516409","292.5609008151562",18/12/21 22:56:44
"1","6","337.02540444636924","291.725910051616",18/12/21 22:56:44
"1","6","337.02540444636924","291.725910051616",18/12/21 22:56:44
"1","6","337.1770379517116","292.1509004427037",18/12/21 22:56:44
"1","6","337.6578973320156","294.4709239870618",18/12/21 22:56:44
"1","6","337.6578973320156","294.4709239870618",18/12/21 22:56:44
"1","6","336.8946389803284","291.21639768945033",18/12/21 22:56:44
"1","6","337.0916932644786","291.4748883744441",18/12/21 22:56:44
"1","6","337.0916932644786","291.4748883744441",18/12/21 22:56:44
"1","6","334.92459018616967","290.0418599352714",18/12/21 22:56:44
"1","6","334.92459018616967","290.0418599352714",18/12/21 22:56:44
"1","6","335.0135452319152","291.47431636253407",18/12/21 22:56:44
"1","6","335.0135452319152","291.47431636253407",18/12/21 22:56:44
"1","6","335.27721913585424","291.0970245623743",18/12/21 22:56:44
"1","6","335.27721913585424","291.0970245623743",18/12/21 22:56:44
"1","6","338.85165890002855","292.6086381293806",18/12/21 22:56:44
"1","6","338.85165890002855","292.6086381293806",18/12/21 22:56:44
"1","6","337.89589667127865","294.0549433331163",18/12/21 22:56:44
"1","6","337.89589667127865","294.0549433331163",18/12/21 22:56:44
"1","6","337.8571750578225","294.57256561642424",18/12/21 22:56:44
"1","6","337.4346636198711","293.02072937950413",18/12/21 22:56:44
"1","6","337.4346636198711","293.02072937950413",18/12/21 22:56:44
"1","6","336.8553726433162","291.47356104037425",18/12/21 22:56:44
"1","6","336.5599933043743","294.2436345107089",18/12/21 22:56:44
"1","6","336.5599933043743","294.2436345107089",18/12/21 22:56:44
"1","6","337.2372413564204","292.313345860675",18/12/21 22:56:44
"1","6","337.2372413564204","292.313345860675",18/12/21 22:56:45
"1","6","337.48771313212023","292.18860561864165",18/12/21 22:56:45
"1","6","337.48771313212023","292.18860561864165",18/12/21 22:56:45
"1","6","338.92201404412845","289.779242515658",18/12/21 22:56:45
"1","6","338.92201404412845","289.779242515658",18/12/21 22:56:45
"1","6","339.07112762469086","290.19673122600227",18/12/21 22:56:45
"1","6","339.07112762469086","290.19673122600227",18/12/21 22:56:45
"1","6","338.7668619449486","290.5713793562658",18/12/21 22:56:45
"1","6","340.52926118118256","290.2507085556373",18/12/21 22:56:45
"1","6","340.52926118118256","290.2507085556373",18/12/21 22:56:45
"1","6","340.7780590390088","292.55452490730653",18/12/21 22:56:45
"1","6","340.7780590390088","292.55452490730653",18/12/21 22:56:45
"1","6","340.6597358268576","292.73070477929554",18/12/21 22:56:45
"1","6","340.6597358268576","292.73070477929554",18/12/21 22:56:45
"1","6","339.1727073745733","290.62281045335743",18/12/21 22:56:45
"1","6","337.8594679849443","291.8054907641845",18/12/21 22:56:45
"1","6","337.8594679849443","291.8054907641845",18/12/21 22:56:45
"1","6","338.30800619669236","292.43114138745443",18/12/21 22:56:45
"1","6","338.30800619669236","292.43114138745443",18/12/21 22:56:45
"1","6","337.71983799432076","291.7278927556663",18/12/21 22:56:45
"1","6","337.4385481066345","292.7091844955358",18/12/21 22:56:45
"1","6","337.4385481066345","292.7091844955358",18/12/21 22:56:45
"1","6","337.7841670701299","292.51480341124125",18/12/21 22:56:45
"1","6","337.7841670701299","292.51480341124125",18/12/21 22:56:45
