"floorId","partitionId","location_x","location_y","timeStamp"
"3","96","328.2651070220791","287.90864383542976",18/12/21 22:52:05
"3","96","329.3698958739106","287.2644525980453",18/12/21 22:52:05
"3","96","330.48223613702646","286.61585820889906",18/12/21 22:52:05
"3","93","331.9968173737749","285.61988901242034",18/12/21 22:52:05
"3","93","331.5200969826886","283.9892588934206",18/12/21 22:52:05
"3","93","330.8206048685527","281.59663434737655",18/12/21 22:52:05
"2","93","331.14255910228184","280.9439384030783",18/12/21 22:52:05
"2","93","332.9723619699901","282.20813302759416",18/12/21 22:52:05
"2","93","334.6123598139912","283.3411930392447",18/12/21 22:52:05
"2","93","336.5266338357811","284.6637480373293",18/12/21 22:52:05
"2","93","337.7726339262764","285.52459848430846",18/12/21 22:52:05
"2","93","338.890891436316","286.2971927117878",18/12/21 22:52:05
"2","93","340.3933510812351","287.33522879763",18/12/21 22:52:05
"2","90","340.59672399372727","287.9782534891367",18/12/21 22:52:05
"2","90","339.325341710603","287.997676908605",18/12/21 22:52:05
"2","90","337.3650014529944","288.02762581667895",18/12/21 22:52:05
"2","90","335.6139148961605","288.0543778716432",18/12/21 22:52:05
"2","90","334.35806920332044","288.07356393236097",18/12/21 22:52:05
"2","90","332.8607346099489","288.09643931632496",18/12/21 22:52:05
"2","90","331.2144171614615","288.1104119087064",18/12/21 22:52:05
"2","90","329.32480365607046","288.1132203682849",18/12/21 22:52:06
"2","90","327.0742434865236","288.11656528895094",18/12/21 22:52:06
"2","90","325.0951017838268","288.1195068108316",18/12/21 22:52:06
"2","90","323.4667010384868","288.1219270399725",18/12/21 22:52:06
"2","90","321.8549855941218","288.12432247039493",18/12/21 22:52:06
"2","90","319.6188406496457","288.1276459662687",18/12/21 22:52:06
"2","90","318.00239396990173","288.1300484285436",18/12/21 22:52:06
"2","91","315.65696632643886","287.54309038350294",18/12/21 22:52:06
"2","91","313.9869738434744","286.76281723755534",18/12/21 22:52:06
"2","91","312.61043667984114","286.1196556699803",18/12/21 22:52:06
"2","91","310.81929790732977","285.2827791575931",18/12/21 22:52:06
"2","16","309.4958617658885","283.5039311731386",18/12/21 22:52:06
"2","16","308.4266758811085","281.9545834598727",18/12/21 22:52:06
"2","16","307.9474463779075","281.26013626833804",18/12/21 22:52:06
"2","16","307.7804527476201","281.34382573939905",18/12/21 22:52:06
"2","16","308.7262340585101","281.5033136394258",18/12/21 22:52:06
"2","16","308.4128959960859","281.31599304335333",18/12/21 22:52:06
"2","16","309.0814685892543","279.1577735691943",18/12/21 22:52:06
"2","16","308.0165533892682","280.7421432982065",18/12/21 22:52:06
"2","16","309.54984774851073","282.31238167234227",18/12/21 22:52:06
"2","16","310.09197812301574","281.6126259192091",18/12/21 22:52:06
"2","16","310.879026997293","280.3941740870409",18/12/21 22:52:06
"2","16","310.238335195326","282.23336106556275",18/12/21 22:52:06
"2","16","310.48256363008574","282.090020935317",18/12/21 22:52:06
"2","16","310.50906639457315","282.70887836461907",18/12/21 22:52:06
"2","16","310.54262095683026","282.74225633337403",18/12/21 22:52:06
"2","16","309.79529380451635","281.7865021470088",18/12/21 22:52:06
"2","16","309.8882969674288","282.64257928097817",18/12/21 22:52:06
"2","16","308.24199625840276","281.48202821530936",18/12/21 22:52:06
"2","16","308.4846683298927","283.40529198872105",18/12/21 22:52:06
"2","16","307.90182001518394","283.6668732103672",18/12/21 22:52:06
"2","16","310.0583157990122","282.6723787345785",18/12/21 22:52:06
"2","16","311.06507749963583","284.44921071203163",18/12/21 22:52:06
"2","16","310.8313625747101","282.52691222513926",18/12/21 22:52:06
"2","16","310.759878793169","282.45649617340393",18/12/21 22:52:06
"2","16","310.15271097916474","282.0931934557925",18/12/21 22:52:06
"2","16","310.25668000236215","282.02295360871705",18/12/21 22:52:06
"2","16","309.758420528265","279.73577002803506",18/12/21 22:52:06
"2","16","310.1535193472002","279.3385677800332",18/12/21 22:52:06
"2","16","309.7631206760893","279.66211342679384",18/12/21 22:52:06
"2","16","310.33215881476696","280.32436525066805",18/12/21 22:52:06
"2","16","308.66387625473817","281.73605307039844",18/12/21 22:52:06
"2","16","308.68152174472925","280.9212599178584",18/12/21 22:52:06
"2","16","308.3287110427194","281.2512518853155",18/12/21 22:52:06
"2","16","309.23144352662564","280.5917403145974",18/12/21 22:52:06
"2","16","309.7214506451884","280.69019861142556",18/12/21 22:52:06
"2","16","308.93391693992476","280.3397047176957",18/12/21 22:52:06
"2","16","311.05901542638077","281.08906344674153",18/12/21 22:52:06
"2","16","311.15629283389325","281.5931861467621",18/12/21 22:52:06
"2","16","310.82118279732117","281.4510317908874",18/12/21 22:52:07
"2","16","311.12009713013896","281.579533287647",18/12/21 22:52:07
"2","16","310.7114754874544","280.81529990230206",18/12/21 22:52:07
"2","16","311.180057435342","281.8430279888705",18/12/21 22:52:07
"2","16","311.12963670201975","281.82752707899533",18/12/21 22:52:07
"2","16","311.4030286509224","280.8884380340465",18/12/21 22:52:07
"2","16","311.4030196566195","280.8887468869247",18/12/21 22:52:07
"2","16","311.2302733051003","280.20570347449893",18/12/21 22:52:07
"2","16","310.0011026388842","278.8472591863995",18/12/21 22:52:07
"2","16","310.0864833359184","279.31933569462694",18/12/21 22:52:07
"2","16","310.2334330203401","279.18851462519797",18/12/21 22:52:07
"2","16","309.79810060904344","279.83739151616237",18/12/21 22:52:07
"2","16","309.56636189770046","279.59065299575917",18/12/21 22:52:07
"2","16","309.5562922913352","279.9046382375187",18/12/21 22:52:07
"2","16","310.3760374034616","280.33425362194293",18/12/21 22:52:07
"2","16","310.35565360645865","280.63439772825467",18/12/21 22:52:07
"2","16","309.6032618939436","280.5425244840957",18/12/21 22:52:07
"2","16","310.1622343691604","281.8556636926667",18/12/21 22:52:07
"2","16","310.3205358777686","283.3900160171285",18/12/21 22:52:07
"2","16","311.19786532538075","283.6409869105037",18/12/21 22:52:07
"2","16","311.1499585995364","283.63181596917724",18/12/21 22:52:07
"2","16","311.49653945072293","283.5238976307909",18/12/21 22:52:07
"2","16","311.49862112336933","283.71420763249847",18/12/21 22:52:07
"2","16","310.8516291426973","284.70877869757487",18/12/21 22:52:07
"2","16","310.8516291426973","284.70877869757487",18/12/21 22:52:07
"2","16","310.8516291426973","284.70877869757487",18/12/21 22:52:07
"2","90","312.3132076408416","285.79013009456185",18/12/21 22:52:07
"2","90","314.4725889493473","286.6878359173571",18/12/21 22:52:07
"2","90","315.8672938229568","287.26764768158256",18/12/21 22:52:07
"2","90","317.69150956406446","287.73545716590115",18/12/21 22:52:07
"2","90","319.4553554211174","287.8073010019116",18/12/21 22:52:07
"2","90","321.9458066597678","287.90874046141204",18/12/21 22:52:07
"2","90","323.3676295808995","287.96665323897884",18/12/21 22:52:07
"2","90","325.0410461423463","288.0348137670301",18/12/21 22:52:07
"2","90","326.82515853141","288.10748308639916",18/12/21 22:52:07
"2","90","328.28980440946395","288.16714010112946",18/12/21 22:52:07
"2","90","330.01241898756746","288.2373045311807",18/12/21 22:52:07
"2","93","332.1655754590424","288.3098442153801",18/12/21 22:52:07
"2","93","333.8030793870578","288.1999343982735",18/12/21 22:52:07
"2","93","335.06493134149014","288.1152384686",18/12/21 22:52:07
"2","93","337.474731330397","287.9534918788588",18/12/21 22:52:07
"2","93","339.2174047433155","287.83652305037936",18/12/21 22:52:07
"2","93","341.1222049546945","287.5722550992047",18/12/21 22:52:07
"2","93","339.1939758941463","286.28844181711685",18/12/21 22:52:07
"2","93","337.79289585042784","285.3556039057939",18/12/21 22:52:07
"2","93","337.79289585042784","285.3556039057939",18/12/21 22:52:07
"2","93","336.46969782353835","284.4746197755836",18/12/21 22:52:07
"2","93","334.78843837661594","283.3552386539335",18/12/21 22:52:07
"2","93","332.8378997836729","282.0565717039948",18/12/21 22:52:07
"2","93","330.9061151446508","280.770391120758",18/12/21 22:52:07
"3","95","331.5591848217491","281.25229415934126",18/12/21 22:52:08
"3","95","333.03415673621174","282.2999042965506",18/12/21 22:52:08
"3","95","335.01792633075604","283.7088918960803",18/12/21 22:52:08
"3","95","337.0353480740051","285.14178119283974",18/12/21 22:52:08
"3","95","338.87317122313664","286.44710920793597",18/12/21 22:52:08
"3","95","338.87317122313664","286.44710920793597",18/12/21 22:52:08
"3","95","338.87317122313664","286.44710920793597",18/12/21 22:52:08
"3","95","340.1980689368888","287.3881279907905",18/12/21 22:52:08
"3","95","341.10250546050406","288.03051098216224",18/12/21 22:52:08
"3","95","339.82694947988557","287.1245375444505",18/12/21 22:52:08
"3","95","338.6454970572804","286.285401881991",18/12/21 22:52:08
"3","95","337.0683014972747","285.16518661495957",18/12/21 22:52:08
"3","95","336.0314728995565","284.42877113554084",18/12/21 22:52:08
"3","95","334.10173407617697","283.0581593064503",18/12/21 22:52:08
"3","95","332.9369456982859","282.23085940980997",18/12/21 22:52:08
"3","95","331.5366880199898","281.2363156330068",18/12/21 22:52:08
"1","88","330.5186897052001","280.5698287728138",18/12/21 22:52:08
"1","88","330.9620721178457","282.2264011708696",18/12/21 22:52:08
"1","88","331.5988298060336","284.60546533854335",18/12/21 22:52:08
"1","88","331.5185805248293","286.19673613008325",18/12/21 22:52:08
"1","88","329.03845871164935","286.1918728381039",18/12/21 22:52:08
"1","88","327.2561158350166","286.18837782678213",18/12/21 22:52:08
"1","88","324.98074734666136","286.1839160373407",18/12/21 22:52:08
"1","88","323.0287533635913","286.1800883557199",18/12/21 22:52:08
"1","88","320.5738871118329","286.17527458758593",18/12/21 22:52:08
"1","88","318.4479113561157","286.1711057436259",18/12/21 22:52:08
"1","89","316.7052779767685","286.30473915265344",18/12/21 22:52:08
"1","89","314.9632108659037","287.4307651059226",18/12/21 22:52:08
"1","89","313.15165410028027","288.6017073280623",18/12/21 22:52:08
"1","24","313.0614728017015","290.1793493238105",18/12/21 22:52:08
"1","24","313.47270756448484","292.243478034098",18/12/21 22:52:08
"1","24","313.65828471491693","293.1749535776235",18/12/21 22:52:08
"1","24","314.10910803060847","292.87764136787547",18/12/21 22:52:08
"1","24","315.1954044085818","293.10325476890785",18/12/21 22:52:08
"1","24","315.2553287921625","292.91614021365007",18/12/21 22:52:08
"1","24","316.67040806515905","294.0356037464004",18/12/21 22:52:08
"1","24","314.67371975615043","294.99719167042025",18/12/21 22:52:08
"1","24","314.5235257972152","294.63967388288165",18/12/21 22:52:08
"1","24","314.5451743098343","292.35603247445",18/12/21 22:52:08
"1","24","314.3500432859917","293.6434970381229",18/12/21 22:52:08
"1","24","313.39194149522393","293.6420264411393",18/12/21 22:52:08
"1","24","311.92585249996495","294.24074229382336",18/12/21 22:52:08
"1","24","312.2818115611357","294.02954547407415",18/12/21 22:52:08
"1","24","312.7417025609268","293.6394620277991",18/12/21 22:52:08
"1","24","312.6368217358576","293.75282290486405",18/12/21 22:52:08
"1","24","312.8335480346194","291.3849859607618",18/12/21 22:52:08
"1","24","313.8723566555607","292.90192109919974",18/12/21 22:52:08
"1","24","313.76424054313355","292.92887047233756",18/12/21 22:52:08
"1","24","313.73529061616995","292.96011759711877",18/12/21 22:52:08
"1","24","314.02753419654385","291.0259585292899",18/12/21 22:52:08
"1","24","311.8724709735945","291.4535143064219",18/12/21 22:52:09
"1","24","312.35034793422426","291.8035503576952",18/12/21 22:52:09
"1","24","312.2229510523505","292.86059347909014",18/12/21 22:52:09
"1","24","312.0793541431008","293.0188130910451",18/12/21 22:52:09
"1","24","312.10734900708763","293.7461981773459",18/12/21 22:52:09
"1","24","313.20259163099513","293.97215323179626",18/12/21 22:52:09
"1","24","313.64533667668957","294.14214252962546",18/12/21 22:52:09
"1","24","312.24088077973806","292.66542102684406",18/12/21 22:52:09
"1","24","313.4483556734825","293.52226469687986",18/12/21 22:52:09
"1","24","314.61835457727926","291.6368124723733",18/12/21 22:52:09
"1","24","313.43130771226777","291.8548970105874",18/12/21 22:52:09
"1","24","312.98186576126415","292.474050158543",18/12/21 22:52:09
"1","24","313.9578341229999","293.46946695783527",18/12/21 22:52:09
"1","24","316.01098430428914","293.6991328321065",18/12/21 22:52:09
"1","24","315.61791639896285","293.96626517845976",18/12/21 22:52:09
"1","24","313.37725218151866","293.41782360867717",18/12/21 22:52:09
"1","24","313.48198066015107","293.3595444214415",18/12/21 22:52:09
"1","24","313.6135128863863","292.92141936124676",18/12/21 22:52:09
"1","24","314.0243312781509","290.9955118804673",18/12/21 22:52:09
"1","24","313.19703194862456","290.3973243436337",18/12/21 22:52:09
"1","24","312.1291103917884","292.0455170314679",18/12/21 22:52:09
"1","24","312.0364793570552","291.9972883184974",18/12/21 22:52:09
"1","24","312.2738164658261","292.68585101492397",18/12/21 22:52:09
"1","24","312.21865940962607","293.43630176784484",18/12/21 22:52:09
"1","24","312.7235789387044","292.16262101381335",18/12/21 22:52:09
"1","24","313.64562569391103","292.83495722475794",18/12/21 22:52:09
"1","24","311.8439897411149","291.9120687173459",18/12/21 22:52:09
"1","24","312.5658678981752","290.8902279315195",18/12/21 22:52:09
"1","24","313.2480304045207","292.3691538986253",18/12/21 22:52:09
"1","24","312.17604442107165","294.1845310706284",18/12/21 22:52:09
"1","24","312.57195737578377","294.39414136550675",18/12/21 22:52:09
"1","24","312.52806731764525","294.40848112524253",18/12/21 22:52:09
"1","24","312.86784394830755","295.9899097548947",18/12/21 22:52:09
"1","24","312.95753984975096","295.9739559163003",18/12/21 22:52:09
"1","24","312.3617896791666","294.3379010646207",18/12/21 22:52:09
"1","24","311.9504296347035","293.2948960211833",18/12/21 22:52:09
"1","24","312.03959888953153","293.5033744667724",18/12/21 22:52:09
"1","24","312.06057803695035","294.9730125919534",18/12/21 22:52:09
"1","24","311.9684696595733","294.1901022083435",18/12/21 22:52:09
"1","24","312.8963018510666","294.6557111249404",18/12/21 22:52:09
"1","24","312.9540356882839","294.19741874137446",18/12/21 22:52:09
"1","24","314.5813525110284","294.6040168955625",18/12/21 22:52:09
"1","24","314.66621992368874","294.5009901712268",18/12/21 22:52:09
"1","24","314.2775267696959","296.0633497293352",18/12/21 22:52:09
"1","24","314.4653660034326","296.0904563091098",18/12/21 22:52:09
"1","24","313.89596769733294","294.4158310654629",18/12/21 22:52:09
"1","24","313.68807282325565","295.39391975740085",18/12/21 22:52:09
"1","24","313.2601412602355","294.98390252277306",18/12/21 22:52:09
"1","24","312.904571599306","294.20888843406226",18/12/21 22:52:09
"1","24","314.92131946488655","293.8667661031026",18/12/21 22:52:09
"1","24","314.8288553890579","294.4861853546729",18/12/21 22:52:10
"1","24","313.6535860654548","292.68400211932266",18/12/21 22:52:10
"1","24","314.1630466764169","294.8549311693838",18/12/21 22:52:10
"1","24","313.9476748202226","294.6588928467045",18/12/21 22:52:10
"1","24","313.6790574543948","293.0327593984395",18/12/21 22:52:10
"1","24","313.099097612568","294.65151780830877",18/12/21 22:52:10
"1","24","312.4436566043359","293.3907876998101",18/12/21 22:52:10
"1","24","314.5327848068059","293.95228644782765",18/12/21 22:52:10
"1","24","312.7297236135167","293.65670756363",18/12/21 22:52:10
"1","24","312.05164322966425","295.64947785439205",18/12/21 22:52:10
"1","24","312.17212122440446","295.6260048322982",18/12/21 22:52:10
"1","24","312.0583466436689","295.84426012131615",18/12/21 22:52:10
"1","24","311.8397679342765","295.7925967030801",18/12/21 22:52:10
"1","24","311.92246280718234","293.9888969341483",18/12/21 22:52:10
"1","24","312.1228949084211","291.9088905499059",18/12/21 22:52:10
"1","24","312.82792739632714","291.6441969709918",18/12/21 22:52:10
"1","24","313.6198085926464","291.613833851455",18/12/21 22:52:10
"1","24","313.6136449113035","292.4964201539506",18/12/21 22:52:10
"1","24","313.8270320735294","291.96011183691576",18/12/21 22:52:10
"1","24","314.36068101335366","292.07532528429863",18/12/21 22:52:10
"1","24","315.3422091823664","292.45898237335183",18/12/21 22:52:10
"1","24","317.5005244756835","292.8323786834849",18/12/21 22:52:10
"1","24","316.34758639938667","293.06774978736837",18/12/21 22:52:10
"1","24","317.07331556807674","291.7309164856579",18/12/21 22:52:10
"1","24","316.2392278418231","292.713119024493",18/12/21 22:52:10
"1","24","316.2392278418231","292.713119024493",18/12/21 22:52:10
"1","24","315.16158812059734","290.46171318961",18/12/21 22:52:10
"1","24","314.641350879092","290.44065898997883",18/12/21 22:52:10
"1","24","314.641350879092","290.44065898997883",18/12/21 22:52:10
"1","24","316.4957167590235","291.5206088393953",18/12/21 22:52:10
"1","24","316.91458225449094","291.46433549653386",18/12/21 22:52:10
"1","24","316.91458225449094","291.46433549653386",18/12/21 22:52:10
"1","24","317.0549679719149","289.70785592693403",18/12/21 22:52:10
"1","24","317.0549679719149","289.70785592693403",18/12/21 22:52:10
"1","24","317.89411109502396","290.2758348442638",18/12/21 22:52:10
"1","24","319.76343934410625","290.5428491059054",18/12/21 22:52:10
"1","24","319.59194118141073","290.41229497183434",18/12/21 22:52:10
"1","24","319.59194118141073","290.60120287839266",18/12/21 22:52:10
"1","24","319.5207247747733","290.60120287839266",18/12/21 22:52:10
"1","24","320.08863102945116","290.5981485543919",18/12/21 22:52:10
"1","24","320.08863102945116","290.5981485543919",18/12/21 22:52:10
"1","24","319.7440008459994","292.37481354516274",18/12/21 22:52:10
"1","24","319.716720565769","293.34866630372085",18/12/21 22:52:10
"1","24","319.7523395876197","293.3593045629077",18/12/21 22:52:10
"1","24","317.37311937966734","293.9009132868726",18/12/21 22:52:10
"1","24","317.37311937966734","293.9009132868726",18/12/21 22:52:10
"1","24","319.0828297843206","292.44243660993067",18/12/21 22:52:10
"1","24","319.0828297843206","292.44243660993067",18/12/21 22:52:10
"1","24","319.81078464412553","292.4081119788703",18/12/21 22:52:10
"1","24","320.17198472366454","291.3128679824089",18/12/21 22:52:10
"1","24","318.0004426058866","291.82257453490087",18/12/21 22:52:11
"1","24","317.2840088819211","292.34231237783433",18/12/21 22:52:11
"1","24","317.7449375017906","292.8006796529556",18/12/21 22:52:11
"1","24","317.7449375017906","292.8006796529556",18/12/21 22:52:11
"1","24","317.8107061026022","292.73867902497767",18/12/21 22:52:11
"1","24","317.9561327409907","293.8801005297961",18/12/21 22:52:11
"1","24","317.15344111658936","293.9061322552899",18/12/21 22:52:11
"1","24","317.9143308308539","294.0863734514814",18/12/21 22:52:11
"1","24","317.8288059324033","293.7446546441121",18/12/21 22:52:11
"1","24","316.54910404259715","293.16344690874166",18/12/21 22:52:11
"1","24","316.54910404259715","293.16344690874166",18/12/21 22:52:11
"1","24","317.3876766558417","291.09780610108584",18/12/21 22:52:11
"1","24","316.3609313286276","291.268320417881",18/12/21 22:52:11
"1","24","316.7001546771837","291.3374988402284",18/12/21 22:52:11
"1","24","316.3841626064364","291.2293421343945",18/12/21 22:52:11
"1","24","318.00720789390533","290.08648263510344",18/12/21 22:52:11
"1","24","317.9101091397926","290.3005780819409",18/12/21 22:52:11
"1","24","317.9101091397926","290.3005780819409",18/12/21 22:52:11
"1","24","317.191930306885","290.414981770763",18/12/21 22:52:11
"1","24","317.43040554370174","290.4118306835123",18/12/21 22:52:11
"1","24","315.8492520042121","293.2282031962069",18/12/21 22:52:11
"1","24","315.8492520042121","293.2282031962069",18/12/21 22:52:11
"1","24","318.79051413237454","294.9770071769265",18/12/21 22:52:11
"1","24","318.79051413237454","294.9770071769265",18/12/21 22:52:11
"1","24","321.06989821311697","293.3924721039104",18/12/21 22:52:11
"1","24","319.10659042749427","293.9402260001983",18/12/21 22:52:11
"1","24","318.3838475906504","295.1973429566518",18/12/21 22:52:11
"1","24","318.3838475906504","295.1973429566518",18/12/21 22:52:11
"1","24","320.5901368432065","295.7872960130281",18/12/21 22:52:11
"1","24","320.0390630861197","294.45863603747193",18/12/21 22:52:11
"1","24","320.0390630861197","294.68888151797614",18/12/21 22:52:11
"1","24","318.770873520946","294.2071861425921",18/12/21 22:52:11
"1","24","319.3803732041195","296.27371655523564",18/12/21 22:52:11
"1","24","321.1036001034417","294.4996011559536",18/12/21 22:52:11
"1","24","321.0017095024345","294.61903862369695",18/12/21 22:52:11
"1","24","320.81307674298154","292.9762477696333",18/12/21 22:52:11
"1","24","321.0154002001025","293.24226026161256",18/12/21 22:52:11
"1","24","321.0154002001025","293.24226026161256",18/12/21 22:52:11
"1","24","321.26467075192664","293.9716491030612",18/12/21 22:52:11
"1","24","321.26724786912683","293.97048078269154",18/12/21 22:52:11
"1","24","321.2640910324728","293.7922198210911",18/12/21 22:52:11
"1","24","321.2640910324728","293.7922198210911",18/12/21 22:52:11
"1","24","320.41897804891454","292.102629317009",18/12/21 22:52:11
"1","24","320.41897804891454","292.102629317009",18/12/21 22:52:11
"1","24","320.2161431156339","291.6346579276565",18/12/21 22:52:11
"1","24","320.2161431156339","291.6346579276565",18/12/21 22:52:11
"1","24","319.0926995060758","291.3275263236019",18/12/21 22:52:11
"1","24","318.5856244410574","292.02713207647145",18/12/21 22:52:11
"1","24","318.5856244410574","292.02713207647145",18/12/21 22:52:11
"1","24","318.85718175577136","291.46978825409434",18/12/21 22:52:11
"1","24","319.09724162094324","290.7777679254998",18/12/21 22:52:12
"1","24","319.4943490557448","291.30035762457373",18/12/21 22:52:12
"1","24","318.67309516251487","291.2922732989135",18/12/21 22:52:12
"1","24","318.67309516251487","291.2922732989135",18/12/21 22:52:12
"1","24","318.59267900060604","291.3595990135412",18/12/21 22:52:12
"1","24","320.96398105091754","292.35506520468925",18/12/21 22:52:12
"1","24","321.23865705645505","293.43958500726046",18/12/21 22:52:12
"1","24","321.2879278572937","293.4670230647389",18/12/21 22:52:12
"1","24","321.2879278572937","293.4670230647389",18/12/21 22:52:12
"1","24","320.64609795295456","294.7008396716714",18/12/21 22:52:12
"1","24","319.0399099540182","295.0576293853443",18/12/21 22:52:12
"1","24","319.0399099540182","295.0576293853443",18/12/21 22:52:12
"1","24","315.7548848493271","294.95141897643185",18/12/21 22:52:12
"1","24","316.1056648536492","292.8076991497261",18/12/21 22:52:12
"1","24","316.1056648536492","292.8076991497261",18/12/21 22:52:12
"1","24","315.7104002849706","294.4066276206889",18/12/21 22:52:12
"1","24","315.7104002849706","294.4066276206889",18/12/21 22:52:12
"1","24","317.72972690036147","294.423884966129",18/12/21 22:52:12
"1","24","318.1951747479107","293.6022219500277",18/12/21 22:52:12
"1","24","317.8150248412081","292.15191566620314",18/12/21 22:52:12
"1","24","317.8150248412081","292.15191566620314",18/12/21 22:52:12
"1","24","318.7055221584045","292.1238475661221",18/12/21 22:52:12
"1","24","318.41369450248675","292.94838318203625",18/12/21 22:52:12
"1","24","319.64231180148397","291.4999973336465",18/12/21 22:52:12
"1","24","319.64231180148397","291.4999973336465",18/12/21 22:52:12
"1","24","318.89975365434464","293.6500534167739",18/12/21 22:52:12
"1","24","319.9014997440668","295.1833166241607",18/12/21 22:52:12
"1","24","319.7872891322449","295.30349277717545",18/12/21 22:52:12
"1","24","320.3415200505411","292.8763668129882",18/12/21 22:52:12
"1","24","319.6256096068614","294.0799782222644",18/12/21 22:52:12
"1","24","318.7585329808228","293.27760214524704",18/12/21 22:52:12
"1","24","318.85057722411","293.7514618893273",18/12/21 22:52:12
"1","24","318.85057722411","293.7514618893273",18/12/21 22:52:12
"1","24","317.29399742810136","295.36948066181145",18/12/21 22:52:12
"1","24","317.21768955543325","295.112659369854",18/12/21 22:52:12
"1","24","317.21768955543325","295.112659369854",18/12/21 22:52:12
"1","24","319.40828225081447","293.32168199677164",18/12/21 22:52:12
"1","24","319.40828225081447","293.32168199677164",18/12/21 22:52:12
"1","24","321.30530209092217","294.0426851601498",18/12/21 22:52:12
"1","24","321.2888296315752","293.29605803063953",18/12/21 22:52:12
"1","24","321.2888296315752","293.29605803063953",18/12/21 22:52:12
"1","24","319.8255006137728","292.4964135496786",18/12/21 22:52:12
"1","24","319.0785511419196","293.1174262406912",18/12/21 22:52:12
"1","24","319.0785511419196","293.1174262406912",18/12/21 22:52:12
"1","24","318.4343450573908","293.050345432902",18/12/21 22:52:12
"1","24","320.00747096767856","291.7372672552989",18/12/21 22:52:12
"1","24","320.00747096767856","291.7372672552989",18/12/21 22:52:12
"1","24","319.1966066192643","292.2217120118457",18/12/21 22:52:12
"1","24","319.2175806209234","291.96004486535844",18/12/21 22:52:12
"1","24","319.2175806209234","291.96004486535844",18/12/21 22:52:12
"1","24","317.8647866618767","291.64173866849967",18/12/21 22:52:13
"1","24","318.1234420615133","290.1871661299539",18/12/21 22:52:13
"1","24","318.1234420615133","290.1871661299539",18/12/21 22:52:13
"1","24","319.3806078994642","291.42322901940065",18/12/21 22:52:13
"1","24","320.3957018054426","289.9108338818803",18/12/21 22:52:13
"1","24","319.59499156293094","290.8955398356491",18/12/21 22:52:13
"1","24","320.34204015437564","290.96031159880414",18/12/21 22:52:13
"1","24","320.17679809266076","292.6603374945066",18/12/21 22:52:13
"1","24","320.0964037725554","292.6618903968575",18/12/21 22:52:13
"1","24","320.0964037725554","292.6618903968575",18/12/21 22:52:13
"1","24","320.3658645032522","291.0691306307737",18/12/21 22:52:13
"1","24","319.47493138751884","289.8008956353736",18/12/21 22:52:13
"1","24","319.7569910142861","289.9653692210551",18/12/21 22:52:13
"1","24","319.7569910142861","289.9653692210551",18/12/21 22:52:13
"1","24","320.5981962586642","289.92793102788835",18/12/21 22:52:13
"1","24","320.5969917755325","289.9224529882558",18/12/21 22:52:13
"1","24","320.68424016241084","291.02885029020314",18/12/21 22:52:13
"1","24","320.78609276881383","290.98746598163444",18/12/21 22:52:13
"1","24","320.1969906873123","291.529636564052",18/12/21 22:52:13
"1","24","320.1969906873123","291.529636564052",18/12/21 22:52:13
"1","24","320.5526655531898","293.02024824222457",18/12/21 22:52:13
"1","24","318.10659488191624","293.3442169774579",18/12/21 22:52:13
"1","24","319.96709466630523","293.84601894457126",18/12/21 22:52:13
"1","24","319.08925402732615","295.30440735659516",18/12/21 22:52:13
"1","24","319.3869088009791","295.4011404918182",18/12/21 22:52:13
"1","24","319.3869088009791","295.4011404918182",18/12/21 22:52:13
"1","24","319.01651902097217","295.917898370792",18/12/21 22:52:13
"1","24","320.29147309906364","296.214614142055",18/12/21 22:52:13
"1","24","320.0179814222915","296.08053640080834",18/12/21 22:52:13
"1","24","319.86277858352327","296.4357298237278",18/12/21 22:52:13
"1","24","321.0091162724463","295.71798464641927",18/12/21 22:52:13
"1","24","321.0091162724463","295.71798464641927",18/12/21 22:52:13
"1","24","317.38035771514046","294.5589676164548",18/12/21 22:52:13
"1","24","317.38035771514046","294.5589676164548",18/12/21 22:52:13
"1","24","318.53284975747533","290.92201086087846",18/12/21 22:52:13
"1","24","318.46199447075196","290.8993070819134",18/12/21 22:52:13
"1","24","318.5460841625033","290.8404388014134",18/12/21 22:52:13
"1","24","318.5460841625033","290.8404388014134",18/12/21 22:52:13
"1","24","316.81794129913544","290.806357261668",18/12/21 22:52:13
"1","24","316.5040694790202","290.99558790438056",18/12/21 22:52:13
"1","24","316.5040694790202","290.99558790438056",18/12/21 22:52:13
"1","24","316.3633381000231","292.12506923468607",18/12/21 22:52:13
"1","24","316.3633381000231","292.12506923468607",18/12/21 22:52:13
"1","24","315.5809606547922","290.1946645730541",18/12/21 22:52:13
"1","24","315.438845925772","290.11409029100423",18/12/21 22:52:13
"1","24","317.7688051032123","289.3608690205519",18/12/21 22:52:13
"1","24","317.7284231933226","289.34391838207836",18/12/21 22:52:13
"1","24","317.7284231933226","289.34391838207836",18/12/21 22:52:13
"1","24","319.54825633174744","290.1437991399447",18/12/21 22:52:13
"1","24","318.8772928607579","290.92452990559156",18/12/21 22:52:14
"1","24","317.40752557903056","290.6257323472032",18/12/21 22:52:14
"1","24","317.5749752727632","289.91602151264146",18/12/21 22:52:14
"1","24","317.5749752727632","289.91602151264146",18/12/21 22:52:14
"1","24","317.8228601579283","291.38739677476605",18/12/21 22:52:14
"1","24","317.8228601579283","291.38739677476605",18/12/21 22:52:14
"1","24","321.1883813776885","291.1106297593156",18/12/21 22:52:14
"1","24","320.58121409698066","290.6227391224952",18/12/21 22:52:14
"1","24","319.9127809170526","291.64490217167224",18/12/21 22:52:14
"1","24","320.8889007084593","293.03087907787324",18/12/21 22:52:14
"1","24","320.8889007084593","293.03087907787324",18/12/21 22:52:14
"1","24","320.8889007084593","293.03087907787324",18/12/21 22:52:14
"1","24","318.8264698217768","291.99894782602314",18/12/21 22:52:14
"1","24","318.8264698217768","291.99894782602314",18/12/21 22:52:14
"1","24","316.3350374269064","290.75236692639646",18/12/21 22:52:14
"1","24","314.68183486492495","289.92519186789474",18/12/21 22:52:14
"1","24","314.68183486492495","289.92519186789474",18/12/21 22:52:14
"1","88","313.13736599869924","288.5620365964057",18/12/21 22:52:14
"1","88","313.13736599869924","288.5620365964057",18/12/21 22:52:14
"1","88","317.2369576977185","286.9596154157288",18/12/21 22:52:14
"1","88","319.32155622596616","286.99425683721313",18/12/21 22:52:14
"1","88","319.32155622596616","286.99425683721313",18/12/21 22:52:14
"1","88","322.812149250142","287.05226278058404",18/12/21 22:52:14
"1","88","322.812149250142","287.05226278058404",18/12/21 22:52:14
"1","88","325.7673790142036","287.1013721694916",18/12/21 22:52:14
"1","88","327.5683853188935","287.13130091483566",18/12/21 22:52:14
"1","88","329.5472051729072","287.164184528479",18/12/21 22:52:14
"1","88","329.5472051729072","287.164184528479",18/12/21 22:52:14
"1","26","333.4606494144985","287.3332228216033",18/12/21 22:52:14
"1","26","335.7945471302399","287.54108606155467",18/12/21 22:52:14
"1","26","335.7945471302399","287.54108606155467",18/12/21 22:52:14
"1","26","337.7848174655406","287.8788733837924",18/12/21 22:52:14
"1","26","341.56999878274195","287.8848007064682",18/12/21 22:52:14
"1","26","342.7288893166196","287.2321663546027",18/12/21 22:52:14
"1","26","342.7288893166196","287.2321663546027",18/12/21 22:52:14
"1","26","345.8512743624982","285.47378134659596",18/12/21 22:52:14
"1","26","345.8512743624982","285.47378134659596",18/12/21 22:52:14
"1","42","346.3008354482142","282.1829117487331",18/12/21 22:52:14
"1","42","346.29607655131724","280.1205811329987",18/12/21 22:52:14
"1","42","346.29607655131724","280.1205811329987",18/12/21 22:52:14
"1","42","345.9800572197149","278.3315351132056",18/12/21 22:52:14
"1","42","345.9800572197149","278.3315351132056",18/12/21 22:52:14
"1","42","345.8661297038291","278.8614520448894",18/12/21 22:52:14
"1","42","344.25333923849354","278.9852366466303",18/12/21 22:52:14
"1","42","345.3024940946489","280.2418694552728",18/12/21 22:52:14
"1","42","346.3450201905366","279.96474707581535",18/12/21 22:52:14
"1","42","346.3450201905366","279.96474707581535",18/12/21 22:52:14
"1","42","346.03151718545286","280.3989780590959",18/12/21 22:52:14
"1","42","346.24096229869235","280.8562795640285",18/12/21 22:52:14
"1","42","344.4357815954098","279.7230427042151",18/12/21 22:52:14
"1","42","344.4357815954098","279.7230427042151",18/12/21 22:52:15
"1","42","343.33979701796994","281.2970773401236",18/12/21 22:52:15
"1","42","343.33979701796994","281.2970773401236",18/12/21 22:52:15
"1","42","343.5920526114739","282.98172420238734",18/12/21 22:52:15
"1","42","345.08159968848815","282.15145704161694",18/12/21 22:52:15
"1","42","345.04936309125725","283.64343092782076",18/12/21 22:52:15
"1","42","345.04936309125725","283.64343092782076",18/12/21 22:52:15
"1","42","345.2084998740837","283.28099678061557",18/12/21 22:52:15
"1","42","345.0871682798591","283.28099678061557",18/12/21 22:52:15
"1","42","345.56751889943325","281.78467928690935",18/12/21 22:52:15
"1","42","345.223034087498","280.6672130785072",18/12/21 22:52:15
"1","42","345.223034087498","280.6672130785072",18/12/21 22:52:15
"1","42","345.0817189231831","280.64266498432784",18/12/21 22:52:15
"1","42","345.3003870530731","280.10667927569983",18/12/21 22:52:15
"1","42","345.04232379097107","280.659078045974",18/12/21 22:52:15
"1","42","345.04232379097107","280.659078045974",18/12/21 22:52:15
"1","42","344.94869097910714","280.25173684971577",18/12/21 22:52:15
"1","42","345.91604717870865","280.5022125870111",18/12/21 22:52:15
"1","42","344.8910697136717","280.32409766576177",18/12/21 22:52:15
"1","42","344.8910697136717","280.32409766576177",18/12/21 22:52:15
"1","42","345.0004572707837","280.64876831322493",18/12/21 22:52:15
"1","42","344.2566873595456","281.128138599006",18/12/21 22:52:15
"1","42","343.9109956621659","279.7049642373009",18/12/21 22:52:15
"1","42","343.40010076565284","278.9372772596173",18/12/21 22:52:15
"1","42","343.40731121896954","278.8210255714979",18/12/21 22:52:15
"1","42","343.2697854145175","279.1060509016884",18/12/21 22:52:15
"1","42","343.3973825066486","278.3832791230676",18/12/21 22:52:15
"1","42","343.71439299329415","278.37477805803957",18/12/21 22:52:15
"1","42","343.71439299329415","278.37477805803957",18/12/21 22:52:15
"1","42","341.72172572014995","278.1221202990682",18/12/21 22:52:15
"1","42","341.72172572014995","278.1221202990682",18/12/21 22:52:15
"1","42","342.75079219554624","280.1802824195809",18/12/21 22:52:15
"1","42","343.3248325754131","279.9665786043179",18/12/21 22:52:15
"1","42","343.3248325754131","279.9665786043179",18/12/21 22:52:15
"1","42","345.56050723622957","277.7855544082438",18/12/21 22:52:15
"1","42","344.9068936561895","278.18159460899017",18/12/21 22:52:15
"1","42","344.9068936561895","278.18159460899017",18/12/21 22:52:15
"1","42","343.12804664196716","279.84645529371676",18/12/21 22:52:15
"1","42","343.12804664196716","279.84645529371676",18/12/21 22:52:15
"1","42","342.8886331936765","282.4178787869257",18/12/21 22:52:15
"1","42","342.8886331936765","282.4178787869257",18/12/21 22:52:15
"1","42","342.1010546050235","283.64215885366093",18/12/21 22:52:15
"1","42","342.1010546050235","283.64215885366093",18/12/21 22:52:15
"1","42","342.7225213202499","283.6890588606069",18/12/21 22:52:15
"1","42","342.72471513180807","283.7839275216182",18/12/21 22:52:15
"1","42","342.72471513180807","283.7839275216182",18/12/21 22:52:15
"1","42","344.38608063383424","283.85023732856837",18/12/21 22:52:15
"1","42","344.7486167561402","283.79120503489105",18/12/21 22:52:15
"1","42","344.7486167561402","283.79120503489105",18/12/21 22:52:15
"1","42","344.13176959125144","280.71741216783204",18/12/21 22:52:15
"1","42","342.5209000767466","281.64048215436827",18/12/21 22:52:16
"1","42","342.42461998112975","282.2919382840243",18/12/21 22:52:16
"1","42","342.42461998112975","282.2919382840243",18/12/21 22:52:16
"1","42","342.53727685403754","281.558515743596",18/12/21 22:52:16
"1","42","341.82135895088896","283.0253776200222",18/12/21 22:52:16
"1","42","341.82135895088896","283.0253776200222",18/12/21 22:52:16
"1","42","342.0023669880411","282.85284910069015",18/12/21 22:52:16
"1","42","343.5075961010304","283.24785740755675",18/12/21 22:52:16
"1","42","342.9826144713994","283.24785740755675",18/12/21 22:52:16
"1","42","344.3691892481378","282.90774663211147",18/12/21 22:52:16
"1","42","343.1058551991017","282.23767819330044",18/12/21 22:52:16
"1","42","343.1058551991017","282.23767819330044",18/12/21 22:52:16
"1","42","341.72778049071707","281.2572001423069",18/12/21 22:52:16
"1","42","341.72778049071707","281.35494246641105",18/12/21 22:52:16
"1","42","343.64954174849964","279.8789789477138",18/12/21 22:52:16
"1","42","344.1798065233","278.022099582513",18/12/21 22:52:16
"1","42","344.1798065233","278.022099582513",18/12/21 22:52:16
"1","42","342.77122491093536","277.59225897883033",18/12/21 22:52:16
"1","42","343.1119108485469","278.4980171758119",18/12/21 22:52:16
"1","42","343.1230764420809","278.53466681712126",18/12/21 22:52:16
"1","42","343.1230764420809","278.53466681712126",18/12/21 22:52:16
"1","42","342.7821010565443","279.6627614777042",18/12/21 22:52:16
"1","42","342.7821010565443","279.6627614777042",18/12/21 22:52:16
"1","42","343.66981807458365","279.3984474681388",18/12/21 22:52:16
"1","42","343.06983530464925","279.95899300246845",18/12/21 22:52:16
"1","42","343.06983530464925","279.95899300246845",18/12/21 22:52:16
"1","42","342.5819471293557","282.4839827945152",18/12/21 22:52:16
"1","42","343.5575741574364","283.1038584799359",18/12/21 22:52:16
"1","42","343.5575741574364","283.1038584799359",18/12/21 22:52:16
"1","42","342.1981797150255","283.3504801558353",18/12/21 22:52:16
"1","42","342.1981797150255","283.3504801558353",18/12/21 22:52:16
"1","42","344.9613189217675","283.8923728617613",18/12/21 22:52:16
"1","42","344.9613189217675","283.8923728617613",18/12/21 22:52:16
"1","42","345.61382377097004","283.67700327335024",18/12/21 22:52:16
"1","42","345.61382377097004","283.67700327335024",18/12/21 22:52:16
"1","42","344.64647341418004","283.8042171550724",18/12/21 22:52:16
"1","42","344.9684564684723","284.0994444180564",18/12/21 22:52:16
"1","42","344.9684564684723","284.0994444180564",18/12/21 22:52:16
"1","42","345.126217979661","284.3540665663148",18/12/21 22:52:16
"1","42","345.126217979661","284.3540665663148",18/12/21 22:52:16
"1","42","344.59185521094355","283.3671626326001",18/12/21 22:52:16
"1","42","344.59185521094355","283.3671626326001",18/12/21 22:52:16
"1","42","344.0861326670957","281.859366180328",18/12/21 22:52:16
"1","42","342.6904341135744","280.87946597211294",18/12/21 22:52:16
"1","42","344.2986745945408","282.0976064833151",18/12/21 22:52:16
"1","42","344.2986745945408","282.0976064833151",18/12/21 22:52:16
"1","42","344.0210980832076","283.4769377115354",18/12/21 22:52:16
"1","42","345.4269797342705","283.262934334452",18/12/21 22:52:16
"1","42","345.46555472311667","281.32920673521005",18/12/21 22:52:16
"1","42","345.46555472311667","281.32920673521005",18/12/21 22:52:16
"1","42","342.88845738978154","282.5678202810528",18/12/21 22:52:17
"1","42","342.88845738978154","282.5678202810528",18/12/21 22:52:17
"1","42","343.39881569543434","282.7013818022146",18/12/21 22:52:17
"1","42","343.39881569543434","282.7013818022146",18/12/21 22:52:17
"1","42","344.42759297617545","281.31960655125675",18/12/21 22:52:17
"1","42","344.42759297617545","281.31960655125675",18/12/21 22:52:17
"1","42","343.3696319614558","282.9535260794501",18/12/21 22:52:17
"1","42","343.3696319614558","282.9535260794501",18/12/21 22:52:17
"1","42","345.00634415174835","280.6112724530971",18/12/21 22:52:17
"1","42","345.00634415174835","280.6112724530971",18/12/21 22:52:17
"1","42","345.8921722693998","281.4703474264849",18/12/21 22:52:17
"1","42","345.8921722693998","281.4703474264849",18/12/21 22:52:17
"1","42","345.4557451179024","281.46955064888147",18/12/21 22:52:17
"1","42","343.8734922221565","282.4767985611881",18/12/21 22:52:17
"1","42","345.3805185295832","283.49820933437326",18/12/21 22:52:17
"1","42","345.3805185295832","283.49820933437326",18/12/21 22:52:17
"1","42","344.86180256122384","282.5242606796404",18/12/21 22:52:17
"1","42","345.2612753658415","282.2383743143811",18/12/21 22:52:17
"1","42","344.86764381631895","282.6406398028226",18/12/21 22:52:17
"1","42","345.56464745216874","281.2820876720428",18/12/21 22:52:17
"1","42","345.0594096556689","282.60524999441935",18/12/21 22:52:17
"1","42","345.0047848500504","282.6292418117101",18/12/21 22:52:17
"1","42","345.0047848500504","282.6292418117101",18/12/21 22:52:17
"1","42","344.8357101287041","281.6952161462733",18/12/21 22:52:17
"1","42","344.8357101287041","281.6952161462733",18/12/21 22:52:17
"1","42","343.65138449867885","280.0444575340537",18/12/21 22:52:17
"1","42","343.6318585544983","279.931291005357",18/12/21 22:52:17
"1","42","343.6318585544983","279.931291005357",18/12/21 22:52:17
"1","42","344.82326444513853","279.5755952352381",18/12/21 22:52:17
"1","42","344.7106360754804","280.1033006954312",18/12/21 22:52:17
"1","42","343.1001366282732","280.1033006954312",18/12/21 22:52:17
"1","42","344.6473742705063","278.9781647600597",18/12/21 22:52:17
"1","42","345.057331375433","280.46802872103655",18/12/21 22:52:17
"1","42","345.057331375433","280.46802872103655",18/12/21 22:52:17
"1","42","345.8879296779983","281.2829401064023",18/12/21 22:52:17
"1","42","342.58275108308493","282.04541489817655",18/12/21 22:52:17
"1","42","342.54289985953517","281.7750392097912",18/12/21 22:52:17
"1","42","342.54289985953517","281.7750392097912",18/12/21 22:52:17
"1","42","341.73477407561415","280.84611881800174",18/12/21 22:52:17
"1","42","342.24782428320333","278.9558477319136",18/12/21 22:52:17
"1","42","342.24782428320333","278.9558477319136",18/12/21 22:52:17
"1","42","343.0925271524446","280.1355566108873",18/12/21 22:52:17
"1","42","343.33677364425154","280.6591654742641",18/12/21 22:52:17
"1","42","342.2533976590228","280.11507665167505",18/12/21 22:52:17
"1","42","342.2533976590228","280.11507665167505",18/12/21 22:52:17
"1","42","342.81620223488056","280.4757077934679",18/12/21 22:52:17
"1","42","342.48170056344236","280.4757077934679",18/12/21 22:52:17
"1","42","342.58232708359446","280.6730837300317",18/12/21 22:52:17
"1","42","343.16954944598206","278.2151869377149",18/12/21 22:52:17
"1","42","343.06601123951384","278.40923231819716",18/12/21 22:52:17
"1","42","343.06601123951384","278.40923231819716",18/12/21 22:52:18
"1","42","345.2019881560848","278.64144024181024",18/12/21 22:52:18
"1","42","345.71304700638876","279.150632392784",18/12/21 22:52:18
"1","42","345.71304700638876","279.150632392784",18/12/21 22:52:18
"1","42","345.7524869682765","279.014884124569",18/12/21 22:52:18
"1","42","345.7524869682765","279.014884124569",18/12/21 22:52:18
"1","42","345.6863407225659","278.8957914172906",18/12/21 22:52:18
"1","42","345.8775268838793","278.1683689051785",18/12/21 22:52:18
"1","42","345.8775268838793","278.1683689051785",18/12/21 22:52:18
"1","42","345.43693356917123","279.8725847777389",18/12/21 22:52:18
"1","42","345.43693356917123","279.8725847777389",18/12/21 22:52:18
"1","42","344.92291290138","278.31342146730924",18/12/21 22:52:18
"1","42","344.4151722177559","278.56986060592004",18/12/21 22:52:18
"1","42","344.6295754999843","279.13302885049086",18/12/21 22:52:18
"1","42","344.6295754999843","279.13302885049086",18/12/21 22:52:18
"1","42","343.6850686145533","278.82417297505384",18/12/21 22:52:18
"1","42","342.77828534044716","278.3324293020475",18/12/21 22:52:18
"1","42","342.77828534044716","278.3324293020475",18/12/21 22:52:18
"1","42","344.76309018374445","278.748729341211",18/12/21 22:52:18
"1","42","344.76309018374445","278.748729341211",18/12/21 22:52:18
"1","42","342.8129736507023","279.7482742503719",18/12/21 22:52:18
"1","42","342.8129736507023","279.7482742503719",18/12/21 22:52:18
"1","42","344.6233948216437","279.1827252462783",18/12/21 22:52:18
"1","42","343.4363450447527","279.4986628261079",18/12/21 22:52:18
"1","42","343.4575668266563","279.5203172160452",18/12/21 22:52:18
"1","42","343.04612602983315","278.2992723981272",18/12/21 22:52:18
"1","42","343.04612602983315","278.2992723981272",18/12/21 22:52:18
"1","42","342.73855555045077","277.7051684899452",18/12/21 22:52:18
"1","42","342.73855555045077","277.7051684899452",18/12/21 22:52:18
"1","42","343.7850861818428","278.34798958603784",18/12/21 22:52:18
"1","42","343.7850861818428","278.34798958603784",18/12/21 22:52:18
"1","42","342.62586309870306","277.9832738805295",18/12/21 22:52:18
"1","42","342.62586309870306","277.9832738805295",18/12/21 22:52:18
"1","42","342.7763206807536","278.13916809063363",18/12/21 22:52:18
"1","42","342.7763206807536","278.13916809063363",18/12/21 22:52:18
"1","42","343.33908838351755","277.88204461323215",18/12/21 22:52:18
"1","42","343.33908838351755","277.88204461323215",18/12/21 22:52:18
"1","42","342.5728907919773","279.68852143264314",18/12/21 22:52:18
"1","42","342.5728907919773","279.68852143264314",18/12/21 22:52:18
"1","42","343.01551026274575","279.8658903489761",18/12/21 22:52:18
"1","42","343.01551026274575","279.8658903489761",18/12/21 22:52:18
"1","42","343.94673615094126","279.386007308473",18/12/21 22:52:18
"1","42","343.94673615094126","279.386007308473",18/12/21 22:52:18
"1","42","343.3317816615153","277.93626864187416",18/12/21 22:52:18
"1","42","343.3317816615153","277.93626864187416",18/12/21 22:52:18
"1","42","343.15572737202575","278.16005404684324",18/12/21 22:52:18
"1","42","344.56720683680385","278.1408939872404",18/12/21 22:52:18
"1","42","344.1522955923352","279.0302146574532",18/12/21 22:52:18
"1","42","344.1522955923352","279.0302146574532",18/12/21 22:52:18
"1","42","342.475858104304","280.1461080605894",18/12/21 22:52:18
"1","42","342.9793786875523","281.40339590689734",18/12/21 22:52:19
"1","42","342.9793786875523","281.40339590689734",18/12/21 22:52:19
"1","42","343.0589131991224","282.03420177319055",18/12/21 22:52:19
"1","42","342.56769677559015","283.10424240601907",18/12/21 22:52:19
"1","42","342.56769677559015","283.10424240601907",18/12/21 22:52:19
"1","42","341.81561329090744","282.87161184669543",18/12/21 22:52:19
"1","42","341.81561329090744","282.87161184669543",18/12/21 22:52:19
"1","42","341.77809817180696","280.8098625586329",18/12/21 22:52:19
"1","42","341.77809817180696","280.8098625586329",18/12/21 22:52:19
"1","42","341.90211558271494","280.4473108067541",18/12/21 22:52:19
"1","42","344.1822694575943","281.73236572423644",18/12/21 22:52:19
"1","42","344.1822694575943","281.73236572423644",18/12/21 22:52:19
"1","42","341.8511620321298","284.43349521788355",18/12/21 22:52:19
"1","42","341.8511620321298","284.43349521788355",18/12/21 22:52:19
"1","42","342.6233199880465","284.06149876070145",18/12/21 22:52:19
"1","42","342.6233199880465","284.06149876070145",18/12/21 22:52:19
"1","42","343.71437712604484","283.945505083474",18/12/21 22:52:19
"1","42","343.71437712604484","283.945505083474",18/12/21 22:52:19
"1","42","344.46688833108453","281.7880383698797",18/12/21 22:52:19
"1","42","346.1700361107473","281.50829593849744",18/12/21 22:52:19
"1","42","346.1700361107473","281.50829593849744",18/12/21 22:52:19
"1","42","346.2236554052834","281.26534123849444",18/12/21 22:52:19
"1","42","345.5103832213257","281.65044468118407",18/12/21 22:52:19
"1","42","345.5103832213257","281.65044468118407",18/12/21 22:52:19
"1","42","346.0154116758978","279.12425011039653",18/12/21 22:52:19
"1","42","346.0154116758978","279.12425011039653",18/12/21 22:52:19
"1","42","346.0154116758978","279.12425011039653",18/12/21 22:52:19
"1","42","345.8933217505234","280.3687011866645",18/12/21 22:52:19
"1","42","345.8933217505234","280.3687011866645",18/12/21 22:52:19
"1","42","345.69931600884075","282.3461833851243",18/12/21 22:52:19
"1","42","345.5761326011205","283.60178022364886",18/12/21 22:52:19
"1","26","344.46453391188567","285.93157948944304",18/12/21 22:52:19
"1","26","344.46453391188567","285.93157948944304",18/12/21 22:52:19
"1","26","341.75691063719484","287.96240518209237",18/12/21 22:52:19
"1","26","341.75691063719484","287.96240518209237",18/12/21 22:52:19
"1","88","338.4042433151615","288.1569026510581",18/12/21 22:52:19
"1","88","338.4042433151615","288.1569026510581",18/12/21 22:52:19
"1","88","334.28184846488705","287.9553978322375",18/12/21 22:52:19
"1","88","334.28184846488705","287.9553978322375",18/12/21 22:52:19
"1","88","332.9347724047167","287.88955204907",18/12/21 22:52:19
"1","88","329.6150620127439","287.8080067538449",18/12/21 22:52:19
"1","88","329.6150620127439","287.8080067538449",18/12/21 22:52:19
"1","88","326.1517601622778","287.75472637297617",18/12/21 22:52:19
"1","88","326.1517601622778","287.75472637297617",18/12/21 22:52:19
"1","88","323.38860451118904","287.7122172323219",18/12/21 22:52:19
"1","88","323.38860451118904","287.7122172323219",18/12/21 22:52:19
"1","88","319.07461561552185","287.64584964978116",18/12/21 22:52:19
"1","89","316.70670154010713","287.57921759040664",18/12/21 22:52:19
"1","89","316.70670154010713","287.57921759040664",18/12/21 22:52:19
"1","89","312.7353070195038","286.946836615134",18/12/21 22:52:20
"1","89","312.7353070195038","286.946836615134",18/12/21 22:52:20
"1","89","309.52154638052355","286.43509670195544",18/12/21 22:52:20
"1","89","310.8266076058159","285.70916994901893",18/12/21 22:52:20
"1","89","310.8266076058159","285.70916994901893",18/12/21 22:52:20
"1","89","311.3120122253579","288.0180101477362",18/12/21 22:52:20
"1","89","311.3120122253579","288.0180101477362",18/12/21 22:52:20
"1","89","310.97345616992646","288.22459340293136",18/12/21 22:52:20
"1","89","310.97345616992646","288.22459340293136",18/12/21 22:52:20
"1","89","310.8054049289975","285.9531454732928",18/12/21 22:52:20
"1","89","310.8054049289975","285.9531454732928",18/12/21 22:52:20
"1","89","310.8042298381567","285.9496868676513",18/12/21 22:52:20
"1","89","310.1186014525324","285.46864041597576",18/12/21 22:52:20
"1","89","310.1186014525324","285.46864041597576",18/12/21 22:52:20
"1","89","309.4593682308608","287.1537458271321",18/12/21 22:52:20
"1","89","307.7835661951841","287.656618935981",18/12/21 22:52:20
"1","89","307.7835661951841","287.656618935981",18/12/21 22:52:20
"1","89","307.19009110154394","287.6794477136717",18/12/21 22:52:20
"1","89","307.19009110154394","287.6794477136717",18/12/21 22:52:20
"1","89","307.94173842204657","288.5176770668206",18/12/21 22:52:20
"1","89","307.74686900872405","288.5010314042572",18/12/21 22:52:20
"1","89","307.74686900872405","288.5010314042572",18/12/21 22:52:20
"1","89","308.1898309223141","287.4675485474211",18/12/21 22:52:20
"1","89","308.1898309223141","287.4675485474211",18/12/21 22:52:20
"1","89","309.17142273770963","286.74485440924286",18/12/21 22:52:20
"1","89","306.8051444769102","285.50557713042565",18/12/21 22:52:20
"1","89","306.8051444769102","285.50557713042565",18/12/21 22:52:20
"1","89","306.37947128472797","285.4604358882957",18/12/21 22:52:20
"1","89","305.32225892936464","286.91629885506313",18/12/21 22:52:20
"1","89","305.32225892936464","286.91629885506313",18/12/21 22:52:20
"1","89","303.8252528660005","287.39870693981",18/12/21 22:52:20
"1","89","303.60321035979143","287.5319303908418",18/12/21 22:52:20
"1","89","304.1961021014054","287.19580235155036",18/12/21 22:52:20
"1","89","304.1961021014054","287.19580235155036",18/12/21 22:52:20
"1","89","303.3642806716975","285.39917109942195",18/12/21 22:52:20
"1","89","303.3642806716975","285.39917109942195",18/12/21 22:52:20
"1","89","303.21643910291874","286.6152598128229",18/12/21 22:52:20
"1","89","303.21643910291874","286.6152598128229",18/12/21 22:52:20
"1","89","305.83452357041165","287.3493998504751",18/12/21 22:52:20
"1","89","305.83452357041165","287.3493998504751",18/12/21 22:52:20
"1","89","304.26900099003984","286.29390105321374",18/12/21 22:52:20
"1","89","304.4290563958746","286.2963212823509",18/12/21 22:52:20
"1","89","304.4290563958746","286.2963212823509",18/12/21 22:52:20
"1","89","304.9326963504616","288.0266314255746",18/12/21 22:52:20
"1","89","304.9326963504616","288.0266314255746",18/12/21 22:52:20
"1","89","304.2631809438222","288.0744017995276",18/12/21 22:52:20
"1","89","302.53615899021685","286.5667334117096",18/12/21 22:52:20
"1","89","302.53615899021685","286.5667334117096",18/12/21 22:52:20
"1","89","303.4866893108986","288.30472632357555",18/12/21 22:52:20
"1","89","303.4866893108986","288.30472632357555",18/12/21 22:52:20
"1","89","303.42005950030426","286.8166455541474",18/12/21 22:52:21
"1","89","303.42005950030426","286.8166455541474",18/12/21 22:52:21
"1","89","303.1852384499212","286.4776435549898",18/12/21 22:52:21
"1","89","303.22574477539087","285.9657639427214",18/12/21 22:52:21
"1","89","302.67759335953315","287.12483342921786",18/12/21 22:52:21
"1","89","302.67759335953315","287.12483342921786",18/12/21 22:52:21
"1","89","304.3146420806883","286.6530283220259",18/12/21 22:52:21
"1","89","304.3146420806883","286.6530283220259",18/12/21 22:52:21
"1","89","304.07574912028184","286.27666578965653",18/12/21 22:52:21
"1","89","304.3858624908648","286.9509661160289",18/12/21 22:52:21
"1","89","304.3858624908648","286.9509661160289",18/12/21 22:52:21
"1","89","306.3111280015923","286.48076774252934",18/12/21 22:52:21
"1","89","306.3111280015923","286.48076774252934",18/12/21 22:52:21
"1","89","304.593572652127","288.29942708017444",18/12/21 22:52:21
"1","89","304.593572652127","288.29942708017444",18/12/21 22:52:21
"1","89","303.54211032062983","288.0475318603605",18/12/21 22:52:21
"1","89","303.54211032062983","288.0475318603605",18/12/21 22:52:21
"1","89","302.3656416567452","285.97059487301703",18/12/21 22:52:21
"1","89","302.5173235867528","287.7043386124564",18/12/21 22:52:21
"1","89","302.5173235867528","287.7043386124564",18/12/21 22:52:21
"1","89","303.5950031551685","287.55143679286925",18/12/21 22:52:21
"1","89","303.0317437190114","286.1784395806773",18/12/21 22:52:21
"1","89","303.0317437190114","286.1784395806773",18/12/21 22:52:21
"1","89","303.39199792316356","286.5985541189226",18/12/21 22:52:21
"1","89","303.11380880473484","287.00978791910956",18/12/21 22:52:21
"1","89","302.2783639654018","286.7599446346361",18/12/21 22:52:21
"1","89","302.2783639654018","286.7599446346361",18/12/21 22:52:21
"1","89","303.8050060445644","286.87080895346713",18/12/21 22:52:21
"1","89","303.8050060445644","286.87080895346713",18/12/21 22:52:21
"1","89","304.3162892318299","288.3186727253998",18/12/21 22:52:21
"1","89","304.0988576985867","288.1781450024764",18/12/21 22:52:21
"1","89","304.0988576985867","288.1781450024764",18/12/21 22:52:21
"1","89","303.377673942158","287.1780304567902",18/12/21 22:52:21
"1","89","303.377673942158","287.1780304567902",18/12/21 22:52:21
"1","89","302.5787307946769","287.6096078902636",18/12/21 22:52:21
"1","89","302.60889914681144","288.38025360255097",18/12/21 22:52:21
"1","89","302.9742963771981","286.35343464946254",18/12/21 22:52:21
"1","89","302.9742963771981","286.35343464946254",18/12/21 22:52:21
"1","89","304.05779060420065","285.9459498727969",18/12/21 22:52:21
"1","89","304.05779060420065","285.9459498727969",18/12/21 22:52:21
"1","89","305.3138490824602","285.41381577491285",18/12/21 22:52:21
"1","89","305.3138490824602","285.41381577491285",18/12/21 22:52:21
"1","89","306.30192237736463","287.7124596972039",18/12/21 22:52:21
"1","89","304.88070651041335","286.95353767119406",18/12/21 22:52:21
"1","89","304.88070651041335","286.95353767119406",18/12/21 22:52:21
"1","89","304.8218074158223","287.0907007076251",18/12/21 22:52:21
"1","89","304.8218074158223","287.0907007076251",18/12/21 22:52:21
"1","89","304.87917150776826","286.05813828952125",18/12/21 22:52:21
"1","89","304.1101126664372","287.6766595924004",18/12/21 22:52:21
"1","89","304.1101126664372","287.6766595924004",18/12/21 22:52:21
"1","89","303.5285497080119","288.2633541942873",18/12/21 22:52:22
"1","89","302.3428418644693","287.53109887442963",18/12/21 22:52:22
"1","89","302.3428418644693","287.53109887442963",18/12/21 22:52:22
"1","89","302.5451004328595","286.00870927588505",18/12/21 22:52:22
"1","89","302.5451004328595","286.00870927588505",18/12/21 22:52:22
"1","89","302.6796680605214","285.66423256482165",18/12/21 22:52:22
"1","89","302.6796680605214","285.66423256482165",18/12/21 22:52:22
"1","89","303.0503157515313","285.8546423115895",18/12/21 22:52:22
"1","89","303.0503157515313","285.8546423115895",18/12/21 22:52:22
"1","89","302.5062372363299","285.41444137867296",18/12/21 22:52:22
"1","89","304.05591721441476","285.8788345504705",18/12/21 22:52:22
"1","89","304.05591721441476","285.8788345504705",18/12/21 22:52:22
"1","89","302.97942388892767","286.2356669758256",18/12/21 22:52:22
"1","89","302.97942388892767","286.2356669758256",18/12/21 22:52:22
"1","89","303.1555848793434","286.45304101069814",18/12/21 22:52:22
"1","89","304.0083773388682","286.9728507852041",18/12/21 22:52:22
"1","89","304.0083773388682","286.9728507852041",18/12/21 22:52:22
"1","89","303.1840033148718","287.14691248729036",18/12/21 22:52:22
"1","89","303.1840033148718","287.14691248729036",18/12/21 22:52:22
"1","89","303.1683612123365","288.3348382685213",18/12/21 22:52:22
"1","89","303.1683612123365","288.3348382685213",18/12/21 22:52:22
"1","89","303.7203632376855","287.3295182851366",18/12/21 22:52:22
"1","89","303.7203632376855","287.3295182851366",18/12/21 22:52:22
"1","89","305.0673670296749","287.35822238777143",18/12/21 22:52:22
"1","89","305.0673670296749","287.35822238777143",18/12/21 22:52:22
"1","89","302.72264118105124","286.28035294711754",18/12/21 22:52:22
"1","89","302.72264118105124","286.28035294711754",18/12/21 22:52:22
"1","89","304.6589950700481","285.89347537488874",18/12/21 22:52:22
"1","89","304.6706547614713","285.91368912567486",18/12/21 22:52:22
"1","89","305.1584765910554","286.6222668932809",18/12/21 22:52:22
"1","89","305.1584765910554","286.6222668932809",18/12/21 22:52:22
"1","89","305.16383220339804","286.56177940422253",18/12/21 22:52:22
"1","89","304.9724369714468","286.79738494426033",18/12/21 22:52:22
"1","89","305.98970533926547","287.11835330837124",18/12/21 22:52:22
"1","89","305.98970533926547","287.11835330837124",18/12/21 22:52:22
"1","89","305.35076021059507","286.807583034865",18/12/21 22:52:22
"1","89","305.51009598635096","287.733003079398",18/12/21 22:52:22
"1","89","305.51009598635096","287.733003079398",18/12/21 22:52:22
"1","89","307.35141065269426","288.6301485432425",18/12/21 22:52:22
"1","89","307.35141065269426","288.6301485432425",18/12/21 22:52:22
"1","89","307.70074086474995","287.90854841011486",18/12/21 22:52:22
"1","89","306.7741876985376","287.067516204894",18/12/21 22:52:22
"1","89","306.7741876985376","287.067516204894",18/12/21 22:52:22
"1","89","308.19371499590653","286.3340210360728",18/12/21 22:52:22
"1","89","305.84747194879554","286.34852400414377",18/12/21 22:52:22
"1","89","305.84747194879554","286.34852400414377",18/12/21 22:52:22
"1","89","308.58600719813455","287.10894063881574",18/12/21 22:52:22
"1","89","308.58600719813455","287.10894063881574",18/12/21 22:52:22
"1","89","309.1937083786789","288.1354342671809",18/12/21 22:52:22
"1","89","309.1937083786789","288.1354342671809",18/12/21 22:52:22
"1","89","306.62462736620773","288.648249910731",18/12/21 22:52:23
"1","89","306.62462736620773","288.648249910731",18/12/21 22:52:23
"1","89","307.4736356918018","288.441799793556",18/12/21 22:52:23
"1","89","309.03792183291284","288.46870393155",18/12/21 22:52:23
"1","89","309.03792183291284","288.46870393155",18/12/21 22:52:23
"1","89","311.13932205703054","286.9777648255833",18/12/21 22:52:23
"1","89","311.13932205703054","286.9777648255833",18/12/21 22:52:23
"1","89","313.1109996653336","287.3950554115711",18/12/21 22:52:23
"1","89","313.1109996653336","287.3950554115711",18/12/21 22:52:23
"1","89","313.6849602613717","286.64290187676426",18/12/21 22:52:23
"1","89","313.6849602613717","286.64290187676426",18/12/21 22:52:23
"1","89","315.3675673572443","286.6875647515629",18/12/21 22:52:23
"1","89","313.6567255433535","288.5360027433863",18/12/21 22:52:23
"1","89","313.6567255433535","288.5360027433863",18/12/21 22:52:23
"1","89","313.0832680872368","286.0830725311918",18/12/21 22:52:23
"1","89","311.983584650894","286.44393194792735",18/12/21 22:52:23
"1","89","311.983584650894","286.44393194792735",18/12/21 22:52:23
"1","89","311.2412334948437","287.899102611992",18/12/21 22:52:23
"1","89","311.2412334948437","287.899102611992",18/12/21 22:52:23
"1","89","311.07860539574006","287.2835881577285",18/12/21 22:52:23
"1","89","311.07860539574006","287.2835881577285",18/12/21 22:52:23
"1","89","309.51436540990716","287.0165853187929",18/12/21 22:52:23
"1","89","309.51436540990716","287.0165853187929",18/12/21 22:52:23
"1","89","309.56980654117336","288.0313212739282",18/12/21 22:52:23
"1","89","309.5801172047697","288.0487923489739",18/12/21 22:52:23
"1","89","311.27001408724726","287.9217910586659",18/12/21 22:52:23
"1","89","311.27001408724726","287.9217910586659",18/12/21 22:52:23
"1","89","312.22537268925487","286.13198219211876",18/12/21 22:52:23
"1","89","311.4281734992871","286.3045976099266",18/12/21 22:52:23
"1","89","311.4281734992871","286.3045976099266",18/12/21 22:52:23
"1","89","312.6979777220976","285.6265709450761",18/12/21 22:52:23
"1","89","312.6979777220976","285.6265709450761",18/12/21 22:52:23
"1","89","313.2627583062612","286.365034526638",18/12/21 22:52:23
"1","89","313.45099771224085","286.3874289224501",18/12/21 22:52:23
"1","89","313.45099771224085","286.3874289224501",18/12/21 22:52:23
"1","89","313.76061566052863","285.8507079943834",18/12/21 22:52:23
"1","89","313.76061566052863","285.8507079943834",18/12/21 22:52:23
"1","89","316.1990265210449","287.76258591629215",18/12/21 22:52:23
"1","89","316.1990265210449","287.76258591629215",18/12/21 22:52:23
"1","89","316.06215851543664","286.6294561427532",18/12/21 22:52:23
"1","89","316.06215851543664","286.6294561427532",18/12/21 22:52:23
"1","89","316.53174951765016","286.90579026637096",18/12/21 22:52:23
"1","89","316.570238213229","286.5348671235757",18/12/21 22:52:23
"1","89","316.570238213229","286.5348671235757",18/12/21 22:52:23
"1","89","316.8174693226343","286.24520473428026",18/12/21 22:52:23
"1","89","316.0133238807717","285.51326490822487",18/12/21 22:52:23
"1","89","316.0133238807717","285.51326490822487",18/12/21 22:52:23
"1","89","315.57069116340637","286.87661858117406",18/12/21 22:52:23
"1","89","315.57069116340637","286.87661858117406",18/12/21 22:52:23
"1","89","315.292178224133","287.22151856914513",18/12/21 22:52:23
"1","89","315.98098031071487","285.8764575769103",18/12/21 22:52:24
"1","89","315.98098031071487","285.8764575769103",18/12/21 22:52:24
"1","89","315.60518044490914","285.8080694946024",18/12/21 22:52:24
"1","89","315.60518044490914","285.8080694946024",18/12/21 22:52:24
"1","89","315.34421575529245","285.650095143214",18/12/21 22:52:24
"1","89","315.34421575529245","285.650095143214",18/12/21 22:52:24
"1","89","316.86014512050065","287.29882740274417",18/12/21 22:52:24
"1","89","316.86014512050065","287.29882740274417",18/12/21 22:52:24
"1","88","320.5498341623226","287.5295687279606",18/12/21 22:52:24
"1","88","320.5498341623226","287.5295687279606",18/12/21 22:52:24
"1","88","324.7475899320842","287.72514094341847",18/12/21 22:52:24
"1","88","326.72041363687515","287.81705422370817",18/12/21 22:52:24
"1","88","329.1243446300877","287.9290526666707",18/12/21 22:52:24
"1","88","329.1243446300877","287.9290526666707",18/12/21 22:52:24
"1","26","332.96677045221816","287.8950625386709",18/12/21 22:52:24
"1","26","332.96677045221816","287.8950625386709",18/12/21 22:52:24
"1","26","334.64454800380577","287.5937535696155",18/12/21 22:52:24
"1","26","338.2599463876054","286.9444708570673",18/12/21 22:52:24
"1","26","338.2599463876054","286.9444708570673",18/12/21 22:52:24
"1","26","342.1840704100164","286.8669024188078",18/12/21 22:52:24
"1","26","342.1840704100164","286.8669024188078",18/12/21 22:52:24
"1","26","345.29454132270587","288.5358575882103",18/12/21 22:52:24
"1","26","345.29454132270587","288.5358575882103",18/12/21 22:52:24
"1","73","344.53390134314293","291.4234453012631",18/12/21 22:52:24
"1","73","344.53390134314293","291.4234453012631",18/12/21 22:52:24
"1","73","343.6675830785536","293.12973557822454",18/12/21 22:52:24
"1","73","342.70505996646574","295.02550979266385",18/12/21 22:52:24
"1","73","342.702548526004","295.7680107398985",18/12/21 22:52:24
"1","73","342.702548526004","295.7680107398985",18/12/21 22:52:24
"1","73","343.578713662175","295.4770621502846",18/12/21 22:52:24
"1","73","345.7372689118668","294.1791063342963",18/12/21 22:52:24
"1","73","345.7372689118668","294.1791063342963",18/12/21 22:52:24
"1","73","345.68826274725984","293.6128932790147",18/12/21 22:52:24
"1","73","345.30212121796194","292.05560225349467",18/12/21 22:52:24
"1","73","345.30212121796194","292.05560225349467",18/12/21 22:52:24
"1","73","347.12264643271214","292.69732235141504",18/12/21 22:52:24
"1","73","347.12264643271214","292.69732235141504",18/12/21 22:52:24
"1","73","345.3243465277951","290.5910395269172",18/12/21 22:52:24
"1","73","345.3243465277951","290.5910395269172",18/12/21 22:52:24
"1","73","343.5975629018793","291.08099178367576",18/12/21 22:52:24
"1","73","343.5975629018793","291.08099178367576",18/12/21 22:52:24
"1","73","342.3166031176942","290.3036033815135",18/12/21 22:52:24
"1","73","342.3166031176942","290.3036033815135",18/12/21 22:52:24
"1","73","342.0793508276111","290.5414489157264",18/12/21 22:52:24
"1","73","342.0793508276111","290.5414489157264",18/12/21 22:52:24
"1","73","343.27394756357506","291.21928623328273",18/12/21 22:52:24
"1","73","343.2576421078142","291.4572476861376",18/12/21 22:52:24
"1","73","343.2576421078142","291.4572476861376",18/12/21 22:52:24
"1","73","341.8439219971434","290.5419166014018",18/12/21 22:52:24
"1","73","341.8439219971434","290.5419166014018",18/12/21 22:52:25
"1","73","341.9867324756435","291.0823781403901",18/12/21 22:52:25
"1","73","344.61730007258643","289.289416271172",18/12/21 22:52:25
"1","73","344.61730007258643","289.289416271172",18/12/21 22:52:25
"1","73","342.4329169758667","290.27749965899335",18/12/21 22:52:25
"1","73","342.4329169758667","290.27749965899335",18/12/21 22:52:25
"1","73","344.67138130612585","289.3385647702918",18/12/21 22:52:25
"1","73","344.67138130612585","289.3385647702918",18/12/21 22:52:25
"1","73","344.4812615556341","289.21188205491467",18/12/21 22:52:25
"1","73","344.4812615556341","289.21188205491467",18/12/21 22:52:25
"1","73","345.0869522814151","289.351650329068",18/12/21 22:52:25
"1","73","346.24718540630647","289.9426881401485",18/12/21 22:52:25
"1","73","346.24718540630647","289.9426881401485",18/12/21 22:52:25
"1","73","344.90269711777205","289.6472332475765",18/12/21 22:52:25
"1","73","343.1511038259847","289.5463949645193",18/12/21 22:52:25
"1","73","343.1511038259847","289.5463949645193",18/12/21 22:52:25
"1","73","343.1440945772318","290.9852592318933",18/12/21 22:52:25
"1","73","343.1440945772318","290.9852592318933",18/12/21 22:52:25
"1","73","343.1560724364024","290.94803383848995",18/12/21 22:52:25
"1","73","343.69699852908906","290.33785652421636",18/12/21 22:52:25
"1","73","343.69699852908906","290.33785652421636",18/12/21 22:52:25
"1","73","345.8805178970803","289.7351223020519",18/12/21 22:52:25
"1","73","345.8805178970803","289.7351223020519",18/12/21 22:52:25
"1","73","348.56816147055235","290.4171417098156",18/12/21 22:52:25
"1","73","348.56816147055235","290.4171417098156",18/12/21 22:52:25
"1","73","349.5509018764412","289.491862329124",18/12/21 22:52:25
"1","73","349.5509018764412","289.491862329124",18/12/21 22:52:25
"1","73","349.9223525230224","290.70258444102836",18/12/21 22:52:25
"1","73","349.9223525230224","290.70258444102836",18/12/21 22:52:25
"1","73","348.49567530988327","293.07998618510635",18/12/21 22:52:25
"1","73","348.49567530988327","293.07998618510635",18/12/21 22:52:25
"1","73","348.3841955743352","293.18594135890015",18/12/21 22:52:25
"1","73","348.19566986529276","293.02323237948315",18/12/21 22:52:25
"1","73","348.19566986529276","293.02323237948315",18/12/21 22:52:25
"1","73","347.25181678311213","290.9874787706935",18/12/21 22:52:25
"1","73","347.25181678311213","290.9874787706935",18/12/21 22:52:25
"1","26","345.2966488311532","288.69738333439807",18/12/21 22:52:25
"1","26","345.2966488311532","288.69738333439807",18/12/21 22:52:25
"1","26","342.20572502597287","288.25802680163105",18/12/21 22:52:25
"1","26","342.20572502597287","288.25802680163105",18/12/21 22:52:25
"1","88","340.5367285035103","288.01710058737416",18/12/21 22:52:25
"1","88","337.48037274264755","287.56804846991065",18/12/21 22:52:25
"1","88","337.48037274264755","287.56804846991065",18/12/21 22:52:25
"1","88","333.7761802044408","287.0238135598017",18/12/21 22:52:25
"1","88","333.7761802044408","287.0238135598017",18/12/21 22:52:25
"1","88","330.07594056630984","286.60879972101964",18/12/21 22:52:25
"1","88","330.07594056630984","286.60879972101964",18/12/21 22:52:25
"1","88","325.9510355321598","286.27500078757663",18/12/21 22:52:25
"1","88","325.9510355321598","286.27500078757663",18/12/21 22:52:25
"1","88","322.2497703145089","285.9754839812955",18/12/21 22:52:25
"1","88","322.2497703145089","285.9754839812955",18/12/21 22:52:26
"1","88","318.0545418435852","285.635994277278",18/12/21 22:52:26
"1","88","318.0545418435852","285.635994277278",18/12/21 22:52:26
"1","89","316.82089194804576","285.62006443087546",18/12/21 22:52:26
"1","89","313.80178291833226","288.0205497942181",18/12/21 22:52:26
"1","89","313.80178291833226","288.0205497942181",18/12/21 22:52:26
"1","24","314.49233761953184","289.3197384242054",18/12/21 22:52:26
"1","24","316.29148667792475","289.83066547213986",18/12/21 22:52:26
"1","24","316.29148667792475","289.83066547213986",18/12/21 22:52:26
"1","24","319.4418337733704","290.72530926718076",18/12/21 22:52:26
"1","24","319.5659643170107","290.1452333944512",18/12/21 22:52:26
"1","24","319.41715504700943","290.40376956313116",18/12/21 22:52:26
"1","24","319.41715504700943","290.40376956313116",18/12/21 22:52:26
