"deviceId","device_location_x","device_location_y","rssi_measurement","timeStamp"
"13","349.84618223700994","289.9553514529072","-70","18/12/22 05:18:45"
"2","348.1408537960116","288.23423753763217","-68","18/12/22 05:18:45"
"14","345.06356460251754","295.7312560393657","-70","18/12/22 05:18:45"
"11","336.39717841253946","295.7489270258509","-68","18/12/22 05:18:45"
"10","336.1413674074077","294.350304541636","-67","18/12/22 05:18:45"
"17","331.40559805419605","289.40175250536043","-63","18/12/22 05:18:45"
"18","324.81243171034225","289.354156618153","-66","18/12/22 05:18:45"
"30","343.2390283415482","283.9143916081976","-60","18/12/22 05:18:45"
"20","353.1408270178149","283.88103993037146","-69","18/12/22 05:18:45"
"19","325.7000180868877","282.5235956632788","-63","18/12/22 05:18:45"
"7","347.34235793783415","282.4034513151052","-65","18/12/22 05:18:45"
"27","338.70002381514996","281.9021306251078","-48","18/12/22 05:18:45"
"12","331.1499097808954","280.7809197256316","-53","18/12/22 05:18:45"
"28","334.0276721317696","280.0508786977858","-40","18/12/22 05:18:45"
"9","317.81020784540914","283.4965351413325","-71","18/12/22 05:18:45"
"25","317.45601601651964","286.1915953109285","-70","18/12/22 05:18:45"
"63","348.9090656791867","293.4633933563527","-72","18/12/22 05:18:45"
"68","345.9130358690055","287.5744926001626","-64","18/12/22 05:18:45"
"47","345.54328146067445","291.78917578457714","-69","18/12/22 05:18:45"
"67","343.8744147351082","288.46122672890743","-66","18/12/22 05:18:45"
"62","340.68633651580996","292.8798191329979","-69","18/12/22 05:18:45"
"61","336.15334237994176","289.2595097924601","-62","18/12/22 05:18:45"
"50","326.05052457251645","289.8389949933502","-66","18/12/22 05:18:45"
"51","325.52865148932665","289.89678566866576","-69","18/12/22 05:18:45"
"52","328.11586125507387","287.4313232778648","-64","18/12/22 05:18:45"
"39","331.19921154844013","282.4506584181093","-58","18/12/22 05:18:45"
"65","349.2157371192029","280.0291401669304","-67","18/12/22 05:18:45"
"55","345.6957066049769","279.09346474203716","-64","18/12/22 05:18:45"
"43","339.4086620459871","278.40122209988823","-55","18/12/22 05:18:45"
"42","339.4489517057548","274.9546618193048","-58","18/12/22 05:18:45"
"49","324.64434483360077","281.05069406440714","-64","18/12/22 05:18:45"
"66","317.8060599171815","282.28143962675205","-69","18/12/22 05:18:45"
"33","337.13286555782474","298.30864156579344","-68","18/12/22 05:18:45"
"34","331.96168718049495","298.1027481685605","-70","18/12/22 05:18:45"
"36","327.6657912280927","277.118307127184","-61","18/12/22 05:18:45"
"35","323.11876582852955","276.2274175573831","-65","18/12/22 05:18:45"

"22","318.3514581116194","295.33489556531345","-66","18/12/22 05:18:46"
"9","317.81020784540914","283.4965351413325","-71","18/12/22 05:18:46"
"25","317.45601601651964","286.1915953109285","-68","18/12/22 05:18:46"
"26","316.20150849664645","287.0419759839082","-67","18/12/22 05:18:46"
"29","314.92666418039613","281.8453284658967","-71","18/12/22 05:18:46"
"21","312.2097455219935","292.162060808992","-63","18/12/22 05:18:46"
"1","310.1259265928915","278.70449073794146","-71","18/12/22 05:18:46"
"31","307.5511614276879","295.00996894715564","-53","18/12/22 05:18:46"
"32","305.54424783000223","291.67259952111056","-51","18/12/22 05:18:46"
"24","304.15189129651577","278.15759935971454","-68","18/12/22 05:18:46"
"60","317.86438613309105","294.4508642114292","-70","18/12/22 05:18:46"
"59","316.07977491215206","289.20438220825775","-68","18/12/22 05:18:46"
"46","308.37496642449753","296.30964640293945","-56","18/12/22 05:18:46"
"54","307.49986821346045","279.97911141866837","-69","18/12/22 05:18:46"
"53","307.1346847375608","288.3856999339956","-62","18/12/22 05:18:46"
"45","306.16774359449516","295.83825924018686","-54","18/12/22 05:18:46"
"44","303.28748062121537","278.0684013127651","-69","18/12/22 05:18:46"

"22","318.3514581116194","295.33489556531345","-67","18/12/22 05:18:47"
"9","317.81020784540914","283.4965351413325","-65","18/12/22 05:18:47"
"25","317.45601601651964","286.1915953109285","-64","18/12/22 05:18:47"
"26","316.20150849664645","287.0419759839082","-62","18/12/22 05:18:47"
"29","314.92666418039613","281.8453284658967","-62","18/12/22 05:18:47"
"21","312.2097455219935","292.162060808992","-60","18/12/22 05:18:47"
"1","310.1259265928915","278.70449073794146","-59","18/12/22 05:18:47"
"31","307.5511614276879","295.00996894715564","-60","18/12/22 05:18:47"
"32","305.54424783000223","291.67259952111056","-58","18/12/22 05:18:47"
"24","304.15189129651577","278.15759935971454","-57","18/12/22 05:18:47"
"60","317.86438613309105","294.4508642114292","-68","18/12/22 05:18:47"
"66","317.8060599171815","282.28143962675205","-67","18/12/22 05:18:47"
"59","316.07977491215206","289.20438220825775","-63","18/12/22 05:18:47"
"58","314.78004847075755","280.2954753208754","-65","18/12/22 05:18:47"
"46","308.37496642449753","296.30964640293945","-64","18/12/22 05:18:47"
"54","307.49986821346045","279.97911141866837","-56","18/12/22 05:18:47"
"53","307.1346847375608","288.3856999339956","-56","18/12/22 05:18:47"
"45","306.16774359449516","295.83825924018686","-64","18/12/22 05:18:47"
"44","303.28748062121537","278.0684013127651","-59","18/12/22 05:18:47"

"22","318.3514581116194","295.33489556531345","-67","18/12/22 05:18:48"
"9","317.81020784540914","283.4965351413325","-64","18/12/22 05:18:48"
"25","317.45601601651964","286.1915953109285","-64","18/12/22 05:18:48"
"26","316.20150849664645","287.0419759839082","-63","18/12/22 05:18:48"
"29","314.92666418039613","281.8453284658967","-63","18/12/22 05:18:48"
"21","312.2097455219935","292.162060808992","-63","18/12/22 05:18:48"
"1","310.1259265928915","278.70449073794146","-58","18/12/22 05:18:48"
"31","307.5511614276879","295.00996894715564","-64","18/12/22 05:18:48"
"32","305.54424783000223","291.67259952111056","-59","18/12/22 05:18:48"
"24","304.15189129651577","278.15759935971454","-55","18/12/22 05:18:48"
"60","317.86438613309105","294.4508642114292","-68","18/12/22 05:18:48"
"66","317.8060599171815","282.28143962675205","-68","18/12/22 05:18:48"
"59","316.07977491215206","289.20438220825775","-68","18/12/22 05:18:48"
"58","314.78004847075755","280.2954753208754","-65","18/12/22 05:18:48"
"46","308.37496642449753","296.30964640293945","-66","18/12/22 05:18:48"
"54","307.49986821346045","279.97911141866837","-56","18/12/22 05:18:48"
"53","307.1346847375608","288.3856999339956","-59","18/12/22 05:18:48"
"45","306.16774359449516","295.83825924018686","-66","18/12/22 05:18:48"
"44","303.28748062121537","278.0684013127651","-57","18/12/22 05:18:48"

"9","317.81020784540914","283.4965351413325","-69","18/12/22 05:18:49"
"25","317.45601601651964","286.1915953109285","-69","18/12/22 05:18:49"
"26","316.20150849664645","287.0419759839082","-67","18/12/22 05:18:49"
"29","314.92666418039613","281.8453284658967","-67","18/12/22 05:18:49"
"21","312.2097455219935","292.162060808992","-71","18/12/22 05:18:49"
"1","310.1259265928915","278.70449073794146","-58","18/12/22 05:18:49"
"31","307.5511614276879","295.00996894715564","-70","18/12/22 05:18:49"
"32","305.54424783000223","291.67259952111056","-67","18/12/22 05:18:49"
"24","304.15189129651577","278.15759935971454","-36","18/12/22 05:18:49"
"66","317.8060599171815","282.28143962675205","-66","18/12/22 05:18:49"
"59","316.07977491215206","289.20438220825775","-70","18/12/22 05:18:49"
"58","314.78004847075755","280.2954753208754","-65","18/12/22 05:18:49"
"46","308.37496642449753","296.30964640293945","-70","18/12/22 05:18:49"
"54","307.49986821346045","279.97911141866837","-56","18/12/22 05:18:49"
"53","307.1346847375608","288.3856999339956","-65","18/12/22 05:18:49"
"45","306.16774359449516","295.83825924018686","-70","18/12/22 05:18:49"
"44","303.28748062121537","278.0684013127651","-51","18/12/22 05:18:49"

"18","324.81243171034225","289.354156618153","-71","18/12/22 05:18:50"
"19","325.7000180868877","282.5235956632788","-69","18/12/22 05:18:50"
"22","318.3514581116194","295.33489556531345","-67","18/12/22 05:18:50"
"9","317.81020784540914","283.4965351413325","-61","18/12/22 05:18:50"
"25","317.45601601651964","286.1915953109285","-62","18/12/22 05:18:50"
"26","316.20150849664645","287.0419759839082","-62","18/12/22 05:18:50"
"29","314.92666418039613","281.8453284658967","-58","18/12/22 05:18:50"
"21","312.2097455219935","292.162060808992","-61","18/12/22 05:18:50"
"1","310.1259265928915","278.70449073794146","-58","18/12/22 05:18:50"
"31","307.5511614276879","295.00996894715564","-61","18/12/22 05:18:50"
"32","305.54424783000223","291.67259952111056","-57","18/12/22 05:18:50"
"24","304.15189129651577","278.15759935971454","-57","18/12/22 05:18:50"
"50","326.05052457251645","289.8389949933502","-72","18/12/22 05:18:50"
"51","325.52865148932665","289.89678566866576","-69","18/12/22 05:18:50"
"49","324.64434483360077","281.05069406440714","-68","18/12/22 05:18:50"
"60","317.86438613309105","294.4508642114292","-69","18/12/22 05:18:50"
"66","317.8060599171815","282.28143962675205","-64","18/12/22 05:18:50"
"59","316.07977491215206","289.20438220825775","-64","18/12/22 05:18:50"
"58","314.78004847075755","280.2954753208754","-61","18/12/22 05:18:50"
"46","308.37496642449753","296.30964640293945","-65","18/12/22 05:18:50"
"54","307.49986821346045","279.97911141866837","-57","18/12/22 05:18:50"
"53","307.1346847375608","288.3856999339956","-53","18/12/22 05:18:50"
"45","306.16774359449516","295.83825924018686","-62","18/12/22 05:18:50"
"44","303.28748062121537","278.0684013127651","-61","18/12/22 05:18:50"
"35","323.11876582852955","276.2274175573831","-68","18/12/22 05:18:50"

"16","371.1633676750538","291.6212652717856","-58","18/12/22 05:18:51"
"3","368.84524138719394","286.9218203312288","-48","18/12/22 05:18:51"
"15","362.1266840327696","289.9247238319014","-60","18/12/22 05:18:51"
"4","355.9439714101496","290.7893792995019","-69","18/12/22 05:18:51"
"5","353.9810038021357","295.04781575205163","-69","18/12/22 05:18:51"
"20","353.1408270178149","283.88103993037146","-68","18/12/22 05:18:51"
"23","364.558254913552","281.82669756865414","-55","18/12/22 05:18:51"
"6","359.99106657746074","280.301587980369","-61","18/12/22 05:18:51"
"8","367.3354491878782","280.1064609905054","-52","18/12/22 05:18:51"
"57","366.67753801548474","292.99761442456526","-65","18/12/22 05:18:51"
"56","360.1871028913134","296.3227006742018","-70","18/12/22 05:18:51"
"40","368.331419463979","284.8557533661749","-55","18/12/22 05:18:51"
"69","355.7492879512798","282.11642190100935","-69","18/12/22 05:18:51"
"41","365.0886093120437","281.0774638084534","-56","18/12/22 05:18:51"
"48","357.8876200229331","278.9139540789042","-65","18/12/22 05:18:51"
"37","372.18696634735744","295.33877117864097","-63","18/12/22 05:18:51"
"38","359.1043053396113","297.99836785278586","-70","18/12/22 05:18:51"

"16","371.1633676750538","291.6212652717856","-61","18/12/22 05:18:52"
"3","368.84524138719394","286.9218203312288","-49","18/12/22 05:18:52"
"15","362.1266840327696","289.9247238319014","-59","18/12/22 05:18:52"
"4","355.9439714101496","290.7893792995019","-65","18/12/22 05:18:52"
"5","353.9810038021357","295.04781575205163","-70","18/12/22 05:18:52"
"13","349.84618223700994","289.9553514529072","-71","18/12/22 05:18:52"
"20","353.1408270178149","283.88103993037146","-68","18/12/22 05:18:52"
"23","364.558254913552","281.82669756865414","-51","18/12/22 05:18:52"
"6","359.99106657746074","280.301587980369","-60","18/12/22 05:18:52"
"8","367.3354491878782","280.1064609905054","-50","18/12/22 05:18:52"
"57","366.67753801548474","292.99761442456526","-61","18/12/22 05:18:52"
"56","360.1871028913134","296.3227006742018","-66","18/12/22 05:18:52"
"64","352.3109033702752","291.5434444456011","-70","18/12/22 05:18:52"
"40","368.331419463979","284.8557533661749","-52","18/12/22 05:18:52"
"69","355.7492879512798","282.11642190100935","-64","18/12/22 05:18:52"
"41","365.0886093120437","281.0774638084534","-55","18/12/22 05:18:52"
"65","349.2157371192029","280.0291401669304","-69","18/12/22 05:18:52"
"48","357.8876200229331","278.9139540789042","-66","18/12/22 05:18:52"
"37","372.18696634735744","295.33877117864097","-66","18/12/22 05:18:52"
"38","359.1043053396113","297.99836785278586","-68","18/12/22 05:18:52"

"16","371.1633676750538","291.6212652717856","-64","18/12/22 05:18:53"
"3","368.84524138719394","286.9218203312288","-56","18/12/22 05:18:53"
"15","362.1266840327696","289.9247238319014","-63","18/12/22 05:18:53"
"4","355.9439714101496","290.7893792995019","-69","18/12/22 05:18:53"
"20","353.1408270178149","283.88103993037146","-67","18/12/22 05:18:53"
"23","364.558254913552","281.82669756865414","-48","18/12/22 05:18:53"
"6","359.99106657746074","280.301587980369","-59","18/12/22 05:18:53"
"8","367.3354491878782","280.1064609905054","-22","18/12/22 05:18:53"
"57","366.67753801548474","292.99761442456526","-65","18/12/22 05:18:53"
"56","360.1871028913134","296.3227006742018","-70","18/12/22 05:18:53"
"64","352.3109033702752","291.5434444456011","-69","18/12/22 05:18:53"
"40","368.331419463979","284.8557533661749","-57","18/12/22 05:18:53"
"69","355.7492879512798","282.11642190100935","-66","18/12/22 05:18:53"
"41","365.0886093120437","281.0774638084534","-54","18/12/22 05:18:53"
"65","349.2157371192029","280.0291401669304","-71","18/12/22 05:18:53"
"48","357.8876200229331","278.9139540789042","-62","18/12/22 05:18:53"
"37","372.18696634735744","295.33877117864097","-66","18/12/22 05:18:53"

"4","355.9439714101496","290.7893792995019","-68","18/12/22 05:18:54"
"5","353.9810038021357","295.04781575205163","-70","18/12/22 05:18:54"
"13","349.84618223700994","289.9553514529072","-63","18/12/22 05:18:54"
"2","348.1408537960116","288.23423753763217","-62","18/12/22 05:18:54"
"14","345.06356460251754","295.7312560393657","-62","18/12/22 05:18:54"
"11","336.39717841253946","295.7489270258509","-59","18/12/22 05:18:54"
"10","336.1413674074077","294.350304541636","-59","18/12/22 05:18:54"
"17","331.40559805419605","289.40175250536043","-57","18/12/22 05:18:54"
"18","324.81243171034225","289.354156618153","-66","18/12/22 05:18:54"
"30","343.2390283415482","283.9143916081976","-56","18/12/22 05:18:54"
"20","353.1408270178149","283.88103993037146","-69","18/12/22 05:18:54"
"19","325.7000180868877","282.5235956632788","-64","18/12/22 05:18:54"
"7","347.34235793783415","282.4034513151052","-62","18/12/22 05:18:54"
"27","338.70002381514996","281.9021306251078","-51","18/12/22 05:18:54"
"12","331.1499097808954","280.7809197256316","-59","18/12/22 05:18:54"
"28","334.0276721317696","280.0508786977858","-60","18/12/22 05:18:54"
"64","352.3109033702752","291.5434444456011","-66","18/12/22 05:18:54"
"63","348.9090656791867","293.4633933563527","-67","18/12/22 05:18:54"
"68","345.9130358690055","287.5744926001626","-59","18/12/22 05:18:54"
"47","345.54328146067445","291.78917578457714","-62","18/12/22 05:18:54"
"67","343.8744147351082","288.46122672890743","-58","18/12/22 05:18:54"
"62","340.68633651580996","292.8798191329979","-59","18/12/22 05:18:54"
"61","336.15334237994176","289.2595097924601","-55","18/12/22 05:18:54"
"50","326.05052457251645","289.8389949933502","-65","18/12/22 05:18:54"
"51","325.52865148932665","289.89678566866576","-67","18/12/22 05:18:54"
"52","328.11586125507387","287.4313232778648","-64","18/12/22 05:18:54"
"39","331.19921154844013","282.4506584181093","-62","18/12/22 05:18:54"
"69","355.7492879512798","282.11642190100935","-69","18/12/22 05:18:54"
"65","349.2157371192029","280.0291401669304","-67","18/12/22 05:18:54"
"55","345.6957066049769","279.09346474203716","-62","18/12/22 05:18:54"
"43","339.4086620459871","278.40122209988823","-63","18/12/22 05:18:54"
"42","339.4489517057548","274.9546618193048","-67","18/12/22 05:18:54"
"49","324.64434483360077","281.05069406440714","-69","18/12/22 05:18:54"
"33","337.13286555782474","298.30864156579344","-63","18/12/22 05:18:54"
"34","331.96168718049495","298.1027481685605","-66","18/12/22 05:18:54"
"36","327.6657912280927","277.118307127184","-69","18/12/22 05:18:54"
"35","323.11876582852955","276.2274175573831","-68","18/12/22 05:18:54"

"17","331.40559805419605","289.40175250536043","-68","18/12/22 05:18:55"
"18","324.81243171034225","289.354156618153","-64","18/12/22 05:18:55"
"19","325.7000180868877","282.5235956632788","-57","18/12/22 05:18:55"
"27","338.70002381514996","281.9021306251078","-69","18/12/22 05:18:55"
"12","331.1499097808954","280.7809197256316","-66","18/12/22 05:18:55"
"28","334.0276721317696","280.0508786977858","-65","18/12/22 05:18:55"
"22","318.3514581116194","295.33489556531345","-68","18/12/22 05:18:55"
"9","317.81020784540914","283.4965351413325","-46","18/12/22 05:18:55"
"25","317.45601601651964","286.1915953109285","-53","18/12/22 05:18:55"
"26","316.20150849664645","287.0419759839082","-56","18/12/22 05:18:55"
"29","314.92666418039613","281.8453284658967","-48","18/12/22 05:18:55"
"21","312.2097455219935","292.162060808992","-65","18/12/22 05:18:55"
"1","310.1259265928915","278.70449073794146","-59","18/12/22 05:18:55"
"31","307.5511614276879","295.00996894715564","-67","18/12/22 05:18:55"
"32","305.54424783000223","291.67259952111056","-68","18/12/22 05:18:55"
"24","304.15189129651577","278.15759935971454","-66","18/12/22 05:18:55"
"61","336.15334237994176","289.2595097924601","-69","18/12/22 05:18:55"
"50","326.05052457251645","289.8389949933502","-65","18/12/22 05:18:55"
"51","325.52865148932665","289.89678566866576","-65","18/12/22 05:18:55"
"52","328.11586125507387","287.4313232778648","-63","18/12/22 05:18:55"
"39","331.19921154844013","282.4506584181093","-67","18/12/22 05:18:55"
"49","324.64434483360077","281.05069406440714","-58","18/12/22 05:18:55"
"60","317.86438613309105","294.4508642114292","-67","18/12/22 05:18:55"
"66","317.8060599171815","282.28143962675205","-55","18/12/22 05:18:55"
"59","316.07977491215206","289.20438220825775","-62","18/12/22 05:18:55"
"58","314.78004847075755","280.2954753208754","-54","18/12/22 05:18:55"
"46","308.37496642449753","296.30964640293945","-72","18/12/22 05:18:55"
"54","307.49986821346045","279.97911141866837","-63","18/12/22 05:18:55"
"53","307.1346847375608","288.3856999339956","-67","18/12/22 05:18:55"
"44","303.28748062121537","278.0684013127651","-70","18/12/22 05:18:55"
"36","327.6657912280927","277.118307127184","-64","18/12/22 05:18:55"
"35","323.11876582852955","276.2274175573831","-57","18/12/22 05:18:55"

"17","331.40559805419605","289.40175250536043","-67","18/12/22 05:18:56"
"18","324.81243171034225","289.354156618153","-60","18/12/22 05:18:56"
"19","325.7000180868877","282.5235956632788","-57","18/12/22 05:18:56"
"27","338.70002381514996","281.9021306251078","-69","18/12/22 05:18:56"
"12","331.1499097808954","280.7809197256316","-66","18/12/22 05:18:56"
"28","334.0276721317696","280.0508786977858","-65","18/12/22 05:18:56"
"22","318.3514581116194","295.33489556531345","-65","18/12/22 05:18:56"
"9","317.81020784540914","283.4965351413325","-40","18/12/22 05:18:56"
"25","317.45601601651964","286.1915953109285","-51","18/12/22 05:18:56"
"26","316.20150849664645","287.0419759839082","-56","18/12/22 05:18:56"
"29","314.92666418039613","281.8453284658967","-48","18/12/22 05:18:56"
"21","312.2097455219935","292.162060808992","-65","18/12/22 05:18:56"
"1","310.1259265928915","278.70449073794146","-63","18/12/22 05:18:56"
"31","307.5511614276879","295.00996894715564","-69","18/12/22 05:18:56"
"32","305.54424783000223","291.67259952111056","-67","18/12/22 05:18:56"
"24","304.15189129651577","278.15759935971454","-68","18/12/22 05:18:56"
"61","336.15334237994176","289.2595097924601","-71","18/12/22 05:18:56"
"50","326.05052457251645","289.8389949933502","-64","18/12/22 05:18:56"
"51","325.52865148932665","289.89678566866576","-65","18/12/22 05:18:56"
"52","328.11586125507387","287.4313232778648","-62","18/12/22 05:18:56"
"39","331.19921154844013","282.4506584181093","-65","18/12/22 05:18:56"
"49","324.64434483360077","281.05069406440714","-60","18/12/22 05:18:56"
"60","317.86438613309105","294.4508642114292","-67","18/12/22 05:18:56"
"66","317.8060599171815","282.28143962675205","-54","18/12/22 05:18:56"
"59","316.07977491215206","289.20438220825775","-61","18/12/22 05:18:56"
"58","314.78004847075755","280.2954753208754","-55","18/12/22 05:18:56"
"46","308.37496642449753","296.30964640293945","-69","18/12/22 05:18:56"
"54","307.49986821346045","279.97911141866837","-63","18/12/22 05:18:56"
"53","307.1346847375608","288.3856999339956","-67","18/12/22 05:18:56"
"45","306.16774359449516","295.83825924018686","-71","18/12/22 05:18:56"
"44","303.28748062121537","278.0684013127651","-69","18/12/22 05:18:56"
"36","327.6657912280927","277.118307127184","-61","18/12/22 05:18:56"
"35","323.11876582852955","276.2274175573831","-59","18/12/22 05:18:56"

"10","336.1413674074077","294.350304541636","-70","18/12/22 05:18:57"
"17","331.40559805419605","289.40175250536043","-64","18/12/22 05:18:57"
"18","324.81243171034225","289.354156618153","-59","18/12/22 05:18:57"
"19","325.7000180868877","282.5235956632788","-50","18/12/22 05:18:57"
"27","338.70002381514996","281.9021306251078","-69","18/12/22 05:18:57"
"12","331.1499097808954","280.7809197256316","-61","18/12/22 05:18:57"
"28","334.0276721317696","280.0508786977858","-63","18/12/22 05:18:57"
"22","318.3514581116194","295.33489556531345","-63","18/12/22 05:18:57"
"9","317.81020784540914","283.4965351413325","-49","18/12/22 05:18:57"
"25","317.45601601651964","286.1915953109285","-55","18/12/22 05:18:57"
"26","316.20150849664645","287.0419759839082","-58","18/12/22 05:18:57"
"29","314.92666418039613","281.8453284658967","-56","18/12/22 05:18:57"
"21","312.2097455219935","292.162060808992","-64","18/12/22 05:18:57"
"1","310.1259265928915","278.70449073794146","-64","18/12/22 05:18:57"
"31","307.5511614276879","295.00996894715564","-71","18/12/22 05:18:57"
"32","305.54424783000223","291.67259952111056","-69","18/12/22 05:18:57"
"24","304.15189129651577","278.15759935971454","-67","18/12/22 05:18:57"
"61","336.15334237994176","289.2595097924601","-70","18/12/22 05:18:57"
"50","326.05052457251645","289.8389949933502","-63","18/12/22 05:18:57"
"51","325.52865148932665","289.89678566866576","-60","18/12/22 05:18:57"
"52","328.11586125507387","287.4313232778648","-62","18/12/22 05:18:57"
"39","331.19921154844013","282.4506584181093","-62","18/12/22 05:18:57"
"43","339.4086620459871","278.40122209988823","-69","18/12/22 05:18:57"
"49","324.64434483360077","281.05069406440714","-57","18/12/22 05:18:57"
"60","317.86438613309105","294.4508642114292","-64","18/12/22 05:18:57"
"66","317.8060599171815","282.28143962675205","-55","18/12/22 05:18:57"
"59","316.07977491215206","289.20438220825775","-61","18/12/22 05:18:57"
"58","314.78004847075755","280.2954753208754","-60","18/12/22 05:18:57"
"46","308.37496642449753","296.30964640293945","-69","18/12/22 05:18:57"
"54","307.49986821346045","279.97911141866837","-65","18/12/22 05:18:57"
"53","307.1346847375608","288.3856999339956","-69","18/12/22 05:18:57"
"44","303.28748062121537","278.0684013127651","-71","18/12/22 05:18:57"
"34","331.96168718049495","298.1027481685605","-72","18/12/22 05:18:57"
"36","327.6657912280927","277.118307127184","-60","18/12/22 05:18:57"
"35","323.11876582852955","276.2274175573831","-58","18/12/22 05:18:57"

"17","331.40559805419605","289.40175250536043","-68","18/12/22 05:18:58"
"18","324.81243171034225","289.354156618153","-65","18/12/22 05:18:58"
"19","325.7000180868877","282.5235956632788","-61","18/12/22 05:18:58"
"12","331.1499097808954","280.7809197256316","-67","18/12/22 05:18:58"
"28","334.0276721317696","280.0508786977858","-67","18/12/22 05:18:58"
"22","318.3514581116194","295.33489556531345","-70","18/12/22 05:18:58"
"9","317.81020784540914","283.4965351413325","-55","18/12/22 05:18:58"
"25","317.45601601651964","286.1915953109285","-61","18/12/22 05:18:58"
"26","316.20150849664645","287.0419759839082","-60","18/12/22 05:18:58"
"29","314.92666418039613","281.8453284658967","-53","18/12/22 05:18:58"
"21","312.2097455219935","292.162060808992","-65","18/12/22 05:18:58"
"1","310.1259265928915","278.70449073794146","-58","18/12/22 05:18:58"
"32","305.54424783000223","291.67259952111056","-70","18/12/22 05:18:58"
"24","304.15189129651577","278.15759935971454","-64","18/12/22 05:18:58"
"50","326.05052457251645","289.8389949933502","-68","18/12/22 05:18:58"
"51","325.52865148932665","289.89678566866576","-68","18/12/22 05:18:58"
"52","328.11586125507387","287.4313232778648","-66","18/12/22 05:18:58"
"39","331.19921154844013","282.4506584181093","-66","18/12/22 05:18:58"
"49","324.64434483360077","281.05069406440714","-60","18/12/22 05:18:58"
"60","317.86438613309105","294.4508642114292","-70","18/12/22 05:18:58"
"66","317.8060599171815","282.28143962675205","-58","18/12/22 05:18:58"
"59","316.07977491215206","289.20438220825775","-65","18/12/22 05:18:58"
"58","314.78004847075755","280.2954753208754","-55","18/12/22 05:18:58"
"54","307.49986821346045","279.97911141866837","-62","18/12/22 05:18:58"
"53","307.1346847375608","288.3856999339956","-69","18/12/22 05:18:58"
"44","303.28748062121537","278.0684013127651","-66","18/12/22 05:18:58"
"36","327.6657912280927","277.118307127184","-61","18/12/22 05:18:58"
"35","323.11876582852955","276.2274175573831","-59","18/12/22 05:18:58"

"11","336.39717841253946","295.7489270258509","-69","18/12/22 05:18:59"
"10","336.1413674074077","294.350304541636","-68","18/12/22 05:18:59"
"17","331.40559805419605","289.40175250536043","-62","18/12/22 05:18:59"
"18","324.81243171034225","289.354156618153","-55","18/12/22 05:18:59"
"19","325.7000180868877","282.5235956632788","-53","18/12/22 05:18:59"
"27","338.70002381514996","281.9021306251078","-71","18/12/22 05:18:59"
"12","331.1499097808954","280.7809197256316","-60","18/12/22 05:18:59"
"28","334.0276721317696","280.0508786977858","-63","18/12/22 05:18:59"
"22","318.3514581116194","295.33489556531345","-62","18/12/22 05:18:59"
"9","317.81020784540914","283.4965351413325","-49","18/12/22 05:18:59"
"25","317.45601601651964","286.1915953109285","-52","18/12/22 05:18:59"
"26","316.20150849664645","287.0419759839082","-53","18/12/22 05:18:59"
"29","314.92666418039613","281.8453284658967","-55","18/12/22 05:18:59"
"21","312.2097455219935","292.162060808992","-66","18/12/22 05:18:59"
"1","310.1259265928915","278.70449073794146","-65","18/12/22 05:18:59"
"31","307.5511614276879","295.00996894715564","-71","18/12/22 05:18:59"
"32","305.54424783000223","291.67259952111056","-67","18/12/22 05:18:59"
"24","304.15189129651577","278.15759935971454","-67","18/12/22 05:18:59"
"61","336.15334237994176","289.2595097924601","-69","18/12/22 05:18:59"
"50","326.05052457251645","289.8389949933502","-59","18/12/22 05:18:59"
"51","325.52865148932665","289.89678566866576","-59","18/12/22 05:18:59"
"52","328.11586125507387","287.4313232778648","-61","18/12/22 05:18:59"
"39","331.19921154844013","282.4506584181093","-65","18/12/22 05:18:59"
"43","339.4086620459871","278.40122209988823","-69","18/12/22 05:18:59"
"49","324.64434483360077","281.05069406440714","-57","18/12/22 05:18:59"
"60","317.86438613309105","294.4508642114292","-63","18/12/22 05:18:59"
"66","317.8060599171815","282.28143962675205","-56","18/12/22 05:18:59"
"59","316.07977491215206","289.20438220825775","-61","18/12/22 05:18:59"
"58","314.78004847075755","280.2954753208754","-61","18/12/22 05:18:59"
"46","308.37496642449753","296.30964640293945","-69","18/12/22 05:18:59"
"54","307.49986821346045","279.97911141866837","-67","18/12/22 05:18:59"
"53","307.1346847375608","288.3856999339956","-66","18/12/22 05:18:59"
"45","306.16774359449516","295.83825924018686","-72","18/12/22 05:18:59"
"44","303.28748062121537","278.0684013127651","-69","18/12/22 05:18:59"
"34","331.96168718049495","298.1027481685605","-68","18/12/22 05:18:59"
"36","327.6657912280927","277.118307127184","-63","18/12/22 05:18:59"
"35","323.11876582852955","276.2274175573831","-63","18/12/22 05:18:59"

