"deviceId","device_location_x","device_location_y","rssi_measurement","timeStamp"
"64","352.3109033702752","291.5434444456011","-64","18/12/22 05:13:23"
"63","348.9090656791867","293.4633933563527","-61","18/12/22 05:13:23"
"68","345.9130358690055","287.5744926001626","-50","18/12/22 05:13:23"
"47","345.54328146067445","291.78917578457714","-58","18/12/22 05:13:23"
"67","343.8744147351082","288.46122672890743","-49","18/12/22 05:13:23"
"62","340.68633651580996","292.8798191329979","-60","18/12/22 05:13:23"
"61","336.15334237994176","289.2595097924601","-58","18/12/22 05:13:23"
"50","326.05052457251645","289.8389949933502","-70","18/12/22 05:13:23"
"51","325.52865148932665","289.89678566866576","-70","18/12/22 05:13:23"
"52","328.11586125507387","287.4313232778648","-65","18/12/22 05:13:23"
"39","331.19921154844013","282.4506584181093","-65","18/12/22 05:13:23"
"69","355.7492879512798","282.11642190100935","-64","18/12/22 05:13:23"
"65","349.2157371192029","280.0291401669304","-58","18/12/22 05:13:23"
"55","345.6957066049769","279.09346474203716","-57","18/12/22 05:13:23"
"48","357.8876200229331","278.9139540789042","-66","18/12/22 05:13:23"
"43","339.4086620459871","278.40122209988823","-58","18/12/22 05:13:23"
"42","339.4489517057548","274.9546618193048","-63","18/12/22 05:13:23"
"49","324.64434483360077","281.05069406440714","-68","18/12/22 05:13:23"
"90","358.5242252108483","294.02381439809005","-71","18/12/22 05:13:23"
"91","349.8423133029049","289.2067475269076","-60","18/12/22 05:13:23"
"92","349.5639361596289","290.37958123247967","-63","18/12/22 05:13:23"
"93","342.87075650845605","288.3484002263486","-56","18/12/22 05:13:23"
"73","331.25696275517026","289.56239838092034","-66","18/12/22 05:13:23"
"86","324.9814381221208","290.91019646194206","-68","18/12/22 05:13:23"
"94","355.56880912890875","287.64288737368884","-68","18/12/22 05:13:23"
"83","332.9988042566773","282.65570452882474","-63","18/12/22 05:13:23"
"71","345.37105048256774","282.14295709168505","-55","18/12/22 05:13:23"
"74","350.1725854487765","282.1043855849684","-62","18/12/22 05:13:23"
"88","358.5574567856148","281.26447724068805","-67","18/12/22 05:13:23"
"96","352.9744094310227","278.2780519389197","-65","18/12/22 05:13:23"
"95","330.24371436267575","277.8830029035291","-67","18/12/22 05:13:23"
"82","335.7729742625847","275.88549353541487","-65","18/12/22 05:13:23"
"4","355.9439714101496","290.7893792995019","-67","18/12/22 05:13:23"
"5","353.9810038021357","295.04781575205163","-68","18/12/22 05:13:23"
"13","349.84618223700994","289.9553514529072","-61","18/12/22 05:13:23"
"2","348.1408537960116","288.23423753763217","-58","18/12/22 05:13:23"
"14","345.06356460251754","295.7312560393657","-64","18/12/22 05:13:23"
"11","336.39717841253946","295.7489270258509","-66","18/12/22 05:13:23"
"10","336.1413674074077","294.350304541636","-64","18/12/22 05:13:23"
"17","331.40559805419605","289.40175250536043","-63","18/12/22 05:13:23"
"18","324.81243171034225","289.354156618153","-70","18/12/22 05:13:23"
"30","343.2390283415482","283.9143916081976","-54","18/12/22 05:13:23"
"20","353.1408270178149","283.88103993037146","-65","18/12/22 05:13:23"
"19","325.7000180868877","282.5235956632788","-69","18/12/22 05:13:23"
"7","347.34235793783415","282.4034513151052","-59","18/12/22 05:13:23"
"27","338.70002381514996","281.9021306251078","-57","18/12/22 05:13:23"
"12","331.1499097808954","280.7809197256316","-65","18/12/22 05:13:23"
"6","359.99106657746074","280.301587980369","-71","18/12/22 05:13:23"
"28","334.0276721317696","280.0508786977858","-62","18/12/22 05:13:23"

"16","371.1633676750538","291.6212652717856","-61","18/12/22 05:13:24"
"3","368.84524138719394","286.9218203312288","-61","18/12/22 05:13:24"
"15","362.1266840327696","289.9247238319014","-44","18/12/22 05:13:24"
"4","355.9439714101496","290.7893792995019","-53","18/12/22 05:13:24"
"5","353.9810038021357","295.04781575205163","-57","18/12/22 05:13:24"
"13","349.84618223700994","289.9553514529072","-63","18/12/22 05:13:24"
"2","348.1408537960116","288.23423753763217","-64","18/12/22 05:13:24"
"14","345.06356460251754","295.7312560393657","-69","18/12/22 05:13:24"
"30","343.2390283415482","283.9143916081976","-68","18/12/22 05:13:24"
"20","353.1408270178149","283.88103993037146","-64","18/12/22 05:13:24"
"7","347.34235793783415","282.4034513151052","-66","18/12/22 05:13:24"
"23","364.558254913552","281.82669756865414","-63","18/12/22 05:13:24"
"6","359.99106657746074","280.301587980369","-62","18/12/22 05:13:24"
"8","367.3354491878782","280.1064609905054","-65","18/12/22 05:13:24"
"57","366.67753801548474","292.99761442456526","-61","18/12/22 05:13:24"
"56","360.1871028913134","296.3227006742018","-58","18/12/22 05:13:24"
"64","352.3109033702752","291.5434444456011","-62","18/12/22 05:13:24"
"63","348.9090656791867","293.4633933563527","-63","18/12/22 05:13:24"
"68","345.9130358690055","287.5744926001626","-68","18/12/22 05:13:24"
"47","345.54328146067445","291.78917578457714","-69","18/12/22 05:13:24"
"67","343.8744147351082","288.46122672890743","-67","18/12/22 05:13:24"
"40","368.331419463979","284.8557533661749","-64","18/12/22 05:13:24"
"69","355.7492879512798","282.11642190100935","-65","18/12/22 05:13:24"
"41","365.0886093120437","281.0774638084534","-64","18/12/22 05:13:24"
"65","349.2157371192029","280.0291401669304","-69","18/12/22 05:13:24"
"55","345.6957066049769","279.09346474203716","-72","18/12/22 05:13:24"
"48","357.8876200229331","278.9139540789042","-67","18/12/22 05:13:24"
"37","372.18696634735744","295.33877117864097","-67","18/12/22 05:13:24"
"38","359.1043053396113","297.99836785278586","-60","18/12/22 05:13:24"

"16","371.1633676750538","291.6212652717856","-68","18/12/22 05:13:25"
"3","368.84524138719394","286.9218203312288","-68","18/12/22 05:13:25"
"15","362.1266840327696","289.9247238319014","-61","18/12/22 05:13:25"
"4","355.9439714101496","290.7893792995019","-48","18/12/22 05:13:25"
"5","353.9810038021357","295.04781575205163","-27","18/12/22 05:13:25"
"13","349.84618223700994","289.9553514529072","-56","18/12/22 05:13:25"
"2","348.1408537960116","288.23423753763217","-58","18/12/22 05:13:25"
"14","345.06356460251754","295.7312560393657","-59","18/12/22 05:13:25"
"11","336.39717841253946","295.7489270258509","-68","18/12/22 05:13:25"
"10","336.1413674074077","294.350304541636","-71","18/12/22 05:13:25"
"30","343.2390283415482","283.9143916081976","-67","18/12/22 05:13:25"
"20","353.1408270178149","283.88103993037146","-61","18/12/22 05:13:25"
"7","347.34235793783415","282.4034513151052","-66","18/12/22 05:13:25"
"27","338.70002381514996","281.9021306251078","-71","18/12/22 05:13:25"
"23","364.558254913552","281.82669756865414","-67","18/12/22 05:13:25"
"6","359.99106657746074","280.301587980369","-68","18/12/22 05:13:25"
"8","367.3354491878782","280.1064609905054","-71","18/12/22 05:13:25"
"57","366.67753801548474","292.99761442456526","-67","18/12/22 05:13:25"
"56","360.1871028913134","296.3227006742018","-60","18/12/22 05:13:25"
"64","352.3109033702752","291.5434444456011","-54","18/12/22 05:13:25"
"63","348.9090656791867","293.4633933563527","-56","18/12/22 05:13:25"
"68","345.9130358690055","287.5744926001626","-64","18/12/22 05:13:25"
"47","345.54328146067445","291.78917578457714","-62","18/12/22 05:13:25"
"67","343.8744147351082","288.46122672890743","-67","18/12/22 05:13:25"
"62","340.68633651580996","292.8798191329979","-65","18/12/22 05:13:25"
"61","336.15334237994176","289.2595097924601","-72","18/12/22 05:13:25"
"40","368.331419463979","284.8557533661749","-71","18/12/22 05:13:25"
"69","355.7492879512798","282.11642190100935","-66","18/12/22 05:13:25"
"41","365.0886093120437","281.0774638084534","-71","18/12/22 05:13:25"
"65","349.2157371192029","280.0291401669304","-67","18/12/22 05:13:25"
"55","345.6957066049769","279.09346474203716","-67","18/12/22 05:13:25"
"48","357.8876200229331","278.9139540789042","-68","18/12/22 05:13:25"
"37","372.18696634735744","295.33877117864097","-70","18/12/22 05:13:25"
"38","359.1043053396113","297.99836785278586","-60","18/12/22 05:13:25"
"33","337.13286555782474","298.30864156579344","-68","18/12/22 05:13:25"

"16","371.1633676750538","291.6212652717856","-66","18/12/22 05:13:26"
"3","368.84524138719394","286.9218203312288","-66","18/12/22 05:13:26"
"15","362.1266840327696","289.9247238319014","-58","18/12/22 05:13:26"
"4","355.9439714101496","290.7893792995019","-52","18/12/22 05:13:26"
"5","353.9810038021357","295.04781575205163","-39","18/12/22 05:13:26"
"13","349.84618223700994","289.9553514529072","-59","18/12/22 05:13:26"
"2","348.1408537960116","288.23423753763217","-62","18/12/22 05:13:26"
"14","345.06356460251754","295.7312560393657","-62","18/12/22 05:13:26"
"11","336.39717841253946","295.7489270258509","-72","18/12/22 05:13:26"
"10","336.1413674074077","294.350304541636","-71","18/12/22 05:13:26"
"30","343.2390283415482","283.9143916081976","-70","18/12/22 05:13:26"
"20","353.1408270178149","283.88103993037146","-64","18/12/22 05:13:26"
"7","347.34235793783415","282.4034513151052","-67","18/12/22 05:13:26"
"23","364.558254913552","281.82669756865414","-68","18/12/22 05:13:26"
"6","359.99106657746074","280.301587980369","-68","18/12/22 05:13:26"
"8","367.3354491878782","280.1064609905054","-70","18/12/22 05:13:26"
"57","366.67753801548474","292.99761442456526","-64","18/12/22 05:13:26"
"56","360.1871028913134","296.3227006742018","-56","18/12/22 05:13:26"
"64","352.3109033702752","291.5434444456011","-55","18/12/22 05:13:26"
"63","348.9090656791867","293.4633933563527","-59","18/12/22 05:13:26"
"68","345.9130358690055","287.5744926001626","-67","18/12/22 05:13:26"
"47","345.54328146067445","291.78917578457714","-65","18/12/22 05:13:26"
"67","343.8744147351082","288.46122672890743","-67","18/12/22 05:13:26"
"62","340.68633651580996","292.8798191329979","-67","18/12/22 05:13:26"
"40","368.331419463979","284.8557533661749","-70","18/12/22 05:13:26"
"69","355.7492879512798","282.11642190100935","-67","18/12/22 05:13:26"
"41","365.0886093120437","281.0774638084534","-68","18/12/22 05:13:26"
"65","349.2157371192029","280.0291401669304","-68","18/12/22 05:13:26"
"55","345.6957066049769","279.09346474203716","-69","18/12/22 05:13:26"
"48","357.8876200229331","278.9139540789042","-70","18/12/22 05:13:26"
"37","372.18696634735744","295.33877117864097","-67","18/12/22 05:13:26"
"38","359.1043053396113","297.99836785278586","-56","18/12/22 05:13:26"
"33","337.13286555782474","298.30864156579344","-71","18/12/22 05:13:26"

"13","349.84618223700994","289.9553514529072","-68","18/12/22 05:13:27"
"2","348.1408537960116","288.23423753763217","-66","18/12/22 05:13:27"
"14","345.06356460251754","295.7312560393657","-71","18/12/22 05:13:27"
"11","336.39717841253946","295.7489270258509","-68","18/12/22 05:13:27"
"10","336.1413674074077","294.350304541636","-67","18/12/22 05:13:27"
"17","331.40559805419605","289.40175250536043","-63","18/12/22 05:13:27"
"18","324.81243171034225","289.354156618153","-68","18/12/22 05:13:27"
"30","343.2390283415482","283.9143916081976","-60","18/12/22 05:13:27"
"20","353.1408270178149","283.88103993037146","-71","18/12/22 05:13:27"
"19","325.7000180868877","282.5235956632788","-61","18/12/22 05:13:27"
"7","347.34235793783415","282.4034513151052","-64","18/12/22 05:13:27"
"27","338.70002381514996","281.9021306251078","-52","18/12/22 05:13:27"
"12","331.1499097808954","280.7809197256316","-53","18/12/22 05:13:27"
"28","334.0276721317696","280.0508786977858","-43","18/12/22 05:13:27"
"9","317.81020784540914","283.4965351413325","-70","18/12/22 05:13:27"
"25","317.45601601651964","286.1915953109285","-70","18/12/22 05:13:27"
"68","345.9130358690055","287.5744926001626","-65","18/12/22 05:13:27"
"47","345.54328146067445","291.78917578457714","-67","18/12/22 05:13:27"
"67","343.8744147351082","288.46122672890743","-64","18/12/22 05:13:27"
"62","340.68633651580996","292.8798191329979","-69","18/12/22 05:13:27"
"61","336.15334237994176","289.2595097924601","-63","18/12/22 05:13:27"
"50","326.05052457251645","289.8389949933502","-67","18/12/22 05:13:27"
"51","325.52865148932665","289.89678566866576","-69","18/12/22 05:13:27"
"52","328.11586125507387","287.4313232778648","-65","18/12/22 05:13:27"
"39","331.19921154844013","282.4506584181093","-59","18/12/22 05:13:27"
"65","349.2157371192029","280.0291401669304","-66","18/12/22 05:13:27"
"55","345.6957066049769","279.09346474203716","-61","18/12/22 05:13:27"
"43","339.4086620459871","278.40122209988823","-57","18/12/22 05:13:27"
"42","339.4489517057548","274.9546618193048","-55","18/12/22 05:13:27"
"49","324.64434483360077","281.05069406440714","-64","18/12/22 05:13:27"
"66","317.8060599171815","282.28143962675205","-69","18/12/22 05:13:27"
"36","327.6657912280927","277.118307127184","-59","18/12/22 05:13:27"
"35","323.11876582852955","276.2274175573831","-66","18/12/22 05:13:27"

"2","348.1408537960116","288.23423753763217","-70","18/12/22 05:13:28"
"11","336.39717841253946","295.7489270258509","-68","18/12/22 05:13:28"
"10","336.1413674074077","294.350304541636","-69","18/12/22 05:13:28"
"17","331.40559805419605","289.40175250536043","-61","18/12/22 05:13:28"
"18","324.81243171034225","289.354156618153","-66","18/12/22 05:13:28"
"30","343.2390283415482","283.9143916081976","-65","18/12/22 05:13:28"
"19","325.7000180868877","282.5235956632788","-57","18/12/22 05:13:28"
"7","347.34235793783415","282.4034513151052","-67","18/12/22 05:13:28"
"27","338.70002381514996","281.9021306251078","-56","18/12/22 05:13:28"
"12","331.1499097808954","280.7809197256316","-41","18/12/22 05:13:28"
"28","334.0276721317696","280.0508786977858","-38","18/12/22 05:13:28"
"9","317.81020784540914","283.4965351413325","-67","18/12/22 05:13:28"
"25","317.45601601651964","286.1915953109285","-70","18/12/22 05:13:28"
"26","316.20150849664645","287.0419759839082","-70","18/12/22 05:13:28"
"29","314.92666418039613","281.8453284658967","-69","18/12/22 05:13:28"
"68","345.9130358690055","287.5744926001626","-66","18/12/22 05:13:28"
"47","345.54328146067445","291.78917578457714","-68","18/12/22 05:13:28"
"67","343.8744147351082","288.46122672890743","-67","18/12/22 05:13:28"
"62","340.68633651580996","292.8798191329979","-70","18/12/22 05:13:28"
"61","336.15334237994176","289.2595097924601","-63","18/12/22 05:13:28"
"50","326.05052457251645","289.8389949933502","-65","18/12/22 05:13:28"
"51","325.52865148932665","289.89678566866576","-64","18/12/22 05:13:28"
"52","328.11586125507387","287.4313232778648","-64","18/12/22 05:13:28"
"39","331.19921154844013","282.4506584181093","-56","18/12/22 05:13:28"
"65","349.2157371192029","280.0291401669304","-70","18/12/22 05:13:28"
"55","345.6957066049769","279.09346474203716","-67","18/12/22 05:13:28"
"43","339.4086620459871","278.40122209988823","-57","18/12/22 05:13:28"
"42","339.4489517057548","274.9546618193048","-60","18/12/22 05:13:28"
"49","324.64434483360077","281.05069406440714","-60","18/12/22 05:13:28"
"66","317.8060599171815","282.28143962675205","-68","18/12/22 05:13:28"
"59","316.07977491215206","289.20438220825775","-70","18/12/22 05:13:28"
"58","314.78004847075755","280.2954753208754","-71","18/12/22 05:13:28"
"34","331.96168718049495","298.1027481685605","-71","18/12/22 05:13:28"
"36","327.6657912280927","277.118307127184","-57","18/12/22 05:13:28"
"35","323.11876582852955","276.2274175573831","-64","18/12/22 05:13:28"

"13","349.84618223700994","289.9553514529072","-70","18/12/22 05:13:29"
"2","348.1408537960116","288.23423753763217","-70","18/12/22 05:13:29"
"14","345.06356460251754","295.7312560393657","-70","18/12/22 05:13:29"
"11","336.39717841253946","295.7489270258509","-68","18/12/22 05:13:29"
"10","336.1413674074077","294.350304541636","-64","18/12/22 05:13:29"
"17","331.40559805419605","289.40175250536043","-59","18/12/22 05:13:29"
"18","324.81243171034225","289.354156618153","-65","18/12/22 05:13:29"
"30","343.2390283415482","283.9143916081976","-62","18/12/22 05:13:29"
"19","325.7000180868877","282.5235956632788","-58","18/12/22 05:13:29"
"7","347.34235793783415","282.4034513151052","-66","18/12/22 05:13:29"
"27","338.70002381514996","281.9021306251078","-54","18/12/22 05:13:29"
"12","331.1499097808954","280.7809197256316","-42","18/12/22 05:13:29"
"28","334.0276721317696","280.0508786977858","-32","18/12/22 05:13:29"
"9","317.81020784540914","283.4965351413325","-69","18/12/22 05:13:29"
"25","317.45601601651964","286.1915953109285","-67","18/12/22 05:13:29"
"26","316.20150849664645","287.0419759839082","-68","18/12/22 05:13:29"
"29","314.92666418039613","281.8453284658967","-69","18/12/22 05:13:29"
"68","345.9130358690055","287.5744926001626","-69","18/12/22 05:13:29"
"47","345.54328146067445","291.78917578457714","-68","18/12/22 05:13:29"
"67","343.8744147351082","288.46122672890743","-64","18/12/22 05:13:29"
"62","340.68633651580996","292.8798191329979","-66","18/12/22 05:13:29"
"61","336.15334237994176","289.2595097924601","-62","18/12/22 05:13:29"
"50","326.05052457251645","289.8389949933502","-64","18/12/22 05:13:29"
"51","325.52865148932665","289.89678566866576","-65","18/12/22 05:13:29"
"52","328.11586125507387","287.4313232778648","-60","18/12/22 05:13:29"
"39","331.19921154844013","282.4506584181093","-54","18/12/22 05:13:29"
"65","349.2157371192029","280.0291401669304","-70","18/12/22 05:13:29"
"55","345.6957066049769","279.09346474203716","-67","18/12/22 05:13:29"
"43","339.4086620459871","278.40122209988823","-60","18/12/22 05:13:29"
"42","339.4489517057548","274.9546618193048","-62","18/12/22 05:13:29"
"49","324.64434483360077","281.05069406440714","-63","18/12/22 05:13:29"
"66","317.8060599171815","282.28143962675205","-69","18/12/22 05:13:29"
"59","316.07977491215206","289.20438220825775","-71","18/12/22 05:13:29"
"58","314.78004847075755","280.2954753208754","-69","18/12/22 05:13:29"
"33","337.13286555782474","298.30864156579344","-71","18/12/22 05:13:29"
"34","331.96168718049495","298.1027481685605","-71","18/12/22 05:13:29"
"36","327.6657912280927","277.118307127184","-59","18/12/22 05:13:29"
"35","323.11876582852955","276.2274175573831","-65","18/12/22 05:13:29"

"3","368.84524138719394","286.9218203312288","-72","18/12/22 05:13:30"
"15","362.1266840327696","289.9247238319014","-67","18/12/22 05:13:30"
"4","355.9439714101496","290.7893792995019","-63","18/12/22 05:13:30"
"5","353.9810038021357","295.04781575205163","-66","18/12/22 05:13:30"
"13","349.84618223700994","289.9553514529072","-60","18/12/22 05:13:30"
"2","348.1408537960116","288.23423753763217","-56","18/12/22 05:13:30"
"14","345.06356460251754","295.7312560393657","-66","18/12/22 05:13:30"
"11","336.39717841253946","295.7489270258509","-71","18/12/22 05:13:30"
"10","336.1413674074077","294.350304541636","-70","18/12/22 05:13:30"
"30","343.2390283415482","283.9143916081976","-57","18/12/22 05:13:30"
"20","353.1408270178149","283.88103993037146","-48","18/12/22 05:13:30"
"7","347.34235793783415","282.4034513151052","-46","18/12/22 05:13:30"
"27","338.70002381514996","281.9021306251078","-63","18/12/22 05:13:30"
"23","364.558254913552","281.82669756865414","-66","18/12/22 05:13:30"
"12","331.1499097808954","280.7809197256316","-70","18/12/22 05:13:30"
"6","359.99106657746074","280.301587980369","-62","18/12/22 05:13:30"
"8","367.3354491878782","280.1064609905054","-68","18/12/22 05:13:30"
"28","334.0276721317696","280.0508786977858","-67","18/12/22 05:13:30"
"56","360.1871028913134","296.3227006742018","-69","18/12/22 05:13:30"
"64","352.3109033702752","291.5434444456011","-62","18/12/22 05:13:30"
"63","348.9090656791867","293.4633933563527","-65","18/12/22 05:13:30"
"68","345.9130358690055","287.5744926001626","-61","18/12/22 05:13:30"
"47","345.54328146067445","291.78917578457714","-64","18/12/22 05:13:30"
"67","343.8744147351082","288.46122672890743","-62","18/12/22 05:13:30"
"62","340.68633651580996","292.8798191329979","-67","18/12/22 05:13:30"
"61","336.15334237994176","289.2595097924601","-68","18/12/22 05:13:30"
"40","368.331419463979","284.8557533661749","-70","18/12/22 05:13:30"
"39","331.19921154844013","282.4506584181093","-68","18/12/22 05:13:30"
"69","355.7492879512798","282.11642190100935","-60","18/12/22 05:13:30"
"41","365.0886093120437","281.0774638084534","-68","18/12/22 05:13:30"
"65","349.2157371192029","280.0291401669304","-54","18/12/22 05:13:30"
"55","345.6957066049769","279.09346474203716","-56","18/12/22 05:13:30"
"48","357.8876200229331","278.9139540789042","-62","18/12/22 05:13:30"
"43","339.4086620459871","278.40122209988823","-64","18/12/22 05:13:30"
"42","339.4489517057548","274.9546618193048","-66","18/12/22 05:13:30"
"38","359.1043053396113","297.99836785278586","-70","18/12/22 05:13:30"

"16","371.1633676750538","291.6212652717856","-65","18/12/22 05:13:31"
"3","368.84524138719394","286.9218203312288","-57","18/12/22 05:13:31"
"15","362.1266840327696","289.9247238319014","-57","18/12/22 05:13:31"
"4","355.9439714101496","290.7893792995019","-61","18/12/22 05:13:31"
"5","353.9810038021357","295.04781575205163","-68","18/12/22 05:13:31"
"13","349.84618223700994","289.9553514529072","-65","18/12/22 05:13:31"
"2","348.1408537960116","288.23423753763217","-67","18/12/22 05:13:31"
"30","343.2390283415482","283.9143916081976","-71","18/12/22 05:13:31"
"20","353.1408270178149","283.88103993037146","-60","18/12/22 05:13:31"
"7","347.34235793783415","282.4034513151052","-65","18/12/22 05:13:31"
"23","364.558254913552","281.82669756865414","-44","18/12/22 05:13:31"
"6","359.99106657746074","280.301587980369","-47","18/12/22 05:13:31"
"8","367.3354491878782","280.1064609905054","-53","18/12/22 05:13:31"
"57","366.67753801548474","292.99761442456526","-66","18/12/22 05:13:31"
"56","360.1871028913134","296.3227006742018","-67","18/12/22 05:13:31"
"64","352.3109033702752","291.5434444456011","-65","18/12/22 05:13:31"
"63","348.9090656791867","293.4633933563527","-68","18/12/22 05:13:31"
"68","345.9130358690055","287.5744926001626","-67","18/12/22 05:13:31"
"47","345.54328146067445","291.78917578457714","-72","18/12/22 05:13:31"
"67","343.8744147351082","288.46122672890743","-68","18/12/22 05:13:31"
"40","368.331419463979","284.8557533661749","-59","18/12/22 05:13:31"
"69","355.7492879512798","282.11642190100935","-59","18/12/22 05:13:31"
"41","365.0886093120437","281.0774638084534","-54","18/12/22 05:13:31"
"65","349.2157371192029","280.0291401669304","-68","18/12/22 05:13:31"
"55","345.6957066049769","279.09346474203716","-69","18/12/22 05:13:31"
"48","357.8876200229331","278.9139540789042","-57","18/12/22 05:13:31"
"37","372.18696634735744","295.33877117864097","-66","18/12/22 05:13:31"
"38","359.1043053396113","297.99836785278586","-66","18/12/22 05:13:31"

"16","371.1633676750538","291.6212652717856","-64","18/12/22 05:13:32"
"3","368.84524138719394","286.9218203312288","-60","18/12/22 05:13:32"
"15","362.1266840327696","289.9247238319014","-62","18/12/22 05:13:32"
"4","355.9439714101496","290.7893792995019","-63","18/12/22 05:13:32"
"5","353.9810038021357","295.04781575205163","-70","18/12/22 05:13:32"
"13","349.84618223700994","289.9553514529072","-69","18/12/22 05:13:32"
"2","348.1408537960116","288.23423753763217","-69","18/12/22 05:13:32"
"30","343.2390283415482","283.9143916081976","-69","18/12/22 05:13:32"
"20","353.1408270178149","283.88103993037146","-61","18/12/22 05:13:32"
"7","347.34235793783415","282.4034513151052","-66","18/12/22 05:13:32"
"23","364.558254913552","281.82669756865414","-44","18/12/22 05:13:32"
"6","359.99106657746074","280.301587980369","-43","18/12/22 05:13:32"
"8","367.3354491878782","280.1064609905054","-54","18/12/22 05:13:32"
"57","366.67753801548474","292.99761442456526","-65","18/12/22 05:13:32"
"56","360.1871028913134","296.3227006742018","-68","18/12/22 05:13:32"
"64","352.3109033702752","291.5434444456011","-67","18/12/22 05:13:32"
"63","348.9090656791867","293.4633933563527","-70","18/12/22 05:13:32"
"68","345.9130358690055","287.5744926001626","-69","18/12/22 05:13:32"
"40","368.331419463979","284.8557533661749","-60","18/12/22 05:13:32"
"69","355.7492879512798","282.11642190100935","-58","18/12/22 05:13:32"
"41","365.0886093120437","281.0774638084534","-53","18/12/22 05:13:32"
"65","349.2157371192029","280.0291401669304","-64","18/12/22 05:13:32"
"55","345.6957066049769","279.09346474203716","-67","18/12/22 05:13:32"
"48","357.8876200229331","278.9139540789042","-55","18/12/22 05:13:32"
"37","372.18696634735744","295.33877117864097","-71","18/12/22 05:13:32"
"38","359.1043053396113","297.99836785278586","-69","18/12/22 05:13:32"

"16","371.1633676750538","291.6212652717856","-63","18/12/22 05:13:33"
"3","368.84524138719394","286.9218203312288","-59","18/12/22 05:13:33"
"15","362.1266840327696","289.9247238319014","-57","18/12/22 05:13:33"
"4","355.9439714101496","290.7893792995019","-62","18/12/22 05:13:33"
"5","353.9810038021357","295.04781575205163","-68","18/12/22 05:13:33"
"13","349.84618223700994","289.9553514529072","-68","18/12/22 05:13:33"
"2","348.1408537960116","288.23423753763217","-66","18/12/22 05:13:33"
"30","343.2390283415482","283.9143916081976","-68","18/12/22 05:13:33"
"20","353.1408270178149","283.88103993037146","-63","18/12/22 05:13:33"
"7","347.34235793783415","282.4034513151052","-66","18/12/22 05:13:33"
"23","364.558254913552","281.82669756865414","-39","18/12/22 05:13:33"
"6","359.99106657746074","280.301587980369","-47","18/12/22 05:13:33"
"8","367.3354491878782","280.1064609905054","-51","18/12/22 05:13:33"
"57","366.67753801548474","292.99761442456526","-65","18/12/22 05:13:33"
"56","360.1871028913134","296.3227006742018","-68","18/12/22 05:13:33"
"64","352.3109033702752","291.5434444456011","-65","18/12/22 05:13:33"
"63","348.9090656791867","293.4633933563527","-70","18/12/22 05:13:33"
"68","345.9130358690055","287.5744926001626","-71","18/12/22 05:13:33"
"40","368.331419463979","284.8557533661749","-57","18/12/22 05:13:33"
"69","355.7492879512798","282.11642190100935","-59","18/12/22 05:13:33"
"41","365.0886093120437","281.0774638084534","-54","18/12/22 05:13:33"
"65","349.2157371192029","280.0291401669304","-66","18/12/22 05:13:33"
"55","345.6957066049769","279.09346474203716","-69","18/12/22 05:13:33"
"48","357.8876200229331","278.9139540789042","-60","18/12/22 05:13:33"
"37","372.18696634735744","295.33877117864097","-68","18/12/22 05:13:33"
"38","359.1043053396113","297.99836785278586","-67","18/12/22 05:13:33"

"16","371.1633676750538","291.6212652717856","-62","18/12/22 05:13:34"
"3","368.84524138719394","286.9218203312288","-57","18/12/22 05:13:34"
"15","362.1266840327696","289.9247238319014","-54","18/12/22 05:13:34"
"4","355.9439714101496","290.7893792995019","-60","18/12/22 05:13:34"
"5","353.9810038021357","295.04781575205163","-65","18/12/22 05:13:34"
"13","349.84618223700994","289.9553514529072","-65","18/12/22 05:13:34"
"2","348.1408537960116","288.23423753763217","-67","18/12/22 05:13:34"
"30","343.2390283415482","283.9143916081976","-70","18/12/22 05:13:34"
"20","353.1408270178149","283.88103993037146","-63","18/12/22 05:13:34"
"7","347.34235793783415","282.4034513151052","-67","18/12/22 05:13:34"
"23","364.558254913552","281.82669756865414","-45","18/12/22 05:13:34"
"6","359.99106657746074","280.301587980369","-55","18/12/22 05:13:34"
"8","367.3354491878782","280.1064609905054","-55","18/12/22 05:13:34"
"57","366.67753801548474","292.99761442456526","-61","18/12/22 05:13:34"
"56","360.1871028913134","296.3227006742018","-67","18/12/22 05:13:34"
"64","352.3109033702752","291.5434444456011","-64","18/12/22 05:13:34"
"63","348.9090656791867","293.4633933563527","-68","18/12/22 05:13:34"
"68","345.9130358690055","287.5744926001626","-69","18/12/22 05:13:34"
"47","345.54328146067445","291.78917578457714","-72","18/12/22 05:13:34"
"40","368.331419463979","284.8557533661749","-56","18/12/22 05:13:34"
"69","355.7492879512798","282.11642190100935","-60","18/12/22 05:13:34"
"41","365.0886093120437","281.0774638084534","-56","18/12/22 05:13:34"
"65","349.2157371192029","280.0291401669304","-68","18/12/22 05:13:34"
"55","345.6957066049769","279.09346474203716","-72","18/12/22 05:13:34"
"48","357.8876200229331","278.9139540789042","-59","18/12/22 05:13:34"
"37","372.18696634735744","295.33877117864097","-65","18/12/22 05:13:34"
"38","359.1043053396113","297.99836785278586","-68","18/12/22 05:13:34"

"15","362.1266840327696","289.9247238319014","-69","18/12/22 05:13:35"
"4","355.9439714101496","290.7893792995019","-65","18/12/22 05:13:35"
"5","353.9810038021357","295.04781575205163","-66","18/12/22 05:13:35"
"13","349.84618223700994","289.9553514529072","-56","18/12/22 05:13:35"
"2","348.1408537960116","288.23423753763217","-55","18/12/22 05:13:35"
"14","345.06356460251754","295.7312560393657","-59","18/12/22 05:13:35"
"11","336.39717841253946","295.7489270258509","-62","18/12/22 05:13:35"
"10","336.1413674074077","294.350304541636","-59","18/12/22 05:13:35"
"17","331.40559805419605","289.40175250536043","-64","18/12/22 05:13:35"
"18","324.81243171034225","289.354156618153","-71","18/12/22 05:13:35"
"30","343.2390283415482","283.9143916081976","-48","18/12/22 05:13:35"
"20","353.1408270178149","283.88103993037146","-63","18/12/22 05:13:35"
"19","325.7000180868877","282.5235956632788","-70","18/12/22 05:13:35"
"7","347.34235793783415","282.4034513151052","-59","18/12/22 05:13:35"
"27","338.70002381514996","281.9021306251078","-59","18/12/22 05:13:35"
"12","331.1499097808954","280.7809197256316","-66","18/12/22 05:13:35"
"6","359.99106657746074","280.301587980369","-70","18/12/22 05:13:35"
"28","334.0276721317696","280.0508786977858","-64","18/12/22 05:13:35"
"56","360.1871028913134","296.3227006742018","-72","18/12/22 05:13:35"
"64","352.3109033702752","291.5434444456011","-62","18/12/22 05:13:35"
"63","348.9090656791867","293.4633933563527","-59","18/12/22 05:13:35"
"68","345.9130358690055","287.5744926001626","-53","18/12/22 05:13:35"
"47","345.54328146067445","291.78917578457714","-59","18/12/22 05:13:35"
"67","343.8744147351082","288.46122672890743","-55","18/12/22 05:13:35"
"62","340.68633651580996","292.8798191329979","-58","18/12/22 05:13:35"
"61","336.15334237994176","289.2595097924601","-59","18/12/22 05:13:35"
"50","326.05052457251645","289.8389949933502","-71","18/12/22 05:13:35"
"51","325.52865148932665","289.89678566866576","-68","18/12/22 05:13:35"
"52","328.11586125507387","287.4313232778648","-68","18/12/22 05:13:35"
"39","331.19921154844013","282.4506584181093","-65","18/12/22 05:13:35"
"69","355.7492879512798","282.11642190100935","-67","18/12/22 05:13:35"
"65","349.2157371192029","280.0291401669304","-62","18/12/22 05:13:35"
"55","345.6957066049769","279.09346474203716","-62","18/12/22 05:13:35"
"48","357.8876200229331","278.9139540789042","-68","18/12/22 05:13:35"
"43","339.4086620459871","278.40122209988823","-65","18/12/22 05:13:35"
"42","339.4489517057548","274.9546618193048","-68","18/12/22 05:13:35"
"38","359.1043053396113","297.99836785278586","-69","18/12/22 05:13:35"
"33","337.13286555782474","298.30864156579344","-63","18/12/22 05:13:35"
"34","331.96168718049495","298.1027481685605","-68","18/12/22 05:13:35"
"36","327.6657912280927","277.118307127184","-69","18/12/22 05:13:35"

"38","359.1043053396113","297.99836785278586","-71","18/12/22 05:13:36"
"33","337.13286555782474","298.30864156579344","-56","18/12/22 05:13:36"
"34","331.96168718049495","298.1027481685605","-62","18/12/22 05:13:36"
"4","355.9439714101496","290.7893792995019","-68","18/12/22 05:13:36"
"5","353.9810038021357","295.04781575205163","-64","18/12/22 05:13:36"
"13","349.84618223700994","289.9553514529072","-62","18/12/22 05:13:36"
"2","348.1408537960116","288.23423753763217","-61","18/12/22 05:13:36"
"14","345.06356460251754","295.7312560393657","-53","18/12/22 05:13:36"
"11","336.39717841253946","295.7489270258509","-56","18/12/22 05:13:36"
"10","336.1413674074077","294.350304541636","-57","18/12/22 05:13:36"
"17","331.40559805419605","289.40175250536043","-65","18/12/22 05:13:36"
"18","324.81243171034225","289.354156618153","-71","18/12/22 05:13:36"
"30","343.2390283415482","283.9143916081976","-66","18/12/22 05:13:36"
"20","353.1408270178149","283.88103993037146","-68","18/12/22 05:13:36"
"7","347.34235793783415","282.4034513151052","-67","18/12/22 05:13:36"
"27","338.70002381514996","281.9021306251078","-65","18/12/22 05:13:36"
"12","331.1499097808954","280.7809197256316","-69","18/12/22 05:13:36"
"28","334.0276721317696","280.0508786977858","-69","18/12/22 05:13:36"

"33","337.13286555782474","298.30864156579344","-50","18/12/22 05:13:37"
"34","331.96168718049495","298.1027481685605","-37","18/12/22 05:13:37"
"13","349.84618223700994","289.9553514529072","-69","18/12/22 05:13:37"
"2","348.1408537960116","288.23423753763217","-70","18/12/22 05:13:37"
"14","345.06356460251754","295.7312560393657","-66","18/12/22 05:13:37"
"11","336.39717841253946","295.7489270258509","-55","18/12/22 05:13:37"
"10","336.1413674074077","294.350304541636","-55","18/12/22 05:13:37"
"17","331.40559805419605","289.40175250536043","-59","18/12/22 05:13:37"
"18","324.81243171034225","289.354156618153","-65","18/12/22 05:13:37"
"30","343.2390283415482","283.9143916081976","-67","18/12/22 05:13:37"
"19","325.7000180868877","282.5235956632788","-69","18/12/22 05:13:37"
"27","338.70002381514996","281.9021306251078","-70","18/12/22 05:13:37"
"12","331.1499097808954","280.7809197256316","-68","18/12/22 05:13:37"
"28","334.0276721317696","280.0508786977858","-70","18/12/22 05:13:37"
"22","318.3514581116194","295.33489556531345","-67","18/12/22 05:13:37"
"25","317.45601601651964","286.1915953109285","-68","18/12/22 05:13:37"
"26","316.20150849664645","287.0419759839082","-69","18/12/22 05:13:37"

"33","337.13286555782474","298.30864156579344","-53","18/12/22 05:13:38"
"34","331.96168718049495","298.1027481685605","-40","18/12/22 05:13:38"
"36","327.6657912280927","277.118307127184","-70","18/12/22 05:13:38"
"13","349.84618223700994","289.9553514529072","-70","18/12/22 05:13:38"
"2","348.1408537960116","288.23423753763217","-71","18/12/22 05:13:38"
"14","345.06356460251754","295.7312560393657","-65","18/12/22 05:13:38"
"11","336.39717841253946","295.7489270258509","-55","18/12/22 05:13:38"
"10","336.1413674074077","294.350304541636","-57","18/12/22 05:13:38"
"17","331.40559805419605","289.40175250536043","-61","18/12/22 05:13:38"
"18","324.81243171034225","289.354156618153","-61","18/12/22 05:13:38"
"30","343.2390283415482","283.9143916081976","-67","18/12/22 05:13:38"
"19","325.7000180868877","282.5235956632788","-65","18/12/22 05:13:38"
"27","338.70002381514996","281.9021306251078","-70","18/12/22 05:13:38"
"12","331.1499097808954","280.7809197256316","-70","18/12/22 05:13:38"
"28","334.0276721317696","280.0508786977858","-67","18/12/22 05:13:38"
"22","318.3514581116194","295.33489556531345","-68","18/12/22 05:13:38"
"9","317.81020784540914","283.4965351413325","-69","18/12/22 05:13:38"
"25","317.45601601651964","286.1915953109285","-69","18/12/22 05:13:38"
"26","316.20150849664645","287.0419759839082","-68","18/12/22 05:13:38"

"33","337.13286555782474","298.30864156579344","-41","18/12/22 05:13:39"
"34","331.96168718049495","298.1027481685605","-56","18/12/22 05:13:39"
"4","355.9439714101496","290.7893792995019","-69","18/12/22 05:13:39"
"5","353.9810038021357","295.04781575205163","-67","18/12/22 05:13:39"
"13","349.84618223700994","289.9553514529072","-67","18/12/22 05:13:39"
"2","348.1408537960116","288.23423753763217","-64","18/12/22 05:13:39"
"14","345.06356460251754","295.7312560393657","-59","18/12/22 05:13:39"
"11","336.39717841253946","295.7489270258509","-52","18/12/22 05:13:39"
"10","336.1413674074077","294.350304541636","-54","18/12/22 05:13:39"
"17","331.40559805419605","289.40175250536043","-62","18/12/22 05:13:39"
"18","324.81243171034225","289.354156618153","-67","18/12/22 05:13:39"
"30","343.2390283415482","283.9143916081976","-66","18/12/22 05:13:39"
"19","325.7000180868877","282.5235956632788","-69","18/12/22 05:13:39"
"7","347.34235793783415","282.4034513151052","-67","18/12/22 05:13:39"
"27","338.70002381514996","281.9021306251078","-69","18/12/22 05:13:39"
"12","331.1499097808954","280.7809197256316","-68","18/12/22 05:13:39"
"28","334.0276721317696","280.0508786977858","-67","18/12/22 05:13:39"

"33","337.13286555782474","298.30864156579344","-37","18/12/22 05:13:40"
"34","331.96168718049495","298.1027481685605","-57","18/12/22 05:13:40"
"4","355.9439714101496","290.7893792995019","-71","18/12/22 05:13:40"
"5","353.9810038021357","295.04781575205163","-68","18/12/22 05:13:40"
"13","349.84618223700994","289.9553514529072","-67","18/12/22 05:13:40"
"2","348.1408537960116","288.23423753763217","-67","18/12/22 05:13:40"
"14","345.06356460251754","295.7312560393657","-60","18/12/22 05:13:40"
"11","336.39717841253946","295.7489270258509","-53","18/12/22 05:13:40"
"10","336.1413674074077","294.350304541636","-57","18/12/22 05:13:40"
"17","331.40559805419605","289.40175250536043","-63","18/12/22 05:13:40"
"18","324.81243171034225","289.354156618153","-68","18/12/22 05:13:40"
"30","343.2390283415482","283.9143916081976","-68","18/12/22 05:13:40"
"7","347.34235793783415","282.4034513151052","-71","18/12/22 05:13:40"
"27","338.70002381514996","281.9021306251078","-67","18/12/22 05:13:40"
"12","331.1499097808954","280.7809197256316","-69","18/12/22 05:13:40"
"28","334.0276721317696","280.0508786977858","-72","18/12/22 05:13:40"

"33","337.13286555782474","298.30864156579344","-39","18/12/22 05:13:41"
"34","331.96168718049495","298.1027481685605","-51","18/12/22 05:13:41"
"5","353.9810038021357","295.04781575205163","-70","18/12/22 05:13:41"
"13","349.84618223700994","289.9553514529072","-68","18/12/22 05:13:41"
"2","348.1408537960116","288.23423753763217","-66","18/12/22 05:13:41"
"14","345.06356460251754","295.7312560393657","-60","18/12/22 05:13:41"
"11","336.39717841253946","295.7489270258509","-55","18/12/22 05:13:41"
"10","336.1413674074077","294.350304541636","-55","18/12/22 05:13:41"
"17","331.40559805419605","289.40175250536043","-63","18/12/22 05:13:41"
"18","324.81243171034225","289.354156618153","-68","18/12/22 05:13:41"
"30","343.2390283415482","283.9143916081976","-68","18/12/22 05:13:41"
"19","325.7000180868877","282.5235956632788","-68","18/12/22 05:13:41"
"7","347.34235793783415","282.4034513151052","-69","18/12/22 05:13:41"
"27","338.70002381514996","281.9021306251078","-66","18/12/22 05:13:41"
"12","331.1499097808954","280.7809197256316","-68","18/12/22 05:13:41"
"28","334.0276721317696","280.0508786977858","-70","18/12/22 05:13:41"
"22","318.3514581116194","295.33489556531345","-70","18/12/22 05:13:41"

"33","337.13286555782474","298.30864156579344","-46","18/12/22 05:13:42"
"34","331.96168718049495","298.1027481685605","-52","18/12/22 05:13:42"
"5","353.9810038021357","295.04781575205163","-68","18/12/22 05:13:42"
"13","349.84618223700994","289.9553514529072","-68","18/12/22 05:13:42"
"2","348.1408537960116","288.23423753763217","-68","18/12/22 05:13:42"
"14","345.06356460251754","295.7312560393657","-61","18/12/22 05:13:42"
"11","336.39717841253946","295.7489270258509","-52","18/12/22 05:13:42"
"10","336.1413674074077","294.350304541636","-51","18/12/22 05:13:42"
"17","331.40559805419605","289.40175250536043","-62","18/12/22 05:13:42"
"18","324.81243171034225","289.354156618153","-64","18/12/22 05:13:42"
"30","343.2390283415482","283.9143916081976","-68","18/12/22 05:13:42"
"19","325.7000180868877","282.5235956632788","-69","18/12/22 05:13:42"
"7","347.34235793783415","282.4034513151052","-69","18/12/22 05:13:42"
"27","338.70002381514996","281.9021306251078","-68","18/12/22 05:13:42"
"12","331.1499097808954","280.7809197256316","-67","18/12/22 05:13:42"
"28","334.0276721317696","280.0508786977858","-66","18/12/22 05:13:42"
"22","318.3514581116194","295.33489556531345","-69","18/12/22 05:13:42"

"33","337.13286555782474","298.30864156579344","-43","18/12/22 05:13:43"
"34","331.96168718049495","298.1027481685605","-59","18/12/22 05:13:43"
"4","355.9439714101496","290.7893792995019","-71","18/12/22 05:13:43"
"5","353.9810038021357","295.04781575205163","-69","18/12/22 05:13:43"
"13","349.84618223700994","289.9553514529072","-65","18/12/22 05:13:43"
"2","348.1408537960116","288.23423753763217","-65","18/12/22 05:13:43"
"14","345.06356460251754","295.7312560393657","-60","18/12/22 05:13:43"
"11","336.39717841253946","295.7489270258509","-52","18/12/22 05:13:43"
"10","336.1413674074077","294.350304541636","-54","18/12/22 05:13:43"
"17","331.40559805419605","289.40175250536043","-64","18/12/22 05:13:43"
"18","324.81243171034225","289.354156618153","-68","18/12/22 05:13:43"
"30","343.2390283415482","283.9143916081976","-67","18/12/22 05:13:43"
"20","353.1408270178149","283.88103993037146","-71","18/12/22 05:13:43"
"19","325.7000180868877","282.5235956632788","-68","18/12/22 05:13:43"
"7","347.34235793783415","282.4034513151052","-69","18/12/22 05:13:43"
"27","338.70002381514996","281.9021306251078","-67","18/12/22 05:13:43"
"12","331.1499097808954","280.7809197256316","-67","18/12/22 05:13:43"
"28","334.0276721317696","280.0508786977858","-68","18/12/22 05:13:43"

