"deviceId","device_location_x","device_location_y","rssi_measurement","timeStamp"
"107","349.10510387958027","296.33441333760385","-68","18/12/22 05:14:44"
"106","343.0419374512361","296.0138146453802","-67","18/12/22 05:14:44"
"110","336.66635145662235","291.36861595859267","-63","18/12/22 05:14:44"
"101","327.700629842416","293.3919866662207","-67","18/12/22 05:14:44"
"100","327.203563036289","294.32887374430646","-70","18/12/22 05:14:44"
"109","335.51044443158224","289.7166284418012","-61","18/12/22 05:14:44"
"118","355.2093993576609","288.0311694576188","-66","18/12/22 05:14:44"
"105","349.9100571733974","285.98561209079196","-60","18/12/22 05:14:44"
"120","325.14504773879764","282.4358159017834","-69","18/12/22 05:14:44"
"108","349.6132769029411","281.93867863059984","-56","18/12/22 05:14:44"
"117","358.38433150805696","280.91221359712426","-68","18/12/22 05:14:44"
"116","346.1459294211589","278.41650093363376","-54","18/12/22 05:14:44"
"121","329.6859490603011","277.65843485566626","-66","18/12/22 05:14:44"
"112","339.5316640141885","276.68973400630716","-58","18/12/22 05:14:44"
"111","340.8356808679617","274.3246531177024","-59","18/12/22 05:14:44"
"115","323.951013806985","285.43333379394545","-69","18/12/22 05:14:44"
"91","349.8423133029049","289.2067475269076","-64","18/12/22 05:14:44"
"92","349.5639361596289","290.37958123247967","-62","18/12/22 05:14:44"
"93","342.87075650845605","288.3484002263486","-57","18/12/22 05:14:44"
"73","331.25696275517026","289.56239838092034","-65","18/12/22 05:14:44"
"86","324.9814381221208","290.91019646194206","-69","18/12/22 05:14:44"
"94","355.56880912890875","287.64288737368884","-68","18/12/22 05:14:44"
"83","332.9988042566773","282.65570452882474","-63","18/12/22 05:14:44"
"71","345.37105048256774","282.14295709168505","-54","18/12/22 05:14:44"
"74","350.1725854487765","282.1043855849684","-61","18/12/22 05:14:44"
"88","358.5574567856148","281.26447724068805","-68","18/12/22 05:14:44"
"96","352.9744094310227","278.2780519389197","-64","18/12/22 05:14:44"
"95","330.24371436267575","277.8830029035291","-66","18/12/22 05:14:44"
"82","335.7729742625847","275.88549353541487","-63","18/12/22 05:14:44"

"13","349.84618223700994","289.9553514529072","-68","18/12/22 05:14:45"
"2","348.1408537960116","288.23423753763217","-65","18/12/22 05:14:45"
"14","345.06356460251754","295.7312560393657","-63","18/12/22 05:14:45"
"11","336.39717841253946","295.7489270258509","-60","18/12/22 05:14:45"
"10","336.1413674074077","294.350304541636","-55","18/12/22 05:14:45"
"17","331.40559805419605","289.40175250536043","-50","18/12/22 05:14:45"
"18","324.81243171034225","289.354156618153","-63","18/12/22 05:14:45"
"30","343.2390283415482","283.9143916081976","-61","18/12/22 05:14:45"
"20","353.1408270178149","283.88103993037146","-70","18/12/22 05:14:45"
"19","325.7000180868877","282.5235956632788","-61","18/12/22 05:14:45"
"7","347.34235793783415","282.4034513151052","-65","18/12/22 05:14:45"
"27","338.70002381514996","281.9021306251078","-56","18/12/22 05:14:45"
"12","331.1499097808954","280.7809197256316","-56","18/12/22 05:14:45"
"28","334.0276721317696","280.0508786977858","-56","18/12/22 05:14:45"
"22","318.3514581116194","295.33489556531345","-70","18/12/22 05:14:45"
"9","317.81020784540914","283.4965351413325","-68","18/12/22 05:14:45"
"25","317.45601601651964","286.1915953109285","-67","18/12/22 05:14:45"
"26","316.20150849664645","287.0419759839082","-70","18/12/22 05:14:45"
"64","352.3109033702752","291.5434444456011","-69","18/12/22 05:14:45"
"63","348.9090656791867","293.4633933563527","-66","18/12/22 05:14:45"
"68","345.9130358690055","287.5744926001626","-63","18/12/22 05:14:45"
"47","345.54328146067445","291.78917578457714","-65","18/12/22 05:14:45"
"67","343.8744147351082","288.46122672890743","-61","18/12/22 05:14:45"
"62","340.68633651580996","292.8798191329979","-61","18/12/22 05:14:45"
"61","336.15334237994176","289.2595097924601","-53","18/12/22 05:14:45"
"50","326.05052457251645","289.8389949933502","-62","18/12/22 05:14:45"
"51","325.52865148932665","289.89678566866576","-62","18/12/22 05:14:45"
"52","328.11586125507387","287.4313232778648","-61","18/12/22 05:14:45"
"39","331.19921154844013","282.4506584181093","-58","18/12/22 05:14:45"
"65","349.2157371192029","280.0291401669304","-68","18/12/22 05:14:45"
"55","345.6957066049769","279.09346474203716","-66","18/12/22 05:14:45"
"43","339.4086620459871","278.40122209988823","-64","18/12/22 05:14:45"
"42","339.4489517057548","274.9546618193048","-65","18/12/22 05:14:45"
"49","324.64434483360077","281.05069406440714","-66","18/12/22 05:14:45"
"60","317.86438613309105","294.4508642114292","-70","18/12/22 05:14:45"
"66","317.8060599171815","282.28143962675205","-70","18/12/22 05:14:45"
"59","316.07977491215206","289.20438220825775","-71","18/12/22 05:14:45"
"33","337.13286555782474","298.30864156579344","-64","18/12/22 05:14:45"
"34","331.96168718049495","298.1027481685605","-63","18/12/22 05:14:45"
"36","327.6657912280927","277.118307127184","-67","18/12/22 05:14:45"
"35","323.11876582852955","276.2274175573831","-67","18/12/22 05:14:45"

"17","331.40559805419605","289.40175250536043","-68","18/12/22 05:14:46"
"18","324.81243171034225","289.354156618153","-66","18/12/22 05:14:46"
"19","325.7000180868877","282.5235956632788","-58","18/12/22 05:14:46"
"12","331.1499097808954","280.7809197256316","-65","18/12/22 05:14:46"
"28","334.0276721317696","280.0508786977858","-68","18/12/22 05:14:46"
"22","318.3514581116194","295.33489556531345","-67","18/12/22 05:14:46"
"9","317.81020784540914","283.4965351413325","-52","18/12/22 05:14:46"
"25","317.45601601651964","286.1915953109285","-58","18/12/22 05:14:46"
"26","316.20150849664645","287.0419759839082","-58","18/12/22 05:14:46"
"29","314.92666418039613","281.8453284658967","-53","18/12/22 05:14:46"
"21","312.2097455219935","292.162060808992","-67","18/12/22 05:14:46"
"1","310.1259265928915","278.70449073794146","-58","18/12/22 05:14:46"
"31","307.5511614276879","295.00996894715564","-71","18/12/22 05:14:46"
"32","305.54424783000223","291.67259952111056","-69","18/12/22 05:14:46"
"24","304.15189129651577","278.15759935971454","-65","18/12/22 05:14:46"
"50","326.05052457251645","289.8389949933502","-67","18/12/22 05:14:46"
"51","325.52865148932665","289.89678566866576","-65","18/12/22 05:14:46"
"52","328.11586125507387","287.4313232778648","-67","18/12/22 05:14:46"
"39","331.19921154844013","282.4506584181093","-67","18/12/22 05:14:46"
"49","324.64434483360077","281.05069406440714","-58","18/12/22 05:14:46"
"60","317.86438613309105","294.4508642114292","-68","18/12/22 05:14:46"
"66","317.8060599171815","282.28143962675205","-54","18/12/22 05:14:46"
"59","316.07977491215206","289.20438220825775","-64","18/12/22 05:14:46"
"58","314.78004847075755","280.2954753208754","-54","18/12/22 05:14:46"
"54","307.49986821346045","279.97911141866837","-62","18/12/22 05:14:46"
"53","307.1346847375608","288.3856999339956","-67","18/12/22 05:14:46"
"44","303.28748062121537","278.0684013127651","-67","18/12/22 05:14:46"
"36","327.6657912280927","277.118307127184","-62","18/12/22 05:14:46"
"35","323.11876582852955","276.2274175573831","-57","18/12/22 05:14:46"

"10","336.1413674074077","294.350304541636","-70","18/12/22 05:14:47"
"17","331.40559805419605","289.40175250536043","-65","18/12/22 05:14:47"
"18","324.81243171034225","289.354156618153","-59","18/12/22 05:14:47"
"19","325.7000180868877","282.5235956632788","-50","18/12/22 05:14:47"
"27","338.70002381514996","281.9021306251078","-70","18/12/22 05:14:47"
"12","331.1499097808954","280.7809197256316","-62","18/12/22 05:14:47"
"28","334.0276721317696","280.0508786977858","-67","18/12/22 05:14:47"
"22","318.3514581116194","295.33489556531345","-65","18/12/22 05:14:47"
"9","317.81020784540914","283.4965351413325","-46","18/12/22 05:14:47"
"25","317.45601601651964","286.1915953109285","-52","18/12/22 05:14:47"
"26","316.20150849664645","287.0419759839082","-57","18/12/22 05:14:47"
"29","314.92666418039613","281.8453284658967","-55","18/12/22 05:14:47"
"21","312.2097455219935","292.162060808992","-66","18/12/22 05:14:47"
"1","310.1259265928915","278.70449073794146","-63","18/12/22 05:14:47"
"31","307.5511614276879","295.00996894715564","-70","18/12/22 05:14:47"
"32","305.54424783000223","291.67259952111056","-68","18/12/22 05:14:47"
"24","304.15189129651577","278.15759935971454","-71","18/12/22 05:14:47"
"61","336.15334237994176","289.2595097924601","-70","18/12/22 05:14:47"
"50","326.05052457251645","289.8389949933502","-61","18/12/22 05:14:47"
"51","325.52865148932665","289.89678566866576","-62","18/12/22 05:14:47"
"52","328.11586125507387","287.4313232778648","-60","18/12/22 05:14:47"
"39","331.19921154844013","282.4506584181093","-64","18/12/22 05:14:47"
"43","339.4086620459871","278.40122209988823","-72","18/12/22 05:14:47"
"49","324.64434483360077","281.05069406440714","-55","18/12/22 05:14:47"
"60","317.86438613309105","294.4508642114292","-64","18/12/22 05:14:47"
"66","317.8060599171815","282.28143962675205","-54","18/12/22 05:14:47"
"59","316.07977491215206","289.20438220825775","-60","18/12/22 05:14:47"
"58","314.78004847075755","280.2954753208754","-61","18/12/22 05:14:47"
"46","308.37496642449753","296.30964640293945","-71","18/12/22 05:14:47"
"54","307.49986821346045","279.97911141866837","-68","18/12/22 05:14:47"
"53","307.1346847375608","288.3856999339956","-67","18/12/22 05:14:47"
"44","303.28748062121537","278.0684013127651","-69","18/12/22 05:14:47"
"34","331.96168718049495","298.1027481685605","-69","18/12/22 05:14:47"
"36","327.6657912280927","277.118307127184","-60","18/12/22 05:14:47"
"35","323.11876582852955","276.2274175573831","-60","18/12/22 05:14:47"

"17","331.40559805419605","289.40175250536043","-69","18/12/22 05:14:48"
"18","324.81243171034225","289.354156618153","-63","18/12/22 05:14:48"
"19","325.7000180868877","282.5235956632788","-58","18/12/22 05:14:48"
"12","331.1499097808954","280.7809197256316","-66","18/12/22 05:14:48"
"28","334.0276721317696","280.0508786977858","-67","18/12/22 05:14:48"
"22","318.3514581116194","295.33489556531345","-69","18/12/22 05:14:48"
"9","317.81020784540914","283.4965351413325","-48","18/12/22 05:14:48"
"25","317.45601601651964","286.1915953109285","-55","18/12/22 05:14:48"
"26","316.20150849664645","287.0419759839082","-57","18/12/22 05:14:48"
"29","314.92666418039613","281.8453284658967","-47","18/12/22 05:14:48"
"21","312.2097455219935","292.162060808992","-64","18/12/22 05:14:48"
"1","310.1259265928915","278.70449073794146","-60","18/12/22 05:14:48"
"31","307.5511614276879","295.00996894715564","-71","18/12/22 05:14:48"
"32","305.54424783000223","291.67259952111056","-70","18/12/22 05:14:48"
"24","304.15189129651577","278.15759935971454","-65","18/12/22 05:14:48"
"50","326.05052457251645","289.8389949933502","-66","18/12/22 05:14:48"
"51","325.52865148932665","289.89678566866576","-66","18/12/22 05:14:48"
"52","328.11586125507387","287.4313232778648","-65","18/12/22 05:14:48"
"39","331.19921154844013","282.4506584181093","-68","18/12/22 05:14:48"
"49","324.64434483360077","281.05069406440714","-59","18/12/22 05:14:48"
"60","317.86438613309105","294.4508642114292","-68","18/12/22 05:14:48"
"66","317.8060599171815","282.28143962675205","-52","18/12/22 05:14:48"
"59","316.07977491215206","289.20438220825775","-63","18/12/22 05:14:48"
"58","314.78004847075755","280.2954753208754","-56","18/12/22 05:14:48"
"46","308.37496642449753","296.30964640293945","-69","18/12/22 05:14:48"
"54","307.49986821346045","279.97911141866837","-62","18/12/22 05:14:48"
"53","307.1346847375608","288.3856999339956","-66","18/12/22 05:14:48"
"44","303.28748062121537","278.0684013127651","-67","18/12/22 05:14:48"
"36","327.6657912280927","277.118307127184","-63","18/12/22 05:14:48"
"35","323.11876582852955","276.2274175573831","-60","18/12/22 05:14:48"

"11","336.39717841253946","295.7489270258509","-69","18/12/22 05:14:49"
"10","336.1413674074077","294.350304541636","-69","18/12/22 05:14:49"
"17","331.40559805419605","289.40175250536043","-64","18/12/22 05:14:49"
"18","324.81243171034225","289.354156618153","-58","18/12/22 05:14:49"
"19","325.7000180868877","282.5235956632788","-53","18/12/22 05:14:49"
"27","338.70002381514996","281.9021306251078","-71","18/12/22 05:14:49"
"12","331.1499097808954","280.7809197256316","-62","18/12/22 05:14:49"
"28","334.0276721317696","280.0508786977858","-67","18/12/22 05:14:49"
"22","318.3514581116194","295.33489556531345","-63","18/12/22 05:14:49"
"9","317.81020784540914","283.4965351413325","-44","18/12/22 05:14:49"
"25","317.45601601651964","286.1915953109285","-48","18/12/22 05:14:49"
"26","316.20150849664645","287.0419759839082","-54","18/12/22 05:14:49"
"29","314.92666418039613","281.8453284658967","-55","18/12/22 05:14:49"
"21","312.2097455219935","292.162060808992","-65","18/12/22 05:14:49"
"1","310.1259265928915","278.70449073794146","-64","18/12/22 05:14:49"
"31","307.5511614276879","295.00996894715564","-69","18/12/22 05:14:49"
"32","305.54424783000223","291.67259952111056","-68","18/12/22 05:14:49"
"24","304.15189129651577","278.15759935971454","-68","18/12/22 05:14:49"
"61","336.15334237994176","289.2595097924601","-69","18/12/22 05:14:49"
"50","326.05052457251645","289.8389949933502","-60","18/12/22 05:14:49"
"51","325.52865148932665","289.89678566866576","-62","18/12/22 05:14:49"
"52","328.11586125507387","287.4313232778648","-59","18/12/22 05:14:49"
"39","331.19921154844013","282.4506584181093","-64","18/12/22 05:14:49"
"49","324.64434483360077","281.05069406440714","-58","18/12/22 05:14:49"
"60","317.86438613309105","294.4508642114292","-65","18/12/22 05:14:49"
"66","317.8060599171815","282.28143962675205","-56","18/12/22 05:14:49"
"59","316.07977491215206","289.20438220825775","-59","18/12/22 05:14:49"
"58","314.78004847075755","280.2954753208754","-61","18/12/22 05:14:49"
"46","308.37496642449753","296.30964640293945","-68","18/12/22 05:14:49"
"54","307.49986821346045","279.97911141866837","-66","18/12/22 05:14:49"
"53","307.1346847375608","288.3856999339956","-68","18/12/22 05:14:49"
"45","306.16774359449516","295.83825924018686","-71","18/12/22 05:14:49"
"44","303.28748062121537","278.0684013127651","-69","18/12/22 05:14:49"
"34","331.96168718049495","298.1027481685605","-69","18/12/22 05:14:49"
"36","327.6657912280927","277.118307127184","-64","18/12/22 05:14:49"
"35","323.11876582852955","276.2274175573831","-62","18/12/22 05:14:49"

"17","331.40559805419605","289.40175250536043","-65","18/12/22 05:14:50"
"18","324.81243171034225","289.354156618153","-65","18/12/22 05:14:50"
"19","325.7000180868877","282.5235956632788","-57","18/12/22 05:14:50"
"27","338.70002381514996","281.9021306251078","-70","18/12/22 05:14:50"
"12","331.1499097808954","280.7809197256316","-63","18/12/22 05:14:50"
"28","334.0276721317696","280.0508786977858","-66","18/12/22 05:14:50"
"22","318.3514581116194","295.33489556531345","-69","18/12/22 05:14:50"
"9","317.81020784540914","283.4965351413325","-56","18/12/22 05:14:50"
"25","317.45601601651964","286.1915953109285","-60","18/12/22 05:14:50"
"26","316.20150849664645","287.0419759839082","-62","18/12/22 05:14:50"
"29","314.92666418039613","281.8453284658967","-58","18/12/22 05:14:50"
"21","312.2097455219935","292.162060808992","-66","18/12/22 05:14:50"
"1","310.1259265928915","278.70449073794146","-65","18/12/22 05:14:50"
"24","304.15189129651577","278.15759935971454","-68","18/12/22 05:14:50"
"61","336.15334237994176","289.2595097924601","-70","18/12/22 05:14:50"
"50","326.05052457251645","289.8389949933502","-65","18/12/22 05:14:50"
"51","325.52865148932665","289.89678566866576","-64","18/12/22 05:14:50"
"52","328.11586125507387","287.4313232778648","-65","18/12/22 05:14:50"
"39","331.19921154844013","282.4506584181093","-63","18/12/22 05:14:50"
"43","339.4086620459871","278.40122209988823","-71","18/12/22 05:14:50"
"42","339.4489517057548","274.9546618193048","-71","18/12/22 05:14:50"
"49","324.64434483360077","281.05069406440714","-56","18/12/22 05:14:50"
"60","317.86438613309105","294.4508642114292","-69","18/12/22 05:14:50"
"66","317.8060599171815","282.28143962675205","-58","18/12/22 05:14:50"
"59","316.07977491215206","289.20438220825775","-67","18/12/22 05:14:50"
"58","314.78004847075755","280.2954753208754","-58","18/12/22 05:14:50"
"54","307.49986821346045","279.97911141866837","-65","18/12/22 05:14:50"
"53","307.1346847375608","288.3856999339956","-68","18/12/22 05:14:50"
"44","303.28748062121537","278.0684013127651","-69","18/12/22 05:14:50"
"36","327.6657912280927","277.118307127184","-59","18/12/22 05:14:50"
"35","323.11876582852955","276.2274175573831","-54","18/12/22 05:14:50"

"16","371.1633676750538","291.6212652717856","-66","18/12/22 05:14:51"
"3","368.84524138719394","286.9218203312288","-60","18/12/22 05:14:51"
"15","362.1266840327696","289.9247238319014","-61","18/12/22 05:14:51"
"4","355.9439714101496","290.7893792995019","-62","18/12/22 05:14:51"
"5","353.9810038021357","295.04781575205163","-68","18/12/22 05:14:51"
"13","349.84618223700994","289.9553514529072","-64","18/12/22 05:14:51"
"2","348.1408537960116","288.23423753763217","-65","18/12/22 05:14:51"
"30","343.2390283415482","283.9143916081976","-67","18/12/22 05:14:51"
"20","353.1408270178149","283.88103993037146","-56","18/12/22 05:14:51"
"7","347.34235793783415","282.4034513151052","-64","18/12/22 05:14:51"
"23","364.558254913552","281.82669756865414","-52","18/12/22 05:14:51"
"6","359.99106657746074","280.301587980369","-31","18/12/22 05:14:51"
"8","367.3354491878782","280.1064609905054","-59","18/12/22 05:14:51"
"57","366.67753801548474","292.99761442456526","-68","18/12/22 05:14:51"
"56","360.1871028913134","296.3227006742018","-67","18/12/22 05:14:51"
"64","352.3109033702752","291.5434444456011","-64","18/12/22 05:14:51"
"63","348.9090656791867","293.4633933563527","-69","18/12/22 05:14:51"
"68","345.9130358690055","287.5744926001626","-68","18/12/22 05:14:51"
"47","345.54328146067445","291.78917578457714","-71","18/12/22 05:14:51"
"67","343.8744147351082","288.46122672890743","-69","18/12/22 05:14:51"
"40","368.331419463979","284.8557533661749","-63","18/12/22 05:14:51"
"69","355.7492879512798","282.11642190100935","-55","18/12/22 05:14:51"
"41","365.0886093120437","281.0774638084534","-56","18/12/22 05:14:51"
"65","349.2157371192029","280.0291401669304","-63","18/12/22 05:14:51"
"55","345.6957066049769","279.09346474203716","-69","18/12/22 05:14:51"
"48","357.8876200229331","278.9139540789042","-54","18/12/22 05:14:51"
"37","372.18696634735744","295.33877117864097","-69","18/12/22 05:14:51"
"38","359.1043053396113","297.99836785278586","-68","18/12/22 05:14:51"

"16","371.1633676750538","291.6212652717856","-66","18/12/22 05:14:52"
"3","368.84524138719394","286.9218203312288","-61","18/12/22 05:14:52"
"15","362.1266840327696","289.9247238319014","-60","18/12/22 05:14:52"
"4","355.9439714101496","290.7893792995019","-65","18/12/22 05:14:52"
"5","353.9810038021357","295.04781575205163","-66","18/12/22 05:14:52"
"13","349.84618223700994","289.9553514529072","-67","18/12/22 05:14:52"
"2","348.1408537960116","288.23423753763217","-67","18/12/22 05:14:52"
"30","343.2390283415482","283.9143916081976","-68","18/12/22 05:14:52"
"20","353.1408270178149","283.88103993037146","-60","18/12/22 05:14:52"
"7","347.34235793783415","282.4034513151052","-66","18/12/22 05:14:52"
"23","364.558254913552","281.82669756865414","-51","18/12/22 05:14:52"
"6","359.99106657746074","280.301587980369","-29","18/12/22 05:14:52"
"8","367.3354491878782","280.1064609905054","-56","18/12/22 05:14:52"
"57","366.67753801548474","292.99761442456526","-68","18/12/22 05:14:52"
"56","360.1871028913134","296.3227006742018","-67","18/12/22 05:14:52"
"64","352.3109033702752","291.5434444456011","-67","18/12/22 05:14:52"
"63","348.9090656791867","293.4633933563527","-67","18/12/22 05:14:52"
"68","345.9130358690055","287.5744926001626","-67","18/12/22 05:14:52"
"47","345.54328146067445","291.78917578457714","-68","18/12/22 05:14:52"
"67","343.8744147351082","288.46122672890743","-69","18/12/22 05:14:52"
"40","368.331419463979","284.8557533661749","-61","18/12/22 05:14:52"
"69","355.7492879512798","282.11642190100935","-58","18/12/22 05:14:52"
"41","365.0886093120437","281.0774638084534","-58","18/12/22 05:14:52"
"65","349.2157371192029","280.0291401669304","-63","18/12/22 05:14:52"
"55","345.6957066049769","279.09346474203716","-67","18/12/22 05:14:52"
"48","357.8876200229331","278.9139540789042","-55","18/12/22 05:14:52"
"37","372.18696634735744","295.33877117864097","-72","18/12/22 05:14:52"
"38","359.1043053396113","297.99836785278586","-70","18/12/22 05:14:52"

"16","371.1633676750538","291.6212652717856","-68","18/12/22 05:14:53"
"3","368.84524138719394","286.9218203312288","-61","18/12/22 05:14:53"
"15","362.1266840327696","289.9247238319014","-55","18/12/22 05:14:53"
"4","355.9439714101496","290.7893792995019","-60","18/12/22 05:14:53"
"5","353.9810038021357","295.04781575205163","-67","18/12/22 05:14:53"
"13","349.84618223700994","289.9553514529072","-62","18/12/22 05:14:53"
"2","348.1408537960116","288.23423753763217","-63","18/12/22 05:14:53"
"14","345.06356460251754","295.7312560393657","-70","18/12/22 05:14:53"
"30","343.2390283415482","283.9143916081976","-68","18/12/22 05:14:53"
"20","353.1408270178149","283.88103993037146","-55","18/12/22 05:14:53"
"7","347.34235793783415","282.4034513151052","-64","18/12/22 05:14:53"
"23","364.558254913552","281.82669756865414","-51","18/12/22 05:14:53"
"6","359.99106657746074","280.301587980369","-46","18/12/22 05:14:53"
"8","367.3354491878782","280.1064609905054","-60","18/12/22 05:14:53"
"57","366.67753801548474","292.99761442456526","-67","18/12/22 05:14:53"
"56","360.1871028913134","296.3227006742018","-67","18/12/22 05:14:53"
"64","352.3109033702752","291.5434444456011","-64","18/12/22 05:14:53"
"63","348.9090656791867","293.4633933563527","-66","18/12/22 05:14:53"
"68","345.9130358690055","287.5744926001626","-67","18/12/22 05:14:53"
"47","345.54328146067445","291.78917578457714","-67","18/12/22 05:14:53"
"67","343.8744147351082","288.46122672890743","-69","18/12/22 05:14:53"
"40","368.331419463979","284.8557533661749","-63","18/12/22 05:14:53"
"69","355.7492879512798","282.11642190100935","-54","18/12/22 05:14:53"
"41","365.0886093120437","281.0774638084534","-57","18/12/22 05:14:53"
"65","349.2157371192029","280.0291401669304","-62","18/12/22 05:14:53"
"55","345.6957066049769","279.09346474203716","-68","18/12/22 05:14:53"
"48","357.8876200229331","278.9139540789042","-57","18/12/22 05:14:53"
"37","372.18696634735744","295.33877117864097","-68","18/12/22 05:14:53"
"38","359.1043053396113","297.99836785278586","-65","18/12/22 05:14:53"

"16","371.1633676750538","291.6212652717856","-70","18/12/22 05:14:54"
"3","368.84524138719394","286.9218203312288","-65","18/12/22 05:14:54"
"15","362.1266840327696","289.9247238319014","-59","18/12/22 05:14:54"
"4","355.9439714101496","290.7893792995019","-62","18/12/22 05:14:54"
"5","353.9810038021357","295.04781575205163","-64","18/12/22 05:14:54"
"13","349.84618223700994","289.9553514529072","-64","18/12/22 05:14:54"
"2","348.1408537960116","288.23423753763217","-64","18/12/22 05:14:54"
"14","345.06356460251754","295.7312560393657","-71","18/12/22 05:14:54"
"30","343.2390283415482","283.9143916081976","-68","18/12/22 05:14:54"
"20","353.1408270178149","283.88103993037146","-52","18/12/22 05:14:54"
"7","347.34235793783415","282.4034513151052","-63","18/12/22 05:14:54"
"27","338.70002381514996","281.9021306251078","-69","18/12/22 05:14:54"
"23","364.558254913552","281.82669756865414","-54","18/12/22 05:14:54"
"6","359.99106657746074","280.301587980369","-45","18/12/22 05:14:54"
"8","367.3354491878782","280.1064609905054","-60","18/12/22 05:14:54"
"57","366.67753801548474","292.99761442456526","-66","18/12/22 05:14:54"
"56","360.1871028913134","296.3227006742018","-67","18/12/22 05:14:54"
"64","352.3109033702752","291.5434444456011","-63","18/12/22 05:14:54"
"63","348.9090656791867","293.4633933563527","-66","18/12/22 05:14:54"
"68","345.9130358690055","287.5744926001626","-66","18/12/22 05:14:54"
"47","345.54328146067445","291.78917578457714","-69","18/12/22 05:14:54"
"67","343.8744147351082","288.46122672890743","-68","18/12/22 05:14:54"
"40","368.331419463979","284.8557533661749","-65","18/12/22 05:14:54"
"69","355.7492879512798","282.11642190100935","-56","18/12/22 05:14:54"
"41","365.0886093120437","281.0774638084534","-61","18/12/22 05:14:54"
"65","349.2157371192029","280.0291401669304","-63","18/12/22 05:14:54"
"55","345.6957066049769","279.09346474203716","-67","18/12/22 05:14:54"
"48","357.8876200229331","278.9139540789042","-55","18/12/22 05:14:54"
"43","339.4086620459871","278.40122209988823","-70","18/12/22 05:14:54"
"37","372.18696634735744","295.33877117864097","-69","18/12/22 05:14:54"
"38","359.1043053396113","297.99836785278586","-68","18/12/22 05:14:54"

"16","371.1633676750538","291.6212652717856","-69","18/12/22 05:14:55"
"3","368.84524138719394","286.9218203312288","-67","18/12/22 05:14:55"
"15","362.1266840327696","289.9247238319014","-63","18/12/22 05:14:55"
"4","355.9439714101496","290.7893792995019","-65","18/12/22 05:14:55"
"5","353.9810038021357","295.04781575205163","-69","18/12/22 05:14:55"
"13","349.84618223700994","289.9553514529072","-65","18/12/22 05:14:55"
"2","348.1408537960116","288.23423753763217","-65","18/12/22 05:14:55"
"30","343.2390283415482","283.9143916081976","-66","18/12/22 05:14:55"
"20","353.1408270178149","283.88103993037146","-56","18/12/22 05:14:55"
"7","347.34235793783415","282.4034513151052","-63","18/12/22 05:14:55"
"27","338.70002381514996","281.9021306251078","-71","18/12/22 05:14:55"
"23","364.558254913552","281.82669756865414","-59","18/12/22 05:14:55"
"6","359.99106657746074","280.301587980369","-47","18/12/22 05:14:55"
"8","367.3354491878782","280.1064609905054","-60","18/12/22 05:14:55"
"57","366.67753801548474","292.99761442456526","-69","18/12/22 05:14:55"
"56","360.1871028913134","296.3227006742018","-71","18/12/22 05:14:55"
"64","352.3109033702752","291.5434444456011","-66","18/12/22 05:14:55"
"63","348.9090656791867","293.4633933563527","-70","18/12/22 05:14:55"
"68","345.9130358690055","287.5744926001626","-68","18/12/22 05:14:55"
"47","345.54328146067445","291.78917578457714","-70","18/12/22 05:14:55"
"67","343.8744147351082","288.46122672890743","-67","18/12/22 05:14:55"
"40","368.331419463979","284.8557533661749","-67","18/12/22 05:14:55"
"69","355.7492879512798","282.11642190100935","-56","18/12/22 05:14:55"
"41","365.0886093120437","281.0774638084534","-60","18/12/22 05:14:55"
"65","349.2157371192029","280.0291401669304","-60","18/12/22 05:14:55"
"55","345.6957066049769","279.09346474203716","-66","18/12/22 05:14:55"
"48","357.8876200229331","278.9139540789042","-52","18/12/22 05:14:55"
"43","339.4086620459871","278.40122209988823","-70","18/12/22 05:14:55"
"42","339.4489517057548","274.9546618193048","-69","18/12/22 05:14:55"
"38","359.1043053396113","297.99836785278586","-70","18/12/22 05:14:55"

"16","371.1633676750538","291.6212652717856","-69","18/12/22 05:14:56"
"3","368.84524138719394","286.9218203312288","-62","18/12/22 05:14:56"
"15","362.1266840327696","289.9247238319014","-61","18/12/22 05:14:56"
"4","355.9439714101496","290.7893792995019","-64","18/12/22 05:14:56"
"5","353.9810038021357","295.04781575205163","-68","18/12/22 05:14:56"
"13","349.84618223700994","289.9553514529072","-68","18/12/22 05:14:56"
"2","348.1408537960116","288.23423753763217","-68","18/12/22 05:14:56"
"30","343.2390283415482","283.9143916081976","-69","18/12/22 05:14:56"
"20","353.1408270178149","283.88103993037146","-59","18/12/22 05:14:56"
"7","347.34235793783415","282.4034513151052","-65","18/12/22 05:14:56"
"23","364.558254913552","281.82669756865414","-51","18/12/22 05:14:56"
"6","359.99106657746074","280.301587980369","-25","18/12/22 05:14:56"
"8","367.3354491878782","280.1064609905054","-57","18/12/22 05:14:56"
"57","366.67753801548474","292.99761442456526","-67","18/12/22 05:14:56"
"56","360.1871028913134","296.3227006742018","-68","18/12/22 05:14:56"
"64","352.3109033702752","291.5434444456011","-66","18/12/22 05:14:56"
"63","348.9090656791867","293.4633933563527","-71","18/12/22 05:14:56"
"68","345.9130358690055","287.5744926001626","-68","18/12/22 05:14:56"
"47","345.54328146067445","291.78917578457714","-70","18/12/22 05:14:56"
"67","343.8744147351082","288.46122672890743","-71","18/12/22 05:14:56"
"40","368.331419463979","284.8557533661749","-63","18/12/22 05:14:56"
"69","355.7492879512798","282.11642190100935","-57","18/12/22 05:14:56"
"41","365.0886093120437","281.0774638084534","-56","18/12/22 05:14:56"
"65","349.2157371192029","280.0291401669304","-64","18/12/22 05:14:56"
"55","345.6957066049769","279.09346474203716","-66","18/12/22 05:14:56"
"48","357.8876200229331","278.9139540789042","-55","18/12/22 05:14:56"
"38","359.1043053396113","297.99836785278586","-68","18/12/22 05:14:56"

"16","371.1633676750538","291.6212652717856","-70","18/12/22 05:14:57"
"3","368.84524138719394","286.9218203312288","-66","18/12/22 05:14:57"
"15","362.1266840327696","289.9247238319014","-62","18/12/22 05:14:57"
"4","355.9439714101496","290.7893792995019","-60","18/12/22 05:14:57"
"5","353.9810038021357","295.04781575205163","-66","18/12/22 05:14:57"
"13","349.84618223700994","289.9553514529072","-63","18/12/22 05:14:57"
"2","348.1408537960116","288.23423753763217","-61","18/12/22 05:14:57"
"14","345.06356460251754","295.7312560393657","-67","18/12/22 05:14:57"
"30","343.2390283415482","283.9143916081976","-64","18/12/22 05:14:57"
"20","353.1408270178149","283.88103993037146","-44","18/12/22 05:14:57"
"7","347.34235793783415","282.4034513151052","-58","18/12/22 05:14:57"
"27","338.70002381514996","281.9021306251078","-67","18/12/22 05:14:57"
"23","364.558254913552","281.82669756865414","-62","18/12/22 05:14:57"
"6","359.99106657746074","280.301587980369","-52","18/12/22 05:14:57"
"8","367.3354491878782","280.1064609905054","-63","18/12/22 05:14:57"
"57","366.67753801548474","292.99761442456526","-67","18/12/22 05:14:57"
"56","360.1871028913134","296.3227006742018","-66","18/12/22 05:14:57"
"64","352.3109033702752","291.5434444456011","-65","18/12/22 05:14:57"
"63","348.9090656791867","293.4633933563527","-66","18/12/22 05:14:57"
"68","345.9130358690055","287.5744926001626","-62","18/12/22 05:14:57"
"47","345.54328146067445","291.78917578457714","-65","18/12/22 05:14:57"
"67","343.8744147351082","288.46122672890743","-66","18/12/22 05:14:57"
"62","340.68633651580996","292.8798191329979","-69","18/12/22 05:14:57"
"40","368.331419463979","284.8557533661749","-65","18/12/22 05:14:57"
"69","355.7492879512798","282.11642190100935","-53","18/12/22 05:14:57"
"41","365.0886093120437","281.0774638084534","-61","18/12/22 05:14:57"
"65","349.2157371192029","280.0291401669304","-61","18/12/22 05:14:57"
"55","345.6957066049769","279.09346474203716","-63","18/12/22 05:14:57"
"48","357.8876200229331","278.9139540789042","-57","18/12/22 05:14:57"
"43","339.4086620459871","278.40122209988823","-70","18/12/22 05:14:57"
"42","339.4489517057548","274.9546618193048","-69","18/12/22 05:14:57"
"38","359.1043053396113","297.99836785278586","-68","18/12/22 05:14:57"

"3","368.84524138719394","286.9218203312288","-70","18/12/22 05:14:58"
"15","362.1266840327696","289.9247238319014","-65","18/12/22 05:14:58"
"4","355.9439714101496","290.7893792995019","-63","18/12/22 05:14:58"
"5","353.9810038021357","295.04781575205163","-67","18/12/22 05:14:58"
"13","349.84618223700994","289.9553514529072","-60","18/12/22 05:14:58"
"2","348.1408537960116","288.23423753763217","-61","18/12/22 05:14:58"
"14","345.06356460251754","295.7312560393657","-70","18/12/22 05:14:58"
"30","343.2390283415482","283.9143916081976","-62","18/12/22 05:14:58"
"20","353.1408270178149","283.88103993037146","-45","18/12/22 05:14:58"
"7","347.34235793783415","282.4034513151052","-54","18/12/22 05:14:58"
"27","338.70002381514996","281.9021306251078","-66","18/12/22 05:14:58"
"23","364.558254913552","281.82669756865414","-66","18/12/22 05:14:58"
"6","359.99106657746074","280.301587980369","-57","18/12/22 05:14:58"
"8","367.3354491878782","280.1064609905054","-65","18/12/22 05:14:58"
"28","334.0276721317696","280.0508786977858","-71","18/12/22 05:14:58"
"57","366.67753801548474","292.99761442456526","-69","18/12/22 05:14:58"
"56","360.1871028913134","296.3227006742018","-67","18/12/22 05:14:58"
"64","352.3109033702752","291.5434444456011","-64","18/12/22 05:14:58"
"63","348.9090656791867","293.4633933563527","-65","18/12/22 05:14:58"
"68","345.9130358690055","287.5744926001626","-63","18/12/22 05:14:58"
"47","345.54328146067445","291.78917578457714","-67","18/12/22 05:14:58"
"67","343.8744147351082","288.46122672890743","-67","18/12/22 05:14:58"
"62","340.68633651580996","292.8798191329979","-68","18/12/22 05:14:58"
"61","336.15334237994176","289.2595097924601","-71","18/12/22 05:14:58"
"40","368.331419463979","284.8557533661749","-68","18/12/22 05:14:58"
"69","355.7492879512798","282.11642190100935","-55","18/12/22 05:14:58"
"41","365.0886093120437","281.0774638084534","-66","18/12/22 05:14:58"
"65","349.2157371192029","280.0291401669304","-55","18/12/22 05:14:58"
"55","345.6957066049769","279.09346474203716","-59","18/12/22 05:14:58"
"48","357.8876200229331","278.9139540789042","-57","18/12/22 05:14:58"
"43","339.4086620459871","278.40122209988823","-66","18/12/22 05:14:58"
"42","339.4489517057548","274.9546618193048","-68","18/12/22 05:14:58"
"38","359.1043053396113","297.99836785278586","-71","18/12/22 05:14:58"

"16","371.1633676750538","291.6212652717856","-69","18/12/22 05:14:59"
"3","368.84524138719394","286.9218203312288","-66","18/12/22 05:14:59"
"15","362.1266840327696","289.9247238319014","-63","18/12/22 05:14:59"
"4","355.9439714101496","290.7893792995019","-61","18/12/22 05:14:59"
"5","353.9810038021357","295.04781575205163","-65","18/12/22 05:14:59"
"13","349.84618223700994","289.9553514529072","-58","18/12/22 05:14:59"
"2","348.1408537960116","288.23423753763217","-58","18/12/22 05:14:59"
"14","345.06356460251754","295.7312560393657","-69","18/12/22 05:14:59"
"30","343.2390283415482","283.9143916081976","-62","18/12/22 05:14:59"
"20","353.1408270178149","283.88103993037146","-38","18/12/22 05:14:59"
"7","347.34235793783415","282.4034513151052","-58","18/12/22 05:14:59"
"27","338.70002381514996","281.9021306251078","-66","18/12/22 05:14:59"
"23","364.558254913552","281.82669756865414","-63","18/12/22 05:14:59"
"6","359.99106657746074","280.301587980369","-54","18/12/22 05:14:59"
"8","367.3354491878782","280.1064609905054","-66","18/12/22 05:14:59"
"57","366.67753801548474","292.99761442456526","-69","18/12/22 05:14:59"
"56","360.1871028913134","296.3227006742018","-69","18/12/22 05:14:59"
"64","352.3109033702752","291.5434444456011","-60","18/12/22 05:14:59"
"63","348.9090656791867","293.4633933563527","-67","18/12/22 05:14:59"
"68","345.9130358690055","287.5744926001626","-62","18/12/22 05:14:59"
"47","345.54328146067445","291.78917578457714","-67","18/12/22 05:14:59"
"67","343.8744147351082","288.46122672890743","-65","18/12/22 05:14:59"
"62","340.68633651580996","292.8798191329979","-69","18/12/22 05:14:59"
"61","336.15334237994176","289.2595097924601","-70","18/12/22 05:14:59"
"40","368.331419463979","284.8557533661749","-67","18/12/22 05:14:59"
"69","355.7492879512798","282.11642190100935","-52","18/12/22 05:14:59"
"41","365.0886093120437","281.0774638084534","-65","18/12/22 05:14:59"
"65","349.2157371192029","280.0291401669304","-57","18/12/22 05:14:59"
"55","345.6957066049769","279.09346474203716","-60","18/12/22 05:14:59"
"48","357.8876200229331","278.9139540789042","-58","18/12/22 05:14:59"
"43","339.4086620459871","278.40122209988823","-66","18/12/22 05:14:59"
"42","339.4489517057548","274.9546618193048","-69","18/12/22 05:14:59"
"38","359.1043053396113","297.99836785278586","-67","18/12/22 05:14:59"

"3","368.84524138719394","286.9218203312288","-69","18/12/22 05:15:00"
"15","362.1266840327696","289.9247238319014","-65","18/12/22 05:15:00"
"4","355.9439714101496","290.7893792995019","-65","18/12/22 05:15:00"
"5","353.9810038021357","295.04781575205163","-69","18/12/22 05:15:00"
"13","349.84618223700994","289.9553514529072","-64","18/12/22 05:15:00"
"2","348.1408537960116","288.23423753763217","-65","18/12/22 05:15:00"
"14","345.06356460251754","295.7312560393657","-68","18/12/22 05:15:00"
"30","343.2390283415482","283.9143916081976","-63","18/12/22 05:15:00"
"20","353.1408270178149","283.88103993037146","-54","18/12/22 05:15:00"
"7","347.34235793783415","282.4034513151052","-59","18/12/22 05:15:00"
"27","338.70002381514996","281.9021306251078","-67","18/12/22 05:15:00"
"23","364.558254913552","281.82669756865414","-63","18/12/22 05:15:00"
"6","359.99106657746074","280.301587980369","-56","18/12/22 05:15:00"
"8","367.3354491878782","280.1064609905054","-66","18/12/22 05:15:00"
"57","366.67753801548474","292.99761442456526","-69","18/12/22 05:15:00"
"56","360.1871028913134","296.3227006742018","-68","18/12/22 05:15:00"
"64","352.3109033702752","291.5434444456011","-65","18/12/22 05:15:00"
"63","348.9090656791867","293.4633933563527","-69","18/12/22 05:15:00"
"68","345.9130358690055","287.5744926001626","-66","18/12/22 05:15:00"
"47","345.54328146067445","291.78917578457714","-66","18/12/22 05:15:00"
"67","343.8744147351082","288.46122672890743","-65","18/12/22 05:15:00"
"40","368.331419463979","284.8557533661749","-66","18/12/22 05:15:00"
"69","355.7492879512798","282.11642190100935","-54","18/12/22 05:15:00"
"41","365.0886093120437","281.0774638084534","-65","18/12/22 05:15:00"
"65","349.2157371192029","280.0291401669304","-57","18/12/22 05:15:00"
"55","345.6957066049769","279.09346474203716","-61","18/12/22 05:15:00"
"48","357.8876200229331","278.9139540789042","-54","18/12/22 05:15:00"
"43","339.4086620459871","278.40122209988823","-69","18/12/22 05:15:00"
"42","339.4489517057548","274.9546618193048","-69","18/12/22 05:15:00"

"16","371.1633676750538","291.6212652717856","-70","18/12/22 05:15:01"
"3","368.84524138719394","286.9218203312288","-68","18/12/22 05:15:01"
"15","362.1266840327696","289.9247238319014","-61","18/12/22 05:15:01"
"4","355.9439714101496","290.7893792995019","-61","18/12/22 05:15:01"
"5","353.9810038021357","295.04781575205163","-67","18/12/22 05:15:01"
"13","349.84618223700994","289.9553514529072","-64","18/12/22 05:15:01"
"2","348.1408537960116","288.23423753763217","-63","18/12/22 05:15:01"
"14","345.06356460251754","295.7312560393657","-68","18/12/22 05:15:01"
"30","343.2390283415482","283.9143916081976","-63","18/12/22 05:15:01"
"20","353.1408270178149","283.88103993037146","-49","18/12/22 05:15:01"
"7","347.34235793783415","282.4034513151052","-59","18/12/22 05:15:01"
"27","338.70002381514996","281.9021306251078","-70","18/12/22 05:15:01"
"23","364.558254913552","281.82669756865414","-59","18/12/22 05:15:01"
"6","359.99106657746074","280.301587980369","-52","18/12/22 05:15:01"
"8","367.3354491878782","280.1064609905054","-65","18/12/22 05:15:01"
"57","366.67753801548474","292.99761442456526","-68","18/12/22 05:15:01"
"56","360.1871028913134","296.3227006742018","-67","18/12/22 05:15:01"
"64","352.3109033702752","291.5434444456011","-63","18/12/22 05:15:01"
"63","348.9090656791867","293.4633933563527","-65","18/12/22 05:15:01"
"68","345.9130358690055","287.5744926001626","-67","18/12/22 05:15:01"
"47","345.54328146067445","291.78917578457714","-68","18/12/22 05:15:01"
"67","343.8744147351082","288.46122672890743","-65","18/12/22 05:15:01"
"62","340.68633651580996","292.8798191329979","-69","18/12/22 05:15:01"
"40","368.331419463979","284.8557533661749","-68","18/12/22 05:15:01"
"69","355.7492879512798","282.11642190100935","-51","18/12/22 05:15:01"
"41","365.0886093120437","281.0774638084534","-63","18/12/22 05:15:01"
"65","349.2157371192029","280.0291401669304","-59","18/12/22 05:15:01"
"55","345.6957066049769","279.09346474203716","-64","18/12/22 05:15:01"
"48","357.8876200229331","278.9139540789042","-55","18/12/22 05:15:01"
"43","339.4086620459871","278.40122209988823","-68","18/12/22 05:15:01"
"42","339.4489517057548","274.9546618193048","-68","18/12/22 05:15:01"
"38","359.1043053396113","297.99836785278586","-70","18/12/22 05:15:01"

"3","368.84524138719394","286.9218203312288","-67","18/12/22 05:15:02"
"15","362.1266840327696","289.9247238319014","-67","18/12/22 05:15:02"
"4","355.9439714101496","290.7893792995019","-63","18/12/22 05:15:02"
"5","353.9810038021357","295.04781575205163","-70","18/12/22 05:15:02"
"13","349.84618223700994","289.9553514529072","-65","18/12/22 05:15:02"
"2","348.1408537960116","288.23423753763217","-62","18/12/22 05:15:02"
"14","345.06356460251754","295.7312560393657","-69","18/12/22 05:15:02"
"30","343.2390283415482","283.9143916081976","-63","18/12/22 05:15:02"
"20","353.1408270178149","283.88103993037146","-54","18/12/22 05:15:02"
"7","347.34235793783415","282.4034513151052","-56","18/12/22 05:15:02"
"27","338.70002381514996","281.9021306251078","-67","18/12/22 05:15:02"
"23","364.558254913552","281.82669756865414","-63","18/12/22 05:15:02"
"6","359.99106657746074","280.301587980369","-55","18/12/22 05:15:02"
"8","367.3354491878782","280.1064609905054","-66","18/12/22 05:15:02"
"28","334.0276721317696","280.0508786977858","-71","18/12/22 05:15:02"
"56","360.1871028913134","296.3227006742018","-72","18/12/22 05:15:02"
"64","352.3109033702752","291.5434444456011","-67","18/12/22 05:15:02"
"63","348.9090656791867","293.4633933563527","-67","18/12/22 05:15:02"
"68","345.9130358690055","287.5744926001626","-63","18/12/22 05:15:02"
"47","345.54328146067445","291.78917578457714","-67","18/12/22 05:15:02"
"67","343.8744147351082","288.46122672890743","-68","18/12/22 05:15:02"
"62","340.68633651580996","292.8798191329979","-72","18/12/22 05:15:02"
"40","368.331419463979","284.8557533661749","-67","18/12/22 05:15:02"
"69","355.7492879512798","282.11642190100935","-57","18/12/22 05:15:02"
"41","365.0886093120437","281.0774638084534","-64","18/12/22 05:15:02"
"65","349.2157371192029","280.0291401669304","-57","18/12/22 05:15:02"
"55","345.6957066049769","279.09346474203716","-60","18/12/22 05:15:02"
"48","357.8876200229331","278.9139540789042","-57","18/12/22 05:15:02"
"43","339.4086620459871","278.40122209988823","-65","18/12/22 05:15:02"
"42","339.4489517057548","274.9546618193048","-67","18/12/22 05:15:02"

"17","331.40559805419605","289.40175250536043","-65","18/12/22 05:15:03"
"18","324.81243171034225","289.354156618153","-61","18/12/22 05:15:03"
"19","325.7000180868877","282.5235956632788","-57","18/12/22 05:15:03"
"27","338.70002381514996","281.9021306251078","-72","18/12/22 05:15:03"
"12","331.1499097808954","280.7809197256316","-62","18/12/22 05:15:03"
"28","334.0276721317696","280.0508786977858","-65","18/12/22 05:15:03"
"22","318.3514581116194","295.33489556531345","-65","18/12/22 05:15:03"
"9","317.81020784540914","283.4965351413325","-47","18/12/22 05:15:03"
"25","317.45601601651964","286.1915953109285","-55","18/12/22 05:15:03"
"26","316.20150849664645","287.0419759839082","-57","18/12/22 05:15:03"
"29","314.92666418039613","281.8453284658967","-50","18/12/22 05:15:03"
"21","312.2097455219935","292.162060808992","-63","18/12/22 05:15:03"
"1","310.1259265928915","278.70449073794146","-62","18/12/22 05:15:03"
"31","307.5511614276879","295.00996894715564","-71","18/12/22 05:15:03"
"32","305.54424783000223","291.67259952111056","-69","18/12/22 05:15:03"
"24","304.15189129651577","278.15759935971454","-67","18/12/22 05:15:03"
"61","336.15334237994176","289.2595097924601","-72","18/12/22 05:15:03"
"50","326.05052457251645","289.8389949933502","-63","18/12/22 05:15:03"
"51","325.52865148932665","289.89678566866576","-64","18/12/22 05:15:03"
"52","328.11586125507387","287.4313232778648","-64","18/12/22 05:15:03"
"39","331.19921154844013","282.4506584181093","-66","18/12/22 05:15:03"
"49","324.64434483360077","281.05069406440714","-58","18/12/22 05:15:03"
"60","317.86438613309105","294.4508642114292","-67","18/12/22 05:15:03"
"66","317.8060599171815","282.28143962675205","-53","18/12/22 05:15:03"
"59","316.07977491215206","289.20438220825775","-61","18/12/22 05:15:03"
"58","314.78004847075755","280.2954753208754","-57","18/12/22 05:15:03"
"46","308.37496642449753","296.30964640293945","-70","18/12/22 05:15:03"
"54","307.49986821346045","279.97911141866837","-66","18/12/22 05:15:03"
"53","307.1346847375608","288.3856999339956","-69","18/12/22 05:15:03"
"44","303.28748062121537","278.0684013127651","-67","18/12/22 05:15:03"
"36","327.6657912280927","277.118307127184","-61","18/12/22 05:15:03"
"35","323.11876582852955","276.2274175573831","-60","18/12/22 05:15:03"

"17","331.40559805419605","289.40175250536043","-66","18/12/22 05:15:04"
"18","324.81243171034225","289.354156618153","-61","18/12/22 05:15:04"
"19","325.7000180868877","282.5235956632788","-55","18/12/22 05:15:04"
"27","338.70002381514996","281.9021306251078","-68","18/12/22 05:15:04"
"12","331.1499097808954","280.7809197256316","-64","18/12/22 05:15:04"
"28","334.0276721317696","280.0508786977858","-67","18/12/22 05:15:04"
"22","318.3514581116194","295.33489556531345","-68","18/12/22 05:15:04"
"9","317.81020784540914","283.4965351413325","-47","18/12/22 05:15:04"
"25","317.45601601651964","286.1915953109285","-54","18/12/22 05:15:04"
"26","316.20150849664645","287.0419759839082","-57","18/12/22 05:15:04"
"29","314.92666418039613","281.8453284658967","-53","18/12/22 05:15:04"
"21","312.2097455219935","292.162060808992","-65","18/12/22 05:15:04"
"1","310.1259265928915","278.70449073794146","-60","18/12/22 05:15:04"
"31","307.5511614276879","295.00996894715564","-71","18/12/22 05:15:04"
"32","305.54424783000223","291.67259952111056","-69","18/12/22 05:15:04"
"24","304.15189129651577","278.15759935971454","-69","18/12/22 05:15:04"
"61","336.15334237994176","289.2595097924601","-71","18/12/22 05:15:04"
"50","326.05052457251645","289.8389949933502","-64","18/12/22 05:15:04"
"51","325.52865148932665","289.89678566866576","-63","18/12/22 05:15:04"
"52","328.11586125507387","287.4313232778648","-65","18/12/22 05:15:04"
"39","331.19921154844013","282.4506584181093","-62","18/12/22 05:15:04"
"49","324.64434483360077","281.05069406440714","-58","18/12/22 05:15:04"
"60","317.86438613309105","294.4508642114292","-66","18/12/22 05:15:04"
"66","317.8060599171815","282.28143962675205","-53","18/12/22 05:15:04"
"59","316.07977491215206","289.20438220825775","-64","18/12/22 05:15:04"
"58","314.78004847075755","280.2954753208754","-59","18/12/22 05:15:04"
"46","308.37496642449753","296.30964640293945","-72","18/12/22 05:15:04"
"54","307.49986821346045","279.97911141866837","-67","18/12/22 05:15:04"
"53","307.1346847375608","288.3856999339956","-66","18/12/22 05:15:04"
"44","303.28748062121537","278.0684013127651","-68","18/12/22 05:15:04"
"36","327.6657912280927","277.118307127184","-63","18/12/22 05:15:04"
"35","323.11876582852955","276.2274175573831","-57","18/12/22 05:15:04"

"17","331.40559805419605","289.40175250536043","-66","18/12/22 05:15:05"
"18","324.81243171034225","289.354156618153","-61","18/12/22 05:15:05"
"19","325.7000180868877","282.5235956632788","-57","18/12/22 05:15:05"
"12","331.1499097808954","280.7809197256316","-67","18/12/22 05:15:05"
"28","334.0276721317696","280.0508786977858","-69","18/12/22 05:15:05"
"22","318.3514581116194","295.33489556531345","-64","18/12/22 05:15:05"
"9","317.81020784540914","283.4965351413325","-33","18/12/22 05:15:05"
"25","317.45601601651964","286.1915953109285","-49","18/12/22 05:15:05"
"26","316.20150849664645","287.0419759839082","-53","18/12/22 05:15:05"
"29","314.92666418039613","281.8453284658967","-45","18/12/22 05:15:05"
"21","312.2097455219935","292.162060808992","-61","18/12/22 05:15:05"
"1","310.1259265928915","278.70449073794146","-58","18/12/22 05:15:05"
"31","307.5511614276879","295.00996894715564","-67","18/12/22 05:15:05"
"32","305.54424783000223","291.67259952111056","-66","18/12/22 05:15:05"
"24","304.15189129651577","278.15759935971454","-65","18/12/22 05:15:05"
"50","326.05052457251645","289.8389949933502","-62","18/12/22 05:15:05"
"51","325.52865148932665","289.89678566866576","-63","18/12/22 05:15:05"
"52","328.11586125507387","287.4313232778648","-65","18/12/22 05:15:05"
"39","331.19921154844013","282.4506584181093","-68","18/12/22 05:15:05"
"49","324.64434483360077","281.05069406440714","-60","18/12/22 05:15:05"
"60","317.86438613309105","294.4508642114292","-66","18/12/22 05:15:05"
"66","317.8060599171815","282.28143962675205","-53","18/12/22 05:15:05"
"59","316.07977491215206","289.20438220825775","-58","18/12/22 05:15:05"
"58","314.78004847075755","280.2954753208754","-56","18/12/22 05:15:05"
"46","308.37496642449753","296.30964640293945","-69","18/12/22 05:15:05"
"54","307.49986821346045","279.97911141866837","-62","18/12/22 05:15:05"
"53","307.1346847375608","288.3856999339956","-67","18/12/22 05:15:05"
"45","306.16774359449516","295.83825924018686","-71","18/12/22 05:15:05"
"44","303.28748062121537","278.0684013127651","-69","18/12/22 05:15:05"
"36","327.6657912280927","277.118307127184","-66","18/12/22 05:15:05"
"35","323.11876582852955","276.2274175573831","-63","18/12/22 05:15:05"

"18","324.81243171034225","289.354156618153","-67","18/12/22 05:15:06"
"19","325.7000180868877","282.5235956632788","-70","18/12/22 05:15:06"
"22","318.3514581116194","295.33489556531345","-65","18/12/22 05:15:06"
"9","317.81020784540914","283.4965351413325","-63","18/12/22 05:15:06"
"25","317.45601601651964","286.1915953109285","-62","18/12/22 05:15:06"
"26","316.20150849664645","287.0419759839082","-57","18/12/22 05:15:06"
"29","314.92666418039613","281.8453284658967","-57","18/12/22 05:15:06"
"21","312.2097455219935","292.162060808992","-57","18/12/22 05:15:06"
"1","310.1259265928915","278.70449073794146","-58","18/12/22 05:15:06"
"31","307.5511614276879","295.00996894715564","-59","18/12/22 05:15:06"
"32","305.54424783000223","291.67259952111056","-54","18/12/22 05:15:06"
"24","304.15189129651577","278.15759935971454","-60","18/12/22 05:15:06"
"50","326.05052457251645","289.8389949933502","-69","18/12/22 05:15:06"
"51","325.52865148932665","289.89678566866576","-71","18/12/22 05:15:06"
"49","324.64434483360077","281.05069406440714","-68","18/12/22 05:15:06"
"60","317.86438613309105","294.4508642114292","-65","18/12/22 05:15:06"
"66","317.8060599171815","282.28143962675205","-63","18/12/22 05:15:06"
"59","316.07977491215206","289.20438220825775","-63","18/12/22 05:15:06"
"58","314.78004847075755","280.2954753208754","-61","18/12/22 05:15:06"
"46","308.37496642449753","296.30964640293945","-63","18/12/22 05:15:06"
"54","307.49986821346045","279.97911141866837","-57","18/12/22 05:15:06"
"53","307.1346847375608","288.3856999339956","-52","18/12/22 05:15:06"
"45","306.16774359449516","295.83825924018686","-64","18/12/22 05:15:06"
"44","303.28748062121537","278.0684013127651","-61","18/12/22 05:15:06"
"35","323.11876582852955","276.2274175573831","-68","18/12/22 05:15:06"

"18","324.81243171034225","289.354156618153","-69","18/12/22 05:15:07"
"19","325.7000180868877","282.5235956632788","-69","18/12/22 05:15:07"
"22","318.3514581116194","295.33489556531345","-65","18/12/22 05:15:07"
"9","317.81020784540914","283.4965351413325","-61","18/12/22 05:15:07"
"25","317.45601601651964","286.1915953109285","-59","18/12/22 05:15:07"
"26","316.20150849664645","287.0419759839082","-58","18/12/22 05:15:07"
"29","314.92666418039613","281.8453284658967","-59","18/12/22 05:15:07"
"21","312.2097455219935","292.162060808992","-56","18/12/22 05:15:07"
"1","310.1259265928915","278.70449073794146","-59","18/12/22 05:15:07"
"31","307.5511614276879","295.00996894715564","-59","18/12/22 05:15:07"
"32","305.54424783000223","291.67259952111056","-54","18/12/22 05:15:07"
"24","304.15189129651577","278.15759935971454","-59","18/12/22 05:15:07"
"50","326.05052457251645","289.8389949933502","-68","18/12/22 05:15:07"
"51","325.52865148932665","289.89678566866576","-68","18/12/22 05:15:07"
"49","324.64434483360077","281.05069406440714","-68","18/12/22 05:15:07"
"60","317.86438613309105","294.4508642114292","-64","18/12/22 05:15:07"
"66","317.8060599171815","282.28143962675205","-64","18/12/22 05:15:07"
"59","316.07977491215206","289.20438220825775","-60","18/12/22 05:15:07"
"58","314.78004847075755","280.2954753208754","-60","18/12/22 05:15:07"
"46","308.37496642449753","296.30964640293945","-63","18/12/22 05:15:07"
"54","307.49986821346045","279.97911141866837","-59","18/12/22 05:15:07"
"53","307.1346847375608","288.3856999339956","-54","18/12/22 05:15:07"
"45","306.16774359449516","295.83825924018686","-62","18/12/22 05:15:07"
"44","303.28748062121537","278.0684013127651","-63","18/12/22 05:15:07"
"35","323.11876582852955","276.2274175573831","-72","18/12/22 05:15:07"

"18","324.81243171034225","289.354156618153","-68","18/12/22 05:15:08"
"19","325.7000180868877","282.5235956632788","-69","18/12/22 05:15:08"
"22","318.3514581116194","295.33489556531345","-68","18/12/22 05:15:08"
"9","317.81020784540914","283.4965351413325","-63","18/12/22 05:15:08"
"25","317.45601601651964","286.1915953109285","-64","18/12/22 05:15:08"
"26","316.20150849664645","287.0419759839082","-62","18/12/22 05:15:08"
"29","314.92666418039613","281.8453284658967","-60","18/12/22 05:15:08"
"21","312.2097455219935","292.162060808992","-57","18/12/22 05:15:08"
"1","310.1259265928915","278.70449073794146","-58","18/12/22 05:15:08"
"31","307.5511614276879","295.00996894715564","-60","18/12/22 05:15:08"
"32","305.54424783000223","291.67259952111056","-52","18/12/22 05:15:08"
"24","304.15189129651577","278.15759935971454","-62","18/12/22 05:15:08"
"49","324.64434483360077","281.05069406440714","-72","18/12/22 05:15:08"
"60","317.86438613309105","294.4508642114292","-68","18/12/22 05:15:08"
"66","317.8060599171815","282.28143962675205","-65","18/12/22 05:15:08"
"59","316.07977491215206","289.20438220825775","-61","18/12/22 05:15:08"
"58","314.78004847075755","280.2954753208754","-64","18/12/22 05:15:08"
"46","308.37496642449753","296.30964640293945","-61","18/12/22 05:15:08"
"54","307.49986821346045","279.97911141866837","-61","18/12/22 05:15:08"
"53","307.1346847375608","288.3856999339956","-55","18/12/22 05:15:08"
"45","306.16774359449516","295.83825924018686","-64","18/12/22 05:15:08"
"44","303.28748062121537","278.0684013127651","-60","18/12/22 05:15:08"

"16","371.1633676750538","291.6212652717856","-66","18/12/22 05:15:09"
"3","368.84524138719394","286.9218203312288","-64","18/12/22 05:15:09"
"15","362.1266840327696","289.9247238319014","-53","18/12/22 05:15:09"
"4","355.9439714101496","290.7893792995019","-44","18/12/22 05:15:09"
"5","353.9810038021357","295.04781575205163","-57","18/12/22 05:15:09"
"13","349.84618223700994","289.9553514529072","-58","18/12/22 05:15:09"
"2","348.1408537960116","288.23423753763217","-60","18/12/22 05:15:09"
"14","345.06356460251754","295.7312560393657","-65","18/12/22 05:15:09"
"30","343.2390283415482","283.9143916081976","-67","18/12/22 05:15:09"
"20","353.1408270178149","283.88103993037146","-57","18/12/22 05:15:09"
"7","347.34235793783415","282.4034513151052","-65","18/12/22 05:15:09"
"27","338.70002381514996","281.9021306251078","-69","18/12/22 05:15:09"
"23","364.558254913552","281.82669756865414","-61","18/12/22 05:15:09"
"6","359.99106657746074","280.301587980369","-58","18/12/22 05:15:09"
"8","367.3354491878782","280.1064609905054","-64","18/12/22 05:15:09"
"57","366.67753801548474","292.99761442456526","-64","18/12/22 05:15:09"
"56","360.1871028913134","296.3227006742018","-60","18/12/22 05:15:09"
"64","352.3109033702752","291.5434444456011","-57","18/12/22 05:15:09"
"63","348.9090656791867","293.4633933563527","-63","18/12/22 05:15:09"
"68","345.9130358690055","287.5744926001626","-66","18/12/22 05:15:09"
"47","345.54328146067445","291.78917578457714","-67","18/12/22 05:15:09"
"67","343.8744147351082","288.46122672890743","-68","18/12/22 05:15:09"
"62","340.68633651580996","292.8798191329979","-70","18/12/22 05:15:09"
"40","368.331419463979","284.8557533661749","-64","18/12/22 05:15:09"
"69","355.7492879512798","282.11642190100935","-60","18/12/22 05:15:09"
"41","365.0886093120437","281.0774638084534","-64","18/12/22 05:15:09"
"65","349.2157371192029","280.0291401669304","-66","18/12/22 05:15:09"
"55","345.6957066049769","279.09346474203716","-68","18/12/22 05:15:09"
"48","357.8876200229331","278.9139540789042","-64","18/12/22 05:15:09"
"37","372.18696634735744","295.33877117864097","-70","18/12/22 05:15:09"
"38","359.1043053396113","297.99836785278586","-62","18/12/22 05:15:09"

"16","371.1633676750538","291.6212652717856","-56","18/12/22 05:15:10"
"3","368.84524138719394","286.9218203312288","-58","18/12/22 05:15:10"
"15","362.1266840327696","289.9247238319014","-54","18/12/22 05:15:10"
"4","355.9439714101496","290.7893792995019","-61","18/12/22 05:15:10"
"5","353.9810038021357","295.04781575205163","-64","18/12/22 05:15:10"
"13","349.84618223700994","289.9553514529072","-68","18/12/22 05:15:10"
"2","348.1408537960116","288.23423753763217","-70","18/12/22 05:15:10"
"20","353.1408270178149","283.88103993037146","-68","18/12/22 05:15:10"
"23","364.558254913552","281.82669756865414","-63","18/12/22 05:15:10"
"6","359.99106657746074","280.301587980369","-66","18/12/22 05:15:10"
"8","367.3354491878782","280.1064609905054","-68","18/12/22 05:15:10"
"57","366.67753801548474","292.99761442456526","-55","18/12/22 05:15:10"
"56","360.1871028913134","296.3227006742018","-55","18/12/22 05:15:10"
"64","352.3109033702752","291.5434444456011","-65","18/12/22 05:15:10"
"63","348.9090656791867","293.4633933563527","-70","18/12/22 05:15:10"
"40","368.331419463979","284.8557533661749","-65","18/12/22 05:15:10"
"69","355.7492879512798","282.11642190100935","-67","18/12/22 05:15:10"
"41","365.0886093120437","281.0774638084534","-65","18/12/22 05:15:10"
"48","357.8876200229331","278.9139540789042","-69","18/12/22 05:15:10"
"37","372.18696634735744","295.33877117864097","-61","18/12/22 05:15:10"
"38","359.1043053396113","297.99836785278586","-61","18/12/22 05:15:10"

"16","371.1633676750538","291.6212652717856","-53","18/12/22 05:15:11"
"3","368.84524138719394","286.9218203312288","-54","18/12/22 05:15:11"
"15","362.1266840327696","289.9247238319014","-51","18/12/22 05:15:11"
"4","355.9439714101496","290.7893792995019","-63","18/12/22 05:15:11"
"5","353.9810038021357","295.04781575205163","-66","18/12/22 05:15:11"
"13","349.84618223700994","289.9553514529072","-70","18/12/22 05:15:11"
"2","348.1408537960116","288.23423753763217","-69","18/12/22 05:15:11"
"20","353.1408270178149","283.88103993037146","-66","18/12/22 05:15:11"
"23","364.558254913552","281.82669756865414","-62","18/12/22 05:15:11"
"6","359.99106657746074","280.301587980369","-67","18/12/22 05:15:11"
"8","367.3354491878782","280.1064609905054","-64","18/12/22 05:15:11"
"57","366.67753801548474","292.99761442456526","-53","18/12/22 05:15:11"
"56","360.1871028913134","296.3227006742018","-60","18/12/22 05:15:11"
"64","352.3109033702752","291.5434444456011","-66","18/12/22 05:15:11"
"63","348.9090656791867","293.4633933563527","-68","18/12/22 05:15:11"
"40","368.331419463979","284.8557533661749","-61","18/12/22 05:15:11"
"69","355.7492879512798","282.11642190100935","-66","18/12/22 05:15:11"
"41","365.0886093120437","281.0774638084534","-64","18/12/22 05:15:11"
"48","357.8876200229331","278.9139540789042","-70","18/12/22 05:15:11"
"37","372.18696634735744","295.33877117864097","-57","18/12/22 05:15:11"
"38","359.1043053396113","297.99836785278586","-60","18/12/22 05:15:11"

