"deviceId","device_location_x","device_location_y","rssi_measurement","timeStamp"
"107","349.10510387958027","296.33441333760385","-63","18/12/22 05:20:47"
"106","343.0419374512361","296.0138146453802","-62","18/12/22 05:20:47"
"110","336.66635145662235","291.36861595859267","-59","18/12/22 05:20:47"
"101","327.700629842416","293.3919866662207","-71","18/12/22 05:20:47"
"100","327.203563036289","294.32887374430646","-70","18/12/22 05:20:47"
"109","335.51044443158224","289.7166284418012","-63","18/12/22 05:20:47"
"118","355.2093993576609","288.0311694576188","-60","18/12/22 05:20:47"
"105","349.9100571733974","285.98561209079196","-52","18/12/22 05:20:47"
"108","349.6132769029411","281.93867863059984","-56","18/12/22 05:20:47"
"117","358.38433150805696","280.91221359712426","-68","18/12/22 05:20:47"
"116","346.1459294211589","278.41650093363376","-59","18/12/22 05:20:47"
"121","329.6859490603011","277.65843485566626","-68","18/12/22 05:20:47"
"112","339.5316640141885","276.68973400630716","-63","18/12/22 05:20:47"
"111","340.8356808679617","274.3246531177024","-65","18/12/22 05:20:47"
"89","361.95448040292314","295.17746693665987","-69","18/12/22 05:20:47"
"90","358.5242252108483","294.02381439809005","-68","18/12/22 05:20:47"
"91","349.8423133029049","289.2067475269076","-59","18/12/22 05:20:47"
"92","349.5639361596289","290.37958123247967","-58","18/12/22 05:20:47"
"93","342.87075650845605","288.3484002263486","-53","18/12/22 05:20:47"
"73","331.25696275517026","289.56239838092034","-67","18/12/22 05:20:47"
"94","355.56880912890875","287.64288737368884","-65","18/12/22 05:20:47"
"83","332.9988042566773","282.65570452882474","-67","18/12/22 05:20:47"
"71","345.37105048256774","282.14295709168505","-55","18/12/22 05:20:47"
"74","350.1725854487765","282.1043855849684","-59","18/12/22 05:20:47"
"88","358.5574567856148","281.26447724068805","-68","18/12/22 05:20:47"
"96","352.9744094310227","278.2780519389197","-66","18/12/22 05:20:47"
"95","330.24371436267575","277.8830029035291","-69","18/12/22 05:20:47"
"82","335.7729742625847","275.88549353541487","-68","18/12/22 05:20:47"

"13","349.84618223700994","289.9553514529072","-68","18/12/22 05:20:48"
"2","348.1408537960116","288.23423753763217","-66","18/12/22 05:20:48"
"14","345.06356460251754","295.7312560393657","-64","18/12/22 05:20:48"
"11","336.39717841253946","295.7489270258509","-62","18/12/22 05:20:48"
"10","336.1413674074077","294.350304541636","-59","18/12/22 05:20:48"
"17","331.40559805419605","289.40175250536043","-51","18/12/22 05:20:48"
"18","324.81243171034225","289.354156618153","-64","18/12/22 05:20:48"
"30","343.2390283415482","283.9143916081976","-60","18/12/22 05:20:48"
"20","353.1408270178149","283.88103993037146","-68","18/12/22 05:20:48"
"19","325.7000180868877","282.5235956632788","-62","18/12/22 05:20:48"
"7","347.34235793783415","282.4034513151052","-65","18/12/22 05:20:48"
"27","338.70002381514996","281.9021306251078","-52","18/12/22 05:20:48"
"12","331.1499097808954","280.7809197256316","-57","18/12/22 05:20:48"
"28","334.0276721317696","280.0508786977858","-54","18/12/22 05:20:48"
"22","318.3514581116194","295.33489556531345","-68","18/12/22 05:20:48"
"9","317.81020784540914","283.4965351413325","-67","18/12/22 05:20:48"
"25","317.45601601651964","286.1915953109285","-69","18/12/22 05:20:48"
"26","316.20150849664645","287.0419759839082","-71","18/12/22 05:20:48"
"64","352.3109033702752","291.5434444456011","-68","18/12/22 05:20:48"
"63","348.9090656791867","293.4633933563527","-68","18/12/22 05:20:48"
"68","345.9130358690055","287.5744926001626","-62","18/12/22 05:20:48"
"47","345.54328146067445","291.78917578457714","-63","18/12/22 05:20:48"
"67","343.8744147351082","288.46122672890743","-64","18/12/22 05:20:48"
"62","340.68633651580996","292.8798191329979","-61","18/12/22 05:20:48"
"61","336.15334237994176","289.2595097924601","-56","18/12/22 05:20:48"
"50","326.05052457251645","289.8389949933502","-63","18/12/22 05:20:48"
"51","325.52865148932665","289.89678566866576","-63","18/12/22 05:20:48"
"52","328.11586125507387","287.4313232778648","-59","18/12/22 05:20:48"
"39","331.19921154844013","282.4506584181093","-58","18/12/22 05:20:48"
"65","349.2157371192029","280.0291401669304","-68","18/12/22 05:20:48"
"55","345.6957066049769","279.09346474203716","-67","18/12/22 05:20:48"
"43","339.4086620459871","278.40122209988823","-62","18/12/22 05:20:48"
"42","339.4489517057548","274.9546618193048","-63","18/12/22 05:20:48"
"49","324.64434483360077","281.05069406440714","-63","18/12/22 05:20:48"
"60","317.86438613309105","294.4508642114292","-72","18/12/22 05:20:48"
"66","317.8060599171815","282.28143962675205","-71","18/12/22 05:20:48"
"59","316.07977491215206","289.20438220825775","-71","18/12/22 05:20:48"
"33","337.13286555782474","298.30864156579344","-64","18/12/22 05:20:48"
"34","331.96168718049495","298.1027481685605","-67","18/12/22 05:20:48"
"36","327.6657912280927","277.118307127184","-64","18/12/22 05:20:48"
"35","323.11876582852955","276.2274175573831","-67","18/12/22 05:20:48"

"22","318.3514581116194","295.33489556531345","-68","18/12/22 05:20:49"
"9","317.81020784540914","283.4965351413325","-65","18/12/22 05:20:49"
"25","317.45601601651964","286.1915953109285","-66","18/12/22 05:20:49"
"26","316.20150849664645","287.0419759839082","-64","18/12/22 05:20:49"
"29","314.92666418039613","281.8453284658967","-65","18/12/22 05:20:49"
"21","312.2097455219935","292.162060808992","-64","18/12/22 05:20:49"
"1","310.1259265928915","278.70449073794146","-61","18/12/22 05:20:49"
"31","307.5511614276879","295.00996894715564","-64","18/12/22 05:20:49"
"32","305.54424783000223","291.67259952111056","-55","18/12/22 05:20:49"
"24","304.15189129651577","278.15759935971454","-57","18/12/22 05:20:49"
"60","317.86438613309105","294.4508642114292","-69","18/12/22 05:20:49"
"66","317.8060599171815","282.28143962675205","-68","18/12/22 05:20:49"
"59","316.07977491215206","289.20438220825775","-64","18/12/22 05:20:49"
"58","314.78004847075755","280.2954753208754","-64","18/12/22 05:20:49"
"46","308.37496642449753","296.30964640293945","-64","18/12/22 05:20:49"
"54","307.49986821346045","279.97911141866837","-57","18/12/22 05:20:49"
"53","307.1346847375608","288.3856999339956","-56","18/12/22 05:20:49"
"45","306.16774359449516","295.83825924018686","-64","18/12/22 05:20:49"
"44","303.28748062121537","278.0684013127651","-61","18/12/22 05:20:49"

"3","368.84524138719394","286.9218203312288","-69","18/12/22 05:20:50"
"15","362.1266840327696","289.9247238319014","-65","18/12/22 05:20:50"
"4","355.9439714101496","290.7893792995019","-56","18/12/22 05:20:50"
"5","353.9810038021357","295.04781575205163","-59","18/12/22 05:20:50"
"13","349.84618223700994","289.9553514529072","-47","18/12/22 05:20:50"
"2","348.1408537960116","288.23423753763217","-39","18/12/22 05:20:50"
"14","345.06356460251754","295.7312560393657","-60","18/12/22 05:20:50"
"11","336.39717841253946","295.7489270258509","-66","18/12/22 05:20:50"
"10","336.1413674074077","294.350304541636","-66","18/12/22 05:20:50"
"17","331.40559805419605","289.40175250536043","-68","18/12/22 05:20:50"
"30","343.2390283415482","283.9143916081976","-56","18/12/22 05:20:50"
"20","353.1408270178149","283.88103993037146","-50","18/12/22 05:20:50"
"7","347.34235793783415","282.4034513151052","-53","18/12/22 05:20:50"
"27","338.70002381514996","281.9021306251078","-65","18/12/22 05:20:50"
"23","364.558254913552","281.82669756865414","-66","18/12/22 05:20:50"
"12","331.1499097808954","280.7809197256316","-70","18/12/22 05:20:50"
"6","359.99106657746074","280.301587980369","-65","18/12/22 05:20:50"
"8","367.3354491878782","280.1064609905054","-70","18/12/22 05:20:50"
"28","334.0276721317696","280.0508786977858","-68","18/12/22 05:20:50"
"57","366.67753801548474","292.99761442456526","-70","18/12/22 05:20:50"
"56","360.1871028913134","296.3227006742018","-65","18/12/22 05:20:50"
"64","352.3109033702752","291.5434444456011","-55","18/12/22 05:20:50"
"63","348.9090656791867","293.4633933563527","-60","18/12/22 05:20:50"
"68","345.9130358690055","287.5744926001626","-57","18/12/22 05:20:50"
"47","345.54328146067445","291.78917578457714","-60","18/12/22 05:20:50"
"67","343.8744147351082","288.46122672890743","-57","18/12/22 05:20:50"
"62","340.68633651580996","292.8798191329979","-62","18/12/22 05:20:50"
"61","336.15334237994176","289.2595097924601","-68","18/12/22 05:20:50"
"40","368.331419463979","284.8557533661749","-71","18/12/22 05:20:50"
"39","331.19921154844013","282.4506584181093","-72","18/12/22 05:20:50"
"69","355.7492879512798","282.11642190100935","-61","18/12/22 05:20:50"
"41","365.0886093120437","281.0774638084534","-67","18/12/22 05:20:50"
"65","349.2157371192029","280.0291401669304","-59","18/12/22 05:20:50"
"55","345.6957066049769","279.09346474203716","-63","18/12/22 05:20:50"
"48","357.8876200229331","278.9139540789042","-65","18/12/22 05:20:50"
"43","339.4086620459871","278.40122209988823","-68","18/12/22 05:20:50"
"42","339.4489517057548","274.9546618193048","-70","18/12/22 05:20:50"
"38","359.1043053396113","297.99836785278586","-66","18/12/22 05:20:50"
"33","337.13286555782474","298.30864156579344","-69","18/12/22 05:20:50"

"11","336.39717841253946","295.7489270258509","-70","18/12/22 05:20:51"
"10","336.1413674074077","294.350304541636","-70","18/12/22 05:20:51"
"17","331.40559805419605","289.40175250536043","-67","18/12/22 05:20:51"
"18","324.81243171034225","289.354156618153","-62","18/12/22 05:20:51"
"19","325.7000180868877","282.5235956632788","-68","18/12/22 05:20:51"
"12","331.1499097808954","280.7809197256316","-71","18/12/22 05:20:51"
"22","318.3514581116194","295.33489556531345","-38","18/12/22 05:20:51"
"9","317.81020784540914","283.4965351413325","-61","18/12/22 05:20:51"
"25","317.45601601651964","286.1915953109285","-60","18/12/22 05:20:51"
"26","316.20150849664645","287.0419759839082","-57","18/12/22 05:20:51"
"29","314.92666418039613","281.8453284658967","-63","18/12/22 05:20:51"
"21","312.2097455219935","292.162060808992","-54","18/12/22 05:20:51"
"1","310.1259265928915","278.70449073794146","-67","18/12/22 05:20:51"
"31","307.5511614276879","295.00996894715564","-62","18/12/22 05:20:51"
"32","305.54424783000223","291.67259952111056","-64","18/12/22 05:20:51"
"50","326.05052457251645","289.8389949933502","-64","18/12/22 05:20:51"
"51","325.52865148932665","289.89678566866576","-61","18/12/22 05:20:51"
"52","328.11586125507387","287.4313232778648","-64","18/12/22 05:20:51"
"39","331.19921154844013","282.4506584181093","-72","18/12/22 05:20:51"
"49","324.64434483360077","281.05069406440714","-69","18/12/22 05:20:51"
"60","317.86438613309105","294.4508642114292","-52","18/12/22 05:20:51"
"66","317.8060599171815","282.28143962675205","-64","18/12/22 05:20:51"
"59","316.07977491215206","289.20438220825775","-58","18/12/22 05:20:51"
"58","314.78004847075755","280.2954753208754","-68","18/12/22 05:20:51"
"46","308.37496642449753","296.30964640293945","-64","18/12/22 05:20:51"
"54","307.49986821346045","279.97911141866837","-71","18/12/22 05:20:51"
"53","307.1346847375608","288.3856999339956","-66","18/12/22 05:20:51"
"45","306.16774359449516","295.83825924018686","-63","18/12/22 05:20:51"
"34","331.96168718049495","298.1027481685605","-69","18/12/22 05:20:51"
"35","323.11876582852955","276.2274175573831","-71","18/12/22 05:20:51"

"17","331.40559805419605","289.40175250536043","-69","18/12/22 05:20:52"
"18","324.81243171034225","289.354156618153","-62","18/12/22 05:20:52"
"19","325.7000180868877","282.5235956632788","-66","18/12/22 05:20:52"
"12","331.1499097808954","280.7809197256316","-69","18/12/22 05:20:52"
"22","318.3514581116194","295.33489556531345","-53","18/12/22 05:20:52"
"9","317.81020784540914","283.4965351413325","-60","18/12/22 05:20:52"
"25","317.45601601651964","286.1915953109285","-54","18/12/22 05:20:52"
"26","316.20150849664645","287.0419759839082","-50","18/12/22 05:20:52"
"29","314.92666418039613","281.8453284658967","-63","18/12/22 05:20:52"
"21","312.2097455219935","292.162060808992","-45","18/12/22 05:20:52"
"1","310.1259265928915","278.70449073794146","-66","18/12/22 05:20:52"
"31","307.5511614276879","295.00996894715564","-59","18/12/22 05:20:52"
"32","305.54424783000223","291.67259952111056","-59","18/12/22 05:20:52"
"24","304.15189129651577","278.15759935971454","-67","18/12/22 05:20:52"
"50","326.05052457251645","289.8389949933502","-64","18/12/22 05:20:52"
"51","325.52865148932665","289.89678566866576","-65","18/12/22 05:20:52"
"52","328.11586125507387","287.4313232778648","-68","18/12/22 05:20:52"
"39","331.19921154844013","282.4506584181093","-71","18/12/22 05:20:52"
"49","324.64434483360077","281.05069406440714","-67","18/12/22 05:20:52"
"60","317.86438613309105","294.4508642114292","-56","18/12/22 05:20:52"
"66","317.8060599171815","282.28143962675205","-63","18/12/22 05:20:52"
"59","316.07977491215206","289.20438220825775","-55","18/12/22 05:20:52"
"58","314.78004847075755","280.2954753208754","-65","18/12/22 05:20:52"
"46","308.37496642449753","296.30964640293945","-61","18/12/22 05:20:52"
"54","307.49986821346045","279.97911141866837","-65","18/12/22 05:20:52"
"53","307.1346847375608","288.3856999339956","-63","18/12/22 05:20:52"
"45","306.16774359449516","295.83825924018686","-63","18/12/22 05:20:52"
"44","303.28748062121537","278.0684013127651","-70","18/12/22 05:20:52"
"34","331.96168718049495","298.1027481685605","-70","18/12/22 05:20:52"
"36","327.6657912280927","277.118307127184","-71","18/12/22 05:20:52"
"35","323.11876582852955","276.2274175573831","-69","18/12/22 05:20:52"

"10","336.1413674074077","294.350304541636","-70","18/12/22 05:20:53"
"17","331.40559805419605","289.40175250536043","-64","18/12/22 05:20:53"
"18","324.81243171034225","289.354156618153","-56","18/12/22 05:20:53"
"19","325.7000180868877","282.5235956632788","-63","18/12/22 05:20:53"
"12","331.1499097808954","280.7809197256316","-70","18/12/22 05:20:53"
"28","334.0276721317696","280.0508786977858","-70","18/12/22 05:20:53"
"22","318.3514581116194","295.33489556531345","-55","18/12/22 05:20:53"
"9","317.81020784540914","283.4965351413325","-54","18/12/22 05:20:53"
"25","317.45601601651964","286.1915953109285","-47","18/12/22 05:20:53"
"26","316.20150849664645","287.0419759839082","-42","18/12/22 05:20:53"
"29","314.92666418039613","281.8453284658967","-59","18/12/22 05:20:53"
"21","312.2097455219935","292.162060808992","-54","18/12/22 05:20:53"
"1","310.1259265928915","278.70449073794146","-64","18/12/22 05:20:53"
"31","307.5511614276879","295.00996894715564","-64","18/12/22 05:20:53"
"32","305.54424783000223","291.67259952111056","-64","18/12/22 05:20:53"
"24","304.15189129651577","278.15759935971454","-70","18/12/22 05:20:53"
"61","336.15334237994176","289.2595097924601","-71","18/12/22 05:20:53"
"50","326.05052457251645","289.8389949933502","-61","18/12/22 05:20:53"
"51","325.52865148932665","289.89678566866576","-62","18/12/22 05:20:53"
"52","328.11586125507387","287.4313232778648","-62","18/12/22 05:20:53"
"39","331.19921154844013","282.4506584181093","-67","18/12/22 05:20:53"
"49","324.64434483360077","281.05069406440714","-65","18/12/22 05:20:53"
"60","317.86438613309105","294.4508642114292","-59","18/12/22 05:20:53"
"66","317.8060599171815","282.28143962675205","-59","18/12/22 05:20:53"
"59","316.07977491215206","289.20438220825775","-53","18/12/22 05:20:53"
"58","314.78004847075755","280.2954753208754","-61","18/12/22 05:20:53"
"46","308.37496642449753","296.30964640293945","-63","18/12/22 05:20:53"
"54","307.49986821346045","279.97911141866837","-68","18/12/22 05:20:53"
"53","307.1346847375608","288.3856999339956","-61","18/12/22 05:20:53"
"45","306.16774359449516","295.83825924018686","-65","18/12/22 05:20:53"
"44","303.28748062121537","278.0684013127651","-69","18/12/22 05:20:53"
"34","331.96168718049495","298.1027481685605","-70","18/12/22 05:20:53"
"36","327.6657912280927","277.118307127184","-70","18/12/22 05:20:53"
"35","323.11876582852955","276.2274175573831","-69","18/12/22 05:20:53"

"14","345.06356460251754","295.7312560393657","-71","18/12/22 05:20:54"
"11","336.39717841253946","295.7489270258509","-63","18/12/22 05:20:54"
"10","336.1413674074077","294.350304541636","-62","18/12/22 05:20:54"
"17","331.40559805419605","289.40175250536043","-52","18/12/22 05:20:54"
"18","324.81243171034225","289.354156618153","-42","18/12/22 05:20:54"
"30","343.2390283415482","283.9143916081976","-70","18/12/22 05:20:54"
"19","325.7000180868877","282.5235956632788","-52","18/12/22 05:20:54"
"27","338.70002381514996","281.9021306251078","-63","18/12/22 05:20:54"
"12","331.1499097808954","280.7809197256316","-58","18/12/22 05:20:54"
"28","334.0276721317696","280.0508786977858","-61","18/12/22 05:20:54"
"22","318.3514581116194","295.33489556531345","-62","18/12/22 05:20:54"
"9","317.81020784540914","283.4965351413325","-63","18/12/22 05:20:54"
"25","317.45601601651964","286.1915953109285","-61","18/12/22 05:20:54"
"26","316.20150849664645","287.0419759839082","-62","18/12/22 05:20:54"
"29","314.92666418039613","281.8453284658967","-64","18/12/22 05:20:54"
"21","312.2097455219935","292.162060808992","-67","18/12/22 05:20:54"
"1","310.1259265928915","278.70449073794146","-70","18/12/22 05:20:54"
"68","345.9130358690055","287.5744926001626","-71","18/12/22 05:20:54"
"47","345.54328146067445","291.78917578457714","-72","18/12/22 05:20:54"
"67","343.8744147351082","288.46122672890743","-68","18/12/22 05:20:54"
"62","340.68633651580996","292.8798191329979","-66","18/12/22 05:20:54"
"61","336.15334237994176","289.2595097924601","-63","18/12/22 05:20:54"
"50","326.05052457251645","289.8389949933502","-54","18/12/22 05:20:54"
"51","325.52865148932665","289.89678566866576","-55","18/12/22 05:20:54"
"52","328.11586125507387","287.4313232778648","-52","18/12/22 05:20:54"
"39","331.19921154844013","282.4506584181093","-62","18/12/22 05:20:54"
"43","339.4086620459871","278.40122209988823","-69","18/12/22 05:20:54"
"42","339.4489517057548","274.9546618193048","-68","18/12/22 05:20:54"
"49","324.64434483360077","281.05069406440714","-60","18/12/22 05:20:54"
"60","317.86438613309105","294.4508642114292","-62","18/12/22 05:20:54"
"66","317.8060599171815","282.28143962675205","-65","18/12/22 05:20:54"
"59","316.07977491215206","289.20438220825775","-64","18/12/22 05:20:54"
"58","314.78004847075755","280.2954753208754","-66","18/12/22 05:20:54"
"33","337.13286555782474","298.30864156579344","-68","18/12/22 05:20:54"
"34","331.96168718049495","298.1027481685605","-65","18/12/22 05:20:54"
"36","327.6657912280927","277.118307127184","-66","18/12/22 05:20:54"
"35","323.11876582852955","276.2274175573831","-65","18/12/22 05:20:54"

"16","371.1633676750538","291.6212652717856","-65","18/12/22 05:20:55"
"3","368.84524138719394","286.9218203312288","-60","18/12/22 05:20:55"
"15","362.1266840327696","289.9247238319014","-64","18/12/22 05:20:55"
"4","355.9439714101496","290.7893792995019","-68","18/12/22 05:20:55"
"5","353.9810038021357","295.04781575205163","-69","18/12/22 05:20:55"
"13","349.84618223700994","289.9553514529072","-69","18/12/22 05:20:55"
"2","348.1408537960116","288.23423753763217","-70","18/12/22 05:20:55"
"20","353.1408270178149","283.88103993037146","-63","18/12/22 05:20:55"
"7","347.34235793783415","282.4034513151052","-67","18/12/22 05:20:55"
"23","364.558254913552","281.82669756865414","-47","18/12/22 05:20:55"
"6","359.99106657746074","280.301587980369","-52","18/12/22 05:20:55"
"8","367.3354491878782","280.1064609905054","-47","18/12/22 05:20:55"
"57","366.67753801548474","292.99761442456526","-69","18/12/22 05:20:55"
"56","360.1871028913134","296.3227006742018","-71","18/12/22 05:20:55"
"64","352.3109033702752","291.5434444456011","-69","18/12/22 05:20:55"
"40","368.331419463979","284.8557533661749","-60","18/12/22 05:20:55"
"69","355.7492879512798","282.11642190100935","-60","18/12/22 05:20:55"
"41","365.0886093120437","281.0774638084534","-55","18/12/22 05:20:55"
"65","349.2157371192029","280.0291401669304","-66","18/12/22 05:20:55"
"55","345.6957066049769","279.09346474203716","-70","18/12/22 05:20:55"
"48","357.8876200229331","278.9139540789042","-60","18/12/22 05:20:55"
"37","372.18696634735744","295.33877117864097","-70","18/12/22 05:20:55"

"16","371.1633676750538","291.6212652717856","-66","18/12/22 05:20:56"
"3","368.84524138719394","286.9218203312288","-59","18/12/22 05:20:56"
"15","362.1266840327696","289.9247238319014","-56","18/12/22 05:20:56"
"4","355.9439714101496","290.7893792995019","-60","18/12/22 05:20:56"
"5","353.9810038021357","295.04781575205163","-66","18/12/22 05:20:56"
"13","349.84618223700994","289.9553514529072","-64","18/12/22 05:20:56"
"2","348.1408537960116","288.23423753763217","-66","18/12/22 05:20:56"
"30","343.2390283415482","283.9143916081976","-68","18/12/22 05:20:56"
"20","353.1408270178149","283.88103993037146","-59","18/12/22 05:20:56"
"7","347.34235793783415","282.4034513151052","-68","18/12/22 05:20:56"
"23","364.558254913552","281.82669756865414","-44","18/12/22 05:20:56"
"6","359.99106657746074","280.301587980369","-50","18/12/22 05:20:56"
"8","367.3354491878782","280.1064609905054","-56","18/12/22 05:20:56"
"57","366.67753801548474","292.99761442456526","-65","18/12/22 05:20:56"
"56","360.1871028913134","296.3227006742018","-65","18/12/22 05:20:56"
"64","352.3109033702752","291.5434444456011","-66","18/12/22 05:20:56"
"63","348.9090656791867","293.4633933563527","-70","18/12/22 05:20:56"
"68","345.9130358690055","287.5744926001626","-67","18/12/22 05:20:56"
"47","345.54328146067445","291.78917578457714","-70","18/12/22 05:20:56"
"67","343.8744147351082","288.46122672890743","-69","18/12/22 05:20:56"
"40","368.331419463979","284.8557533661749","-61","18/12/22 05:20:56"
"69","355.7492879512798","282.11642190100935","-58","18/12/22 05:20:56"
"41","365.0886093120437","281.0774638084534","-55","18/12/22 05:20:56"
"65","349.2157371192029","280.0291401669304","-65","18/12/22 05:20:56"
"55","345.6957066049769","279.09346474203716","-68","18/12/22 05:20:56"
"48","357.8876200229331","278.9139540789042","-58","18/12/22 05:20:56"
"37","372.18696634735744","295.33877117864097","-69","18/12/22 05:20:56"
"38","359.1043053396113","297.99836785278586","-69","18/12/22 05:20:56"

"16","371.1633676750538","291.6212652717856","-64","18/12/22 05:20:57"
"3","368.84524138719394","286.9218203312288","-55","18/12/22 05:20:57"
"15","362.1266840327696","289.9247238319014","-59","18/12/22 05:20:57"
"4","355.9439714101496","290.7893792995019","-64","18/12/22 05:20:57"
"5","353.9810038021357","295.04781575205163","-70","18/12/22 05:20:57"
"13","349.84618223700994","289.9553514529072","-69","18/12/22 05:20:57"
"2","348.1408537960116","288.23423753763217","-71","18/12/22 05:20:57"
"20","353.1408270178149","283.88103993037146","-64","18/12/22 05:20:57"
"7","347.34235793783415","282.4034513151052","-69","18/12/22 05:20:57"
"23","364.558254913552","281.82669756865414","-15","18/12/22 05:20:57"
"6","359.99106657746074","280.301587980369","-53","18/12/22 05:20:57"
"8","367.3354491878782","280.1064609905054","-47","18/12/22 05:20:57"
"57","366.67753801548474","292.99761442456526","-66","18/12/22 05:20:57"
"56","360.1871028913134","296.3227006742018","-68","18/12/22 05:20:57"
"64","352.3109033702752","291.5434444456011","-68","18/12/22 05:20:57"
"40","368.331419463979","284.8557533661749","-55","18/12/22 05:20:57"
"69","355.7492879512798","282.11642190100935","-63","18/12/22 05:20:57"
"41","365.0886093120437","281.0774638084534","-52","18/12/22 05:20:57"
"65","349.2157371192029","280.0291401669304","-70","18/12/22 05:20:57"
"55","345.6957066049769","279.09346474203716","-71","18/12/22 05:20:57"
"48","357.8876200229331","278.9139540789042","-60","18/12/22 05:20:57"
"37","372.18696634735744","295.33877117864097","-67","18/12/22 05:20:57"
"38","359.1043053396113","297.99836785278586","-67","18/12/22 05:20:57"

"16","371.1633676750538","291.6212652717856","-65","18/12/22 05:20:58"
"3","368.84524138719394","286.9218203312288","-64","18/12/22 05:20:58"
"15","362.1266840327696","289.9247238319014","-54","18/12/22 05:20:58"
"4","355.9439714101496","290.7893792995019","-24","18/12/22 05:20:58"
"5","353.9810038021357","295.04781575205163","-51","18/12/22 05:20:58"
"13","349.84618223700994","289.9553514529072","-55","18/12/22 05:20:58"
"2","348.1408537960116","288.23423753763217","-61","18/12/22 05:20:58"
"14","345.06356460251754","295.7312560393657","-63","18/12/22 05:20:58"
"30","343.2390283415482","283.9143916081976","-67","18/12/22 05:20:58"
"20","353.1408270178149","283.88103993037146","-57","18/12/22 05:20:58"
"7","347.34235793783415","282.4034513151052","-63","18/12/22 05:20:58"
"27","338.70002381514996","281.9021306251078","-71","18/12/22 05:20:58"
"23","364.558254913552","281.82669756865414","-63","18/12/22 05:20:58"
"6","359.99106657746074","280.301587980369","-63","18/12/22 05:20:58"
"8","367.3354491878782","280.1064609905054","-69","18/12/22 05:20:58"
"57","366.67753801548474","292.99761442456526","-62","18/12/22 05:20:58"
"56","360.1871028913134","296.3227006742018","-61","18/12/22 05:20:58"
"64","352.3109033702752","291.5434444456011","-54","18/12/22 05:20:58"
"63","348.9090656791867","293.4633933563527","-60","18/12/22 05:20:58"
"68","345.9130358690055","287.5744926001626","-63","18/12/22 05:20:58"
"47","345.54328146067445","291.78917578457714","-64","18/12/22 05:20:58"
"67","343.8744147351082","288.46122672890743","-65","18/12/22 05:20:58"
"62","340.68633651580996","292.8798191329979","-69","18/12/22 05:20:58"
"40","368.331419463979","284.8557533661749","-66","18/12/22 05:20:58"
"69","355.7492879512798","282.11642190100935","-62","18/12/22 05:20:58"
"41","365.0886093120437","281.0774638084534","-66","18/12/22 05:20:58"
"65","349.2157371192029","280.0291401669304","-66","18/12/22 05:20:58"
"55","345.6957066049769","279.09346474203716","-66","18/12/22 05:20:58"
"48","357.8876200229331","278.9139540789042","-64","18/12/22 05:20:58"
"37","372.18696634735744","295.33877117864097","-70","18/12/22 05:20:58"
"38","359.1043053396113","297.99836785278586","-61","18/12/22 05:20:58"

"16","371.1633676750538","291.6212652717856","-61","18/12/22 05:20:59"
"3","368.84524138719394","286.9218203312288","-62","18/12/22 05:20:59"
"15","362.1266840327696","289.9247238319014","-50","18/12/22 05:20:59"
"4","355.9439714101496","290.7893792995019","-55","18/12/22 05:20:59"
"5","353.9810038021357","295.04781575205163","-58","18/12/22 05:20:59"
"13","349.84618223700994","289.9553514529072","-62","18/12/22 05:20:59"
"2","348.1408537960116","288.23423753763217","-64","18/12/22 05:20:59"
"14","345.06356460251754","295.7312560393657","-66","18/12/22 05:20:59"
"20","353.1408270178149","283.88103993037146","-66","18/12/22 05:20:59"
"7","347.34235793783415","282.4034513151052","-70","18/12/22 05:20:59"
"23","364.558254913552","281.82669756865414","-66","18/12/22 05:20:59"
"6","359.99106657746074","280.301587980369","-66","18/12/22 05:20:59"
"8","367.3354491878782","280.1064609905054","-66","18/12/22 05:20:59"
"57","366.67753801548474","292.99761442456526","-58","18/12/22 05:20:59"
"56","360.1871028913134","296.3227006742018","-55","18/12/22 05:20:59"
"64","352.3109033702752","291.5434444456011","-60","18/12/22 05:20:59"
"63","348.9090656791867","293.4633933563527","-65","18/12/22 05:20:59"
"68","345.9130358690055","287.5744926001626","-68","18/12/22 05:20:59"
"47","345.54328146067445","291.78917578457714","-68","18/12/22 05:20:59"
"67","343.8744147351082","288.46122672890743","-70","18/12/22 05:20:59"
"40","368.331419463979","284.8557533661749","-64","18/12/22 05:20:59"
"69","355.7492879512798","282.11642190100935","-67","18/12/22 05:20:59"
"41","365.0886093120437","281.0774638084534","-68","18/12/22 05:20:59"
"65","349.2157371192029","280.0291401669304","-69","18/12/22 05:20:59"
"48","357.8876200229331","278.9139540789042","-66","18/12/22 05:20:59"
"37","372.18696634735744","295.33877117864097","-66","18/12/22 05:20:59"
"38","359.1043053396113","297.99836785278586","-54","18/12/22 05:20:59"

"16","371.1633676750538","291.6212652717856","-70","18/12/22 05:21:00"
"3","368.84524138719394","286.9218203312288","-69","18/12/22 05:21:00"
"15","362.1266840327696","289.9247238319014","-59","18/12/22 05:21:00"
"4","355.9439714101496","290.7893792995019","-43","18/12/22 05:21:00"
"5","353.9810038021357","295.04781575205163","-55","18/12/22 05:21:00"
"13","349.84618223700994","289.9553514529072","-47","18/12/22 05:21:00"
"2","348.1408537960116","288.23423753763217","-55","18/12/22 05:21:00"
"14","345.06356460251754","295.7312560393657","-63","18/12/22 05:21:00"
"11","336.39717841253946","295.7489270258509","-68","18/12/22 05:21:00"
"10","336.1413674074077","294.350304541636","-68","18/12/22 05:21:00"
"30","343.2390283415482","283.9143916081976","-65","18/12/22 05:21:00"
"20","353.1408270178149","283.88103993037146","-55","18/12/22 05:21:00"
"7","347.34235793783415","282.4034513151052","-62","18/12/22 05:21:00"
"27","338.70002381514996","281.9021306251078","-68","18/12/22 05:21:00"
"23","364.558254913552","281.82669756865414","-67","18/12/22 05:21:00"
"6","359.99106657746074","280.301587980369","-64","18/12/22 05:21:00"
"8","367.3354491878782","280.1064609905054","-67","18/12/22 05:21:00"
"57","366.67753801548474","292.99761442456526","-65","18/12/22 05:21:00"
"56","360.1871028913134","296.3227006742018","-64","18/12/22 05:21:00"
"64","352.3109033702752","291.5434444456011","-54","18/12/22 05:21:00"
"63","348.9090656791867","293.4633933563527","-59","18/12/22 05:21:00"
"68","345.9130358690055","287.5744926001626","-59","18/12/22 05:21:00"
"47","345.54328146067445","291.78917578457714","-60","18/12/22 05:21:00"
"67","343.8744147351082","288.46122672890743","-61","18/12/22 05:21:00"
"62","340.68633651580996","292.8798191329979","-67","18/12/22 05:21:00"
"61","336.15334237994176","289.2595097924601","-71","18/12/22 05:21:00"
"40","368.331419463979","284.8557533661749","-67","18/12/22 05:21:00"
"69","355.7492879512798","282.11642190100935","-62","18/12/22 05:21:00"
"41","365.0886093120437","281.0774638084534","-65","18/12/22 05:21:00"
"65","349.2157371192029","280.0291401669304","-65","18/12/22 05:21:00"
"55","345.6957066049769","279.09346474203716","-67","18/12/22 05:21:00"
"48","357.8876200229331","278.9139540789042","-64","18/12/22 05:21:00"
"43","339.4086620459871","278.40122209988823","-69","18/12/22 05:21:00"
"38","359.1043053396113","297.99836785278586","-62","18/12/22 05:21:00"
"33","337.13286555782474","298.30864156579344","-70","18/12/22 05:21:00"

"16","371.1633676750538","291.6212652717856","-69","18/12/22 05:21:01"
"3","368.84524138719394","286.9218203312288","-68","18/12/22 05:21:01"
"15","362.1266840327696","289.9247238319014","-62","18/12/22 05:21:01"
"4","355.9439714101496","290.7893792995019","-53","18/12/22 05:21:01"
"5","353.9810038021357","295.04781575205163","-36","18/12/22 05:21:01"
"13","349.84618223700994","289.9553514529072","-58","18/12/22 05:21:01"
"2","348.1408537960116","288.23423753763217","-64","18/12/22 05:21:01"
"14","345.06356460251754","295.7312560393657","-60","18/12/22 05:21:01"
"11","336.39717841253946","295.7489270258509","-68","18/12/22 05:21:01"
"10","336.1413674074077","294.350304541636","-68","18/12/22 05:21:01"
"30","343.2390283415482","283.9143916081976","-69","18/12/22 05:21:01"
"20","353.1408270178149","283.88103993037146","-63","18/12/22 05:21:01"
"7","347.34235793783415","282.4034513151052","-66","18/12/22 05:21:01"
"23","364.558254913552","281.82669756865414","-70","18/12/22 05:21:01"
"6","359.99106657746074","280.301587980369","-68","18/12/22 05:21:01"
"8","367.3354491878782","280.1064609905054","-70","18/12/22 05:21:01"
"57","366.67753801548474","292.99761442456526","-64","18/12/22 05:21:01"
"56","360.1871028913134","296.3227006742018","-58","18/12/22 05:21:01"
"64","352.3109033702752","291.5434444456011","-59","18/12/22 05:21:01"
"63","348.9090656791867","293.4633933563527","-57","18/12/22 05:21:01"
"68","345.9130358690055","287.5744926001626","-66","18/12/22 05:21:01"
"47","345.54328146067445","291.78917578457714","-65","18/12/22 05:21:01"
"67","343.8744147351082","288.46122672890743","-66","18/12/22 05:21:01"
"62","340.68633651580996","292.8798191329979","-68","18/12/22 05:21:01"
"40","368.331419463979","284.8557533661749","-71","18/12/22 05:21:01"
"69","355.7492879512798","282.11642190100935","-65","18/12/22 05:21:01"
"41","365.0886093120437","281.0774638084534","-70","18/12/22 05:21:01"
"65","349.2157371192029","280.0291401669304","-69","18/12/22 05:21:01"
"55","345.6957066049769","279.09346474203716","-70","18/12/22 05:21:01"
"48","357.8876200229331","278.9139540789042","-70","18/12/22 05:21:01"
"37","372.18696634735744","295.33877117864097","-69","18/12/22 05:21:01"
"38","359.1043053396113","297.99836785278586","-57","18/12/22 05:21:01"
"33","337.13286555782474","298.30864156579344","-68","18/12/22 05:21:01"

"16","371.1633676750538","291.6212652717856","-59","18/12/22 05:21:02"
"3","368.84524138719394","286.9218203312288","-49","18/12/22 05:21:02"
"15","362.1266840327696","289.9247238319014","-54","18/12/22 05:21:02"
"4","355.9439714101496","290.7893792995019","-64","18/12/22 05:21:02"
"5","353.9810038021357","295.04781575205163","-66","18/12/22 05:21:02"
"13","349.84618223700994","289.9553514529072","-69","18/12/22 05:21:02"
"2","348.1408537960116","288.23423753763217","-67","18/12/22 05:21:02"
"20","353.1408270178149","283.88103993037146","-64","18/12/22 05:21:02"
"7","347.34235793783415","282.4034513151052","-70","18/12/22 05:21:02"
"23","364.558254913552","281.82669756865414","-48","18/12/22 05:21:02"
"6","359.99106657746074","280.301587980369","-58","18/12/22 05:21:02"
"8","367.3354491878782","280.1064609905054","-53","18/12/22 05:21:02"
"57","366.67753801548474","292.99761442456526","-62","18/12/22 05:21:02"
"56","360.1871028913134","296.3227006742018","-67","18/12/22 05:21:02"
"64","352.3109033702752","291.5434444456011","-67","18/12/22 05:21:02"
"63","348.9090656791867","293.4633933563527","-70","18/12/22 05:21:02"
"40","368.331419463979","284.8557533661749","-55","18/12/22 05:21:02"
"69","355.7492879512798","282.11642190100935","-63","18/12/22 05:21:02"
"41","365.0886093120437","281.0774638084534","-57","18/12/22 05:21:02"
"65","349.2157371192029","280.0291401669304","-71","18/12/22 05:21:02"
"48","357.8876200229331","278.9139540789042","-64","18/12/22 05:21:02"
"37","372.18696634735744","295.33877117864097","-66","18/12/22 05:21:02"
"38","359.1043053396113","297.99836785278586","-69","18/12/22 05:21:02"

"16","371.1633676750538","291.6212652717856","-59","18/12/22 05:21:03"
"3","368.84524138719394","286.9218203312288","-52","18/12/22 05:21:03"
"15","362.1266840327696","289.9247238319014","-59","18/12/22 05:21:03"
"4","355.9439714101496","290.7893792995019","-64","18/12/22 05:21:03"
"5","353.9810038021357","295.04781575205163","-70","18/12/22 05:21:03"
"13","349.84618223700994","289.9553514529072","-70","18/12/22 05:21:03"
"2","348.1408537960116","288.23423753763217","-69","18/12/22 05:21:03"
"20","353.1408270178149","283.88103993037146","-65","18/12/22 05:21:03"
"7","347.34235793783415","282.4034513151052","-69","18/12/22 05:21:03"
"23","364.558254913552","281.82669756865414","-39","18/12/22 05:21:03"
"6","359.99106657746074","280.301587980369","-55","18/12/22 05:21:03"
"8","367.3354491878782","280.1064609905054","-46","18/12/22 05:21:03"
"57","366.67753801548474","292.99761442456526","-64","18/12/22 05:21:03"
"56","360.1871028913134","296.3227006742018","-66","18/12/22 05:21:03"
"64","352.3109033702752","291.5434444456011","-66","18/12/22 05:21:03"
"40","368.331419463979","284.8557533661749","-56","18/12/22 05:21:03"
"69","355.7492879512798","282.11642190100935","-62","18/12/22 05:21:03"
"41","365.0886093120437","281.0774638084534","-55","18/12/22 05:21:03"
"65","349.2157371192029","280.0291401669304","-68","18/12/22 05:21:03"
"48","357.8876200229331","278.9139540789042","-61","18/12/22 05:21:03"
"37","372.18696634735744","295.33877117864097","-67","18/12/22 05:21:03"
"38","359.1043053396113","297.99836785278586","-68","18/12/22 05:21:03"

"16","371.1633676750538","291.6212652717856","-61","18/12/22 05:21:04"
"3","368.84524138719394","286.9218203312288","-50","18/12/22 05:21:04"
"15","362.1266840327696","289.9247238319014","-54","18/12/22 05:21:04"
"4","355.9439714101496","290.7893792995019","-63","18/12/22 05:21:04"
"5","353.9810038021357","295.04781575205163","-67","18/12/22 05:21:04"
"13","349.84618223700994","289.9553514529072","-68","18/12/22 05:21:04"
"2","348.1408537960116","288.23423753763217","-67","18/12/22 05:21:04"
"20","353.1408270178149","283.88103993037146","-65","18/12/22 05:21:04"
"7","347.34235793783415","282.4034513151052","-71","18/12/22 05:21:04"
"23","364.558254913552","281.82669756865414","-47","18/12/22 05:21:04"
"6","359.99106657746074","280.301587980369","-59","18/12/22 05:21:04"
"8","367.3354491878782","280.1064609905054","-55","18/12/22 05:21:04"
"57","366.67753801548474","292.99761442456526","-59","18/12/22 05:21:04"
"56","360.1871028913134","296.3227006742018","-66","18/12/22 05:21:04"
"64","352.3109033702752","291.5434444456011","-67","18/12/22 05:21:04"
"63","348.9090656791867","293.4633933563527","-71","18/12/22 05:21:04"
"40","368.331419463979","284.8557533661749","-55","18/12/22 05:21:04"
"69","355.7492879512798","282.11642190100935","-63","18/12/22 05:21:04"
"41","365.0886093120437","281.0774638084534","-54","18/12/22 05:21:04"
"65","349.2157371192029","280.0291401669304","-70","18/12/22 05:21:04"
"48","357.8876200229331","278.9139540789042","-62","18/12/22 05:21:04"
"37","372.18696634735744","295.33877117864097","-64","18/12/22 05:21:04"
"38","359.1043053396113","297.99836785278586","-67","18/12/22 05:21:04"

"10","336.1413674074077","294.350304541636","-72","18/12/22 05:21:05"
"17","331.40559805419605","289.40175250536043","-65","18/12/22 05:21:05"
"18","324.81243171034225","289.354156618153","-59","18/12/22 05:21:05"
"19","325.7000180868877","282.5235956632788","-48","18/12/22 05:21:05"
"27","338.70002381514996","281.9021306251078","-66","18/12/22 05:21:05"
"12","331.1499097808954","280.7809197256316","-58","18/12/22 05:21:05"
"28","334.0276721317696","280.0508786977858","-63","18/12/22 05:21:05"
"22","318.3514581116194","295.33489556531345","-68","18/12/22 05:21:05"
"9","317.81020784540914","283.4965351413325","-52","18/12/22 05:21:05"
"25","317.45601601651964","286.1915953109285","-57","18/12/22 05:21:05"
"26","316.20150849664645","287.0419759839082","-60","18/12/22 05:21:05"
"29","314.92666418039613","281.8453284658967","-59","18/12/22 05:21:05"
"21","312.2097455219935","292.162060808992","-65","18/12/22 05:21:05"
"1","310.1259265928915","278.70449073794146","-64","18/12/22 05:21:05"
"24","304.15189129651577","278.15759935971454","-70","18/12/22 05:21:05"
"61","336.15334237994176","289.2595097924601","-70","18/12/22 05:21:05"
"50","326.05052457251645","289.8389949933502","-61","18/12/22 05:21:05"
"51","325.52865148932665","289.89678566866576","-61","18/12/22 05:21:05"
"52","328.11586125507387","287.4313232778648","-60","18/12/22 05:21:05"
"39","331.19921154844013","282.4506584181093","-60","18/12/22 05:21:05"
"43","339.4086620459871","278.40122209988823","-67","18/12/22 05:21:05"
"42","339.4489517057548","274.9546618193048","-70","18/12/22 05:21:05"
"49","324.64434483360077","281.05069406440714","-53","18/12/22 05:21:05"
"60","317.86438613309105","294.4508642114292","-66","18/12/22 05:21:05"
"66","317.8060599171815","282.28143962675205","-59","18/12/22 05:21:05"
"59","316.07977491215206","289.20438220825775","-63","18/12/22 05:21:05"
"58","314.78004847075755","280.2954753208754","-59","18/12/22 05:21:05"
"54","307.49986821346045","279.97911141866837","-66","18/12/22 05:21:05"
"53","307.1346847375608","288.3856999339956","-69","18/12/22 05:21:05"
"36","327.6657912280927","277.118307127184","-61","18/12/22 05:21:05"
"35","323.11876582852955","276.2274175573831","-55","18/12/22 05:21:05"

"17","331.40559805419605","289.40175250536043","-68","18/12/22 05:21:06"
"18","324.81243171034225","289.354156618153","-64","18/12/22 05:21:06"
"30","343.2390283415482","283.9143916081976","-72","18/12/22 05:21:06"
"19","325.7000180868877","282.5235956632788","-52","18/12/22 05:21:06"
"27","338.70002381514996","281.9021306251078","-66","18/12/22 05:21:06"
"12","331.1499097808954","280.7809197256316","-60","18/12/22 05:21:06"
"28","334.0276721317696","280.0508786977858","-63","18/12/22 05:21:06"
"22","318.3514581116194","295.33489556531345","-71","18/12/22 05:21:06"
"9","317.81020784540914","283.4965351413325","-61","18/12/22 05:21:06"
"25","317.45601601651964","286.1915953109285","-62","18/12/22 05:21:06"
"26","316.20150849664645","287.0419759839082","-62","18/12/22 05:21:06"
"29","314.92666418039613","281.8453284658967","-63","18/12/22 05:21:06"
"21","312.2097455219935","292.162060808992","-71","18/12/22 05:21:06"
"1","310.1259265928915","278.70449073794146","-67","18/12/22 05:21:06"
"61","336.15334237994176","289.2595097924601","-69","18/12/22 05:21:06"
"50","326.05052457251645","289.8389949933502","-64","18/12/22 05:21:06"
"51","325.52865148932665","289.89678566866576","-65","18/12/22 05:21:06"
"52","328.11586125507387","287.4313232778648","-63","18/12/22 05:21:06"
"39","331.19921154844013","282.4506584181093","-60","18/12/22 05:21:06"
"43","339.4086620459871","278.40122209988823","-66","18/12/22 05:21:06"
"42","339.4489517057548","274.9546618193048","-67","18/12/22 05:21:06"
"49","324.64434483360077","281.05069406440714","-54","18/12/22 05:21:06"
"60","317.86438613309105","294.4508642114292","-70","18/12/22 05:21:06"
"66","317.8060599171815","282.28143962675205","-61","18/12/22 05:21:06"
"59","316.07977491215206","289.20438220825775","-67","18/12/22 05:21:06"
"58","314.78004847075755","280.2954753208754","-62","18/12/22 05:21:06"
"54","307.49986821346045","279.97911141866837","-68","18/12/22 05:21:06"
"36","327.6657912280927","277.118307127184","-54","18/12/22 05:21:06"
"35","323.11876582852955","276.2274175573831","-55","18/12/22 05:21:06"

"10","336.1413674074077","294.350304541636","-69","18/12/22 05:21:07"
"17","331.40559805419605","289.40175250536043","-63","18/12/22 05:21:07"
"18","324.81243171034225","289.354156618153","-63","18/12/22 05:21:07"
"19","325.7000180868877","282.5235956632788","-50","18/12/22 05:21:07"
"27","338.70002381514996","281.9021306251078","-67","18/12/22 05:21:07"
"12","331.1499097808954","280.7809197256316","-59","18/12/22 05:21:07"
"28","334.0276721317696","280.0508786977858","-63","18/12/22 05:21:07"
"22","318.3514581116194","295.33489556531345","-68","18/12/22 05:21:07"
"9","317.81020784540914","283.4965351413325","-59","18/12/22 05:21:07"
"25","317.45601601651964","286.1915953109285","-62","18/12/22 05:21:07"
"26","316.20150849664645","287.0419759839082","-63","18/12/22 05:21:07"
"29","314.92666418039613","281.8453284658967","-62","18/12/22 05:21:07"
"21","312.2097455219935","292.162060808992","-68","18/12/22 05:21:07"
"1","310.1259265928915","278.70449073794146","-67","18/12/22 05:21:07"
"24","304.15189129651577","278.15759935971454","-71","18/12/22 05:21:07"
"61","336.15334237994176","289.2595097924601","-70","18/12/22 05:21:07"
"50","326.05052457251645","289.8389949933502","-65","18/12/22 05:21:07"
"51","325.52865148932665","289.89678566866576","-64","18/12/22 05:21:07"
"52","328.11586125507387","287.4313232778648","-61","18/12/22 05:21:07"
"39","331.19921154844013","282.4506584181093","-62","18/12/22 05:21:07"
"43","339.4086620459871","278.40122209988823","-69","18/12/22 05:21:07"
"42","339.4489517057548","274.9546618193048","-68","18/12/22 05:21:07"
"49","324.64434483360077","281.05069406440714","-52","18/12/22 05:21:07"
"60","317.86438613309105","294.4508642114292","-70","18/12/22 05:21:07"
"66","317.8060599171815","282.28143962675205","-59","18/12/22 05:21:07"
"59","316.07977491215206","289.20438220825775","-64","18/12/22 05:21:07"
"58","314.78004847075755","280.2954753208754","-61","18/12/22 05:21:07"
"54","307.49986821346045","279.97911141866837","-69","18/12/22 05:21:07"
"53","307.1346847375608","288.3856999339956","-70","18/12/22 05:21:07"
"36","327.6657912280927","277.118307127184","-55","18/12/22 05:21:07"
"35","323.11876582852955","276.2274175573831","-56","18/12/22 05:21:07"

"11","336.39717841253946","295.7489270258509","-69","18/12/22 05:21:08"
"10","336.1413674074077","294.350304541636","-67","18/12/22 05:21:08"
"17","331.40559805419605","289.40175250536043","-61","18/12/22 05:21:08"
"18","324.81243171034225","289.354156618153","-56","18/12/22 05:21:08"
"30","343.2390283415482","283.9143916081976","-72","18/12/22 05:21:08"
"19","325.7000180868877","282.5235956632788","-43","18/12/22 05:21:08"
"27","338.70002381514996","281.9021306251078","-65","18/12/22 05:21:08"
"12","331.1499097808954","280.7809197256316","-59","18/12/22 05:21:08"
"28","334.0276721317696","280.0508786977858","-61","18/12/22 05:21:08"
"22","318.3514581116194","295.33489556531345","-64","18/12/22 05:21:08"
"9","317.81020784540914","283.4965351413325","-53","18/12/22 05:21:08"
"25","317.45601601651964","286.1915953109285","-55","18/12/22 05:21:08"
"26","316.20150849664645","287.0419759839082","-61","18/12/22 05:21:08"
"29","314.92666418039613","281.8453284658967","-60","18/12/22 05:21:08"
"21","312.2097455219935","292.162060808992","-68","18/12/22 05:21:08"
"1","310.1259265928915","278.70449073794146","-65","18/12/22 05:21:08"
"31","307.5511614276879","295.00996894715564","-69","18/12/22 05:21:08"
"32","305.54424783000223","291.67259952111056","-69","18/12/22 05:21:08"
"61","336.15334237994176","289.2595097924601","-68","18/12/22 05:21:08"
"50","326.05052457251645","289.8389949933502","-61","18/12/22 05:21:08"
"51","325.52865148932665","289.89678566866576","-60","18/12/22 05:21:08"
"52","328.11586125507387","287.4313232778648","-60","18/12/22 05:21:08"
"39","331.19921154844013","282.4506584181093","-59","18/12/22 05:21:08"
"43","339.4086620459871","278.40122209988823","-67","18/12/22 05:21:08"
"42","339.4489517057548","274.9546618193048","-71","18/12/22 05:21:08"
"49","324.64434483360077","281.05069406440714","-54","18/12/22 05:21:08"
"60","317.86438613309105","294.4508642114292","-67","18/12/22 05:21:08"
"66","317.8060599171815","282.28143962675205","-59","18/12/22 05:21:08"
"59","316.07977491215206","289.20438220825775","-61","18/12/22 05:21:08"
"58","314.78004847075755","280.2954753208754","-63","18/12/22 05:21:08"
"54","307.49986821346045","279.97911141866837","-70","18/12/22 05:21:08"
"53","307.1346847375608","288.3856999339956","-68","18/12/22 05:21:08"
"34","331.96168718049495","298.1027481685605","-69","18/12/22 05:21:08"
"36","327.6657912280927","277.118307127184","-62","18/12/22 05:21:08"
"35","323.11876582852955","276.2274175573831","-61","18/12/22 05:21:08"

"11","336.39717841253946","295.7489270258509","-70","18/12/22 05:21:09"
"10","336.1413674074077","294.350304541636","-69","18/12/22 05:21:09"
"17","331.40559805419605","289.40175250536043","-65","18/12/22 05:21:09"
"18","324.81243171034225","289.354156618153","-59","18/12/22 05:21:09"
"30","343.2390283415482","283.9143916081976","-70","18/12/22 05:21:09"
"19","325.7000180868877","282.5235956632788","-43","18/12/22 05:21:09"
"27","338.70002381514996","281.9021306251078","-69","18/12/22 05:21:09"
"12","331.1499097808954","280.7809197256316","-57","18/12/22 05:21:09"
"28","334.0276721317696","280.0508786977858","-61","18/12/22 05:21:09"
"22","318.3514581116194","295.33489556531345","-67","18/12/22 05:21:09"
"9","317.81020784540914","283.4965351413325","-56","18/12/22 05:21:09"
"25","317.45601601651964","286.1915953109285","-57","18/12/22 05:21:09"
"26","316.20150849664645","287.0419759839082","-60","18/12/22 05:21:09"
"29","314.92666418039613","281.8453284658967","-59","18/12/22 05:21:09"
"21","312.2097455219935","292.162060808992","-70","18/12/22 05:21:09"
"1","310.1259265928915","278.70449073794146","-66","18/12/22 05:21:09"
"24","304.15189129651577","278.15759935971454","-71","18/12/22 05:21:09"
"61","336.15334237994176","289.2595097924601","-65","18/12/22 05:21:09"
"50","326.05052457251645","289.8389949933502","-64","18/12/22 05:21:09"
"51","325.52865148932665","289.89678566866576","-62","18/12/22 05:21:09"
"52","328.11586125507387","287.4313232778648","-60","18/12/22 05:21:09"
"39","331.19921154844013","282.4506584181093","-59","18/12/22 05:21:09"
"43","339.4086620459871","278.40122209988823","-68","18/12/22 05:21:09"
"42","339.4489517057548","274.9546618193048","-68","18/12/22 05:21:09"
"49","324.64434483360077","281.05069406440714","-53","18/12/22 05:21:09"
"60","317.86438613309105","294.4508642114292","-68","18/12/22 05:21:09"
"66","317.8060599171815","282.28143962675205","-58","18/12/22 05:21:09"
"59","316.07977491215206","289.20438220825775","-65","18/12/22 05:21:09"
"58","314.78004847075755","280.2954753208754","-64","18/12/22 05:21:09"
"54","307.49986821346045","279.97911141866837","-70","18/12/22 05:21:09"
"53","307.1346847375608","288.3856999339956","-71","18/12/22 05:21:09"
"34","331.96168718049495","298.1027481685605","-69","18/12/22 05:21:09"
"36","327.6657912280927","277.118307127184","-57","18/12/22 05:21:09"
"35","323.11876582852955","276.2274175573831","-58","18/12/22 05:21:09"

"11","336.39717841253946","295.7489270258509","-69","18/12/22 05:21:10"
"10","336.1413674074077","294.350304541636","-67","18/12/22 05:21:10"
"17","331.40559805419605","289.40175250536043","-58","18/12/22 05:21:10"
"18","324.81243171034225","289.354156618153","-60","18/12/22 05:21:10"
"30","343.2390283415482","283.9143916081976","-66","18/12/22 05:21:10"
"19","325.7000180868877","282.5235956632788","-48","18/12/22 05:21:10"
"7","347.34235793783415","282.4034513151052","-70","18/12/22 05:21:10"
"27","338.70002381514996","281.9021306251078","-61","18/12/22 05:21:10"
"12","331.1499097808954","280.7809197256316","-43","18/12/22 05:21:10"
"28","334.0276721317696","280.0508786977858","-52","18/12/22 05:21:10"
"22","318.3514581116194","295.33489556531345","-67","18/12/22 05:21:10"
"9","317.81020784540914","283.4965351413325","-62","18/12/22 05:21:10"
"25","317.45601601651964","286.1915953109285","-64","18/12/22 05:21:10"
"26","316.20150849664645","287.0419759839082","-66","18/12/22 05:21:10"
"29","314.92666418039613","281.8453284658967","-67","18/12/22 05:21:10"
"1","310.1259265928915","278.70449073794146","-70","18/12/22 05:21:10"
"68","345.9130358690055","287.5744926001626","-71","18/12/22 05:21:10"
"67","343.8744147351082","288.46122672890743","-67","18/12/22 05:21:10"
"62","340.68633651580996","292.8798191329979","-67","18/12/22 05:21:10"
"61","336.15334237994176","289.2595097924601","-65","18/12/22 05:21:10"
"50","326.05052457251645","289.8389949933502","-63","18/12/22 05:21:10"
"51","325.52865148932665","289.89678566866576","-64","18/12/22 05:21:10"
"52","328.11586125507387","287.4313232778648","-58","18/12/22 05:21:10"
"39","331.19921154844013","282.4506584181093","-54","18/12/22 05:21:10"
"55","345.6957066049769","279.09346474203716","-68","18/12/22 05:21:10"
"43","339.4086620459871","278.40122209988823","-63","18/12/22 05:21:10"
"42","339.4489517057548","274.9546618193048","-63","18/12/22 05:21:10"
"49","324.64434483360077","281.05069406440714","-55","18/12/22 05:21:10"
"60","317.86438613309105","294.4508642114292","-71","18/12/22 05:21:10"
"66","317.8060599171815","282.28143962675205","-63","18/12/22 05:21:10"
"59","316.07977491215206","289.20438220825775","-69","18/12/22 05:21:10"
"58","314.78004847075755","280.2954753208754","-68","18/12/22 05:21:10"
"33","337.13286555782474","298.30864156579344","-72","18/12/22 05:21:10"
"34","331.96168718049495","298.1027481685605","-69","18/12/22 05:21:10"
"36","327.6657912280927","277.118307127184","-54","18/12/22 05:21:10"
"35","323.11876582852955","276.2274175573831","-59","18/12/22 05:21:10"

"11","336.39717841253946","295.7489270258509","-68","18/12/22 05:21:11"
"10","336.1413674074077","294.350304541636","-66","18/12/22 05:21:11"
"17","331.40559805419605","289.40175250536043","-59","18/12/22 05:21:11"
"18","324.81243171034225","289.354156618153","-56","18/12/22 05:21:11"
"30","343.2390283415482","283.9143916081976","-69","18/12/22 05:21:11"
"19","325.7000180868877","282.5235956632788","-40","18/12/22 05:21:11"
"7","347.34235793783415","282.4034513151052","-72","18/12/22 05:21:11"
"27","338.70002381514996","281.9021306251078","-64","18/12/22 05:21:11"
"12","331.1499097808954","280.7809197256316","-48","18/12/22 05:21:11"
"28","334.0276721317696","280.0508786977858","-58","18/12/22 05:21:11"
"22","318.3514581116194","295.33489556531345","-66","18/12/22 05:21:11"
"9","317.81020784540914","283.4965351413325","-60","18/12/22 05:21:11"
"25","317.45601601651964","286.1915953109285","-64","18/12/22 05:21:11"
"26","316.20150849664645","287.0419759839082","-63","18/12/22 05:21:11"
"29","314.92666418039613","281.8453284658967","-65","18/12/22 05:21:11"
"21","312.2097455219935","292.162060808992","-68","18/12/22 05:21:11"
"1","310.1259265928915","278.70449073794146","-69","18/12/22 05:21:11"
"68","345.9130358690055","287.5744926001626","-70","18/12/22 05:21:11"
"67","343.8744147351082","288.46122672890743","-71","18/12/22 05:21:11"
"62","340.68633651580996","292.8798191329979","-67","18/12/22 05:21:11"
"61","336.15334237994176","289.2595097924601","-62","18/12/22 05:21:11"
"50","326.05052457251645","289.8389949933502","-62","18/12/22 05:21:11"
"51","325.52865148932665","289.89678566866576","-59","18/12/22 05:21:11"
"52","328.11586125507387","287.4313232778648","-55","18/12/22 05:21:11"
"39","331.19921154844013","282.4506584181093","-54","18/12/22 05:21:11"
"55","345.6957066049769","279.09346474203716","-68","18/12/22 05:21:11"
"43","339.4086620459871","278.40122209988823","-65","18/12/22 05:21:11"
"42","339.4489517057548","274.9546618193048","-69","18/12/22 05:21:11"
"49","324.64434483360077","281.05069406440714","-56","18/12/22 05:21:11"
"60","317.86438613309105","294.4508642114292","-67","18/12/22 05:21:11"
"66","317.8060599171815","282.28143962675205","-63","18/12/22 05:21:11"
"59","316.07977491215206","289.20438220825775","-67","18/12/22 05:21:11"
"58","314.78004847075755","280.2954753208754","-68","18/12/22 05:21:11"
"33","337.13286555782474","298.30864156579344","-71","18/12/22 05:21:11"
"34","331.96168718049495","298.1027481685605","-67","18/12/22 05:21:11"
"36","327.6657912280927","277.118307127184","-58","18/12/22 05:21:11"
"35","323.11876582852955","276.2274175573831","-60","18/12/22 05:21:11"

