"deviceId","device_location_x","device_location_y","rssi_measurement","timeStamp"
"16","371.1633676750538","291.6212652717856","-60","18/12/22 05:16:34"
"3","368.84524138719394","286.9218203312288","-45","18/12/22 05:16:34"
"15","362.1266840327696","289.9247238319014","-59","18/12/22 05:16:34"
"4","355.9439714101496","290.7893792995019","-65","18/12/22 05:16:34"
"5","353.9810038021357","295.04781575205163","-68","18/12/22 05:16:34"
"20","353.1408270178149","283.88103993037146","-66","18/12/22 05:16:34"
"23","364.558254913552","281.82669756865414","-53","18/12/22 05:16:34"
"6","359.99106657746074","280.301587980369","-63","18/12/22 05:16:34"
"8","367.3354491878782","280.1064609905054","-51","18/12/22 05:16:34"
"57","366.67753801548474","292.99761442456526","-62","18/12/22 05:16:34"
"56","360.1871028913134","296.3227006742018","-69","18/12/22 05:16:34"
"64","352.3109033702752","291.5434444456011","-69","18/12/22 05:16:34"
"40","368.331419463979","284.8557533661749","-51","18/12/22 05:16:34"
"69","355.7492879512798","282.11642190100935","-67","18/12/22 05:16:34"
"41","365.0886093120437","281.0774638084534","-58","18/12/22 05:16:34"
"48","357.8876200229331","278.9139540789042","-67","18/12/22 05:16:34"
"37","372.18696634735744","295.33877117864097","-64","18/12/22 05:16:34"
"38","359.1043053396113","297.99836785278586","-68","18/12/22 05:16:34"

"16","371.1633676750538","291.6212652717856","-68","18/12/22 05:16:35"
"3","368.84524138719394","286.9218203312288","-69","18/12/22 05:16:35"
"15","362.1266840327696","289.9247238319014","-57","18/12/22 05:16:35"
"4","355.9439714101496","290.7893792995019","-46","18/12/22 05:16:35"
"5","353.9810038021357","295.04781575205163","-40","18/12/22 05:16:35"
"13","349.84618223700994","289.9553514529072","-58","18/12/22 05:16:35"
"2","348.1408537960116","288.23423753763217","-60","18/12/22 05:16:35"
"14","345.06356460251754","295.7312560393657","-64","18/12/22 05:16:35"
"11","336.39717841253946","295.7489270258509","-70","18/12/22 05:16:35"
"10","336.1413674074077","294.350304541636","-71","18/12/22 05:16:35"
"30","343.2390283415482","283.9143916081976","-67","18/12/22 05:16:35"
"20","353.1408270178149","283.88103993037146","-64","18/12/22 05:16:35"
"7","347.34235793783415","282.4034513151052","-65","18/12/22 05:16:35"
"23","364.558254913552","281.82669756865414","-67","18/12/22 05:16:35"
"6","359.99106657746074","280.301587980369","-68","18/12/22 05:16:35"
"8","367.3354491878782","280.1064609905054","-69","18/12/22 05:16:35"
"57","366.67753801548474","292.99761442456526","-65","18/12/22 05:16:35"
"56","360.1871028913134","296.3227006742018","-57","18/12/22 05:16:35"
"64","352.3109033702752","291.5434444456011","-54","18/12/22 05:16:35"
"63","348.9090656791867","293.4633933563527","-60","18/12/22 05:16:35"
"68","345.9130358690055","287.5744926001626","-65","18/12/22 05:16:35"
"47","345.54328146067445","291.78917578457714","-64","18/12/22 05:16:35"
"67","343.8744147351082","288.46122672890743","-66","18/12/22 05:16:35"
"62","340.68633651580996","292.8798191329979","-68","18/12/22 05:16:35"
"40","368.331419463979","284.8557533661749","-69","18/12/22 05:16:35"
"69","355.7492879512798","282.11642190100935","-64","18/12/22 05:16:35"
"41","365.0886093120437","281.0774638084534","-68","18/12/22 05:16:35"
"65","349.2157371192029","280.0291401669304","-67","18/12/22 05:16:35"
"55","345.6957066049769","279.09346474203716","-70","18/12/22 05:16:35"
"48","357.8876200229331","278.9139540789042","-69","18/12/22 05:16:35"
"37","372.18696634735744","295.33877117864097","-70","18/12/22 05:16:35"
"38","359.1043053396113","297.99836785278586","-59","18/12/22 05:16:35"
"33","337.13286555782474","298.30864156579344","-69","18/12/22 05:16:35"

"16","371.1633676750538","291.6212652717856","-66","18/12/22 05:16:36"
"3","368.84524138719394","286.9218203312288","-67","18/12/22 05:16:36"
"15","362.1266840327696","289.9247238319014","-57","18/12/22 05:16:36"
"4","355.9439714101496","290.7893792995019","-39","18/12/22 05:16:36"
"5","353.9810038021357","295.04781575205163","-45","18/12/22 05:16:36"
"13","349.84618223700994","289.9553514529072","-57","18/12/22 05:16:36"
"2","348.1408537960116","288.23423753763217","-59","18/12/22 05:16:36"
"14","345.06356460251754","295.7312560393657","-64","18/12/22 05:16:36"
"11","336.39717841253946","295.7489270258509","-69","18/12/22 05:16:36"
"10","336.1413674074077","294.350304541636","-68","18/12/22 05:16:36"
"30","343.2390283415482","283.9143916081976","-67","18/12/22 05:16:36"
"20","353.1408270178149","283.88103993037146","-62","18/12/22 05:16:36"
"7","347.34235793783415","282.4034513151052","-66","18/12/22 05:16:36"
"23","364.558254913552","281.82669756865414","-66","18/12/22 05:16:36"
"6","359.99106657746074","280.301587980369","-65","18/12/22 05:16:36"
"8","367.3354491878782","280.1064609905054","-67","18/12/22 05:16:36"
"57","366.67753801548474","292.99761442456526","-66","18/12/22 05:16:36"
"56","360.1871028913134","296.3227006742018","-58","18/12/22 05:16:36"
"64","352.3109033702752","291.5434444456011","-57","18/12/22 05:16:36"
"63","348.9090656791867","293.4633933563527","-60","18/12/22 05:16:36"
"68","345.9130358690055","287.5744926001626","-63","18/12/22 05:16:36"
"47","345.54328146067445","291.78917578457714","-61","18/12/22 05:16:36"
"67","343.8744147351082","288.46122672890743","-65","18/12/22 05:16:36"
"62","340.68633651580996","292.8798191329979","-69","18/12/22 05:16:36"
"40","368.331419463979","284.8557533661749","-69","18/12/22 05:16:36"
"69","355.7492879512798","282.11642190100935","-62","18/12/22 05:16:36"
"41","365.0886093120437","281.0774638084534","-68","18/12/22 05:16:36"
"65","349.2157371192029","280.0291401669304","-68","18/12/22 05:16:36"
"55","345.6957066049769","279.09346474203716","-68","18/12/22 05:16:36"
"48","357.8876200229331","278.9139540789042","-67","18/12/22 05:16:36"
"37","372.18696634735744","295.33877117864097","-70","18/12/22 05:16:36"
"38","359.1043053396113","297.99836785278586","-61","18/12/22 05:16:36"

"16","371.1633676750538","291.6212652717856","-65","18/12/22 05:16:37"
"3","368.84524138719394","286.9218203312288","-65","18/12/22 05:16:37"
"15","362.1266840327696","289.9247238319014","-56","18/12/22 05:16:37"
"4","355.9439714101496","290.7893792995019","-54","18/12/22 05:16:37"
"5","353.9810038021357","295.04781575205163","-55","18/12/22 05:16:37"
"13","349.84618223700994","289.9553514529072","-62","18/12/22 05:16:37"
"2","348.1408537960116","288.23423753763217","-67","18/12/22 05:16:37"
"14","345.06356460251754","295.7312560393657","-67","18/12/22 05:16:37"
"30","343.2390283415482","283.9143916081976","-70","18/12/22 05:16:37"
"20","353.1408270178149","283.88103993037146","-66","18/12/22 05:16:37"
"7","347.34235793783415","282.4034513151052","-70","18/12/22 05:16:37"
"23","364.558254913552","281.82669756865414","-64","18/12/22 05:16:37"
"6","359.99106657746074","280.301587980369","-65","18/12/22 05:16:37"
"8","367.3354491878782","280.1064609905054","-70","18/12/22 05:16:37"
"57","366.67753801548474","292.99761442456526","-61","18/12/22 05:16:37"
"56","360.1871028913134","296.3227006742018","-54","18/12/22 05:16:37"
"64","352.3109033702752","291.5434444456011","-61","18/12/22 05:16:37"
"63","348.9090656791867","293.4633933563527","-65","18/12/22 05:16:37"
"68","345.9130358690055","287.5744926001626","-69","18/12/22 05:16:37"
"47","345.54328146067445","291.78917578457714","-66","18/12/22 05:16:37"
"67","343.8744147351082","288.46122672890743","-70","18/12/22 05:16:37"
"62","340.68633651580996","292.8798191329979","-71","18/12/22 05:16:37"
"40","368.331419463979","284.8557533661749","-68","18/12/22 05:16:37"
"69","355.7492879512798","282.11642190100935","-65","18/12/22 05:16:37"
"41","365.0886093120437","281.0774638084534","-68","18/12/22 05:16:37"
"65","349.2157371192029","280.0291401669304","-68","18/12/22 05:16:37"
"48","357.8876200229331","278.9139540789042","-68","18/12/22 05:16:37"
"37","372.18696634735744","295.33877117864097","-65","18/12/22 05:16:37"
"38","359.1043053396113","297.99836785278586","-54","18/12/22 05:16:37"

"18","324.81243171034225","289.354156618153","-72","18/12/22 05:16:38"
"22","318.3514581116194","295.33489556531345","-67","18/12/22 05:16:38"
"9","317.81020784540914","283.4965351413325","-64","18/12/22 05:16:38"
"25","317.45601601651964","286.1915953109285","-62","18/12/22 05:16:38"
"26","316.20150849664645","287.0419759839082","-62","18/12/22 05:16:38"
"29","314.92666418039613","281.8453284658967","-60","18/12/22 05:16:38"
"21","312.2097455219935","292.162060808992","-63","18/12/22 05:16:38"
"1","310.1259265928915","278.70449073794146","-54","18/12/22 05:16:38"
"31","307.5511614276879","295.00996894715564","-65","18/12/22 05:16:38"
"32","305.54424783000223","291.67259952111056","-57","18/12/22 05:16:38"
"24","304.15189129651577","278.15759935971454","-53","18/12/22 05:16:38"
"49","324.64434483360077","281.05069406440714","-70","18/12/22 05:16:38"
"60","317.86438613309105","294.4508642114292","-68","18/12/22 05:16:38"
"66","317.8060599171815","282.28143962675205","-63","18/12/22 05:16:38"
"59","316.07977491215206","289.20438220825775","-67","18/12/22 05:16:38"
"58","314.78004847075755","280.2954753208754","-63","18/12/22 05:16:38"
"46","308.37496642449753","296.30964640293945","-66","18/12/22 05:16:38"
"54","307.49986821346045","279.97911141866837","-55","18/12/22 05:16:38"
"53","307.1346847375608","288.3856999339956","-58","18/12/22 05:16:38"
"45","306.16774359449516","295.83825924018686","-64","18/12/22 05:16:38"
"44","303.28748062121537","278.0684013127651","-60","18/12/22 05:16:38"
"35","323.11876582852955","276.2274175573831","-70","18/12/22 05:16:38"

"22","318.3514581116194","295.33489556531345","-69","18/12/22 05:16:39"
"9","317.81020784540914","283.4965351413325","-63","18/12/22 05:16:39"
"25","317.45601601651964","286.1915953109285","-64","18/12/22 05:16:39"
"26","316.20150849664645","287.0419759839082","-63","18/12/22 05:16:39"
"29","314.92666418039613","281.8453284658967","-59","18/12/22 05:16:39"
"21","312.2097455219935","292.162060808992","-62","18/12/22 05:16:39"
"1","310.1259265928915","278.70449073794146","-56","18/12/22 05:16:39"
"31","307.5511614276879","295.00996894715564","-62","18/12/22 05:16:39"
"32","305.54424783000223","291.67259952111056","-59","18/12/22 05:16:39"
"24","304.15189129651577","278.15759935971454","-54","18/12/22 05:16:39"
"60","317.86438613309105","294.4508642114292","-67","18/12/22 05:16:39"
"66","317.8060599171815","282.28143962675205","-67","18/12/22 05:16:39"
"59","316.07977491215206","289.20438220825775","-63","18/12/22 05:16:39"
"58","314.78004847075755","280.2954753208754","-62","18/12/22 05:16:39"
"46","308.37496642449753","296.30964640293945","-66","18/12/22 05:16:39"
"54","307.49986821346045","279.97911141866837","-54","18/12/22 05:16:39"
"53","307.1346847375608","288.3856999339956","-59","18/12/22 05:16:39"
"45","306.16774359449516","295.83825924018686","-63","18/12/22 05:16:39"
"44","303.28748062121537","278.0684013127651","-58","18/12/22 05:16:39"
"35","323.11876582852955","276.2274175573831","-71","18/12/22 05:16:39"

"9","317.81020784540914","283.4965351413325","-67","18/12/22 05:16:40"
"25","317.45601601651964","286.1915953109285","-65","18/12/22 05:16:40"
"26","316.20150849664645","287.0419759839082","-67","18/12/22 05:16:40"
"29","314.92666418039613","281.8453284658967","-60","18/12/22 05:16:40"
"21","312.2097455219935","292.162060808992","-65","18/12/22 05:16:40"
"1","310.1259265928915","278.70449073794146","-53","18/12/22 05:16:40"
"31","307.5511614276879","295.00996894715564","-67","18/12/22 05:16:40"
"32","305.54424783000223","291.67259952111056","-63","18/12/22 05:16:40"
"24","304.15189129651577","278.15759935971454","-35","18/12/22 05:16:40"
"66","317.8060599171815","282.28143962675205","-67","18/12/22 05:16:40"
"59","316.07977491215206","289.20438220825775","-66","18/12/22 05:16:40"
"58","314.78004847075755","280.2954753208754","-62","18/12/22 05:16:40"
"46","308.37496642449753","296.30964640293945","-71","18/12/22 05:16:40"
"54","307.49986821346045","279.97911141866837","-55","18/12/22 05:16:40"
"53","307.1346847375608","288.3856999339956","-64","18/12/22 05:16:40"
"45","306.16774359449516","295.83825924018686","-70","18/12/22 05:16:40"
"44","303.28748062121537","278.0684013127651","-52","18/12/22 05:16:40"
"35","323.11876582852955","276.2274175573831","-69","18/12/22 05:16:40"

"16","371.1633676750538","291.6212652717856","-67","18/12/22 05:16:41"
"3","368.84524138719394","286.9218203312288","-69","18/12/22 05:16:41"
"15","362.1266840327696","289.9247238319014","-61","18/12/22 05:16:41"
"4","355.9439714101496","290.7893792995019","-47","18/12/22 05:16:41"
"5","353.9810038021357","295.04781575205163","-36","18/12/22 05:16:41"
"13","349.84618223700994","289.9553514529072","-56","18/12/22 05:16:41"
"2","348.1408537960116","288.23423753763217","-59","18/12/22 05:16:41"
"14","345.06356460251754","295.7312560393657","-63","18/12/22 05:16:41"
"11","336.39717841253946","295.7489270258509","-68","18/12/22 05:16:41"
"10","336.1413674074077","294.350304541636","-70","18/12/22 05:16:41"
"30","343.2390283415482","283.9143916081976","-67","18/12/22 05:16:41"
"20","353.1408270178149","283.88103993037146","-63","18/12/22 05:16:41"
"7","347.34235793783415","282.4034513151052","-67","18/12/22 05:16:41"
"23","364.558254913552","281.82669756865414","-68","18/12/22 05:16:41"
"6","359.99106657746074","280.301587980369","-65","18/12/22 05:16:41"
"8","367.3354491878782","280.1064609905054","-69","18/12/22 05:16:41"
"57","366.67753801548474","292.99761442456526","-66","18/12/22 05:16:41"
"56","360.1871028913134","296.3227006742018","-58","18/12/22 05:16:41"
"64","352.3109033702752","291.5434444456011","-56","18/12/22 05:16:41"
"63","348.9090656791867","293.4633933563527","-57","18/12/22 05:16:41"
"68","345.9130358690055","287.5744926001626","-63","18/12/22 05:16:41"
"47","345.54328146067445","291.78917578457714","-62","18/12/22 05:16:41"
"67","343.8744147351082","288.46122672890743","-67","18/12/22 05:16:41"
"62","340.68633651580996","292.8798191329979","-69","18/12/22 05:16:41"
"61","336.15334237994176","289.2595097924601","-72","18/12/22 05:16:41"
"40","368.331419463979","284.8557533661749","-67","18/12/22 05:16:41"
"69","355.7492879512798","282.11642190100935","-67","18/12/22 05:16:41"
"41","365.0886093120437","281.0774638084534","-67","18/12/22 05:16:41"
"65","349.2157371192029","280.0291401669304","-68","18/12/22 05:16:41"
"55","345.6957066049769","279.09346474203716","-69","18/12/22 05:16:41"
"48","357.8876200229331","278.9139540789042","-67","18/12/22 05:16:41"
"37","372.18696634735744","295.33877117864097","-69","18/12/22 05:16:41"
"38","359.1043053396113","297.99836785278586","-58","18/12/22 05:16:41"
"33","337.13286555782474","298.30864156579344","-72","18/12/22 05:16:41"

"16","371.1633676750538","291.6212652717856","-64","18/12/22 05:16:42"
"3","368.84524138719394","286.9218203312288","-66","18/12/22 05:16:42"
"15","362.1266840327696","289.9247238319014","-53","18/12/22 05:16:42"
"4","355.9439714101496","290.7893792995019","-50","18/12/22 05:16:42"
"5","353.9810038021357","295.04781575205163","-53","18/12/22 05:16:42"
"13","349.84618223700994","289.9553514529072","-60","18/12/22 05:16:42"
"2","348.1408537960116","288.23423753763217","-63","18/12/22 05:16:42"
"14","345.06356460251754","295.7312560393657","-63","18/12/22 05:16:42"
"30","343.2390283415482","283.9143916081976","-68","18/12/22 05:16:42"
"20","353.1408270178149","283.88103993037146","-61","18/12/22 05:16:42"
"7","347.34235793783415","282.4034513151052","-66","18/12/22 05:16:42"
"23","364.558254913552","281.82669756865414","-67","18/12/22 05:16:42"
"6","359.99106657746074","280.301587980369","-67","18/12/22 05:16:42"
"8","367.3354491878782","280.1064609905054","-67","18/12/22 05:16:42"
"57","366.67753801548474","292.99761442456526","-60","18/12/22 05:16:42"
"56","360.1871028913134","296.3227006742018","-54","18/12/22 05:16:42"
"64","352.3109033702752","291.5434444456011","-59","18/12/22 05:16:42"
"63","348.9090656791867","293.4633933563527","-63","18/12/22 05:16:42"
"68","345.9130358690055","287.5744926001626","-67","18/12/22 05:16:42"
"47","345.54328146067445","291.78917578457714","-64","18/12/22 05:16:42"
"67","343.8744147351082","288.46122672890743","-67","18/12/22 05:16:42"
"62","340.68633651580996","292.8798191329979","-69","18/12/22 05:16:42"
"40","368.331419463979","284.8557533661749","-65","18/12/22 05:16:42"
"69","355.7492879512798","282.11642190100935","-66","18/12/22 05:16:42"
"41","365.0886093120437","281.0774638084534","-68","18/12/22 05:16:42"
"65","349.2157371192029","280.0291401669304","-69","18/12/22 05:16:42"
"55","345.6957066049769","279.09346474203716","-69","18/12/22 05:16:42"
"48","357.8876200229331","278.9139540789042","-65","18/12/22 05:16:42"
"37","372.18696634735744","295.33877117864097","-66","18/12/22 05:16:42"
"38","359.1043053396113","297.99836785278586","-58","18/12/22 05:16:42"

"16","371.1633676750538","291.6212652717856","-67","18/12/22 05:16:43"
"3","368.84524138719394","286.9218203312288","-66","18/12/22 05:16:43"
"15","362.1266840327696","289.9247238319014","-58","18/12/22 05:16:43"
"4","355.9439714101496","290.7893792995019","-46","18/12/22 05:16:43"
"5","353.9810038021357","295.04781575205163","-38","18/12/22 05:16:43"
"13","349.84618223700994","289.9553514529072","-57","18/12/22 05:16:43"
"2","348.1408537960116","288.23423753763217","-58","18/12/22 05:16:43"
"14","345.06356460251754","295.7312560393657","-62","18/12/22 05:16:43"
"11","336.39717841253946","295.7489270258509","-71","18/12/22 05:16:43"
"10","336.1413674074077","294.350304541636","-71","18/12/22 05:16:43"
"30","343.2390283415482","283.9143916081976","-69","18/12/22 05:16:43"
"20","353.1408270178149","283.88103993037146","-61","18/12/22 05:16:43"
"7","347.34235793783415","282.4034513151052","-66","18/12/22 05:16:43"
"23","364.558254913552","281.82669756865414","-66","18/12/22 05:16:43"
"6","359.99106657746074","280.301587980369","-65","18/12/22 05:16:43"
"8","367.3354491878782","280.1064609905054","-68","18/12/22 05:16:43"
"57","366.67753801548474","292.99761442456526","-64","18/12/22 05:16:43"
"56","360.1871028913134","296.3227006742018","-60","18/12/22 05:16:43"
"64","352.3109033702752","291.5434444456011","-55","18/12/22 05:16:43"
"63","348.9090656791867","293.4633933563527","-60","18/12/22 05:16:43"
"68","345.9130358690055","287.5744926001626","-63","18/12/22 05:16:43"
"47","345.54328146067445","291.78917578457714","-62","18/12/22 05:16:43"
"67","343.8744147351082","288.46122672890743","-65","18/12/22 05:16:43"
"62","340.68633651580996","292.8798191329979","-68","18/12/22 05:16:43"
"61","336.15334237994176","289.2595097924601","-72","18/12/22 05:16:43"
"40","368.331419463979","284.8557533661749","-66","18/12/22 05:16:43"
"69","355.7492879512798","282.11642190100935","-64","18/12/22 05:16:43"
"41","365.0886093120437","281.0774638084534","-67","18/12/22 05:16:43"
"65","349.2157371192029","280.0291401669304","-67","18/12/22 05:16:43"
"55","345.6957066049769","279.09346474203716","-69","18/12/22 05:16:43"
"48","357.8876200229331","278.9139540789042","-66","18/12/22 05:16:43"
"37","372.18696634735744","295.33877117864097","-68","18/12/22 05:16:43"
"38","359.1043053396113","297.99836785278586","-57","18/12/22 05:16:43"
"33","337.13286555782474","298.30864156579344","-69","18/12/22 05:16:43"

"16","371.1633676750538","291.6212652717856","-69","18/12/22 05:16:44"
"3","368.84524138719394","286.9218203312288","-65","18/12/22 05:16:44"
"15","362.1266840327696","289.9247238319014","-60","18/12/22 05:16:44"
"4","355.9439714101496","290.7893792995019","-38","18/12/22 05:16:44"
"5","353.9810038021357","295.04781575205163","-48","18/12/22 05:16:44"
"13","349.84618223700994","289.9553514529072","-50","18/12/22 05:16:44"
"2","348.1408537960116","288.23423753763217","-57","18/12/22 05:16:44"
"14","345.06356460251754","295.7312560393657","-61","18/12/22 05:16:44"
"11","336.39717841253946","295.7489270258509","-68","18/12/22 05:16:44"
"10","336.1413674074077","294.350304541636","-68","18/12/22 05:16:44"
"30","343.2390283415482","283.9143916081976","-65","18/12/22 05:16:44"
"20","353.1408270178149","283.88103993037146","-59","18/12/22 05:16:44"
"7","347.34235793783415","282.4034513151052","-62","18/12/22 05:16:44"
"27","338.70002381514996","281.9021306251078","-69","18/12/22 05:16:44"
"23","364.558254913552","281.82669756865414","-65","18/12/22 05:16:44"
"6","359.99106657746074","280.301587980369","-65","18/12/22 05:16:44"
"8","367.3354491878782","280.1064609905054","-68","18/12/22 05:16:44"
"57","366.67753801548474","292.99761442456526","-66","18/12/22 05:16:44"
"56","360.1871028913134","296.3227006742018","-61","18/12/22 05:16:44"
"64","352.3109033702752","291.5434444456011","-54","18/12/22 05:16:44"
"63","348.9090656791867","293.4633933563527","-56","18/12/22 05:16:44"
"68","345.9130358690055","287.5744926001626","-62","18/12/22 05:16:44"
"47","345.54328146067445","291.78917578457714","-60","18/12/22 05:16:44"
"67","343.8744147351082","288.46122672890743","-66","18/12/22 05:16:44"
"62","340.68633651580996","292.8798191329979","-68","18/12/22 05:16:44"
"61","336.15334237994176","289.2595097924601","-70","18/12/22 05:16:44"
"40","368.331419463979","284.8557533661749","-68","18/12/22 05:16:44"
"69","355.7492879512798","282.11642190100935","-62","18/12/22 05:16:44"
"41","365.0886093120437","281.0774638084534","-67","18/12/22 05:16:44"
"65","349.2157371192029","280.0291401669304","-67","18/12/22 05:16:44"
"55","345.6957066049769","279.09346474203716","-68","18/12/22 05:16:44"
"48","357.8876200229331","278.9139540789042","-64","18/12/22 05:16:44"
"37","372.18696634735744","295.33877117864097","-72","18/12/22 05:16:44"
"38","359.1043053396113","297.99836785278586","-62","18/12/22 05:16:44"
"33","337.13286555782474","298.30864156579344","-70","18/12/22 05:16:44"

"16","371.1633676750538","291.6212652717856","-69","18/12/22 05:16:45"
"3","368.84524138719394","286.9218203312288","-64","18/12/22 05:16:45"
"15","362.1266840327696","289.9247238319014","-64","18/12/22 05:16:45"
"4","355.9439714101496","290.7893792995019","-63","18/12/22 05:16:45"
"5","353.9810038021357","295.04781575205163","-67","18/12/22 05:16:45"
"13","349.84618223700994","289.9553514529072","-65","18/12/22 05:16:45"
"2","348.1408537960116","288.23423753763217","-67","18/12/22 05:16:45"
"30","343.2390283415482","283.9143916081976","-69","18/12/22 05:16:45"
"20","353.1408270178149","283.88103993037146","-58","18/12/22 05:16:45"
"7","347.34235793783415","282.4034513151052","-65","18/12/22 05:16:45"
"23","364.558254913552","281.82669756865414","-57","18/12/22 05:16:45"
"6","359.99106657746074","280.301587980369","-36","18/12/22 05:16:45"
"8","367.3354491878782","280.1064609905054","-61","18/12/22 05:16:45"
"57","366.67753801548474","292.99761442456526","-69","18/12/22 05:16:45"
"56","360.1871028913134","296.3227006742018","-70","18/12/22 05:16:45"
"64","352.3109033702752","291.5434444456011","-66","18/12/22 05:16:45"
"63","348.9090656791867","293.4633933563527","-70","18/12/22 05:16:45"
"68","345.9130358690055","287.5744926001626","-68","18/12/22 05:16:45"
"47","345.54328146067445","291.78917578457714","-71","18/12/22 05:16:45"
"67","343.8744147351082","288.46122672890743","-71","18/12/22 05:16:45"
"40","368.331419463979","284.8557533661749","-62","18/12/22 05:16:45"
"69","355.7492879512798","282.11642190100935","-56","18/12/22 05:16:45"
"41","365.0886093120437","281.0774638084534","-57","18/12/22 05:16:45"
"65","349.2157371192029","280.0291401669304","-62","18/12/22 05:16:45"
"55","345.6957066049769","279.09346474203716","-67","18/12/22 05:16:45"
"48","357.8876200229331","278.9139540789042","-54","18/12/22 05:16:45"
"38","359.1043053396113","297.99836785278586","-71","18/12/22 05:16:45"

"16","371.1633676750538","291.6212652717856","-67","18/12/22 05:16:46"
"3","368.84524138719394","286.9218203312288","-63","18/12/22 05:16:46"
"15","362.1266840327696","289.9247238319014","-57","18/12/22 05:16:46"
"4","355.9439714101496","290.7893792995019","-57","18/12/22 05:16:46"
"5","353.9810038021357","295.04781575205163","-65","18/12/22 05:16:46"
"13","349.84618223700994","289.9553514529072","-63","18/12/22 05:16:46"
"2","348.1408537960116","288.23423753763217","-63","18/12/22 05:16:46"
"14","345.06356460251754","295.7312560393657","-71","18/12/22 05:16:46"
"30","343.2390283415482","283.9143916081976","-66","18/12/22 05:16:46"
"20","353.1408270178149","283.88103993037146","-52","18/12/22 05:16:46"
"7","347.34235793783415","282.4034513151052","-61","18/12/22 05:16:46"
"27","338.70002381514996","281.9021306251078","-70","18/12/22 05:16:46"
"23","364.558254913552","281.82669756865414","-55","18/12/22 05:16:46"
"6","359.99106657746074","280.301587980369","-49","18/12/22 05:16:46"
"8","367.3354491878782","280.1064609905054","-62","18/12/22 05:16:46"
"57","366.67753801548474","292.99761442456526","-67","18/12/22 05:16:46"
"56","360.1871028913134","296.3227006742018","-68","18/12/22 05:16:46"
"64","352.3109033702752","291.5434444456011","-64","18/12/22 05:16:46"
"63","348.9090656791867","293.4633933563527","-67","18/12/22 05:16:46"
"68","345.9130358690055","287.5744926001626","-64","18/12/22 05:16:46"
"47","345.54328146067445","291.78917578457714","-68","18/12/22 05:16:46"
"67","343.8744147351082","288.46122672890743","-66","18/12/22 05:16:46"
"40","368.331419463979","284.8557533661749","-63","18/12/22 05:16:46"
"69","355.7492879512798","282.11642190100935","-56","18/12/22 05:16:46"
"41","365.0886093120437","281.0774638084534","-61","18/12/22 05:16:46"
"65","349.2157371192029","280.0291401669304","-61","18/12/22 05:16:46"
"55","345.6957066049769","279.09346474203716","-67","18/12/22 05:16:46"
"48","357.8876200229331","278.9139540789042","-57","18/12/22 05:16:46"
"43","339.4086620459871","278.40122209988823","-69","18/12/22 05:16:46"
"37","372.18696634735744","295.33877117864097","-70","18/12/22 05:16:46"
"38","359.1043053396113","297.99836785278586","-66","18/12/22 05:16:46"

"16","371.1633676750538","291.6212652717856","-66","18/12/22 05:16:47"
"3","368.84524138719394","286.9218203312288","-62","18/12/22 05:16:47"
"15","362.1266840327696","289.9247238319014","-62","18/12/22 05:16:47"
"4","355.9439714101496","290.7893792995019","-62","18/12/22 05:16:47"
"5","353.9810038021357","295.04781575205163","-65","18/12/22 05:16:47"
"13","349.84618223700994","289.9553514529072","-66","18/12/22 05:16:47"
"2","348.1408537960116","288.23423753763217","-63","18/12/22 05:16:47"
"30","343.2390283415482","283.9143916081976","-69","18/12/22 05:16:47"
"20","353.1408270178149","283.88103993037146","-54","18/12/22 05:16:47"
"7","347.34235793783415","282.4034513151052","-63","18/12/22 05:16:47"
"23","364.558254913552","281.82669756865414","-54","18/12/22 05:16:47"
"6","359.99106657746074","280.301587980369","-36","18/12/22 05:16:47"
"8","367.3354491878782","280.1064609905054","-61","18/12/22 05:16:47"
"57","366.67753801548474","292.99761442456526","-66","18/12/22 05:16:47"
"56","360.1871028913134","296.3227006742018","-68","18/12/22 05:16:47"
"64","352.3109033702752","291.5434444456011","-65","18/12/22 05:16:47"
"63","348.9090656791867","293.4633933563527","-67","18/12/22 05:16:47"
"68","345.9130358690055","287.5744926001626","-66","18/12/22 05:16:47"
"47","345.54328146067445","291.78917578457714","-68","18/12/22 05:16:47"
"67","343.8744147351082","288.46122672890743","-70","18/12/22 05:16:47"
"40","368.331419463979","284.8557533661749","-63","18/12/22 05:16:47"
"69","355.7492879512798","282.11642190100935","-54","18/12/22 05:16:47"
"41","365.0886093120437","281.0774638084534","-59","18/12/22 05:16:47"
"65","349.2157371192029","280.0291401669304","-64","18/12/22 05:16:47"
"55","345.6957066049769","279.09346474203716","-66","18/12/22 05:16:47"
"48","357.8876200229331","278.9139540789042","-54","18/12/22 05:16:47"
"37","372.18696634735744","295.33877117864097","-71","18/12/22 05:16:47"
"38","359.1043053396113","297.99836785278586","-69","18/12/22 05:16:47"

"2","348.1408537960116","288.23423753763217","-70","18/12/22 05:16:48"
"11","336.39717841253946","295.7489270258509","-66","18/12/22 05:16:48"
"10","336.1413674074077","294.350304541636","-67","18/12/22 05:16:48"
"17","331.40559805419605","289.40175250536043","-61","18/12/22 05:16:48"
"18","324.81243171034225","289.354156618153","-62","18/12/22 05:16:48"
"30","343.2390283415482","283.9143916081976","-66","18/12/22 05:16:48"
"19","325.7000180868877","282.5235956632788","-51","18/12/22 05:16:48"
"7","347.34235793783415","282.4034513151052","-70","18/12/22 05:16:48"
"27","338.70002381514996","281.9021306251078","-59","18/12/22 05:16:48"
"12","331.1499097808954","280.7809197256316","-30","18/12/22 05:16:48"
"28","334.0276721317696","280.0508786977858","-49","18/12/22 05:16:48"
"22","318.3514581116194","295.33489556531345","-72","18/12/22 05:16:48"
"9","317.81020784540914","283.4965351413325","-65","18/12/22 05:16:48"
"25","317.45601601651964","286.1915953109285","-67","18/12/22 05:16:48"
"26","316.20150849664645","287.0419759839082","-66","18/12/22 05:16:48"
"29","314.92666418039613","281.8453284658967","-65","18/12/22 05:16:48"
"68","345.9130358690055","287.5744926001626","-68","18/12/22 05:16:48"
"47","345.54328146067445","291.78917578457714","-71","18/12/22 05:16:48"
"67","343.8744147351082","288.46122672890743","-69","18/12/22 05:16:48"
"62","340.68633651580996","292.8798191329979","-69","18/12/22 05:16:48"
"61","336.15334237994176","289.2595097924601","-65","18/12/22 05:16:48"
"50","326.05052457251645","289.8389949933502","-63","18/12/22 05:16:48"
"51","325.52865148932665","289.89678566866576","-64","18/12/22 05:16:48"
"52","328.11586125507387","287.4313232778648","-58","18/12/22 05:16:48"
"39","331.19921154844013","282.4506584181093","-52","18/12/22 05:16:48"
"65","349.2157371192029","280.0291401669304","-72","18/12/22 05:16:48"
"55","345.6957066049769","279.09346474203716","-67","18/12/22 05:16:48"
"43","339.4086620459871","278.40122209988823","-61","18/12/22 05:16:48"
"42","339.4489517057548","274.9546618193048","-64","18/12/22 05:16:48"
"49","324.64434483360077","281.05069406440714","-58","18/12/22 05:16:48"
"60","317.86438613309105","294.4508642114292","-70","18/12/22 05:16:48"
"66","317.8060599171815","282.28143962675205","-67","18/12/22 05:16:48"
"59","316.07977491215206","289.20438220825775","-70","18/12/22 05:16:48"
"58","314.78004847075755","280.2954753208754","-67","18/12/22 05:16:48"
"33","337.13286555782474","298.30864156579344","-69","18/12/22 05:16:48"
"34","331.96168718049495","298.1027481685605","-68","18/12/22 05:16:48"
"36","327.6657912280927","277.118307127184","-55","18/12/22 05:16:48"
"35","323.11876582852955","276.2274175573831","-61","18/12/22 05:16:48"

"2","348.1408537960116","288.23423753763217","-69","18/12/22 05:16:49"
"11","336.39717841253946","295.7489270258509","-66","18/12/22 05:16:49"
"10","336.1413674074077","294.350304541636","-66","18/12/22 05:16:49"
"17","331.40559805419605","289.40175250536043","-57","18/12/22 05:16:49"
"18","324.81243171034225","289.354156618153","-62","18/12/22 05:16:49"
"30","343.2390283415482","283.9143916081976","-65","18/12/22 05:16:49"
"19","325.7000180868877","282.5235956632788","-53","18/12/22 05:16:49"
"7","347.34235793783415","282.4034513151052","-69","18/12/22 05:16:49"
"27","338.70002381514996","281.9021306251078","-59","18/12/22 05:16:49"
"12","331.1499097808954","280.7809197256316","-28","18/12/22 05:16:49"
"28","334.0276721317696","280.0508786977858","-46","18/12/22 05:16:49"
"22","318.3514581116194","295.33489556531345","-68","18/12/22 05:16:49"
"9","317.81020784540914","283.4965351413325","-67","18/12/22 05:16:49"
"25","317.45601601651964","286.1915953109285","-66","18/12/22 05:16:49"
"26","316.20150849664645","287.0419759839082","-67","18/12/22 05:16:49"
"29","314.92666418039613","281.8453284658967","-68","18/12/22 05:16:49"
"68","345.9130358690055","287.5744926001626","-70","18/12/22 05:16:49"
"47","345.54328146067445","291.78917578457714","-70","18/12/22 05:16:49"
"67","343.8744147351082","288.46122672890743","-66","18/12/22 05:16:49"
"62","340.68633651580996","292.8798191329979","-66","18/12/22 05:16:49"
"61","336.15334237994176","289.2595097924601","-63","18/12/22 05:16:49"
"50","326.05052457251645","289.8389949933502","-61","18/12/22 05:16:49"
"51","325.52865148932665","289.89678566866576","-62","18/12/22 05:16:49"
"52","328.11586125507387","287.4313232778648","-59","18/12/22 05:16:49"
"39","331.19921154844013","282.4506584181093","-53","18/12/22 05:16:49"
"65","349.2157371192029","280.0291401669304","-72","18/12/22 05:16:49"
"55","345.6957066049769","279.09346474203716","-66","18/12/22 05:16:49"
"43","339.4086620459871","278.40122209988823","-63","18/12/22 05:16:49"
"42","339.4489517057548","274.9546618193048","-62","18/12/22 05:16:49"
"49","324.64434483360077","281.05069406440714","-59","18/12/22 05:16:49"
"60","317.86438613309105","294.4508642114292","-69","18/12/22 05:16:49"
"66","317.8060599171815","282.28143962675205","-67","18/12/22 05:16:49"
"59","316.07977491215206","289.20438220825775","-69","18/12/22 05:16:49"
"58","314.78004847075755","280.2954753208754","-69","18/12/22 05:16:49"
"33","337.13286555782474","298.30864156579344","-71","18/12/22 05:16:49"
"34","331.96168718049495","298.1027481685605","-69","18/12/22 05:16:49"
"36","327.6657912280927","277.118307127184","-58","18/12/22 05:16:49"
"35","323.11876582852955","276.2274175573831","-62","18/12/22 05:16:49"

"16","371.1633676750538","291.6212652717856","-69","18/12/22 05:16:50"
"3","368.84524138719394","286.9218203312288","-69","18/12/22 05:16:50"
"15","362.1266840327696","289.9247238319014","-63","18/12/22 05:16:50"
"4","355.9439714101496","290.7893792995019","-60","18/12/22 05:16:50"
"5","353.9810038021357","295.04781575205163","-64","18/12/22 05:16:50"
"13","349.84618223700994","289.9553514529072","-59","18/12/22 05:16:50"
"2","348.1408537960116","288.23423753763217","-56","18/12/22 05:16:50"
"14","345.06356460251754","295.7312560393657","-68","18/12/22 05:16:50"
"30","343.2390283415482","283.9143916081976","-61","18/12/22 05:16:50"
"20","353.1408270178149","283.88103993037146","-22","18/12/22 05:16:50"
"7","347.34235793783415","282.4034513151052","-56","18/12/22 05:16:50"
"27","338.70002381514996","281.9021306251078","-66","18/12/22 05:16:50"
"23","364.558254913552","281.82669756865414","-63","18/12/22 05:16:50"
"6","359.99106657746074","280.301587980369","-57","18/12/22 05:16:50"
"8","367.3354491878782","280.1064609905054","-68","18/12/22 05:16:50"
"28","334.0276721317696","280.0508786977858","-68","18/12/22 05:16:50"
"57","366.67753801548474","292.99761442456526","-68","18/12/22 05:16:50"
"56","360.1871028913134","296.3227006742018","-67","18/12/22 05:16:50"
"64","352.3109033702752","291.5434444456011","-59","18/12/22 05:16:50"
"63","348.9090656791867","293.4633933563527","-63","18/12/22 05:16:50"
"68","345.9130358690055","287.5744926001626","-60","18/12/22 05:16:50"
"47","345.54328146067445","291.78917578457714","-65","18/12/22 05:16:50"
"67","343.8744147351082","288.46122672890743","-63","18/12/22 05:16:50"
"62","340.68633651580996","292.8798191329979","-68","18/12/22 05:16:50"
"61","336.15334237994176","289.2595097924601","-68","18/12/22 05:16:50"
"40","368.331419463979","284.8557533661749","-68","18/12/22 05:16:50"
"69","355.7492879512798","282.11642190100935","-53","18/12/22 05:16:50"
"41","365.0886093120437","281.0774638084534","-64","18/12/22 05:16:50"
"65","349.2157371192029","280.0291401669304","-57","18/12/22 05:16:50"
"55","345.6957066049769","279.09346474203716","-60","18/12/22 05:16:50"
"48","357.8876200229331","278.9139540789042","-57","18/12/22 05:16:50"
"43","339.4086620459871","278.40122209988823","-69","18/12/22 05:16:50"
"42","339.4489517057548","274.9546618193048","-70","18/12/22 05:16:50"
"38","359.1043053396113","297.99836785278586","-68","18/12/22 05:16:50"

"3","368.84524138719394","286.9218203312288","-69","18/12/22 05:16:51"
"15","362.1266840327696","289.9247238319014","-67","18/12/22 05:16:51"
"4","355.9439714101496","290.7893792995019","-62","18/12/22 05:16:51"
"5","353.9810038021357","295.04781575205163","-66","18/12/22 05:16:51"
"13","349.84618223700994","289.9553514529072","-63","18/12/22 05:16:51"
"2","348.1408537960116","288.23423753763217","-61","18/12/22 05:16:51"
"14","345.06356460251754","295.7312560393657","-70","18/12/22 05:16:51"
"30","343.2390283415482","283.9143916081976","-63","18/12/22 05:16:51"
"20","353.1408270178149","283.88103993037146","-50","18/12/22 05:16:51"
"7","347.34235793783415","282.4034513151052","-59","18/12/22 05:16:51"
"27","338.70002381514996","281.9021306251078","-68","18/12/22 05:16:51"
"23","364.558254913552","281.82669756865414","-63","18/12/22 05:16:51"
"6","359.99106657746074","280.301587980369","-57","18/12/22 05:16:51"
"8","367.3354491878782","280.1064609905054","-65","18/12/22 05:16:51"
"28","334.0276721317696","280.0508786977858","-72","18/12/22 05:16:51"
"57","366.67753801548474","292.99761442456526","-69","18/12/22 05:16:51"
"56","360.1871028913134","296.3227006742018","-68","18/12/22 05:16:51"
"64","352.3109033702752","291.5434444456011","-63","18/12/22 05:16:51"
"63","348.9090656791867","293.4633933563527","-67","18/12/22 05:16:51"
"68","345.9130358690055","287.5744926001626","-64","18/12/22 05:16:51"
"47","345.54328146067445","291.78917578457714","-68","18/12/22 05:16:51"
"67","343.8744147351082","288.46122672890743","-65","18/12/22 05:16:51"
"62","340.68633651580996","292.8798191329979","-70","18/12/22 05:16:51"
"40","368.331419463979","284.8557533661749","-68","18/12/22 05:16:51"
"69","355.7492879512798","282.11642190100935","-56","18/12/22 05:16:51"
"41","365.0886093120437","281.0774638084534","-63","18/12/22 05:16:51"
"65","349.2157371192029","280.0291401669304","-57","18/12/22 05:16:51"
"55","345.6957066049769","279.09346474203716","-59","18/12/22 05:16:51"
"48","357.8876200229331","278.9139540789042","-58","18/12/22 05:16:51"
"43","339.4086620459871","278.40122209988823","-65","18/12/22 05:16:51"
"42","339.4489517057548","274.9546618193048","-66","18/12/22 05:16:51"
"38","359.1043053396113","297.99836785278586","-70","18/12/22 05:16:51"

"16","371.1633676750538","291.6212652717856","-70","18/12/22 05:16:52"
"3","368.84524138719394","286.9218203312288","-64","18/12/22 05:16:52"
"15","362.1266840327696","289.9247238319014","-63","18/12/22 05:16:52"
"4","355.9439714101496","290.7893792995019","-62","18/12/22 05:16:52"
"5","353.9810038021357","295.04781575205163","-66","18/12/22 05:16:52"
"13","349.84618223700994","289.9553514529072","-66","18/12/22 05:16:52"
"2","348.1408537960116","288.23423753763217","-62","18/12/22 05:16:52"
"14","345.06356460251754","295.7312560393657","-71","18/12/22 05:16:52"
"30","343.2390283415482","283.9143916081976","-64","18/12/22 05:16:52"
"20","353.1408270178149","283.88103993037146","-54","18/12/22 05:16:52"
"7","347.34235793783415","282.4034513151052","-59","18/12/22 05:16:52"
"27","338.70002381514996","281.9021306251078","-67","18/12/22 05:16:52"
"23","364.558254913552","281.82669756865414","-60","18/12/22 05:16:52"
"6","359.99106657746074","280.301587980369","-47","18/12/22 05:16:52"
"8","367.3354491878782","280.1064609905054","-63","18/12/22 05:16:52"
"57","366.67753801548474","292.99761442456526","-69","18/12/22 05:16:52"
"56","360.1871028913134","296.3227006742018","-70","18/12/22 05:16:52"
"64","352.3109033702752","291.5434444456011","-64","18/12/22 05:16:52"
"63","348.9090656791867","293.4633933563527","-69","18/12/22 05:16:52"
"68","345.9130358690055","287.5744926001626","-65","18/12/22 05:16:52"
"47","345.54328146067445","291.78917578457714","-68","18/12/22 05:16:52"
"67","343.8744147351082","288.46122672890743","-69","18/12/22 05:16:52"
"40","368.331419463979","284.8557533661749","-65","18/12/22 05:16:52"
"69","355.7492879512798","282.11642190100935","-55","18/12/22 05:16:52"
"41","365.0886093120437","281.0774638084534","-60","18/12/22 05:16:52"
"65","349.2157371192029","280.0291401669304","-60","18/12/22 05:16:52"
"55","345.6957066049769","279.09346474203716","-65","18/12/22 05:16:52"
"48","357.8876200229331","278.9139540789042","-55","18/12/22 05:16:52"
"43","339.4086620459871","278.40122209988823","-70","18/12/22 05:16:52"
"42","339.4489517057548","274.9546618193048","-71","18/12/22 05:16:52"
"38","359.1043053396113","297.99836785278586","-69","18/12/22 05:16:52"

"3","368.84524138719394","286.9218203312288","-69","18/12/22 05:16:53"
"15","362.1266840327696","289.9247238319014","-65","18/12/22 05:16:53"
"4","355.9439714101496","290.7893792995019","-59","18/12/22 05:16:53"
"5","353.9810038021357","295.04781575205163","-67","18/12/22 05:16:53"
"13","349.84618223700994","289.9553514529072","-59","18/12/22 05:16:53"
"2","348.1408537960116","288.23423753763217","-58","18/12/22 05:16:53"
"14","345.06356460251754","295.7312560393657","-68","18/12/22 05:16:53"
"30","343.2390283415482","283.9143916081976","-60","18/12/22 05:16:53"
"20","353.1408270178149","283.88103993037146","-39","18/12/22 05:16:53"
"7","347.34235793783415","282.4034513151052","-52","18/12/22 05:16:53"
"27","338.70002381514996","281.9021306251078","-66","18/12/22 05:16:53"
"23","364.558254913552","281.82669756865414","-65","18/12/22 05:16:53"
"6","359.99106657746074","280.301587980369","-60","18/12/22 05:16:53"
"8","367.3354491878782","280.1064609905054","-67","18/12/22 05:16:53"
"28","334.0276721317696","280.0508786977858","-68","18/12/22 05:16:53"
"57","366.67753801548474","292.99761442456526","-70","18/12/22 05:16:53"
"56","360.1871028913134","296.3227006742018","-67","18/12/22 05:16:53"
"64","352.3109033702752","291.5434444456011","-61","18/12/22 05:16:53"
"63","348.9090656791867","293.4633933563527","-64","18/12/22 05:16:53"
"68","345.9130358690055","287.5744926001626","-60","18/12/22 05:16:53"
"47","345.54328146067445","291.78917578457714","-64","18/12/22 05:16:53"
"67","343.8744147351082","288.46122672890743","-62","18/12/22 05:16:53"
"62","340.68633651580996","292.8798191329979","-70","18/12/22 05:16:53"
"61","336.15334237994176","289.2595097924601","-68","18/12/22 05:16:53"
"40","368.331419463979","284.8557533661749","-67","18/12/22 05:16:53"
"69","355.7492879512798","282.11642190100935","-54","18/12/22 05:16:53"
"41","365.0886093120437","281.0774638084534","-65","18/12/22 05:16:53"
"65","349.2157371192029","280.0291401669304","-55","18/12/22 05:16:53"
"55","345.6957066049769","279.09346474203716","-59","18/12/22 05:16:53"
"48","357.8876200229331","278.9139540789042","-60","18/12/22 05:16:53"
"43","339.4086620459871","278.40122209988823","-68","18/12/22 05:16:53"
"42","339.4489517057548","274.9546618193048","-66","18/12/22 05:16:53"
"38","359.1043053396113","297.99836785278586","-69","18/12/22 05:16:53"

"3","368.84524138719394","286.9218203312288","-68","18/12/22 05:16:54"
"15","362.1266840327696","289.9247238319014","-65","18/12/22 05:16:54"
"4","355.9439714101496","290.7893792995019","-63","18/12/22 05:16:54"
"5","353.9810038021357","295.04781575205163","-68","18/12/22 05:16:54"
"13","349.84618223700994","289.9553514529072","-64","18/12/22 05:16:54"
"2","348.1408537960116","288.23423753763217","-64","18/12/22 05:16:54"
"14","345.06356460251754","295.7312560393657","-68","18/12/22 05:16:54"
"30","343.2390283415482","283.9143916081976","-64","18/12/22 05:16:54"
"20","353.1408270178149","283.88103993037146","-50","18/12/22 05:16:54"
"7","347.34235793783415","282.4034513151052","-60","18/12/22 05:16:54"
"27","338.70002381514996","281.9021306251078","-68","18/12/22 05:16:54"
"23","364.558254913552","281.82669756865414","-62","18/12/22 05:16:54"
"6","359.99106657746074","280.301587980369","-52","18/12/22 05:16:54"
"8","367.3354491878782","280.1064609905054","-65","18/12/22 05:16:54"
"57","366.67753801548474","292.99761442456526","-71","18/12/22 05:16:54"
"56","360.1871028913134","296.3227006742018","-68","18/12/22 05:16:54"
"64","352.3109033702752","291.5434444456011","-65","18/12/22 05:16:54"
"63","348.9090656791867","293.4633933563527","-68","18/12/22 05:16:54"
"68","345.9130358690055","287.5744926001626","-63","18/12/22 05:16:54"
"47","345.54328146067445","291.78917578457714","-68","18/12/22 05:16:54"
"67","343.8744147351082","288.46122672890743","-65","18/12/22 05:16:54"
"62","340.68633651580996","292.8798191329979","-71","18/12/22 05:16:54"
"40","368.331419463979","284.8557533661749","-66","18/12/22 05:16:54"
"69","355.7492879512798","282.11642190100935","-53","18/12/22 05:16:54"
"41","365.0886093120437","281.0774638084534","-64","18/12/22 05:16:54"
"65","349.2157371192029","280.0291401669304","-56","18/12/22 05:16:54"
"55","345.6957066049769","279.09346474203716","-60","18/12/22 05:16:54"
"48","357.8876200229331","278.9139540789042","-53","18/12/22 05:16:54"
"43","339.4086620459871","278.40122209988823","-69","18/12/22 05:16:54"
"42","339.4489517057548","274.9546618193048","-67","18/12/22 05:16:54"
"38","359.1043053396113","297.99836785278586","-71","18/12/22 05:16:54"

"16","371.1633676750538","291.6212652717856","-72","18/12/22 05:16:55"
"3","368.84524138719394","286.9218203312288","-66","18/12/22 05:16:55"
"15","362.1266840327696","289.9247238319014","-62","18/12/22 05:16:55"
"4","355.9439714101496","290.7893792995019","-61","18/12/22 05:16:55"
"5","353.9810038021357","295.04781575205163","-67","18/12/22 05:16:55"
"13","349.84618223700994","289.9553514529072","-63","18/12/22 05:16:55"
"2","348.1408537960116","288.23423753763217","-61","18/12/22 05:16:55"
"14","345.06356460251754","295.7312560393657","-71","18/12/22 05:16:55"
"30","343.2390283415482","283.9143916081976","-63","18/12/22 05:16:55"
"20","353.1408270178149","283.88103993037146","-49","18/12/22 05:16:55"
"7","347.34235793783415","282.4034513151052","-59","18/12/22 05:16:55"
"27","338.70002381514996","281.9021306251078","-66","18/12/22 05:16:55"
"23","364.558254913552","281.82669756865414","-60","18/12/22 05:16:55"
"6","359.99106657746074","280.301587980369","-54","18/12/22 05:16:55"
"8","367.3354491878782","280.1064609905054","-64","18/12/22 05:16:55"
"57","366.67753801548474","292.99761442456526","-71","18/12/22 05:16:55"
"56","360.1871028913134","296.3227006742018","-70","18/12/22 05:16:55"
"64","352.3109033702752","291.5434444456011","-62","18/12/22 05:16:55"
"63","348.9090656791867","293.4633933563527","-67","18/12/22 05:16:55"
"68","345.9130358690055","287.5744926001626","-62","18/12/22 05:16:55"
"47","345.54328146067445","291.78917578457714","-68","18/12/22 05:16:55"
"67","343.8744147351082","288.46122672890743","-64","18/12/22 05:16:55"
"62","340.68633651580996","292.8798191329979","-69","18/12/22 05:16:55"
"40","368.331419463979","284.8557533661749","-67","18/12/22 05:16:55"
"69","355.7492879512798","282.11642190100935","-55","18/12/22 05:16:55"
"41","365.0886093120437","281.0774638084534","-65","18/12/22 05:16:55"
"65","349.2157371192029","280.0291401669304","-58","18/12/22 05:16:55"
"55","345.6957066049769","279.09346474203716","-62","18/12/22 05:16:55"
"48","357.8876200229331","278.9139540789042","-55","18/12/22 05:16:55"
"43","339.4086620459871","278.40122209988823","-66","18/12/22 05:16:55"
"42","339.4489517057548","274.9546618193048","-69","18/12/22 05:16:55"
"38","359.1043053396113","297.99836785278586","-71","18/12/22 05:16:55"

