"deviceId","device_location_x","device_location_y","rssi_measurement","timeStamp"
"107","349.10510387958027","296.33441333760385","-58","18/12/22 05:18:25"
"106","343.0419374512361","296.0138146453802","-61","18/12/22 05:18:25"
"110","336.66635145662235","291.36861595859267","-66","18/12/22 05:18:25"
"109","335.51044443158224","289.7166284418012","-68","18/12/22 05:18:25"
"118","355.2093993576609","288.0311694576188","-51","18/12/22 05:18:25"
"105","349.9100571733974","285.98561209079196","-36","18/12/22 05:18:25"
"108","349.6132769029411","281.93867863059984","-55","18/12/22 05:18:25"
"117","358.38433150805696","280.91221359712426","-63","18/12/22 05:18:25"
"116","346.1459294211589","278.41650093363376","-60","18/12/22 05:18:25"
"112","339.5316640141885","276.68973400630716","-68","18/12/22 05:18:25"
"111","340.8356808679617","274.3246531177024","-68","18/12/22 05:18:25"
"89","361.95448040292314","295.17746693665987","-66","18/12/22 05:18:25"
"90","358.5242252108483","294.02381439809005","-63","18/12/22 05:18:25"
"91","349.8423133029049","289.2067475269076","-55","18/12/22 05:18:25"
"92","349.5639361596289","290.37958123247967","-56","18/12/22 05:18:25"
"93","342.87075650845605","288.3484002263486","-59","18/12/22 05:18:25"
"73","331.25696275517026","289.56239838092034","-69","18/12/22 05:18:25"
"94","355.56880912890875","287.64288737368884","-56","18/12/22 05:18:25"
"72","365.34444414649266","283.3737479970796","-69","18/12/22 05:18:25"
"83","332.9988042566773","282.65570452882474","-70","18/12/22 05:18:25"
"71","345.37105048256774","282.14295709168505","-61","18/12/22 05:18:25"
"74","350.1725854487765","282.1043855849684","-58","18/12/22 05:18:25"
"88","358.5574567856148","281.26447724068805","-64","18/12/22 05:18:25"
"70","368.4154952240602","281.04084527346316","-69","18/12/22 05:18:25"
"96","352.9744094310227","278.2780519389197","-63","18/12/22 05:18:25"
"82","335.7729742625847","275.88549353541487","-70","18/12/22 05:18:25"

"4","355.9439714101496","290.7893792995019","-71","18/12/22 05:18:26"
"5","353.9810038021357","295.04781575205163","-72","18/12/22 05:18:26"
"13","349.84618223700994","289.9553514529072","-64","18/12/22 05:18:26"
"2","348.1408537960116","288.23423753763217","-65","18/12/22 05:18:26"
"14","345.06356460251754","295.7312560393657","-62","18/12/22 05:18:26"
"11","336.39717841253946","295.7489270258509","-60","18/12/22 05:18:26"
"10","336.1413674074077","294.350304541636","-56","18/12/22 05:18:26"
"17","331.40559805419605","289.40175250536043","-52","18/12/22 05:18:26"
"18","324.81243171034225","289.354156618153","-63","18/12/22 05:18:26"
"30","343.2390283415482","283.9143916081976","-57","18/12/22 05:18:26"
"20","353.1408270178149","283.88103993037146","-67","18/12/22 05:18:26"
"19","325.7000180868877","282.5235956632788","-65","18/12/22 05:18:26"
"7","347.34235793783415","282.4034513151052","-63","18/12/22 05:18:26"
"27","338.70002381514996","281.9021306251078","-54","18/12/22 05:18:26"
"12","331.1499097808954","280.7809197256316","-58","18/12/22 05:18:26"
"28","334.0276721317696","280.0508786977858","-60","18/12/22 05:18:26"
"22","318.3514581116194","295.33489556531345","-69","18/12/22 05:18:26"
"9","317.81020784540914","283.4965351413325","-69","18/12/22 05:18:26"
"25","317.45601601651964","286.1915953109285","-71","18/12/22 05:18:26"
"64","352.3109033702752","291.5434444456011","-70","18/12/22 05:18:26"
"63","348.9090656791867","293.4633933563527","-67","18/12/22 05:18:26"
"68","345.9130358690055","287.5744926001626","-64","18/12/22 05:18:26"
"47","345.54328146067445","291.78917578457714","-62","18/12/22 05:18:26"
"67","343.8744147351082","288.46122672890743","-59","18/12/22 05:18:26"
"62","340.68633651580996","292.8798191329979","-60","18/12/22 05:18:26"
"61","336.15334237994176","289.2595097924601","-54","18/12/22 05:18:26"
"50","326.05052457251645","289.8389949933502","-62","18/12/22 05:18:26"
"51","325.52865148932665","289.89678566866576","-64","18/12/22 05:18:26"
"52","328.11586125507387","287.4313232778648","-62","18/12/22 05:18:26"
"39","331.19921154844013","282.4506584181093","-61","18/12/22 05:18:26"
"65","349.2157371192029","280.0291401669304","-69","18/12/22 05:18:26"
"55","345.6957066049769","279.09346474203716","-65","18/12/22 05:18:26"
"43","339.4086620459871","278.40122209988823","-62","18/12/22 05:18:26"
"42","339.4489517057548","274.9546618193048","-65","18/12/22 05:18:26"
"49","324.64434483360077","281.05069406440714","-67","18/12/22 05:18:26"
"33","337.13286555782474","298.30864156579344","-62","18/12/22 05:18:26"
"34","331.96168718049495","298.1027481685605","-62","18/12/22 05:18:26"
"36","327.6657912280927","277.118307127184","-67","18/12/22 05:18:26"
"35","323.11876582852955","276.2274175573831","-69","18/12/22 05:18:26"

"17","331.40559805419605","289.40175250536043","-64","18/12/22 05:18:27"
"18","324.81243171034225","289.354156618153","-62","18/12/22 05:18:27"
"19","325.7000180868877","282.5235956632788","-53","18/12/22 05:18:27"
"27","338.70002381514996","281.9021306251078","-71","18/12/22 05:18:27"
"12","331.1499097808954","280.7809197256316","-62","18/12/22 05:18:27"
"28","334.0276721317696","280.0508786977858","-63","18/12/22 05:18:27"
"22","318.3514581116194","295.33489556531345","-65","18/12/22 05:18:27"
"9","317.81020784540914","283.4965351413325","-51","18/12/22 05:18:27"
"25","317.45601601651964","286.1915953109285","-59","18/12/22 05:18:27"
"26","316.20150849664645","287.0419759839082","-60","18/12/22 05:18:27"
"29","314.92666418039613","281.8453284658967","-58","18/12/22 05:18:27"
"21","312.2097455219935","292.162060808992","-68","18/12/22 05:18:27"
"1","310.1259265928915","278.70449073794146","-62","18/12/22 05:18:27"
"32","305.54424783000223","291.67259952111056","-68","18/12/22 05:18:27"
"24","304.15189129651577","278.15759935971454","-69","18/12/22 05:18:27"
"61","336.15334237994176","289.2595097924601","-71","18/12/22 05:18:27"
"50","326.05052457251645","289.8389949933502","-61","18/12/22 05:18:27"
"51","325.52865148932665","289.89678566866576","-64","18/12/22 05:18:27"
"52","328.11586125507387","287.4313232778648","-61","18/12/22 05:18:27"
"39","331.19921154844013","282.4506584181093","-62","18/12/22 05:18:27"
"43","339.4086620459871","278.40122209988823","-69","18/12/22 05:18:27"
"42","339.4489517057548","274.9546618193048","-70","18/12/22 05:18:27"
"49","324.64434483360077","281.05069406440714","-54","18/12/22 05:18:27"
"60","317.86438613309105","294.4508642114292","-68","18/12/22 05:18:27"
"66","317.8060599171815","282.28143962675205","-54","18/12/22 05:18:27"
"59","316.07977491215206","289.20438220825775","-64","18/12/22 05:18:27"
"58","314.78004847075755","280.2954753208754","-60","18/12/22 05:18:27"
"54","307.49986821346045","279.97911141866837","-67","18/12/22 05:18:27"
"53","307.1346847375608","288.3856999339956","-69","18/12/22 05:18:27"
"44","303.28748062121537","278.0684013127651","-70","18/12/22 05:18:27"
"36","327.6657912280927","277.118307127184","-58","18/12/22 05:18:27"
"35","323.11876582852955","276.2274175573831","-56","18/12/22 05:18:27"

"17","331.40559805419605","289.40175250536043","-66","18/12/22 05:18:28"
"18","324.81243171034225","289.354156618153","-62","18/12/22 05:18:28"
"19","325.7000180868877","282.5235956632788","-54","18/12/22 05:18:28"
"27","338.70002381514996","281.9021306251078","-68","18/12/22 05:18:28"
"12","331.1499097808954","280.7809197256316","-62","18/12/22 05:18:28"
"28","334.0276721317696","280.0508786977858","-67","18/12/22 05:18:28"
"22","318.3514581116194","295.33489556531345","-67","18/12/22 05:18:28"
"9","317.81020784540914","283.4965351413325","-45","18/12/22 05:18:28"
"25","317.45601601651964","286.1915953109285","-52","18/12/22 05:18:28"
"26","316.20150849664645","287.0419759839082","-56","18/12/22 05:18:28"
"29","314.92666418039613","281.8453284658967","-51","18/12/22 05:18:28"
"21","312.2097455219935","292.162060808992","-67","18/12/22 05:18:28"
"1","310.1259265928915","278.70449073794146","-62","18/12/22 05:18:28"
"31","307.5511614276879","295.00996894715564","-71","18/12/22 05:18:28"
"32","305.54424783000223","291.67259952111056","-67","18/12/22 05:18:28"
"24","304.15189129651577","278.15759935971454","-67","18/12/22 05:18:28"
"61","336.15334237994176","289.2595097924601","-71","18/12/22 05:18:28"
"50","326.05052457251645","289.8389949933502","-62","18/12/22 05:18:28"
"51","325.52865148932665","289.89678566866576","-65","18/12/22 05:18:28"
"52","328.11586125507387","287.4313232778648","-63","18/12/22 05:18:28"
"39","331.19921154844013","282.4506584181093","-66","18/12/22 05:18:28"
"49","324.64434483360077","281.05069406440714","-56","18/12/22 05:18:28"
"60","317.86438613309105","294.4508642114292","-65","18/12/22 05:18:28"
"66","317.8060599171815","282.28143962675205","-54","18/12/22 05:18:28"
"59","316.07977491215206","289.20438220825775","-61","18/12/22 05:18:28"
"58","314.78004847075755","280.2954753208754","-57","18/12/22 05:18:28"
"46","308.37496642449753","296.30964640293945","-69","18/12/22 05:18:28"
"54","307.49986821346045","279.97911141866837","-67","18/12/22 05:18:28"
"53","307.1346847375608","288.3856999339956","-69","18/12/22 05:18:28"
"44","303.28748062121537","278.0684013127651","-69","18/12/22 05:18:28"
"36","327.6657912280927","277.118307127184","-64","18/12/22 05:18:28"
"35","323.11876582852955","276.2274175573831","-59","18/12/22 05:18:28"

"13","349.84618223700994","289.9553514529072","-68","18/12/22 05:18:29"
"2","348.1408537960116","288.23423753763217","-67","18/12/22 05:18:29"
"14","345.06356460251754","295.7312560393657","-64","18/12/22 05:18:29"
"11","336.39717841253946","295.7489270258509","-53","18/12/22 05:18:29"
"10","336.1413674074077","294.350304541636","-51","18/12/22 05:18:29"
"17","331.40559805419605","289.40175250536043","-46","18/12/22 05:18:29"
"18","324.81243171034225","289.354156618153","-59","18/12/22 05:18:29"
"30","343.2390283415482","283.9143916081976","-63","18/12/22 05:18:29"
"19","325.7000180868877","282.5235956632788","-63","18/12/22 05:18:29"
"7","347.34235793783415","282.4034513151052","-67","18/12/22 05:18:29"
"27","338.70002381514996","281.9021306251078","-60","18/12/22 05:18:29"
"12","331.1499097808954","280.7809197256316","-64","18/12/22 05:18:29"
"28","334.0276721317696","280.0508786977858","-62","18/12/22 05:18:29"
"22","318.3514581116194","295.33489556531345","-70","18/12/22 05:18:29"
"9","317.81020784540914","283.4965351413325","-70","18/12/22 05:18:29"
"25","317.45601601651964","286.1915953109285","-67","18/12/22 05:18:29"
"26","316.20150849664645","287.0419759839082","-70","18/12/22 05:18:29"
"64","352.3109033702752","291.5434444456011","-69","18/12/22 05:18:29"
"63","348.9090656791867","293.4633933563527","-68","18/12/22 05:18:29"
"68","345.9130358690055","287.5744926001626","-65","18/12/22 05:18:29"
"47","345.54328146067445","291.78917578457714","-66","18/12/22 05:18:29"
"67","343.8744147351082","288.46122672890743","-64","18/12/22 05:18:29"
"62","340.68633651580996","292.8798191329979","-61","18/12/22 05:18:29"
"61","336.15334237994176","289.2595097924601","-54","18/12/22 05:18:29"
"50","326.05052457251645","289.8389949933502","-59","18/12/22 05:18:29"
"51","325.52865148932665","289.89678566866576","-60","18/12/22 05:18:29"
"52","328.11586125507387","287.4313232778648","-57","18/12/22 05:18:29"
"39","331.19921154844013","282.4506584181093","-61","18/12/22 05:18:29"
"65","349.2157371192029","280.0291401669304","-68","18/12/22 05:18:29"
"55","345.6957066049769","279.09346474203716","-70","18/12/22 05:18:29"
"43","339.4086620459871","278.40122209988823","-68","18/12/22 05:18:29"
"42","339.4489517057548","274.9546618193048","-70","18/12/22 05:18:29"
"49","324.64434483360077","281.05069406440714","-67","18/12/22 05:18:29"
"60","317.86438613309105","294.4508642114292","-67","18/12/22 05:18:29"
"66","317.8060599171815","282.28143962675205","-68","18/12/22 05:18:29"
"59","316.07977491215206","289.20438220825775","-70","18/12/22 05:18:29"
"33","337.13286555782474","298.30864156579344","-61","18/12/22 05:18:29"
"34","331.96168718049495","298.1027481685605","-62","18/12/22 05:18:29"
"36","327.6657912280927","277.118307127184","-67","18/12/22 05:18:29"
"35","323.11876582852955","276.2274175573831","-70","18/12/22 05:18:29"

"13","349.84618223700994","289.9553514529072","-68","18/12/22 05:18:30"
"2","348.1408537960116","288.23423753763217","-65","18/12/22 05:18:30"
"14","345.06356460251754","295.7312560393657","-63","18/12/22 05:18:30"
"11","336.39717841253946","295.7489270258509","-55","18/12/22 05:18:30"
"10","336.1413674074077","294.350304541636","-53","18/12/22 05:18:30"
"17","331.40559805419605","289.40175250536043","-45","18/12/22 05:18:30"
"18","324.81243171034225","289.354156618153","-61","18/12/22 05:18:30"
"30","343.2390283415482","283.9143916081976","-60","18/12/22 05:18:30"
"20","353.1408270178149","283.88103993037146","-69","18/12/22 05:18:30"
"19","325.7000180868877","282.5235956632788","-64","18/12/22 05:18:30"
"7","347.34235793783415","282.4034513151052","-67","18/12/22 05:18:30"
"27","338.70002381514996","281.9021306251078","-61","18/12/22 05:18:30"
"12","331.1499097808954","280.7809197256316","-60","18/12/22 05:18:30"
"28","334.0276721317696","280.0508786977858","-60","18/12/22 05:18:30"
"22","318.3514581116194","295.33489556531345","-68","18/12/22 05:18:30"
"9","317.81020784540914","283.4965351413325","-71","18/12/22 05:18:30"
"25","317.45601601651964","286.1915953109285","-69","18/12/22 05:18:30"
"26","316.20150849664645","287.0419759839082","-70","18/12/22 05:18:30"
"64","352.3109033702752","291.5434444456011","-69","18/12/22 05:18:30"
"63","348.9090656791867","293.4633933563527","-68","18/12/22 05:18:30"
"68","345.9130358690055","287.5744926001626","-65","18/12/22 05:18:30"
"47","345.54328146067445","291.78917578457714","-66","18/12/22 05:18:30"
"67","343.8744147351082","288.46122672890743","-60","18/12/22 05:18:30"
"62","340.68633651580996","292.8798191329979","-60","18/12/22 05:18:30"
"61","336.15334237994176","289.2595097924601","-55","18/12/22 05:18:30"
"50","326.05052457251645","289.8389949933502","-60","18/12/22 05:18:30"
"51","325.52865148932665","289.89678566866576","-63","18/12/22 05:18:30"
"52","328.11586125507387","287.4313232778648","-58","18/12/22 05:18:30"
"39","331.19921154844013","282.4506584181093","-62","18/12/22 05:18:30"
"65","349.2157371192029","280.0291401669304","-71","18/12/22 05:18:30"
"55","345.6957066049769","279.09346474203716","-67","18/12/22 05:18:30"
"43","339.4086620459871","278.40122209988823","-64","18/12/22 05:18:30"
"42","339.4489517057548","274.9546618193048","-69","18/12/22 05:18:30"
"49","324.64434483360077","281.05069406440714","-65","18/12/22 05:18:30"
"60","317.86438613309105","294.4508642114292","-69","18/12/22 05:18:30"
"66","317.8060599171815","282.28143962675205","-69","18/12/22 05:18:30"
"59","316.07977491215206","289.20438220825775","-69","18/12/22 05:18:30"
"33","337.13286555782474","298.30864156579344","-62","18/12/22 05:18:30"
"34","331.96168718049495","298.1027481685605","-61","18/12/22 05:18:30"
"36","327.6657912280927","277.118307127184","-68","18/12/22 05:18:30"
"35","323.11876582852955","276.2274175573831","-68","18/12/22 05:18:30"

"4","355.9439714101496","290.7893792995019","-68","18/12/22 05:18:31"
"5","353.9810038021357","295.04781575205163","-67","18/12/22 05:18:31"
"13","349.84618223700994","289.9553514529072","-66","18/12/22 05:18:31"
"2","348.1408537960116","288.23423753763217","-63","18/12/22 05:18:31"
"14","345.06356460251754","295.7312560393657","-55","18/12/22 05:18:31"
"11","336.39717841253946","295.7489270258509","-43","18/12/22 05:18:31"
"10","336.1413674074077","294.350304541636","-48","18/12/22 05:18:31"
"17","331.40559805419605","289.40175250536043","-62","18/12/22 05:18:31"
"18","324.81243171034225","289.354156618153","-68","18/12/22 05:18:31"
"30","343.2390283415482","283.9143916081976","-64","18/12/22 05:18:31"
"20","353.1408270178149","283.88103993037146","-68","18/12/22 05:18:31"
"19","325.7000180868877","282.5235956632788","-71","18/12/22 05:18:31"
"7","347.34235793783415","282.4034513151052","-68","18/12/22 05:18:31"
"27","338.70002381514996","281.9021306251078","-67","18/12/22 05:18:31"
"12","331.1499097808954","280.7809197256316","-69","18/12/22 05:18:31"
"28","334.0276721317696","280.0508786977858","-69","18/12/22 05:18:31"
"64","352.3109033702752","291.5434444456011","-66","18/12/22 05:18:31"
"63","348.9090656791867","293.4633933563527","-62","18/12/22 05:18:31"
"68","345.9130358690055","287.5744926001626","-65","18/12/22 05:18:31"
"47","345.54328146067445","291.78917578457714","-61","18/12/22 05:18:31"
"67","343.8744147351082","288.46122672890743","-63","18/12/22 05:18:31"
"62","340.68633651580996","292.8798191329979","-54","18/12/22 05:18:31"
"61","336.15334237994176","289.2595097924601","-58","18/12/22 05:18:31"
"50","326.05052457251645","289.8389949933502","-65","18/12/22 05:18:31"
"51","325.52865148932665","289.89678566866576","-69","18/12/22 05:18:31"
"52","328.11586125507387","287.4313232778648","-68","18/12/22 05:18:31"
"39","331.19921154844013","282.4506584181093","-67","18/12/22 05:18:31"
"65","349.2157371192029","280.0291401669304","-69","18/12/22 05:18:31"
"55","345.6957066049769","279.09346474203716","-71","18/12/22 05:18:31"
"43","339.4086620459871","278.40122209988823","-70","18/12/22 05:18:31"
"33","337.13286555782474","298.30864156579344","-55","18/12/22 05:18:31"
"34","331.96168718049495","298.1027481685605","-58","18/12/22 05:18:31"

"15","362.1266840327696","289.9247238319014","-69","18/12/22 05:18:32"
"4","355.9439714101496","290.7893792995019","-62","18/12/22 05:18:32"
"5","353.9810038021357","295.04781575205163","-62","18/12/22 05:18:32"
"13","349.84618223700994","289.9553514529072","-54","18/12/22 05:18:32"
"2","348.1408537960116","288.23423753763217","-56","18/12/22 05:18:32"
"14","345.06356460251754","295.7312560393657","-46","18/12/22 05:18:32"
"11","336.39717841253946","295.7489270258509","-60","18/12/22 05:18:32"
"10","336.1413674074077","294.350304541636","-60","18/12/22 05:18:32"
"17","331.40559805419605","289.40175250536043","-65","18/12/22 05:18:32"
"30","343.2390283415482","283.9143916081976","-60","18/12/22 05:18:32"
"20","353.1408270178149","283.88103993037146","-63","18/12/22 05:18:32"
"7","347.34235793783415","282.4034513151052","-65","18/12/22 05:18:32"
"27","338.70002381514996","281.9021306251078","-64","18/12/22 05:18:32"
"12","331.1499097808954","280.7809197256316","-71","18/12/22 05:18:32"
"28","334.0276721317696","280.0508786977858","-70","18/12/22 05:18:32"
"56","360.1871028913134","296.3227006742018","-70","18/12/22 05:18:32"
"64","352.3109033702752","291.5434444456011","-59","18/12/22 05:18:32"
"63","348.9090656791867","293.4633933563527","-56","18/12/22 05:18:32"
"68","345.9130358690055","287.5744926001626","-58","18/12/22 05:18:32"
"47","345.54328146067445","291.78917578457714","-55","18/12/22 05:18:32"
"67","343.8744147351082","288.46122672890743","-58","18/12/22 05:18:32"
"62","340.68633651580996","292.8798191329979","-56","18/12/22 05:18:32"
"61","336.15334237994176","289.2595097924601","-61","18/12/22 05:18:32"
"50","326.05052457251645","289.8389949933502","-71","18/12/22 05:18:32"
"51","325.52865148932665","289.89678566866576","-70","18/12/22 05:18:32"
"52","328.11586125507387","287.4313232778648","-71","18/12/22 05:18:32"
"39","331.19921154844013","282.4506584181093","-71","18/12/22 05:18:32"
"69","355.7492879512798","282.11642190100935","-66","18/12/22 05:18:32"
"65","349.2157371192029","280.0291401669304","-67","18/12/22 05:18:32"
"55","345.6957066049769","279.09346474203716","-68","18/12/22 05:18:32"
"43","339.4086620459871","278.40122209988823","-67","18/12/22 05:18:32"
"42","339.4489517057548","274.9546618193048","-72","18/12/22 05:18:32"
"38","359.1043053396113","297.99836785278586","-68","18/12/22 05:18:32"
"33","337.13286555782474","298.30864156579344","-64","18/12/22 05:18:32"
"34","331.96168718049495","298.1027481685605","-67","18/12/22 05:18:32"

"15","362.1266840327696","289.9247238319014","-69","18/12/22 05:18:33"
"4","355.9439714101496","290.7893792995019","-63","18/12/22 05:18:33"
"5","353.9810038021357","295.04781575205163","-60","18/12/22 05:18:33"
"13","349.84618223700994","289.9553514529072","-51","18/12/22 05:18:33"
"2","348.1408537960116","288.23423753763217","-50","18/12/22 05:18:33"
"14","345.06356460251754","295.7312560393657","-52","18/12/22 05:18:33"
"11","336.39717841253946","295.7489270258509","-63","18/12/22 05:18:33"
"10","336.1413674074077","294.350304541636","-63","18/12/22 05:18:33"
"17","331.40559805419605","289.40175250536043","-66","18/12/22 05:18:33"
"30","343.2390283415482","283.9143916081976","-56","18/12/22 05:18:33"
"20","353.1408270178149","283.88103993037146","-61","18/12/22 05:18:33"
"7","347.34235793783415","282.4034513151052","-60","18/12/22 05:18:33"
"27","338.70002381514996","281.9021306251078","-61","18/12/22 05:18:33"
"12","331.1499097808954","280.7809197256316","-70","18/12/22 05:18:33"
"6","359.99106657746074","280.301587980369","-67","18/12/22 05:18:33"
"28","334.0276721317696","280.0508786977858","-66","18/12/22 05:18:33"
"56","360.1871028913134","296.3227006742018","-68","18/12/22 05:18:33"
"64","352.3109033702752","291.5434444456011","-58","18/12/22 05:18:33"
"63","348.9090656791867","293.4633933563527","-55","18/12/22 05:18:33"
"68","345.9130358690055","287.5744926001626","-56","18/12/22 05:18:33"
"47","345.54328146067445","291.78917578457714","-53","18/12/22 05:18:33"
"67","343.8744147351082","288.46122672890743","-52","18/12/22 05:18:33"
"62","340.68633651580996","292.8798191329979","-59","18/12/22 05:18:33"
"61","336.15334237994176","289.2595097924601","-62","18/12/22 05:18:33"
"50","326.05052457251645","289.8389949933502","-71","18/12/22 05:18:33"
"52","328.11586125507387","287.4313232778648","-68","18/12/22 05:18:33"
"39","331.19921154844013","282.4506584181093","-70","18/12/22 05:18:33"
"69","355.7492879512798","282.11642190100935","-64","18/12/22 05:18:33"
"65","349.2157371192029","280.0291401669304","-65","18/12/22 05:18:33"
"55","345.6957066049769","279.09346474203716","-63","18/12/22 05:18:33"
"48","357.8876200229331","278.9139540789042","-70","18/12/22 05:18:33"
"43","339.4086620459871","278.40122209988823","-64","18/12/22 05:18:33"
"42","339.4489517057548","274.9546618193048","-68","18/12/22 05:18:33"
"38","359.1043053396113","297.99836785278586","-69","18/12/22 05:18:33"
"33","337.13286555782474","298.30864156579344","-65","18/12/22 05:18:33"
"34","331.96168718049495","298.1027481685605","-67","18/12/22 05:18:33"

"16","371.1633676750538","291.6212652717856","-69","18/12/22 05:18:34"
"3","368.84524138719394","286.9218203312288","-67","18/12/22 05:18:34"
"15","362.1266840327696","289.9247238319014","-60","18/12/22 05:18:34"
"4","355.9439714101496","290.7893792995019","-52","18/12/22 05:18:34"
"5","353.9810038021357","295.04781575205163","-33","18/12/22 05:18:34"
"13","349.84618223700994","289.9553514529072","-54","18/12/22 05:18:34"
"2","348.1408537960116","288.23423753763217","-60","18/12/22 05:18:34"
"14","345.06356460251754","295.7312560393657","-58","18/12/22 05:18:34"
"11","336.39717841253946","295.7489270258509","-69","18/12/22 05:18:34"
"10","336.1413674074077","294.350304541636","-69","18/12/22 05:18:34"
"30","343.2390283415482","283.9143916081976","-67","18/12/22 05:18:34"
"20","353.1408270178149","283.88103993037146","-62","18/12/22 05:18:34"
"7","347.34235793783415","282.4034513151052","-67","18/12/22 05:18:34"
"27","338.70002381514996","281.9021306251078","-71","18/12/22 05:18:34"
"23","364.558254913552","281.82669756865414","-70","18/12/22 05:18:34"
"6","359.99106657746074","280.301587980369","-69","18/12/22 05:18:34"
"57","366.67753801548474","292.99761442456526","-68","18/12/22 05:18:34"
"56","360.1871028913134","296.3227006742018","-61","18/12/22 05:18:34"
"64","352.3109033702752","291.5434444456011","-56","18/12/22 05:18:34"
"63","348.9090656791867","293.4633933563527","-55","18/12/22 05:18:34"
"68","345.9130358690055","287.5744926001626","-63","18/12/22 05:18:34"
"47","345.54328146067445","291.78917578457714","-62","18/12/22 05:18:34"
"67","343.8744147351082","288.46122672890743","-65","18/12/22 05:18:34"
"62","340.68633651580996","292.8798191329979","-66","18/12/22 05:18:34"
"61","336.15334237994176","289.2595097924601","-71","18/12/22 05:18:34"
"40","368.331419463979","284.8557533661749","-71","18/12/22 05:18:34"
"69","355.7492879512798","282.11642190100935","-66","18/12/22 05:18:34"
"41","365.0886093120437","281.0774638084534","-68","18/12/22 05:18:34"
"65","349.2157371192029","280.0291401669304","-69","18/12/22 05:18:34"
"55","345.6957066049769","279.09346474203716","-69","18/12/22 05:18:34"
"48","357.8876200229331","278.9139540789042","-70","18/12/22 05:18:34"
"37","372.18696634735744","295.33877117864097","-72","18/12/22 05:18:34"
"38","359.1043053396113","297.99836785278586","-60","18/12/22 05:18:34"
"33","337.13286555782474","298.30864156579344","-68","18/12/22 05:18:34"

"16","371.1633676750538","291.6212652717856","-66","18/12/22 05:18:35"
"3","368.84524138719394","286.9218203312288","-64","18/12/22 05:18:35"
"15","362.1266840327696","289.9247238319014","-52","18/12/22 05:18:35"
"4","355.9439714101496","290.7893792995019","-30","18/12/22 05:18:35"
"5","353.9810038021357","295.04781575205163","-51","18/12/22 05:18:35"
"13","349.84618223700994","289.9553514529072","-56","18/12/22 05:18:35"
"2","348.1408537960116","288.23423753763217","-62","18/12/22 05:18:35"
"14","345.06356460251754","295.7312560393657","-65","18/12/22 05:18:35"
"30","343.2390283415482","283.9143916081976","-67","18/12/22 05:18:35"
"20","353.1408270178149","283.88103993037146","-58","18/12/22 05:18:35"
"7","347.34235793783415","282.4034513151052","-64","18/12/22 05:18:35"
"23","364.558254913552","281.82669756865414","-65","18/12/22 05:18:35"
"6","359.99106657746074","280.301587980369","-65","18/12/22 05:18:35"
"8","367.3354491878782","280.1064609905054","-67","18/12/22 05:18:35"
"57","366.67753801548474","292.99761442456526","-63","18/12/22 05:18:35"
"56","360.1871028913134","296.3227006742018","-58","18/12/22 05:18:35"
"64","352.3109033702752","291.5434444456011","-57","18/12/22 05:18:35"
"63","348.9090656791867","293.4633933563527","-59","18/12/22 05:18:35"
"68","345.9130358690055","287.5744926001626","-65","18/12/22 05:18:35"
"47","345.54328146067445","291.78917578457714","-63","18/12/22 05:18:35"
"67","343.8744147351082","288.46122672890743","-66","18/12/22 05:18:35"
"62","340.68633651580996","292.8798191329979","-68","18/12/22 05:18:35"
"40","368.331419463979","284.8557533661749","-66","18/12/22 05:18:35"
"69","355.7492879512798","282.11642190100935","-61","18/12/22 05:18:35"
"41","365.0886093120437","281.0774638084534","-64","18/12/22 05:18:35"
"65","349.2157371192029","280.0291401669304","-65","18/12/22 05:18:35"
"55","345.6957066049769","279.09346474203716","-67","18/12/22 05:18:35"
"48","357.8876200229331","278.9139540789042","-67","18/12/22 05:18:35"
"37","372.18696634735744","295.33877117864097","-67","18/12/22 05:18:35"
"38","359.1043053396113","297.99836785278586","-61","18/12/22 05:18:35"

"16","371.1633676750538","291.6212652717856","-61","18/12/22 05:18:36"
"3","368.84524138719394","286.9218203312288","-62","18/12/22 05:18:36"
"15","362.1266840327696","289.9247238319014","-42","18/12/22 05:18:36"
"4","355.9439714101496","290.7893792995019","-51","18/12/22 05:18:36"
"5","353.9810038021357","295.04781575205163","-58","18/12/22 05:18:36"
"13","349.84618223700994","289.9553514529072","-61","18/12/22 05:18:36"
"2","348.1408537960116","288.23423753763217","-66","18/12/22 05:18:36"
"14","345.06356460251754","295.7312560393657","-69","18/12/22 05:18:36"
"30","343.2390283415482","283.9143916081976","-71","18/12/22 05:18:36"
"20","353.1408270178149","283.88103993037146","-60","18/12/22 05:18:36"
"7","347.34235793783415","282.4034513151052","-68","18/12/22 05:18:36"
"23","364.558254913552","281.82669756865414","-63","18/12/22 05:18:36"
"6","359.99106657746074","280.301587980369","-60","18/12/22 05:18:36"
"8","367.3354491878782","280.1064609905054","-64","18/12/22 05:18:36"
"57","366.67753801548474","292.99761442456526","-61","18/12/22 05:18:36"
"56","360.1871028913134","296.3227006742018","-58","18/12/22 05:18:36"
"64","352.3109033702752","291.5434444456011","-59","18/12/22 05:18:36"
"63","348.9090656791867","293.4633933563527","-65","18/12/22 05:18:36"
"68","345.9130358690055","287.5744926001626","-68","18/12/22 05:18:36"
"47","345.54328146067445","291.78917578457714","-68","18/12/22 05:18:36"
"67","343.8744147351082","288.46122672890743","-70","18/12/22 05:18:36"
"40","368.331419463979","284.8557533661749","-65","18/12/22 05:18:36"
"69","355.7492879512798","282.11642190100935","-64","18/12/22 05:18:36"
"41","365.0886093120437","281.0774638084534","-62","18/12/22 05:18:36"
"65","349.2157371192029","280.0291401669304","-67","18/12/22 05:18:36"
"55","345.6957066049769","279.09346474203716","-70","18/12/22 05:18:36"
"48","357.8876200229331","278.9139540789042","-66","18/12/22 05:18:36"
"37","372.18696634735744","295.33877117864097","-67","18/12/22 05:18:36"
"38","359.1043053396113","297.99836785278586","-59","18/12/22 05:18:36"

"16","371.1633676750538","291.6212652717856","-66","18/12/22 05:18:37"
"3","368.84524138719394","286.9218203312288","-63","18/12/22 05:18:37"
"15","362.1266840327696","289.9247238319014","-51","18/12/22 05:18:37"
"4","355.9439714101496","290.7893792995019","-50","18/12/22 05:18:37"
"5","353.9810038021357","295.04781575205163","-55","18/12/22 05:18:37"
"13","349.84618223700994","289.9553514529072","-62","18/12/22 05:18:37"
"2","348.1408537960116","288.23423753763217","-64","18/12/22 05:18:37"
"14","345.06356460251754","295.7312560393657","-66","18/12/22 05:18:37"
"30","343.2390283415482","283.9143916081976","-69","18/12/22 05:18:37"
"20","353.1408270178149","283.88103993037146","-61","18/12/22 05:18:37"
"7","347.34235793783415","282.4034513151052","-67","18/12/22 05:18:37"
"23","364.558254913552","281.82669756865414","-65","18/12/22 05:18:37"
"6","359.99106657746074","280.301587980369","-63","18/12/22 05:18:37"
"8","367.3354491878782","280.1064609905054","-68","18/12/22 05:18:37"
"57","366.67753801548474","292.99761442456526","-59","18/12/22 05:18:37"
"56","360.1871028913134","296.3227006742018","-57","18/12/22 05:18:37"
"64","352.3109033702752","291.5434444456011","-58","18/12/22 05:18:37"
"63","348.9090656791867","293.4633933563527","-65","18/12/22 05:18:37"
"68","345.9130358690055","287.5744926001626","-67","18/12/22 05:18:37"
"47","345.54328146067445","291.78917578457714","-67","18/12/22 05:18:37"
"67","343.8744147351082","288.46122672890743","-69","18/12/22 05:18:37"
"62","340.68633651580996","292.8798191329979","-71","18/12/22 05:18:37"
"40","368.331419463979","284.8557533661749","-65","18/12/22 05:18:37"
"69","355.7492879512798","282.11642190100935","-63","18/12/22 05:18:37"
"41","365.0886093120437","281.0774638084534","-66","18/12/22 05:18:37"
"65","349.2157371192029","280.0291401669304","-67","18/12/22 05:18:37"
"48","357.8876200229331","278.9139540789042","-65","18/12/22 05:18:37"
"37","372.18696634735744","295.33877117864097","-65","18/12/22 05:18:37"
"38","359.1043053396113","297.99836785278586","-57","18/12/22 05:18:37"

"17","331.40559805419605","289.40175250536043","-68","18/12/22 05:18:38"
"18","324.81243171034225","289.354156618153","-61","18/12/22 05:18:38"
"19","325.7000180868877","282.5235956632788","-65","18/12/22 05:18:38"
"12","331.1499097808954","280.7809197256316","-70","18/12/22 05:18:38"
"22","318.3514581116194","295.33489556531345","-52","18/12/22 05:18:38"
"9","317.81020784540914","283.4965351413325","-58","18/12/22 05:18:38"
"25","317.45601601651964","286.1915953109285","-51","18/12/22 05:18:38"
"26","316.20150849664645","287.0419759839082","-48","18/12/22 05:18:38"
"29","314.92666418039613","281.8453284658967","-61","18/12/22 05:18:38"
"21","312.2097455219935","292.162060808992","-48","18/12/22 05:18:38"
"1","310.1259265928915","278.70449073794146","-65","18/12/22 05:18:38"
"31","307.5511614276879","295.00996894715564","-61","18/12/22 05:18:38"
"32","305.54424783000223","291.67259952111056","-60","18/12/22 05:18:38"
"24","304.15189129651577","278.15759935971454","-69","18/12/22 05:18:38"
"50","326.05052457251645","289.8389949933502","-65","18/12/22 05:18:38"
"51","325.52865148932665","289.89678566866576","-64","18/12/22 05:18:38"
"52","328.11586125507387","287.4313232778648","-65","18/12/22 05:18:38"
"39","331.19921154844013","282.4506584181093","-68","18/12/22 05:18:38"
"49","324.64434483360077","281.05069406440714","-67","18/12/22 05:18:38"
"60","317.86438613309105","294.4508642114292","-57","18/12/22 05:18:38"
"66","317.8060599171815","282.28143962675205","-61","18/12/22 05:18:38"
"59","316.07977491215206","289.20438220825775","-54","18/12/22 05:18:38"
"58","314.78004847075755","280.2954753208754","-65","18/12/22 05:18:38"
"46","308.37496642449753","296.30964640293945","-61","18/12/22 05:18:38"
"54","307.49986821346045","279.97911141866837","-68","18/12/22 05:18:38"
"53","307.1346847375608","288.3856999339956","-60","18/12/22 05:18:38"
"45","306.16774359449516","295.83825924018686","-64","18/12/22 05:18:38"
"44","303.28748062121537","278.0684013127651","-71","18/12/22 05:18:38"
"34","331.96168718049495","298.1027481685605","-70","18/12/22 05:18:38"
"36","327.6657912280927","277.118307127184","-70","18/12/22 05:18:38"
"35","323.11876582852955","276.2274175573831","-69","18/12/22 05:18:38"

