"floorId","partitionId","location_x","location_y","timeStamp"
"10","160","345.9680130086873","284.23405719040875",2019-01-07
"10","160","343.95608272936306","283.74836696491616",2019-01-07
"10","160","342.0505566562954","283.2883632572225",2019-01-07
