floorId	partitionId	location_x	location_y	timeStamp
1	30	340.3519288975962	276.21531182041764	18/12/03 04:11:01
1	30	340.1974999406324	276.2824742952351	18/12/03 04:11:01
1	30	339.9932260673256	276.37131475068827	18/12/03 04:11:01
1	30	339.8446883191824	276.43591508837915	18/12/03 04:11:01
1	30	339.6660592377438	276.51360240440886	18/12/03 04:11:01
1	30	339.4301502842745	276.6162012269231	18/12/03 04:11:01
1	30	339.1580890147309	276.73452300105004	18/12/03 04:11:01
1	30	338.985782907689	276.8094604014095	18/12/03 04:11:01
1	30	338.7564882321045	276.9091826178739	18/12/03 04:11:01
1	30	338.510677092405	277.0160879859118	18/12/03 04:11:01
1	30	338.34556619866237	277.08789612643864	18/12/03 04:11:02
1	30	338.10304101817303	277.19337240269834	18/12/03 04:11:02
1	30	337.8872477251973	277.28722275233616	18/12/03 04:11:02
1	30	337.7148249020286	277.3622109135379	18/12/03 04:11:02
1	30	337.5716778563438	277.4244667886019	18/12/03 04:11:02
1	30	337.3179310093841	277.5348234636323	18/12/03 04:11:02
1	30	337.13057776929327	277.6163049909116	18/12/03 04:11:02
1	30	336.978180820784	277.6825837278644	18/12/03 04:11:02
1	30	336.7842586073678	277.76692215785306	18/12/03 04:11:02
1	30	336.5295438642589	277.8776997792009	18/12/03 04:11:02
1	30	336.36030412204104	277.95130359125983	18/12/03 04:11:03
1	30	336.0918274499969	278.0680663932611	18/12/03 04:11:03
1	30	335.8347200310466	278.1798846098063	18/12/03 04:11:03
1	30	335.64086489326905	278.26419386802576	18/12/03 04:11:03
1	30	335.49345018300687	278.3283057869324	18/12/03 04:11:03
1	30	335.3494029891521	278.39095314413794	18/12/03 04:11:03
1	30	335.16127300720984	278.472772483095	18/12/03 04:11:03
1	30	334.8875767551599	278.5918053251043	18/12/03 04:11:03
1	30	334.6957161467003	278.67524714545635	18/12/03 04:11:03
1	30	334.4979585112254	278.76125363331766	18/12/03 04:11:03
1	30	334.3289661322674	278.8347498649782	18/12/03 04:11:04
1	30	334.1449892430285	278.91476298838097	18/12/03 04:11:04
1	30	333.9048849269558	279.01918640999077	18/12/03 04:11:04
1	30	333.68204013188813	279.11610351822736	18/12/03 04:11:04
1	30	333.5095842370383	279.19110606258624	18/12/03 04:11:04
1	30	333.3552412562607	279.2582311456246	18/12/03 04:11:04
1	30	333.2067811410906	279.32279772007115	18/12/03 04:11:04
1	30	332.99758430396133	279.4137792146161	18/12/03 04:11:04
1	30	332.7939770008071	279.5023297730062	18/12/03 04:11:04
1	30	332.5757941346971	279.59721936844744	18/12/03 04:11:04
1	30	332.3340223957703	279.70236796652443	18/12/03 04:11:05
1	30	332.1477947480192	279.78335996406366	18/12/03 04:11:05
1	30	331.87907085406897	279.9002302849874	18/12/03 04:11:05
1	30	331.66235846244683	279.99448035849116	18/12/03 04:11:05
1	30	331.50689674083065	280.0620919914932	18/12/03 04:11:05
1	30	331.328492595527	280.13968148087304	18/12/03 04:11:05
1	30	331.1316078718138	280.22530833193974	18/12/03 04:11:05
1	30	330.98309446549786	280.28989808316163	18/12/03 04:11:05
1	30	330.81699440953577	280.3621364188019	18/12/03 04:11:05
1	30	330.6765955485246	280.42319708483535	18/12/03 04:11:05
3	12	330.50680085550584	280.5031740974923	18/12/03 04:11:06
3	12	330.6498704125002	280.56994756763805	18/12/03 04:11:06
3	12	330.82170082087737	280.6501443116899	18/12/03 04:11:06
3	12	331.0337823014093	280.74912704922167	18/12/03 04:11:06
3	12	331.2741129695531	280.8612942567781	18/12/03 04:11:06
3	12	331.5248605013117	280.9783232263069	18/12/03 04:11:06
3	12	331.6981188319014	281.05918641067797	18/12/03 04:11:06
3	12	331.9559374776965	281.1795156128484	18/12/03 04:11:06
3	12	332.1180854120468	281.2551933494751	18/12/03 04:11:06
3	12	332.375883819453	281.3755131059781	18/12/03 04:11:06
3	12	332.57339657396807	281.4676963229676	18/12/03 04:11:07
3	12	332.8051862269259	281.57587726514015	18/12/03 04:11:07
3	12	333.05648848791213	281.69316513807433	18/12/03 04:11:07
3	12	333.2374965714775	281.77764528967333	18/12/03 04:11:07
3	12	333.4599253973983	281.8814573436084	18/12/03 04:11:07
3	12	333.6383591745322	281.9647360140729	18/12/03 04:11:07
3	12	333.84387139697736	282.06065274533506	18/12/03 04:11:07
3	12	334.0513338653415	282.1574796960064	18/12/03 04:11:07
3	12	334.225973918772	282.2389877585109	18/12/03 04:11:07
3	12	334.43975548573763	282.3387639609356	18/12/03 04:11:07
3	12	334.58417938346537	282.40616952942855	18/12/03 04:11:08
3	12	334.8029126147302	282.50825677422455	18/12/03 04:11:08
3	12	334.96177527002357	282.582401204342	18/12/03 04:11:08
3	12	335.12617211067175	282.6591285512471	18/12/03 04:11:08
3	12	335.3683979146045	282.772180257195	18/12/03 04:11:08
3	12	335.59123844816907	282.8761844634554	18/12/03 04:11:08
3	12	335.8151121468085	282.9806708688553	18/12/03 04:11:08
3	12	336.0811763981627	283.10484846273255	18/12/03 04:11:08
3	12	336.25524455635576	283.1860896101059	18/12/03 04:11:08
3	12	336.5154413203227	283.30752872836246	18/12/03 04:11:08
3	12	336.728940752966	283.4071732529645	18/12/03 04:11:09
3	12	336.9974037277654	283.53247037982777	18/12/03 04:11:09
3	12	337.2005171129404	283.6272675249794	18/12/03 04:11:09
3	12	337.3569925045898	283.7002977706329	18/12/03 04:11:09
3	12	337.57108206564016	283.8002177201569	18/12/03 04:11:09
3	12	337.81616010932294	283.91460062436806	18/12/03 04:11:09
3	12	337.9708129653575	283.98678025560696	18/12/03 04:11:09
3	12	338.1910517380937	284.0895701672078	18/12/03 04:11:09
3	12	338.3327768765498	284.1557161698963	18/12/03 04:11:09
3	12	338.5806080532079	284.27138401722465	18/12/03 04:11:09
3	12	338.82682890808707	284.38630029464883	18/12/03 04:11:10
3	12	338.9897653384876	284.46234603840844	18/12/03 04:11:10
3	12	339.20241157629897	284.5615923596412	18/12/03 04:11:10
3	12	339.4690415088383	284.686033968425	18/12/03 04:11:10
3	12	339.6688047647924	284.7792675401777	18/12/03 04:11:10
3	12	339.8144069885696	284.84722305738757	18/12/03 04:11:10
3	12	340.0619965249505	284.96277812628716	18/12/03 04:11:10
3	12	340.28193537183944	285.0654280563991	18/12/03 04:11:10
3	12	340.51768448414435	285.1754569587252	18/12/03 04:11:10
3	12	340.75984029957164	285.28847599961506	18/12/03 04:11:10
3	12	340.99120325223276	285.39645779208644	18/12/03 04:11:11
3	12	341.23019789952946	285.5080014515588	18/12/03 04:11:11
3	56	341.23194540699393	285.50881704881067	18/12/03 04:11:11
3	56	341.0718372176557	285.434091302639	18/12/03 04:11:11
3	56	340.91947362417653	285.36298011676405	18/12/03 04:11:11
3	56	340.64858116714475	285.2365491011636	18/12/03 04:11:11
3	56	340.382108685304	285.11218097782097	18/12/03 04:11:11
3	56	340.1673100763911	285.0119301012481	18/12/03 04:11:11
3	56	339.94635391679185	284.9088053706173	18/12/03 04:11:11
3	56	339.7376102670111	284.8113804665387	18/12/03 04:11:11
3	56	339.5702468080303	284.73326853856105	18/12/03 04:11:12
3	56	339.4294662458442	284.6675633888163	18/12/03 04:11:12
3	56	339.2787280348605	284.59721080198796	18/12/03 04:11:12
3	56	339.1309893949097	284.52825817592714	18/12/03 04:11:12
3	56	338.9488328342787	284.4432420067387	18/12/03 04:11:12
3	56	338.7538724972122	284.3522500548505	18/12/03 04:11:12
3	56	338.56387893675765	284.263576198557	18/12/03 04:11:12
3	56	338.326161194504	284.1526284966214	18/12/03 04:11:12
3	56	338.1328655109944	284.06241347238233	18/12/03 04:11:12
3	56	337.90933001055583	283.9580849109566	18/12/03 04:11:12
3	56	337.6856406066157	283.8536845196386	18/12/03 04:11:13
3	56	337.5094070883392	283.7714327547032	18/12/03 04:11:13
3	56	337.5094070883392	283.7714327547032	18/12/03 04:11:13
3	56	337.29084472105774	283.6694252556011	18/12/03 04:11:13
3	56	337.1324518265228	283.59550007237755	18/12/03 04:11:13
3	56	336.9958998203635	283.53176847567613	18/12/03 04:11:13
3	56	336.859493033558	283.46810465579875	18/12/03 04:11:13
3	56	336.61914003187803	283.355927024727	18/12/03 04:11:13
3	56	336.37587727585384	283.242391352162	18/12/03 04:11:13
3	56	336.2040324297593	283.16218786973394	18/12/03 04:11:13
3	56	336.01102902799744	283.0721092593272	18/12/03 04:11:14
3	56	335.8291050968679	282.9872016630554	18/12/03 04:11:14
3	56	335.6681965863133	282.9121023907054	18/12/03 04:11:14
3	56	335.42873828722355	282.8003423355174	18/12/03 04:11:14
3	56	335.16443445228333	282.6769863637612	18/12/03 04:11:14
3	56	334.95292263282994	282.57826949863323	18/12/03 04:11:14
3	56	334.73832997908164	282.4781147455217	18/12/03 04:11:14
3	56	334.5141917399514	282.37350487369787	18/12/03 04:11:14
3	56	334.2477139411246	282.2491342688098	18/12/03 04:11:14
3	56	334.06327212378005	282.1630515238653	18/12/03 04:11:14
3	56	333.8351302788445	282.0565730878386	18/12/03 04:11:15
3	56	333.6262810109035	281.95909888961796	18/12/03 04:11:15
3	56	333.41024018001843	281.8582682428024	18/12/03 04:11:15
3	56	333.1947709670658	281.7577043816941	18/12/03 04:11:15
3	56	332.9710627393457	281.65329520493543	18/12/03 04:11:15
3	56	332.71014611173854	281.5315201116867	18/12/03 04:11:15
3	56	332.548072909321	281.4558772539719	18/12/03 04:11:15
3	56	332.36879863663364	281.3722063071495	18/12/03 04:11:15
3	56	332.09876462679114	281.24617594630024	18/12/03 04:11:15
3	56	331.88925341725974	281.1483928064854	18/12/03 04:11:15
3	56	331.62757858731646	281.0262638447959	18/12/03 04:11:16
3	56	331.4477393338118	280.9423292099428	18/12/03 04:11:16
3	56	331.23691228393113	280.84393194069236	18/12/03 04:11:16
3	56	331.07502140830707	280.76837417859787	18/12/03 04:11:16
3	56	330.8813281290739	280.67797358835344	18/12/03 04:11:16
3	56	330.61743407839106	280.55480887123906	18/12/03 04:11:16
2	60	330.6371169513654	280.5904986562697	18/12/03 04:11:16
2	60	330.8265465285252	280.7155242057732	18/12/03 04:11:16
2	60	330.96201293254296	280.8049334831179	18/12/03 04:11:16
2	60	331.1847802955521	280.9519623282922	18/12/03 04:11:16
2	60	331.36933363128077	281.07376950623205	18/12/03 04:11:17
2	60	331.54481330520036	281.18958797020923	18/12/03 04:11:17
2	60	331.68942717244954	281.2850346712458	18/12/03 04:11:17
2	60	331.8660147478672	281.40158436207605	18/12/03 04:11:17
2	60	332.11400467642824	281.5652603706199	18/12/03 04:11:17
2	60	332.25712017477997	281.6597181321383	18/12/03 04:11:17
2	60	332.43433971532	281.77668492671694	18/12/03 04:11:17
2	60	332.61759690816785	281.8976366364752	18/12/03 04:11:17
2	60	332.79285664765655	282.01330994137277	18/12/03 04:11:17
2	60	333.03553768789453	282.1734820267712	18/12/03 04:11:17
2	60	333.2216731137776	282.2963334011554	18/12/03 04:11:18
2	60	333.4448623091234	282.44364066018915	18/12/03 04:11:18
2	60	333.65802517133164	282.5843304319814	18/12/03 04:11:18
2	60	333.87167201120803	282.7253396342175	18/12/03 04:11:18
2	60	334.02406076032827	282.8259178405492	18/12/03 04:11:18
2	60	334.1596259502772	282.91539231766643	18/12/03 04:11:18
2	60	334.37144786538636	283.0551970500133	18/12/03 04:11:18
2	60	334.52989665075114	283.15977494516255	18/12/03 04:11:18
2	60	334.7646353122794	283.3147049755586	18/12/03 04:11:18
2	60	334.9278400426647	283.42242184535223	18/12/03 04:11:18
2	60	335.12603009442535	283.5532294019071	18/12/03 04:11:19
2	60	335.29185075851257	283.66267281595776	18/12/03 04:11:19
2	60	335.4838964051261	283.7894249993158	18/12/03 04:11:19
2	60	335.67054857284944	283.9126174288483	18/12/03 04:11:19
2	60	335.826331023958	284.015435514835	18/12/03 04:11:19
2	60	335.9554816766427	284.1006763286653	18/12/03 04:11:19
2	60	336.19260143510417	284.25717790853616	18/12/03 04:11:19
2	60	336.43906087755926	284.41984377986034	18/12/03 04:11:19
2	60	336.68355290047606	284.5812111332204	18/12/03 04:11:19
2	60	336.8467013475932	284.6888908554543	18/12/03 04:11:19
2	60	336.99716180760953	284.7881963703276	18/12/03 04:11:20
2	60	337.13060289124496	284.8762689145311	18/12/03 04:11:20
2	60	337.30938467577477	284.99426680687293	18/12/03 04:11:20
2	60	337.4457294174227	285.0842557964596	18/12/03 04:11:20
2	60	337.5965499306161	285.18379895028556	18/12/03 04:11:20
2	60	337.79294590083674	285.31342239381144	18/12/03 04:11:20
2	60	337.96100683586553	285.42434441067434	18/12/03 04:11:20
2	60	338.1074969984298	285.5210294867118	18/12/03 04:11:20
2	60	338.26020410222486	285.6218178105382	18/12/03 04:11:20
2	60	338.42019698256547	285.72741482490704	18/12/03 04:11:20
2	60	338.59497372644523	285.8427693475303	18/12/03 04:11:21
2	60	338.80663855043963	285.98247039805915	18/12/03 04:11:21
2	60	339.0436594709574	286.1389067438287	18/12/03 04:11:21
2	60	339.2651875658986	286.285117658807	18/12/03 04:11:21
2	60	339.42480140048383	286.39046449891816	18/12/03 04:11:21
2	60	339.62844518139735	286.52487157511723	18/12/03 04:11:21
2	60	339.79566592320253	286.635239055455	18/12/03 04:11:21
2	60	340.0307754603061	286.7904138677024	18/12/03 04:11:21
2	60	340.21720212444467	286.91345746245406	18/12/03 04:11:21
2	60	340.3995100732478	287.0337826609775	18/12/03 04:11:21
2	60	340.539182924052	287.12596823824765	18/12/03 04:11:22
2	60	340.7877938893671	287.2900541376998	18/12/03 04:11:22
2	60	341.03787649401966	287.45511133487435	18/12/03 04:11:22
2	60	341.2843663873215	287.61779730408347	18/12/03 04:11:22
2	60	341.2018886806689	287.56336113444917	18/12/03 04:11:22
2	60	341.0692629713084	287.4758267459988	18/12/03 04:11:22
2	60	340.85140501642263	287.3320381627602	18/12/03 04:11:22
2	60	340.6633238246945	287.20790256208136	18/12/03 04:11:22
2	60	340.4790298252796	287.0862665488858	18/12/03 04:11:22
2	60	340.2315829427844	286.9229489565608	18/12/03 04:11:22
2	60	339.9937616482486	286.7659843553682	18/12/03 04:11:23
2	60	339.75339348549585	286.6073387938783	18/12/03 04:11:23
2	60	339.54184975773234	286.4677176681586	18/12/03 04:11:23
2	60	339.3015156775869	286.3090946015546	18/12/03 04:11:23
2	60	339.11060257362163	286.1830899084726	18/12/03 04:11:23
2	60	338.9419402584284	286.07177097426114	18/12/03 04:11:23
2	60	338.7421028964399	285.939876175315	18/12/03 04:11:23
2	60	338.5119332862886	285.78796176775717	18/12/03 04:11:23
2	60	338.32890086891666	285.6671584122201	18/12/03 04:11:23
2	60	338.1784868449984	285.5678835456688	18/12/03 04:11:23
2	60	337.94313053290495	285.41254585928533	18/12/03 04:11:24
2	60	337.7799844395083	285.30486769053215	18/12/03 04:11:24
2	60	337.57602104871415	285.17024966838915	18/12/03 04:11:24
2	60	337.37411828774015	285.03699168399453	18/12/03 04:11:24
2	60	337.1441387670074	284.88520273748856	18/12/03 04:11:24
2	60	336.96801369082306	284.76895830110516	18/12/03 04:11:24
2	60	336.8229746274925	284.6732309661015	18/12/03 04:11:24
2	60	336.61501851492966	284.53597770483367	18/12/03 04:11:24
2	60	336.36823170284106	284.3730957660456	18/12/03 04:11:24
2	60	336.22884851166793	284.28110136723393	18/12/03 04:11:24
2	60	335.981684684867	284.1179705946983	18/12/03 04:11:25
2	60	335.7402310450722	283.9586086067365	18/12/03 04:11:25
2	60	335.55713719949574	283.83776470792657	18/12/03 04:11:25
2	60	335.3893885175089	283.7270487814153	18/12/03 04:11:25
2	60	335.21334514657053	283.6108582713692	18/12/03 04:11:25
2	60	335.013343065692	283.4788547561917	18/12/03 04:11:25
2	60	334.8728153278844	283.3861049443444	18/12/03 04:11:25
2	60	334.6593719339008	283.24523001857625	18/12/03 04:11:25
2	60	334.5091755196173	283.14609877671427	18/12/03 04:11:25
2	60	334.27368436650653	282.9906720938154	18/12/03 04:11:25
2	60	334.09622077745115	282.87354422460317	18/12/03 04:11:26
2	60	333.91965188445323	282.75700686437	18/12/03 04:11:26
2	60	333.75927933721255	282.6511592657813	18/12/03 04:11:26
2	60	333.57479132381076	282.5293952012767	18/12/03 04:11:26
2	60	333.3786036020937	282.3999092039933	18/12/03 04:11:26
2	60	333.2247892441706	282.298390080585	18/12/03 04:11:26
2	60	333.0726174149744	282.19795504372615	18/12/03 04:11:26
2	60	332.874204479695	282.06700038166207	18/12/03 04:11:26
2	60	332.7197853329813	281.9650820911754	18/12/03 04:11:26
2	60	332.4793830051719	281.8064139803823	18/12/03 04:11:26
2	60	332.332843837833	281.7096965606687	18/12/03 04:11:27
2	60	332.13926278612183	281.58193099350365	18/12/03 04:11:27
2	60	331.89668443810416	281.42182668607035	18/12/03 04:11:27
2	60	331.74907258529106	281.32440128245656	18/12/03 04:11:27
2	60	331.5144463932804	281.1695454831466	18/12/03 04:11:27
2	60	331.31643657037273	281.0388568795647	18/12/03 04:11:27
2	60	331.13374001487995	280.91827519646455	18/12/03 04:11:27
2	60	330.9327783170877	280.7856383238476	18/12/03 04:11:27
2	60	330.7815290303869	280.68581217491504	18/12/03 04:11:27
2	60	330.62665143515807	280.58359130349896	18/12/03 04:11:27
5	53	330.5824822899758	280.52145385283285	18/12/03 04:11:28
5	53	330.73206499083864	280.56036069273256	18/12/03 04:11:28
5	53	330.9478892465706	280.61649712907047	18/12/03 04:11:28
5	53	331.13084099716554	280.6640833434436	18/12/03 04:11:28
5	53	331.4178182996854	280.73872686772546	18/12/03 04:11:28
5	53	331.7044601046854	280.8132831282514	18/12/03 04:11:28
5	53	331.89000445527586	280.8615436844593	18/12/03 04:11:28
5	53	332.1782711723999	280.9365225887502	18/12/03 04:11:28
5	53	332.3882735413253	280.991144737563	18/12/03 04:11:28
5	53	332.59514500113727	281.044952528974	18/12/03 04:11:28
5	53	332.7458137985435	281.0841418653395	18/12/03 04:11:29
5	53	333.01687099840996	281.1546445305411	18/12/03 04:11:29
5	53	333.1642430669628	281.1929763793699	18/12/03 04:11:29
5	53	333.3579796093286	281.24336774543747	18/12/03 04:11:29
5	53	333.5743872454483	281.29965592049393	18/12/03 04:11:29
5	53	333.8476592387179	281.3707346590773	18/12/03 04:11:29
5	53	334.115246538475	281.44033479445926	18/12/03 04:11:29
5	53	334.3612042164144	281.5043090103445	18/12/03 04:11:29
5	53	334.55794994181304	281.55548307255145	18/12/03 04:11:29
5	53	334.8027028691388	281.6191439297463	18/12/03 04:11:29
5	53	334.9739168058701	281.66367710896145	18/12/03 04:11:30
5	53	335.24804314506264	281.73497806508635	18/12/03 04:11:30
5	53	335.4450134864603	281.7862105504844	18/12/03 04:11:30
5	53	335.693874402491	281.850939905961	18/12/03 04:11:30
5	53	335.8431943339976	281.8897783988847	18/12/03 04:11:30
5	53	336.12217843121675	281.96234287019365	18/12/03 04:11:30
5	53	336.3381969333036	282.01852983050117	18/12/03 04:11:30
5	53	336.6102364846609	282.0892880078171	18/12/03 04:11:30
5	53	336.7621618047216	282.1288041689121	18/12/03 04:11:30
5	53	337.04605939246966	282.2026466515703	18/12/03 04:11:30
5	53	337.308995102821	282.2710368967494	18/12/03 04:11:31
5	53	337.53069769935917	282.32870230444104	18/12/03 04:11:31
5	53	337.78581937671515	282.39506009981835	18/12/03 04:11:31
5	53	337.97664087076504	282.44469325442515	18/12/03 04:11:31
5	53	338.24779464441264	282.5152210387121	18/12/03 04:11:31
5	53	338.435184540597	282.5639616260101	18/12/03 04:11:31
5	53	338.64412996217686	282.6183088601374	18/12/03 04:11:31
5	53	338.8853076479646	282.68103978793994	18/12/03 04:11:31
5	53	339.1285502527524	282.7443078064119	18/12/03 04:11:31
5	53	339.3032953667244	282.78975945378386	18/12/03 04:11:31
5	53	339.55653430776493	282.8556275446701	18/12/03 04:11:32
5	53	339.71185320377873	282.896026383478	18/12/03 04:11:32
5	53	339.86373515065736	282.9355312630983	18/12/03 04:11:32
5	53	340.0338981554187	282.97979109224246	18/12/03 04:11:32
5	53	340.22046544030053	283.02831771625415	18/12/03 04:11:32
5	53	340.46442739557756	283.09177283961293	18/12/03 04:11:32
5	53	340.6645280008795	283.14381951459217	18/12/03 04:11:32
5	53	340.8868442630184	283.20164453826305	18/12/03 04:11:32
5	53	341.1301934076564	283.26494026802027	18/12/03 04:11:32
5	53	341.36784302975644	283.3267535375089	18/12/03 04:11:32
5	53	341.5261855291812	283.36793882323315	18/12/03 04:11:33
5	53	341.7979125839584	283.438615719396	18/12/03 04:11:33
5	53	342.0289476646645	283.49870852989085	18/12/03 04:11:33
5	53	342.28849781865	283.566218183272	18/12/03 04:11:33
5	53	342.44989661572873	283.60819841976814	18/12/03 04:11:33
5	53	342.73124971827673	283.6813790753719	18/12/03 04:11:33
5	53	342.96155722532984	283.7412826421142	18/12/03 04:11:33
5	53	343.1460524768924	283.789270325004	18/12/03 04:11:33
5	53	343.30944610852015	283.83176942302606	18/12/03 04:11:33
5	53	343.516185375913	283.8855428308536	18/12/03 04:11:33
5	53	343.67003227171176	283.92555879867194	18/12/03 04:11:34
5	53	343.8368722248373	283.9689542936569	18/12/03 04:11:34
5	53	344.06793401000004	284.02905405004867	18/12/03 04:11:34
5	53	344.29831070202556	284.08897561197773	18/12/03 04:11:34
5	53	344.57491286423465	284.16092053594895	18/12/03 04:11:34
5	53	344.7676680514649	284.2110566490566	18/12/03 04:11:34
5	53	344.97432249763466	284.2648079946689	18/12/03 04:11:34
5	53	345.2406022485248	284.33406803327404	18/12/03 04:11:34
5	53	345.52828811790545	284.40889585759356	18/12/03 04:11:34
5	53	345.6887613591757	284.4506353546763	18/12/03 04:11:34
5	53	345.88934206684615	284.5028069054993	18/12/03 04:11:35
5	53	346.04056774540265	284.54214108806445	18/12/03 04:11:35
5	53	346.3053113687727	284.6110015760054	18/12/03 04:11:35
5	53	346.54265937813506	284.672736395256	18/12/03 04:11:35
5	53	346.71118202064656	284.71656956201826	18/12/03 04:11:35
5	53	346.96895289741	284.78361642088095	18/12/03 04:11:35
5	53	347.1738509291181	284.8369109186367	18/12/03 04:11:35
5	53	347.4394050565846	284.90598222074885	18/12/03 04:11:35
5	53	347.65887591249395	284.96306714704224	18/12/03 04:11:35
5	53	347.92327521692664	285.0318380767542	18/12/03 04:11:35
5	53	348.09945309253584	285.07766238906214	18/12/03 04:11:36
5	53	348.26424734860984	285.12052579305526	18/12/03 04:11:36
5	53	348.4839700937489	285.1776762363762	18/12/03 04:11:36
5	53	348.65490581054667	285.2221370498809	18/12/03 04:11:36
5	53	348.9311598079211	285.2939914152956	18/12/03 04:11:36
5	53	349.14240572667467	285.3489370145728	18/12/03 04:11:36
5	53	349.32310007861173	285.3959360738293	18/12/03 04:11:36
5	53	349.5233508815577	285.44802181559675	18/12/03 04:11:36
5	53	349.76904845035665	285.5119283764348	18/12/03 04:11:36
5	53	349.9620629322105	285.56213193273175	18/12/03 04:11:36
5	53	350.145009010777	285.6097166717959	18/12/03 04:11:37
5	53	350.35400345620366	285.66407665715013	18/12/03 04:11:37
5	53	350.5888688716778	285.7251657474335	18/12/03 04:11:37
5	53	350.79137479326795	285.7778380512802	18/12/03 04:11:37
5	53	351.0615412978717	285.8481090443847	18/12/03 04:11:37
5	53	351.2118709713037	285.88721017374434	18/12/03 04:11:37
5	53	351.371548622167	285.92874273574427	18/12/03 04:11:37
5	53	351.5998849376703	285.98813359056464	18/12/03 04:11:37
5	53	351.8869293993313	286.0627945831094	18/12/03 04:11:37
5	53	352.05184284595197	286.10568898886606	18/12/03 04:11:37
5	53	352.24231277837885	286.155230701403	18/12/03 04:11:38
5	53	352.4528901720097	286.2100024156002	18/12/03 04:11:38
5	53	352.7074215851237	286.276206681751	18/12/03 04:11:38
5	53	352.7074215851237	286.276206681751	18/12/03 04:11:38
5	53	352.9614654356103	286.3422841316257	18/12/03 04:11:38
5	53	353.12244104345837	286.3841542955296	18/12/03 04:11:38
5	53	353.3951986204307	286.45509923312926	18/12/03 04:11:38
5	53	353.3951986204307	286.45509923312926	18/12/03 04:11:38
5	53	353.61128874466664	286.51130482253944	18/12/03 04:11:38
5	53	353.7832191861172	286.5560243664494	18/12/03 04:11:38
5	53	353.9747721465246	286.60584777731106	18/12/03 04:11:39
5	53	354.2068970310378	286.6662240485403	18/12/03 04:11:39
5	53	354.37195260915064	286.7091554230586	18/12/03 04:11:39
5	53	354.66061538775057	286.7842373439439	18/12/03 04:11:39
5	53	354.8266284212832	286.82741775504536	18/12/03 04:11:39
5	53	355.0973522315368	286.89783370476295	18/12/03 04:11:39
5	53	355.3177646057309	286.9551635223503	18/12/03 04:11:39
5	53	355.47704070118573	286.99659163877	18/12/03 04:11:39
5	53	355.69883074744956	287.054279792357	18/12/03 04:11:39
5	53	355.85172549040277	287.0940481028052	18/12/03 04:11:39
5	53	356.09841038239904	287.15821146891113	18/12/03 04:11:40
5	53	356.35185400339327	287.2241327975725	18/12/03 04:11:40
5	53	356.5135908792671	287.26620096922073	18/12/03 04:11:40
5	53	356.7044446319223	287.3158425143726	18/12/03 04:11:40
5	53	356.95900791508046	287.3820550700027	18/12/03 04:11:40
5	53	357.15724714696665	287.43361759703527	18/12/03 04:11:40
5	53	357.4342591790281	287.5056691291947	18/12/03 04:11:40
5	53	357.58108303341913	287.5438583861295	18/12/03 04:11:40
5	53	357.7968220316924	287.59997264678617	18/12/03 04:11:40
5	53	357.950135080873	287.6398497597451	18/12/03 04:11:40
5	53	358.1595553378485	287.69432049976325	18/12/03 04:11:41
5	53	358.3556563436195	287.7453268687598	18/12/03 04:11:41
5	53	358.5023141267026	287.78347293012615	18/12/03 04:11:41
5	53	358.663654116545	287.82543787071097	18/12/03 04:11:41
5	53	358.8702062740633	287.87916261078556	18/12/03 04:11:41
5	53	359.0565013852011	287.9276184417161	18/12/03 04:11:41
5	53	359.23856006617905	287.9749723664167	18/12/03 04:11:41
5	53	359.4901828834175	288.0404200994028	18/12/03 04:11:41
5	53	359.2282415437503	287.9722884925608	18/12/03 04:11:41
5	53	359.0776445008752	287.93311781973085	18/12/03 04:11:41
5	53	358.9121158691838	287.89006340277695	18/12/03 04:11:42
5	53	358.62533216979756	287.81547023516123	18/12/03 04:11:42
5	53	358.4496755088778	287.76978149211607	18/12/03 04:11:42
5	53	358.19127651060353	287.7025712572552	18/12/03 04:11:42
5	53	358.19127651060353	287.7025712572552	18/12/03 04:11:42
5	53	357.93006511982736	287.63462951197124	18/12/03 04:11:42
5	53	357.68084240458705	287.5698060516025	18/12/03 04:11:42
5	53	357.51247280203694	287.5260126909223	18/12/03 04:11:42
5	53	357.26001876856895	287.46034875648655	18/12/03 04:11:42
5	53	356.9975286287514	287.39207440533346	18/12/03 04:11:42
5	53	356.78973469761104	287.33802667679015	18/12/03 04:11:43
5	53	356.5533627041891	287.2765457217613	18/12/03 04:11:43
5	53	356.3671079090593	287.2281003771267	18/12/03 04:11:43
5	53	356.20113538925875	287.1849305037497	18/12/03 04:11:43
5	53	355.9503254987458	287.1196942150668	18/12/03 04:11:43
5	53	355.71246756520856	287.0578267632449	18/12/03 04:11:43
5	53	355.46126434538354	286.9924881686103	18/12/03 04:11:43
5	53	355.29464134054854	286.94914910242596	18/12/03 04:11:43
5	53	355.07123376207784	286.8910402246092	18/12/03 04:11:43
5	53	354.8225432021347	286.826355179183	18/12/03 04:11:43
5	53	354.59357403017833	286.766799716794	18/12/03 04:11:44
5	53	354.39375107076677	286.7148252582151	18/12/03 04:11:44
5	53	354.15617063733583	286.65302998487476	18/12/03 04:11:44
5	53	353.8739281076302	286.5796179870113	18/12/03 04:11:44
5	53	353.70525980097193	286.535746932635	18/12/03 04:11:44
5	53	353.415519718629	286.46038480231357	18/12/03 04:11:44
5	53	353.2050298989956	286.4056358663353	18/12/03 04:11:44
5	53	352.98487036054274	286.34837181196554	18/12/03 04:11:44
5	53	352.711606670684	286.2772952331204	18/12/03 04:11:44
5	53	352.46014178766484	286.21188857922533	18/12/03 04:11:44
5	53	352.3067047222159	286.17197920932045	18/12/03 04:11:45
5	53	352.06531337289806	286.10919270709184	18/12/03 04:11:45
5	53	351.8305099999238	286.04811975422007	18/12/03 04:11:45
5	53	351.54823059993174	285.9746981663016	18/12/03 04:11:45
5	53	351.351232632389	285.92345849527317	18/12/03 04:11:45
5	53	351.1563960666694	285.87278101034116	18/12/03 04:11:45
5	53	350.898566321852	285.80571883974835	18/12/03 04:11:45
5	53	350.6562771265828	285.74269880551043	18/12/03 04:11:45
5	53	350.45612708037527	285.69063927082624	18/12/03 04:11:45
5	53	350.2339801973286	285.6328583030869	18/12/03 04:11:45
5	53	349.99928751727856	285.5718141417255	18/12/03 04:11:46
5	53	349.82872858311424	285.5274513303394	18/12/03 04:11:46
5	53	349.6156657963874	285.47203315909394	18/12/03 04:11:46
5	53	349.4216070165988	285.42155797825535	18/12/03 04:11:46
5	53	349.2427295315672	285.3750314906893	18/12/03 04:11:46
5	53	348.9557651812563	285.3003913353099	18/12/03 04:11:46
5	53	348.6931484665909	285.2320840617178	18/12/03 04:11:46
5	53	348.4391554339243	285.1660198296869	18/12/03 04:11:46
5	53	348.27159077015824	285.1224358356261	18/12/03 04:11:46
5	53	348.0109993876272	285.05465535605924	18/12/03 04:11:46
5	53	347.7724140070859	284.99259869342654	18/12/03 04:11:47
5	53	347.6031455635832	284.94857154193477	18/12/03 04:11:47
5	53	347.32256833572256	284.8755926933051	18/12/03 04:11:47
5	53	347.1207846579514	284.8231082469077	18/12/03 04:11:47
5	53	346.96403988365216	284.78233853354106	18/12/03 04:11:47
5	53	346.7747283746194	284.7330981298672	18/12/03 04:11:47
5	53	346.57418608295154	284.6809365711439	18/12/03 04:11:47
5	53	346.36935201266743	284.6276587099167	18/12/03 04:11:47
5	53	346.21309910328716	284.5870169318631	18/12/03 04:11:47
5	53	345.9478821270609	284.5180333236437	18/12/03 04:11:47
5	53	345.79873174559987	284.4792389311169	18/12/03 04:11:48
5	53	345.5102957743903	284.4042160034091	18/12/03 04:11:48
5	53	345.32923602570713	284.3571219035321	18/12/03 04:11:48
5	53	345.07053094742633	284.28983205648524	18/12/03 04:11:48
5	53	344.862224059968	284.2356509067025	18/12/03 04:11:48
5	53	344.6715772112279	284.18606317778375	18/12/03 04:11:48
5	53	344.41423802467534	284.1191286026399	18/12/03 04:11:48
5	53	344.1485452206757	284.0500212304097	18/12/03 04:11:48
5	53	343.9159448282021	283.98952127835383	18/12/03 04:11:48
5	53	343.72271849024975	283.9392626177483	18/12/03 04:11:48
5	53	343.52920780430975	283.88892999750993	18/12/03 04:11:49
5	53	343.25757783419414	283.8182783533138	18/12/03 04:11:49
5	53	343.0731520893456	283.77030874929665	18/12/03 04:11:49
5	53	342.8317280165939	283.70751373561984	18/12/03 04:11:49
5	53	342.6818268069124	283.6685240507685	18/12/03 04:11:49
5	53	342.3916499876656	283.59304832407065	18/12/03 04:11:49
5	53	342.2119357831905	283.54630420365504	18/12/03 04:11:49
5	53	342.0647465623406	283.50801991397753	18/12/03 04:11:49
5	53	341.9091246754758	283.46754226648073	18/12/03 04:11:49
5	53	341.7452425743279	283.4249161162975	18/12/03 04:11:50
5	53	341.5138238604998	283.36472352185456	18/12/03 04:11:50
5	53	341.2899350772694	283.3064894814592	18/12/03 04:11:50
5	53	341.10581592309444	283.25859962245386	18/12/03 04:11:50
5	53	340.9147729826544	283.2089088690793	18/12/03 04:11:50
5	53	340.7292451070157	283.16065259804816	18/12/03 04:11:50
5	53	340.58250872976197	283.12248609413865	18/12/03 04:11:50
5	53	340.4103494693152	283.0777070338274	18/12/03 04:11:50
5	53	340.2473651635547	283.0353144025016	18/12/03 04:11:50
5	53	339.9931647838922	282.9691962389912	18/12/03 04:11:50
5	53	339.7697092842903	282.9110748967666	18/12/03 04:11:51
5	53	339.55271406145715	282.8546338889156	18/12/03 04:11:51
5	53	339.35655630425885	282.8036127587289	18/12/03 04:11:51
5	53	339.10290795087184	282.7376381786529	18/12/03 04:11:51
5	53	338.9450360211772	282.696575289309	18/12/03 04:11:51
5	53	338.68472893117996	282.6288687549513	18/12/03 04:11:51
5	53	338.4728839269525	282.5737673320228	18/12/03 04:11:51
5	53	338.3050143386912	282.5301040263274	18/12/03 04:11:51
5	53	338.0975598580244	282.4761445897132	18/12/03 04:11:51
5	53	337.90550762201826	282.4261913160019	18/12/03 04:11:51
5	53	337.6433293112965	282.35799807238755	18/12/03 04:11:52
5	53	337.4876242997327	282.3174988039457	18/12/03 04:11:52
5	53	337.2982086046627	282.26823130121926	18/12/03 04:11:52
5	53	337.0539634618658	282.2047025200683	18/12/03 04:11:52
5	53	336.90452082849976	282.1658321120797	18/12/03 04:11:52
5	53	336.74060562577984	282.12319735209365	18/12/03 04:11:52
5	53	336.54839628440413	282.07320321487725	18/12/03 04:11:52
5	53	336.3387811271836	282.01868178081105	18/12/03 04:11:52
5	53	336.19246810294135	281.9806253920936	18/12/03 04:11:52
5	53	335.9357619236497	281.91385546374386	18/12/03 04:11:52
5	53	335.7588191080715	281.8678321886098	18/12/03 04:11:53
5	53	335.5988349402883	281.82621990078155	18/12/03 04:11:53
5	53	335.41749183630793	281.77905209947306	18/12/03 04:11:53
5	53	335.2445016487862	281.73405691292203	18/12/03 04:11:53
5	53	335.098233370126	281.696012162644	18/12/03 04:11:53
5	53	334.92390572938376	281.65066910111796	18/12/03 04:11:53
5	53	334.6770916006023	281.5864721201964	18/12/03 04:11:53
5	53	334.47146389827986	281.53298783326306	18/12/03 04:11:53
5	53	334.2042488234011	281.4634845145161	18/12/03 04:11:53
5	53	333.92520460017477	281.39090440428015	18/12/03 04:11:53
5	53	333.7114838388189	281.33531509216476	18/12/03 04:11:54
5	53	333.42438053761435	281.26063879530545	18/12/03 04:11:54
5	53	333.2613114175595	281.2182241035666	18/12/03 04:11:54
5	53	333.0411141573758	281.160950237679	18/12/03 04:11:54
5	53	332.804263105349	281.0993446782919	18/12/03 04:11:54
5	53	332.623675915649	281.0523734922051	18/12/03 04:11:54
5	53	332.4646688407207	281.01101534870674	18/12/03 04:11:54
5	53	332.23390020459664	280.9509918411235	18/12/03 04:11:54
5	53	332.0263671019004	280.89701195472	18/12/03 04:11:54
5	53	331.86658245099665	280.85545156173816	18/12/03 04:11:54
5	53	331.64971254600675	280.799043149376	18/12/03 04:11:55
5	53	331.44178484290967	280.7449606264074	18/12/03 04:11:55
5	53	331.17931215867594	280.67669081549593	18/12/03 04:11:55
5	53	330.99479817526435	280.6286982604047	18/12/03 04:11:55
5	53	330.72460601116353	280.5584205931999	18/12/03 04:11:55
2	36	330.5068069168469	280.53563454954514	18/12/03 04:11:55
2	36	330.55324056467725	280.7787170142465	18/12/03 04:11:55
2	36	330.5990377192884	281.0184674051669	18/12/03 04:11:55
2	36	330.64112966129574	281.23882082311513	18/12/03 04:11:55
2	36	330.6888053834159	281.48840560873754	18/12/03 04:11:55
2	36	330.735333345111	281.7319818112298	18/12/03 04:11:56
2	36	330.76675964057137	281.89650003699717	18/12/03 04:11:56
2	36	330.81255880889745	282.136260969816	18/12/03 04:11:56
2	36	330.8494521137078	282.3293992624838	18/12/03 04:11:56
2	36	330.8993771573776	282.5907593587212	18/12/03 04:11:56
2	36	330.94333056283295	282.8208576307577	18/12/03 04:11:56
2	36	330.9868408900816	283.0486363662603	18/12/03 04:11:56
2	36	331.0267597657077	283.2576136732071	18/12/03 04:11:56
2	36	331.0598108449348	283.43063772311416	18/12/03 04:11:56
2	36	331.0598108449348	283.43063772311416	18/12/03 04:11:56
2	36	331.11171391944515	283.70235290955935	18/12/03 04:11:57
2	36	331.1623325276421	283.9673438507239	18/12/03 04:11:57
2	36	331.2103379856821	284.2186548203492	18/12/03 04:11:57
2	36	331.24899424477474	284.42102226670426	18/12/03 04:11:57
2	36	331.2995309476817	284.68558442958664	18/12/03 04:11:57
2	36	331.2995309476817	284.68558442958664	18/12/03 04:11:57
2	36	331.34804444575553	284.93955501415405	18/12/03 04:11:57
2	36	331.3979817243365	285.20097916076224	18/12/03 04:11:57
2	36	331.427000843791	285.3528956999547	18/12/03 04:11:57
2	36	331.4822026282304	285.64187979757463	18/12/03 04:11:57
2	36	331.51907103073546	285.83488772543063	18/12/03 04:11:58
2	36	331.54967537394396	285.9951029901213	18/12/03 04:11:58
2	36	331.5974024017172	286.24495636339896	18/12/03 04:11:58
2	36	331.6383879441363	286.4595177242629	18/12/03 04:11:58
2	36	331.6674466011015	286.611641244298	18/12/03 04:11:58
2	36	331.7043118049066	286.8046324267999	18/12/03 04:11:58
2	36	331.736488643135	286.97307978143044	18/12/03 04:11:58
2	36	331.79164265111444	287.26181376689726	18/12/03 04:11:58
2	36	331.79164265111444	287.26181376689726	18/12/03 04:11:58
2	36	331.8302321373879	287.46383165421014	18/12/03 04:11:58
2	36	331.87454925949226	287.6958340010637	18/12/03 04:11:59
2	36	331.9180490085661	287.92355735929306	18/12/03 04:11:59
2	36	331.95932322144245	288.13962992441367	18/12/03 04:11:59
2	36	332.01420063438746	288.4269159210655	18/12/03 04:11:59
2	36	331.79110231541466	288.49288414490854	18/12/03 04:11:59
2	36	331.5864490721347	288.5011377332637	18/12/03 04:11:59
2	36	331.37003008026403	288.5098658298358	18/12/03 04:11:59
2	36	331.1860722154704	288.5172847813578	18/12/03 04:11:59
2	36	330.9985320583445	288.5248482053826	18/12/03 04:11:59
2	36	330.80200259289643	288.53277416483223	18/12/03 04:11:59
2	36	330.57353599627567	288.5419881367742	18/12/03 04:12:00
2	36	330.2777662665359	288.55391641877	18/12/03 04:12:00
2	36	329.984104911344	288.56575967081295	18/12/03 04:12:00
2	36	329.8204023227835	288.5723617346601	18/12/03 04:12:00
2	36	329.5359959731524	288.58383173580853	18/12/03 04:12:00
2	36	329.2396752499181	288.59578223916475	18/12/03 04:12:00
2	36	329.05200369125964	288.603350962564	18/12/03 04:12:00
2	36	328.7951243541615	288.61371080964665	18/12/03 04:12:00
2	36	328.58966914039405	288.62199674117005	18/12/03 04:12:00
2	36	328.389489731966	288.6300699014477	18/12/03 04:12:00
2	36	328.203194287769	288.6375831266681	18/12/03 04:12:01
2	36	327.9875099015549	288.64628159687027	18/12/03 04:12:01
2	36	327.74252396779514	288.6561617874681	18/12/03 04:12:01
2	36	327.44837051442977	288.66802488564537	18/12/03 04:12:01
2	36	327.20363078062815	288.6778951470914	18/12/03 04:12:01
2	36	326.9602911566028	288.6877089426366	18/12/03 04:12:01
2	36	326.79513472882724	288.6943696392727	18/12/03 04:12:01
2	36	326.56793028924375	288.70353270889586	18/12/03 04:12:01
2	36	326.33602383422965	288.7128854090335	18/12/03 04:12:01
2	36	326.33602383422965	288.7128854090335	18/12/03 04:12:01
2	36	326.0524648535698	288.7243212361099	18/12/03 04:12:02
2	36	325.7585388624979	288.73617516081845	18/12/03 04:12:02
2	36	325.50950846436945	288.7462184631436	18/12/03 04:12:02
2	36	325.32868109783584	288.7535111628477	18/12/03 04:12:02
2	36	325.16674840585057	288.7600418474314	18/12/03 04:12:02
2	36	324.9591857185383	288.7684127725705	18/12/03 04:12:02
2	36	324.7227904107621	288.77794650645234	18/12/03 04:12:02
2	36	324.5662807550794	288.7842584820209	18/12/03 04:12:02
2	36	324.3862502071624	288.7915190463298	18/12/03 04:12:02
2	36	324.22757926680765	288.79791818569663	18/12/03 04:12:02
2	36	324.01054700691554	288.80667101513745	18/12/03 04:12:03
2	36	323.80865597983234	288.81481320435194	18/12/03 04:12:03
2	36	323.50938504373084	288.82688268868384	18/12/03 04:12:03
2	79	323.33045450402227	288.93428925877265	18/12/03 04:12:03
2	79	323.2790170351823	289.20785278387115	18/12/03 04:12:03
2	79	323.2352451937957	289.4406476608315	18/12/03 04:12:03
2	79	323.19589705128016	289.64991566750814	18/12/03 04:12:03
