floorId	partitionId	location_x	location_y	timeStamp
1	46	313.7811257516179	282.06353225447845	18/12/03 04:12:47
1	46	313.92847644654466	282.3161132998144	18/12/03 04:12:47
1	46	314.0236498848778	282.4792547532995	18/12/03 04:12:47
1	46	314.11596589250524	282.6374981448177	18/12/03 04:12:47
1	46	314.2502884325834	282.86774699163834	18/12/03 04:12:47
1	46	314.35056070073705	283.03962859912616	18/12/03 04:12:47
1	46	314.4276825499934	283.17182693937207	18/12/03 04:12:47
1	46	314.50870816003976	283.31071690724536	18/12/03 04:12:47
1	46	314.60805251603034	283.4810079350331	18/12/03 04:12:47
1	46	314.74983486131237	283.7240439994324	18/12/03 04:12:47
1	46	314.8901710128283	283.9646010722438	18/12/03 04:12:48
1	46	314.98306243155787	284.12383080412326	18/12/03 04:12:48
1	46	315.12455302450667	284.36636676155433	18/12/03 04:12:48
1	46	315.25211329447984	284.58502406988373	18/12/03 04:12:48
1	46	315.33654710516157	284.7297562014443	18/12/03 04:12:48
1	46	315.4194614563675	284.87188375307437	18/12/03 04:12:48
1	46	315.5374371570063	285.07411168153027	18/12/03 04:12:48
1	30	315.754302728226	285.22845905594755	18/12/03 04:12:48
1	30	315.95034601781146	285.2457499052971	18/12/03 04:12:48
1	30	316.1590057057718	285.26415351012065	18/12/03 04:12:48
1	30	316.32642822532387	285.2789200321955	18/12/03 04:12:49
1	30	316.5362371556034	285.2974249992021	18/12/03 04:12:49
1	30	316.6894010894543	285.3109339262947	18/12/03 04:12:49
1	30	316.8910649722734	285.32872050712814	18/12/03 04:12:49
1	30	317.18585945579724	285.35472112675893	18/12/03 04:12:49
1	30	317.3965457894954	285.37330347999165	18/12/03 04:12:49
1	30	317.618333306629	285.3928649480453	18/12/03 04:12:49
1	30	317.90244585047486	285.4179234297936	18/12/03 04:12:49
1	30	318.1545134252836	285.44015557286326	18/12/03 04:12:49
1	30	318.4082316618537	285.4625333028791	18/12/03 04:12:49
1	30	318.60164646660115	285.479592322129	18/12/03 04:12:50
1	30	318.82214670619084	285.49904025341164	18/12/03 04:12:50
1	30	319.02424898094733	285.5168655000365	18/12/03 04:12:50
1	30	319.28273643884165	285.53966387126684	18/12/03 04:12:50
1	30	319.55593356963385	285.5637596229819	18/12/03 04:12:50
1	30	319.8199017713576	285.5870413910991	18/12/03 04:12:50
1	30	320.02391151112874	285.6050348744959	18/12/03 04:12:50
1	30	320.19058752547545	285.6197355554544	18/12/03 04:12:50
1	30	320.4564979797692	285.643188628576	18/12/03 04:12:50
1	30	320.6156493952597	285.657225646394	18/12/03 04:12:50
1	30	320.78317905789714	285.67200161839673	18/12/03 04:12:51
1	30	320.97277111546595	285.68872347463684	18/12/03 04:12:51
1	30	321.17812062069555	285.7068351241936	18/12/03 04:12:51
1	30	321.4202786789485	285.72819325643513	18/12/03 04:12:51
1	30	321.5878122283383	285.7429695712461	18/12/03 04:12:51
1	30	321.86430737334985	285.76735620497567	18/12/03 04:12:51
1	30	322.1248601208058	285.79033673296715	18/12/03 04:12:51
1	30	322.3546528802281	285.8106042564982	18/12/03 04:12:51
1	30	322.65149658146004	285.83678561536647	18/12/03 04:12:51
1	30	322.65149658146004	285.83678561536647	18/12/03 04:12:51
1	30	322.9439045347242	285.8625757450831	18/12/03 04:12:52
1	30	323.1992367002953	285.88509582224725	18/12/03 04:12:52
1	30	323.469440837552	285.9089275945094	18/12/03 04:12:52
1	30	323.73911896220403	285.9327129729127	18/12/03 04:12:52
1	30	323.98579192914326	285.954469316213	18/12/03 04:12:52
1	30	324.165015768582	285.97027670454105	18/12/03 04:12:52
1	30	324.3312113868751	285.9849350149812	18/12/03 04:12:52
1	30	324.6091600823239	286.0094498506079	18/12/03 04:12:52
1	30	324.8112249984712	286.0272718022356	18/12/03 04:12:52
1	30	324.9891743975825	286.042966786024	18/12/03 04:12:52
1	30	325.28077313052256	286.0686855432048	18/12/03 04:12:53
1	30	325.5243556187197	286.090169308941	18/12/03 04:12:53
1	30	325.6863558369265	286.10445758870577	18/12/03 04:12:53
1	30	325.98164131848745	286.13050151394066	18/12/03 04:12:53
1	30	326.156729192861	286.145944113711	18/12/03 04:12:53
1	30	326.3733792520428	286.1650524623966	18/12/03 04:12:53
1	30	326.6243967671215	286.18719199110217	18/12/03 04:12:53
1	30	326.8728925189181	286.2091091024575	18/12/03 04:12:53
1	30	327.1280397916749	286.2316128722346	18/12/03 04:12:53
1	30	327.385416556339	286.25431328127837	18/12/03 04:12:53
1	30	327.59584822717574	286.27287317346594	18/12/03 04:12:54
1	30	327.8456783623215	286.29490797628375	18/12/03 04:12:54
1	30	328.00740355803924	286.3091719993018	18/12/03 04:12:54
1	30	328.20878676358257	286.3269338246412	18/12/03 04:12:54
1	30	328.50475927314574	286.35303834515435	18/12/03 04:12:54
1	30	328.72995703042574	286.37290059345275	18/12/03 04:12:54
1	30	328.9503785905027	286.3923415852701	18/12/03 04:12:54
1	30	329.2160194560702	286.4157708808982	18/12/03 04:12:54
1	30	329.40441485788295	286.432387193131	18/12/03 04:12:54
1	30	329.63897090691603	286.4530748347046	18/12/03 04:12:54
1	30	329.8827235862922	286.4745736111562	18/12/03 04:12:55
1	30	329.8827235862922	286.4745736111562	18/12/03 04:12:55
1	30	330.0770698617519	286.49171478532094	18/12/03 04:12:55
1	30	330.232339561929	286.50540943919043	18/12/03 04:12:55
1	30	330.40140473695044	286.52032084206337	18/12/03 04:12:55
1	30	330.60609339624693	286.5383742055778	18/12/03 04:12:55
1	30	330.88548072100366	286.56301592707075	18/12/03 04:12:55
1	30	331.10388771653567	286.58227923602976	18/12/03 04:12:55
1	30	331.3980427260115	286.6082234546001	18/12/03 04:12:55
1	30	331.3980427260115	286.6082234546001	18/12/03 04:12:55
1	30	331.5573628396235	286.6222753514472	18/12/03 04:12:56
1	30	331.8260015312181	286.64596905274976	18/12/03 04:12:56
1	30	332.0205647594949	286.6631293619662	18/12/03 04:12:56
1	30	331.9669279912957	286.4288136487748	18/12/03 04:12:56
1	30	331.918039740463	286.2312243120646	18/12/03 04:12:56
1	30	331.8708682717604	286.04057361268747	18/12/03 04:12:56
1	30	331.8220945662433	285.843447228375	18/12/03 04:12:56
1	30	331.75259315175066	285.5625466406855	18/12/03 04:12:56
1	30	331.71633671678205	285.41601071814983	18/12/03 04:12:56
1	30	331.67869074542	285.26385877193485	18/12/03 04:12:56
1	30	331.61916743933944	285.0232862342203	18/12/03 04:12:57
1	30	331.56391807093695	284.7999874687632	18/12/03 04:12:57
1	30	331.52585604428737	284.6461539715233	18/12/03 04:12:57
1	30	331.4779440966827	284.45251051350516	18/12/03 04:12:57
1	30	331.4374503532458	284.28884886126116	18/12/03 04:12:57
1	30	331.39342717133064	284.1109224440479	18/12/03 04:12:57
1	30	331.3247917993684	283.83352209959145	18/12/03 04:12:57
1	30	331.2805693292484	283.65479022864355	18/12/03 04:12:57
1	30	331.22532269564493	283.4315025162945	18/12/03 04:12:57
1	30	331.1779852418562	283.2401809628262	18/12/03 04:12:57
1	30	331.1066046615861	282.951685439478	18/12/03 04:12:58
1	30	331.05351834092255	282.7371289620089	18/12/03 04:12:58
1	30	330.9897709274001	282.47948404855134	18/12/03 04:12:58
1	30	330.93879785173635	282.2734685736892	18/12/03 04:12:58
1	30	330.9020952117645	282.1251292454452	18/12/03 04:12:58
1	30	330.85225652289563	281.92369856816845	18/12/03 04:12:58
1	30	330.79894644556276	281.7082377439263	18/12/03 04:12:58
1	30	330.73151721318897	281.4357121969354	18/12/03 04:12:58
1	30	330.6801186981704	281.2279772439063	18/12/03 04:12:58
1	30	330.63574263596007	281.0486246070539	18/12/03 04:12:58
1	30	330.579770672899	280.82240536485904	18/12/03 04:12:59
1	30	330.52748219291425	280.6110734824171	18/12/03 04:12:59
3	12	330.5710901819452	280.5217188917684	18/12/03 04:12:59
3	12	330.8013385845739	280.59206250321654	18/12/03 04:12:59
3	12	331.0813106662501	280.6775972869758	18/12/03 04:12:59
3	12	331.33129065207936	280.75396913056835	18/12/03 04:12:59
3	12	331.5145731420563	280.80996409997095	18/12/03 04:12:59
3	12	331.69050070524423	280.8637120522113	18/12/03 04:12:59
3	12	331.88893874754405	280.9243372221787	18/12/03 04:12:59
3	12	332.1441461456608	281.0023061020791	18/12/03 04:12:59
3	12	332.1441461456608	281.0023061020791	18/12/03 04:13:00
3	12	332.37689576318326	281.15025710062855	18/12/03 04:13:00
3	12	332.81951312050114	281.20863870426314	18/12/03 04:13:00
3	12	333.0183737323808	281.26939297423723	18/12/03 04:13:00
3	12	333.0183737323808	281.26939297423723	18/12/03 04:13:00
3	12	333.1687561352437	281.3153365777318	18/12/03 04:13:00
3	12	333.4454309690539	281.39986401325285	18/12/03 04:13:00
3	12	333.69658162668895	281.4765935109342	18/12/03 04:13:00
3	12	333.966204862739	281.5589665999006	18/12/03 04:13:00
3	12	333.966204862739	281.644657136047	18/12/03 04:13:00
3	12	334.2466867524503	281.644657136047	18/12/03 04:13:01
3	12	334.6765256680591	281.7759780108921	18/12/03 04:13:01
3	12	334.9336029031384	281.8545181481097	18/12/03 04:13:01
3	12	334.9336029031384	281.9289077621743	18/12/03 04:13:01
3	12	335.1770946639097	281.9289077621743	18/12/03 04:13:01
3	12	335.57388183033464	282.05013093655447	18/12/03 04:13:01
3	12	335.7612712528522	282.10738062244405	18/12/03 04:13:01
3	12	335.7612712528522	282.1847907318991	18/12/03 04:13:01
3	12	336.0146496859807	282.1847907318991	18/12/03 04:13:01
3	12	336.2878179321968	282.268246863418	18/12/03 04:13:01
3	12	336.2878179321968	282.31756292929526	18/12/03 04:13:02
3	12	336.69605799161747	282.3929690321263	18/12/03 04:13:02
3	12	336.8796041367361	282.44904455129443	18/12/03 04:13:02
3	12	336.8796041367361	282.44904455129443	18/12/03 04:13:02
3	12	337.2522810468929	282.5629017570969	18/12/03 04:13:02
3	12	337.5372035117082	282.6499489414812	18/12/03 04:13:02
3	12	337.779359113211	282.72393034307896	18/12/03 04:13:02
3	12	338.0143722141649	282.7957296262444	18/12/03 04:13:02
3	12	338.22200437742634	282.8591637089562	18/12/03 04:13:02
3	12	338.22200437742634	282.8591637089562	18/12/03 04:13:02
3	12	338.72112365599185	283.01165055445375	18/12/03 04:13:03
3	12	338.96391069396446	283.0858248673646	18/12/03 04:13:03
3	12	338.96391069396446	283.1730756360681	18/12/03 04:13:03
3	12	339.2494995300868	283.1730756360681	18/12/03 04:13:03
3	12	339.77503017631034	283.33363146690124	18/12/03 04:13:03
3	12	339.77503017631034	283.33363146690124	18/12/03 04:13:03
3	12	340.27828717968174	283.4873824362872	18/12/03 04:13:03
3	12	340.551684391554	283.57090851952336	18/12/03 04:13:03
3	12	340.76618222357865	283.63644014528126	18/12/03 04:13:03
3	12	340.91607175731485	283.68223317142565	18/12/03 04:13:03
3	12	341.20274814743357	283.7698162007438	18/12/03 04:13:04
3	12	341.40699511424344	283.8322160658838	18/12/03 04:13:04
3	12	341.40699511424344	283.8787607870174	18/12/03 04:13:04
3	12	341.55934509274454	283.8787607870174	18/12/03 04:13:04
3	12	341.9658171054475	284.0029427965328	18/12/03 04:13:04
3	12	342.17319926963296	284.0663005015687	18/12/03 04:13:04
3	12	342.3647028384676	284.12480710783933	18/12/03 04:13:04
3	12	342.6204767004873	284.2029490491649	18/12/03 04:13:04
3	12	342.6204767004873	284.2029490491649	18/12/03 04:13:04
3	12	342.85818150913127	284.27557068087964	18/12/03 04:13:04
3	12	343.34965067210516	284.42572032554295	18/12/03 04:13:05
3	12	343.55473679691625	284.4883765633818	18/12/03 04:13:05
3	12	343.7301368248081	284.5419633473471	18/12/03 04:13:05
3	12	343.9376357443814	284.6053567225356	18/12/03 04:13:05
3	12	344.13268221364075	284.66494572680784	18/12/03 04:13:05
3	12	344.3136444059344	284.72023181781293	18/12/03 04:13:05
3	12	344.3136444059344	284.72023181781293	18/12/03 04:13:05
3	12	344.7790958200573	284.8624327323438	18/12/03 04:13:05
3	12	345.0265213958271	284.9380241734378	18/12/03 04:13:05
3	12	345.19625201007744	284.9898788844515	18/12/03 04:13:05
3	12	345.19625201007744	284.9898788844515	18/12/03 04:13:06
3	12	345.5181950988549	285.0882363075078	18/12/03 04:13:06
3	12	345.7291058803681	285.1526720468902	18/12/03 04:13:06
3	12	345.7291058803681	285.1526720468902	18/12/03 04:13:06
3	12	346.1477217352944	285.28056414389846	18/12/03 04:13:06
3	12	346.1477217352944	285.3527137001345	18/12/03 04:13:06
3	12	346.38388134853733	285.3527137001345	18/12/03 04:13:06
3	12	346.9107427353509	285.51367608796403	18/12/03 04:13:06
3	12	347.1852683621674	285.59754691531776	18/12/03 04:13:06
3	12	347.3608650047267	285.65119376739045	18/12/03 04:13:06
3	12	347.3608650047267	285.65119376739045	18/12/03 04:13:07
3	12	347.75628336732444	285.77199875600485	18/12/03 04:13:07
3	12	348.0347144977024	285.857062760909	18/12/03 04:13:07
3	12	348.0347144977024	285.857062760909	18/12/03 04:13:07
3	12	348.4767822355827	285.99211968565726	18/12/03 04:13:07
3	12	348.739970511528	286.07252681816914	18/12/03 04:13:07
3	12	348.739970511528	286.07252681816914	18/12/03 04:13:07
3	12	349.090769208122	286.17969997085123	18/12/03 04:13:07
3	12	349.090769208122	286.17969997085123	18/12/03 04:13:07
3	12	349.2599404219777	286.2313837784252	18/12/03 04:13:07
3	12	349.7747487817832	286.38866382388477	18/12/03 04:13:08
3	12	349.9273559414436	286.43528711690567	18/12/03 04:13:08
3	12	349.9273559414436	286.43528711690567	18/12/03 04:13:08
3	12	349.9273559414436	286.43528711690567	18/12/03 04:13:08
3	12	350.1372086802689	286.4993996117275	18/12/03 04:13:08
3	12	350.53470855108526	286.6208405257324	18/12/03 04:13:08
3	12	350.77623456816724	286.6946295818399	18/12/03 04:13:08
3	12	350.99104057092177	286.76025535740223	18/12/03 04:13:08
3	12	351.2528907881229	286.840253697135	18/12/03 04:13:08
3	12	351.4374542696105	286.8966400246016	18/12/03 04:13:08
3	12	351.71357736629614	286.9809988979026	18/12/03 04:13:09
3	12	351.9911823186953	287.06581049565835	18/12/03 04:13:09
3	12	351.9911823186953	287.06581049565835	18/12/03 04:13:09
3	12	352.4145044936471	287.19514042912255	18/12/03 04:13:09
3	12	352.4145044936471	287.19514042912255	18/12/03 04:13:09
3	12	352.6517943322397	287.2676352825764	18/12/03 04:13:09
3	12	353.2068204192445	287.43720231957695	18/12/03 04:13:09
3	12	353.3960980638079	287.49502887964417	18/12/03 04:13:09
3	12	353.3960980638079	287.49502887964417	18/12/03 04:13:09
3	12	353.58774268621244	287.55357857944944	18/12/03 04:13:09
3	12	354.1184091529751	287.71570346422754	18/12/03 04:13:10
3	12	354.1184091529751	287.71570346422754	18/12/03 04:13:10
3	12	354.5780412307894	287.856126502658	18/12/03 04:13:10
3	12	354.80866649636306	287.92658525019516	18/12/03 04:13:10
3	12	354.80866649636306	287.92658525019516	18/12/03 04:13:10
3	12	354.994589151023	287.9833868211485	18/12/03 04:13:10
3	12	355.24315379329585	288.0593262605373	18/12/03 04:13:10
3	12	355.24315379329585	288.12502530322195	18/12/03 04:13:10
3	12	355.45819961367596	288.12502530322195	18/12/03 04:13:10
3	12	355.92181304386946	288.2666646919141	18/12/03 04:13:10
3	12	356.0972728344228	288.32026973407966	18/12/03 04:13:11
3	12	356.0972728344228	288.32026973407966	18/12/03 04:13:11
3	12	356.4287219263069	288.4215313535661	18/12/03 04:13:11
3	12	356.70219595800023	288.5050809061666	18/12/03 04:13:11
3	12	356.70219595800023	288.5050809061666	18/12/03 04:13:11
3	12	357.21741216168857	288.66248555275826	18/12/03 04:13:11
3	12	357.21741216168857	288.66248555275826	18/12/03 04:13:11
3	12	357.60343076135877	288.78041880257433	18/12/03 04:13:11
3	12	357.60343076135877	288.78041880257433	18/12/03 04:13:11
3	62	357.9562217594198	288.86028638456344	18/12/03 04:13:11
3	62	358.14073757977053	288.8879784941761	18/12/03 04:13:12
3	62	358.14073757977053	288.8879784941761	18/12/03 04:13:12
3	62	358.58678258244635	288.9549208684549	18/12/03 04:13:12
3	62	358.7865925523958	288.98490832199155	18/12/03 04:13:12
3	62	358.98684855020247	289.0149627153293	18/12/03 04:13:12
3	62	359.18267555207757	289.0443524055507	18/12/03 04:13:12
3	62	359.18267555207757	289.0443524055507	18/12/03 04:13:12
3	62	359.63065738172634	289.1115854585623	18/12/03 04:13:12
3	62	359.8102138797228	289.13853327374005	18/12/03 04:13:12
3	62	360.00876355043295	289.16833158173563	18/12/03 04:13:12
3	62	360.00876355043295	289.16833158173563	18/12/03 04:13:13
3	62	360.4621032774389	289.2363687472652	18/12/03 04:13:13
3	62	360.4621032774389	289.2363687472652	18/12/03 04:13:13
3	62	360.74237450495366	289.278431815564	18/12/03 04:13:13
3	62	361.012491944803	289.3189710047695	18/12/03 04:13:13
3	62	361.1989284481219	289.3469513702249	18/12/03 04:13:13
3	62	361.4125602746049	289.3790132061394	18/12/03 04:13:13
3	62	361.4125602746049	289.3790132061394	18/12/03 04:13:13
3	62	361.61114192877494	289.40881631420837	18/12/03 04:13:13
3	62	361.61114192877494	289.40881631420837	18/12/03 04:13:13
3	62	362.1318406707958	289.4869627116924	18/12/03 04:13:14
3	62	362.40346209046106	289.5277276179873	18/12/03 04:13:14
3	62	362.6705180413298	289.56780733933647	18/12/03 04:13:14
3	62	362.9517255673009	289.6100109271822	18/12/03 04:13:14
3	62	363.2278752566223	289.6514554355808	18/12/03 04:13:14
3	62	363.39455399973116	289.67647055902927	18/12/03 04:13:14
3	62	363.6675136221164	289.7174363026092	18/12/03 04:13:14
3	62	363.6675136221164	289.7174363026092	18/12/03 04:13:14
3	62	364.14646924748996	289.78931789873593	18/12/03 04:13:14
3	62	364.44262214625275	289.83376448612916	18/12/03 04:13:14
3	62	364.6767346775667	289.8689000634825	18/12/03 04:13:15
3	62	364.6767346775667	289.8689000634825	18/12/03 04:13:15
3	62	364.92681423326735	289.9064319697179	18/12/03 04:13:15
3	62	365.4271387924374	289.9815206125677	18/12/03 04:13:15
3	62	365.4271387924374	289.9815206125677	18/12/03 04:13:15
3	62	365.86490789341303	290.0472209406274	18/12/03 04:13:15
3	62	365.86490789341303	290.0472209406274	18/12/03 04:13:15
3	62	366.3290155378242	290.1168741537594	18/12/03 04:13:15
3	62	366.3290155378242	290.1433890480395	18/12/03 04:13:15
3	62	366.50568743238324	290.1433890480395	18/12/03 04:13:15
