floorId	partitionId	location_x	location_y	timeStamp
3	58	317.4363234136878	294.5483804141207	18/12/03 04:11:01
3	58	317.43436767455006	294.3951895112549	18/12/03 04:11:01
3	58	317.4312147887319	294.14822742116206	18/12/03 04:11:01
3	58	317.42900918427887	293.9754648420374	18/12/03 04:11:01
3	58	317.4255217412565	293.70229725286435	18/12/03 04:11:01
3	58	317.4222874445974	293.4489583408421	18/12/03 04:11:01
3	58	317.41971014297775	293.24708113009507	18/12/03 04:11:01
3	58	317.4175821058501	293.0803943145389	18/12/03 04:11:01
3	58	317.4149311852708	292.8727506113757	18/12/03 04:11:01
3	58	317.41141305652553	292.59717944316856	18/12/03 04:11:01
3	58	317.4086390827095	292.379897114857	18/12/03 04:11:02
3	58	317.4051472480867	292.10638553643804	18/12/03 04:11:02
3	58	317.4025638752273	291.90403277213727	18/12/03 04:11:02
3	58	317.40053002033363	291.74472314773135	18/12/03 04:11:02
3	58	317.39701255004286	291.46920355554073	18/12/03 04:11:02
3	58	317.39487810586195	291.30201488252703	18/12/03 04:11:02
3	58	317.39122603940586	291.01595252024606	18/12/03 04:11:02
3	58	317.38768087739373	290.7382638658752	18/12/03 04:11:02
3	58	317.3854084978046	290.56027086353436	18/12/03 04:11:02
3	58	317.38229084482003	290.31606852268027	18/12/03 04:11:02
3	58	317.3786802840616	290.0332572561992	18/12/03 04:11:03
3	58	317.37561648604884	289.7932733162505	18/12/03 04:11:03
3	58	317.37345473314156	289.62394558063517	18/12/03 04:11:03
3	58	317.37029026304873	289.3760761070108	18/12/03 04:11:03
3	58	317.36704709780446	289.122042528435	18/12/03 04:11:03
3	58	317.36503341104435	288.96431265182474	18/12/03 04:11:03
3	56	317.48509093031333	288.81426076885197	18/12/03 04:11:03
3	56	317.7610557158949	288.77102270459994	18/12/03 04:11:03
3	56	317.9185853717308	288.7463410142666	18/12/03 04:11:03
3	56	318.1665654580205	288.70748758272595	18/12/03 04:11:03
3	56	318.4288699628476	288.666389806394	18/12/03 04:11:04
3	56	318.65645129691944	288.6307324440808	18/12/03 04:11:04
3	56	318.8438093479032	288.6013772514264	18/12/03 04:11:04
3	56	319.01713919565594	288.57421999265466	18/12/03 04:11:04
3	56	319.18058973600586	288.5486106202458	18/12/03 04:11:04
3	56	319.352575931254	288.5216638844696	18/12/03 04:11:04
3	56	319.61895662422154	288.47992745243255	18/12/03 04:11:04
3	56	319.8891417522599	288.4375949428645	18/12/03 04:11:04
3	56	320.11044262433137	288.4029216010992	18/12/03 04:11:04
3	56	320.33830912125524	288.367219559572	18/12/03 04:11:04
3	56	320.62897776478144	288.32167770009755	18/12/03 04:11:05
3	56	320.7866712925647	288.2969703343659	18/12/03 04:11:05
3	56	321.0663933742302	288.25314357830246	18/12/03 04:11:05
3	56	321.28545907173844	288.2188204428911	18/12/03 04:11:05
3	56	321.5165718126871	288.18260978100705	18/12/03 04:11:05
3	56	321.8009127156431	288.13805934966996	18/12/03 04:11:05
3	56	322.0427232602773	288.10017255971707	18/12/03 04:11:05
3	56	322.23691324601276	288.06974694196066	18/12/03 04:11:05
3	56	322.48839331734933	288.03034513401025	18/12/03 04:11:05
3	56	322.70620255515576	287.99621886025716	18/12/03 04:11:05
3	56	322.96386296365347	287.955848719283	18/12/03 04:11:06
3	56	323.2430621520271	287.9121038899542	18/12/03 04:11:06
3	56	323.49997758872286	287.87185047089645	18/12/03 04:11:06
3	56	323.76580317064065	287.83020101346085	18/12/03 04:11:06
3	56	323.9289166953711	287.8046444445392	18/12/03 04:11:06
3	56	324.2142423447977	287.75993972347607	18/12/03 04:11:06
3	56	324.50856640034004	287.71382513534974	18/12/03 04:11:06
3	56	324.7469579974345	287.67647402487887	18/12/03 04:11:06
3	56	324.96977415482127	287.6415632687504	18/12/03 04:11:06
3	56	325.17021949700387	287.61015756397524	18/12/03 04:11:06
3	56	325.3756087102824	287.57797725523875	18/12/03 04:11:07
3	56	325.5465600516541	287.55119265999906	18/12/03 04:11:07
3	56	325.72258470244026	287.5236131804484	18/12/03 04:11:07
3	56	325.9838227174073	287.48268250136766	18/12/03 04:11:07
3	56	326.21332828277144	287.4467236511814	18/12/03 04:11:07
3	56	326.4480923196297	287.4099409055555	18/12/03 04:11:07
3	56	326.64707870397035	287.37876378977506	18/12/03 04:11:07
3	56	326.86573512091456	287.34450478029663	18/12/03 04:11:07
3	56	327.0263006085749	287.319347436915	18/12/03 04:11:07
3	56	327.2779784311739	287.2799146453673	18/12/03 04:11:07
3	56	327.4665511513032	287.2503691387841	18/12/03 04:11:08
3	56	327.6337365610348	287.2241745883716	18/12/03 04:11:08
3	56	327.8265453105285	287.1939653822173	18/12/03 04:11:08
3	56	327.9791909622353	287.17004891591023	18/12/03 04:11:08
3	56	328.2294309957141	287.13084139664943	18/12/03 04:11:08
3	56	328.48863742532836	287.0902290256377	18/12/03 04:11:08
3	56	328.69829963561864	287.0573792252523	18/12/03 04:11:08
3	56	328.92009684141686	287.02262811809555	18/12/03 04:11:08
3	56	329.18748433171316	286.98073394141187	18/12/03 04:11:08
3	56	329.39232138516513	286.9486401448802	18/12/03 04:11:08
3	56	329.63244269049426	286.91101802433957	18/12/03 04:11:09
3	56	329.92161636552953	286.8657103959955	18/12/03 04:11:09
3	56	330.10817485227125	286.8364804787816	18/12/03 04:11:09
3	56	330.3038856942049	286.80581657381805	18/12/03 04:11:09
3	56	330.58429753468215	286.76188174658984	18/12/03 04:11:09
3	56	330.7963510722814	286.72865727389393	18/12/03 04:11:09
3	56	330.9927972604869	286.6978781551386	18/12/03 04:11:09
3	56	331.17894795620526	286.6687121304769	18/12/03 04:11:09
3	56	331.4439425190932	286.6271928768067	18/12/03 04:11:09
3	56	331.64203218802226	286.5961562580774	18/12/03 04:11:09
3	56	331.83097715581374	286.5665524278631	18/12/03 04:11:10
3	56	332.00188492979515	286.44466047299096	18/12/03 04:11:10
3	56	331.9436371337749	286.21410794278654	18/12/03 04:11:10
3	56	331.8949988894867	286.02159129749657	18/12/03 04:11:10
3	56	331.8302603741339	285.7653476361725	18/12/03 04:11:10
3	56	331.7877345653395	285.5970248242136	18/12/03 04:11:10
3	56	331.74475175229605	285.4268931286034	18/12/03 04:11:10
3	56	331.673323936606	285.1441723261098	18/12/03 04:11:10
3	56	331.6155171150755	284.9153652316352	18/12/03 04:11:10
3	56	331.57726026329647	284.76393951979804	18/12/03 04:11:10
3	56	331.52601319693713	284.5610968094817	18/12/03 04:11:11
3	56	331.48097941204634	284.3828470942882	18/12/03 04:11:11
3	56	331.42425935553695	284.1583415604301	18/12/03 04:11:11
3	56	331.37972867148625	283.982083185331	18/12/03 04:11:11
3	56	331.3169392845309	283.7335544336592	18/12/03 04:11:11
3	56	331.252100540297	283.47691405308206	18/12/03 04:11:11
3	56	331.20858047559534	283.3046558438933	18/12/03 04:11:11
3	56	331.1648424314182	283.1315348429247	18/12/03 04:11:11
3	56	331.0960076406379	282.85907757818984	18/12/03 04:11:11
3	56	331.02741327547966	282.5875719500712	18/12/03 04:11:11
3	56	330.9630279353487	282.33272620328756	18/12/03 04:11:12
3	56	330.9141794751634	282.1393774954944	18/12/03 04:11:12
3	56	330.8441079420345	281.8620250399171	18/12/03 04:11:12
3	56	330.8441079420345	281.8620250399171	18/12/03 04:11:12
3	56	330.78022932986437	281.60918498985467	18/12/03 04:11:12
3	56	330.7249608952579	281.3904251687185	18/12/03 04:11:12
3	56	330.6877327793229	281.24307133029043	18/12/03 04:11:12
3	56	330.6342279010866	281.03129190002016	18/12/03 04:11:12
3	56	330.57491124511364	280.7965086798432	18/12/03 04:11:12
3	56	330.5322753983868	280.6277503230998	18/12/03 04:11:12
2	60	330.54485645589807	280.5260363135793	18/12/03 04:11:13
2	60	330.7061302289237	280.61964545952156	18/12/03 04:11:13
2	60	330.857157512761	280.70730717158267	18/12/03 04:11:13
2	60	331.0241895078125	280.8042585983922	18/12/03 04:11:13
2	60	331.2187622705271	280.9171956854314	18/12/03 04:11:13
2	60	331.43307922131766	281.0415930151898	18/12/03 04:11:13
2	60	331.56567621649606	281.11855711939774	18/12/03 04:11:13
2	60	331.7005895359979	281.1968657022371	18/12/03 04:11:13
2	60	331.86426724624044	281.2918701805112	18/12/03 04:11:13
2	60	332.0695152835408	281.4110035840246	18/12/03 04:11:13
2	60	332.2771529861601	281.5315240359428	18/12/03 04:11:14
2	60	332.2771529861601	281.5315240359428	18/12/03 04:11:14
2	60	332.4162952630389	281.61228725899343	18/12/03 04:11:14
2	60	332.5831570530305	281.7091398926143	18/12/03 04:11:14
2	60	332.814164444728	281.84322495950056	18/12/03 04:11:14
2	60	333.01094907105437	281.95744589238615	18/12/03 04:11:14
2	60	333.01094907105437	281.95744589238615	18/12/03 04:11:14
2	60	333.26093920145325	282.1025492291631	18/12/03 04:11:14
2	60	333.45689728377835	282.2162904059384	18/12/03 04:11:14
2	60	333.59510192232926	282.2965093897031	18/12/03 04:11:14
2	60	333.745560662	282.3838410981135	18/12/03 04:11:15
2	60	333.8755142529887	282.45927087467516	18/12/03 04:11:15
2	60	334.0991900917071	282.58910044235705	18/12/03 04:11:15
2	60	334.3313073109255	282.7238296933808	18/12/03 04:11:15
2	60	334.4794207599419	282.80980011005096	18/12/03 04:11:15
2	60	334.6891195814352	282.9315169101035	18/12/03 04:11:15
2	60	334.9463872833478	283.08084441328486	18/12/03 04:11:15
2	60	335.10693862688765	283.17403423495693	18/12/03 04:11:15
2	60	335.26101174932677	283.2634638621902	18/12/03 04:11:15
2	60	335.43759427183727	283.3659587614563	18/12/03 04:11:15
2	60	335.6421892506021	283.48471310611467	18/12/03 04:11:16
2	60	335.900917983061	283.6348886444047	18/12/03 04:11:16
2	60	336.07892155408587	283.7382083717584	18/12/03 04:11:16
2	60	336.3101994387682	283.8724504425816	18/12/03 04:11:16
2	60	336.4866537737777	283.9748709371738	18/12/03 04:11:16
2	60	336.6507971535019	284.07014570690103	18/12/03 04:11:16
2	60	336.8000514916948	284.1567783370199	18/12/03 04:11:16
2	60	336.9778837526762	284.2599986298123	18/12/03 04:11:16
2	60	337.2227385772201	284.40212124885556	18/12/03 04:11:16
2	60	337.4058835966089	284.50842525927783	18/12/03 04:11:16
2	60	337.576700747745	284.6075737279355	18/12/03 04:11:17
2	60	337.80579377802223	284.7405476300353	18/12/03 04:11:17
2	60	337.96133520236674	284.83082951293767	18/12/03 04:11:17
2	60	338.1872177191282	284.9619399165739	18/12/03 04:11:17
2	60	338.3445150429732	285.05324098721843	18/12/03 04:11:17
2	60	338.54015327462605	285.1667965110652	18/12/03 04:11:17
2	60	338.7909385075114	285.3123613541571	18/12/03 04:11:17
2	60	339.02308358786746	285.4471067767954	18/12/03 04:11:17
2	60	339.1567314400364	285.52468083650666	18/12/03 04:11:17
2	60	339.3256996281864	285.62275610000046	18/12/03 04:11:17
2	60	339.5296465441588	285.7411342855142	18/12/03 04:11:18
2	60	339.6756711971605	285.8258922892339	18/12/03 04:11:18
2	60	339.88642889379344	285.94822369881416	18/12/03 04:11:18
2	60	340.1218724140118	286.084883655556	18/12/03 04:11:18
2	60	340.29534610066133	286.1855740737564	18/12/03 04:11:18
2	60	340.5139105413777	286.3124368006894	18/12/03 04:11:18
2	60	340.6704846300013	286.40331807938566	18/12/03 04:11:18
2	60	340.8403678625929	286.50192446785456	18/12/03 04:11:18
2	60	341.08389370151804	286.6432756954532	18/12/03 04:11:18
2	60	341.2523426413151	286.741049568374	18/12/03 04:11:18
2	60	341.22401616355717	286.7246078535141	18/12/03 04:11:19
2	60	340.98770244197317	286.5874428003446	18/12/03 04:11:19
2	60	340.8296472980212	286.49570186343004	18/12/03 04:11:19
2	60	340.6705400650632	286.40335025590576	18/12/03 04:11:19
2	60	340.46520652255754	286.28416722207055	18/12/03 04:11:19
2	60	340.26371067259174	286.16721172414714	18/12/03 04:11:19
2	60	340.02679387548307	286.0296966240745	18/12/03 04:11:19
2	60	339.82485728477127	285.9124853042401	18/12/03 04:11:19
2	60	339.6798563995877	285.8283215324857	18/12/03 04:11:19
2	60	339.5368713367136	285.74532781709706	18/12/03 04:11:19
2	60	339.29237515886564	285.6034133696013	18/12/03 04:11:20
2	60	339.1013900604673	285.49255869302647	18/12/03 04:11:20
2	60	338.87198089681476	285.35940129565216	18/12/03 04:11:20
2	60	338.6367037865692	285.2228379292929	18/12/03 04:11:20
2	60	338.47465408030985	285.1287784035651	18/12/03 04:11:20
2	60	338.24620448524854	284.9961779745968	18/12/03 04:11:20
2	60	338.0135267410361	284.86112337454085	18/12/03 04:11:20
2	60	337.86437811235817	284.77455210205767	18/12/03 04:11:20
2	60	337.69582664741773	284.67671871982583	18/12/03 04:11:20
2	60	337.5495269511282	284.59180107100826	18/12/03 04:11:20
2	60	337.40605907665133	284.50852711425773	18/12/03 04:11:21
2	60	337.24948628665993	284.4176465893347	18/12/03 04:11:21
2	60	337.0548518868355	284.3046737258819	18/12/03 04:11:21
2	60	336.91764162103993	284.22503191212223	18/12/03 04:11:21
2	60	336.75694013761625	284.1317549438172	18/12/03 04:11:21
2	60	336.5338754293228	284.0022800983947	18/12/03 04:11:21
2	60	336.33736413892854	283.88821781959575	18/12/03 04:11:21
2	60	336.1896816152899	283.802497527641	18/12/03 04:11:21
2	60	336.0268386946007	283.70797759149474	18/12/03 04:11:21
2	60	335.84175348163427	283.6005474223651	18/12/03 04:11:21
2	60	335.59368296989265	283.45655830186564	18/12/03 04:11:22
2	60	335.4197718352961	283.3556139730141	18/12/03 04:11:22
2	60	335.253141599032	283.2588957415732	18/12/03 04:11:22
2	60	335.0225768805428	283.12506761826916	18/12/03 04:11:22
2	60	334.77168787947204	282.9794425443596	18/12/03 04:11:22
2	60	334.5667199790912	282.86047174247244	18/12/03 04:11:22
2	60	334.4085189783797	282.7686461450056	18/12/03 04:11:22
2	60	334.23049438483554	282.66531421541947	18/12/03 04:11:22
2	60	334.07484304961	282.57496853625616	18/12/03 04:11:22
2	60	333.93557596799246	282.4941328720095	18/12/03 04:11:22
2	60	333.7048434671768	282.3602073617591	18/12/03 04:11:23
2	60	333.5403706390112	282.26474136821014	18/12/03 04:11:23
2	60	333.2887140282188	282.1186707457832	18/12/03 04:11:23
2	60	333.1417732313876	282.03338097896386	18/12/03 04:11:23
2	60	333.1417732313876	282.03338097896386	18/12/03 04:11:23
2	60	332.9491899387006	281.9215986524705	18/12/03 04:11:23
2	60	332.73805263599536	281.7990469057606	18/12/03 04:11:23
2	60	332.5307194050967	281.67870318026974	18/12/03 04:11:23
2	60	332.30764703279897	281.5492238863812	18/12/03 04:11:23
2	60	332.1390928349197	281.45138891785257	18/12/03 04:11:23
2	60	331.92997461605177	281.3300091206175	18/12/03 04:11:24
2	60	331.6734913358636	281.18113692424953	18/12/03 04:11:24
2	60	331.42385378220007	281.0362382357949	18/12/03 04:11:24
2	60	331.2322791857128	280.925041393153	18/12/03 04:11:24
2	60	330.995374182484	280.7875331386759	18/12/03 04:11:24
2	60	330.84289745934666	280.6990301194857	18/12/03 04:11:24
2	60	330.70444995466033	280.61867016740933	18/12/03 04:11:24
2	60	330.54145509566035	280.5240620407579	18/12/03 04:11:24
5	21	330.61547602384763	280.57197956072434	18/12/03 04:11:24
5	21	330.74726288868203	280.65412614253376	18/12/03 04:11:24
5	21	330.95336776027705	280.7825972972051	18/12/03 04:11:25
5	21	331.15279171974987	280.9069040452423	18/12/03 04:11:25
5	21	331.3923535232161	281.0562298776124	18/12/03 04:11:25
5	21	331.6308108241813	281.20486724148316	18/12/03 04:11:25
5	21	331.7996651057778	281.3101190211234	18/12/03 04:11:25
5	21	331.9326449290054	281.39300920855965	18/12/03 04:11:25
5	21	332.06861700526866	281.4777645542505	18/12/03 04:11:25
5	21	332.28799216161246	281.6145074629629	18/12/03 04:11:25
5	21	332.5224931721403	281.7606787560573	18/12/03 04:11:25
5	21	332.730542287478	281.8903618143418	18/12/03 04:11:25
5	21	332.95640742297866	282.03115011562363	18/12/03 04:11:26
5	21	333.11378771202664	282.129249822341	18/12/03 04:11:26
5	21	333.3308321466022	282.26453992445806	18/12/03 04:11:26
5	21	333.5663345539913	282.4113354173109	18/12/03 04:11:26
5	21	333.75117367219997	282.52655101003774	18/12/03 04:11:26
5	21	333.93076048889435	282.6384926906294	18/12/03 04:11:26
5	21	334.1804490957077	282.7941308537516	18/12/03 04:11:26
5	21	334.36568082752785	282.90959117394954	18/12/03 04:11:26
5	21	334.50839495476947	282.9985490358999	18/12/03 04:11:26
5	21	334.70044458712107	283.1182591515875	18/12/03 04:11:26
5	21	334.9373377721202	283.26592155653253	18/12/03 04:11:27
5	21	335.1298342730204	283.3859102183699	18/12/03 04:11:27
5	21	335.2604413701814	283.4673214167113	18/12/03 04:11:27
5	21	335.5014835916112	283.61757003661035	18/12/03 04:11:27
5	21	335.7324400318061	283.7615318960317	18/12/03 04:11:27
5	21	335.86846979196105	283.84632319776824	18/12/03 04:11:27
5	21	336.0662840063321	283.96962654491375	18/12/03 04:11:27
5	21	336.2753249201801	284.09992782002564	18/12/03 04:11:27
5	21	336.4493293462326	284.2083898343385	18/12/03 04:11:27
5	21	336.6764424406257	284.34995602465636	18/12/03 04:11:27
5	21	336.82722058205877	284.44394042094547	18/12/03 04:11:28
5	21	337.0435581249775	284.5787898969547	18/12/03 04:11:28
5	21	337.2207260919218	284.68922383821945	18/12/03 04:11:28
5	21	337.4273170860622	284.8179980071972	18/12/03 04:11:28
5	21	337.5873929085433	284.91777791822	18/12/03 04:11:28
5	21	337.7444098290726	285.01565112678236	18/12/03 04:11:28
5	21	337.88365374908557	285.1024459077431	18/12/03 04:11:28
5	21	338.12167825270984	285.2508134964568	18/12/03 04:11:28
5	21	338.27823965410755	285.3484027667097	18/12/03 04:11:28
5	21	338.43173743678665	285.4440823944044	18/12/03 04:11:28
5	21	338.57803875155633	285.53527625456377	18/12/03 04:11:29
5	21	338.7404439779029	285.6365081506948	18/12/03 04:11:29
5	21	338.9147375540389	285.7451504006557	18/12/03 04:11:29
5	21	339.1486082760169	285.8909288165845	18/12/03 04:11:29
5	21	339.2792386304577	285.9723545118641	18/12/03 04:11:29
5	21	339.5180810771099	286.1212319482317	18/12/03 04:11:29
5	21	339.68491991347594	286.2252274423027	18/12/03 04:11:29
5	21	339.9101740322844	286.36563487912764	18/12/03 04:11:29
5	21	340.1615105002045	286.5223002019549	18/12/03 04:11:29
5	21	340.3868703692933	286.6627735560021	18/12/03 04:11:29
5	21	340.3868703692933	286.6627735560021	18/12/03 04:11:30
5	21	340.58646250327644	286.78718513209776	18/12/03 04:11:30
5	21	340.79312966418456	286.9160067780348	18/12/03 04:11:30
5	21	341.0410210719522	287.07052469477566	18/12/03 04:11:30
5	21	341.26583739484056	287.21065924068387	18/12/03 04:11:30
5	21	341.1123350840301	287.2467600700277	18/12/03 04:11:30
5	21	340.8987069201474	287.2572365282141	18/12/03 04:11:30
5	21	340.7392283712779	287.26505745556045	18/12/03 04:11:30
5	21	340.50679858148345	287.2764559571896	18/12/03 04:11:30
5	21	340.26905950986674	287.2881148293056	18/12/03 04:11:30
5	21	339.99754140228424	287.30143024638	18/12/03 04:11:31
5	21	339.7520498016882	287.3134693073447	18/12/03 04:11:31
5	21	339.5841229238071	287.3217045460067	18/12/03 04:11:31
5	21	339.42084703425	287.329711697305	18/12/03 04:11:31
5	21	339.2387787048015	287.33864044155797	18/12/03 04:11:31
5	21	339.0382379865095	287.3484750832629	18/12/03 04:11:31
5	21	338.8087811071439	287.35972779151336	18/12/03 04:11:31
5	21	338.6202957725167	287.3689712296962	18/12/03 04:11:31
5	21	338.38694619526194	287.38041483827527	18/12/03 04:11:31
5	21	338.19683635341784	287.3897379433037	18/12/03 04:11:31
5	21	338.03220936018823	287.3978113535675	18/12/03 04:11:32
5	21	337.8171881872919	287.40835612578337	18/12/03 04:11:32
5	21	337.5415082260314	287.42187564275383	18/12/03 04:11:32
5	21	337.2424302641658	287.43654261224424	18/12/03 04:11:32
5	21	337.02240883345434	287.4473326002171	18/12/03 04:11:32
5	21	336.8335381463649	287.45659493632473	18/12/03 04:11:32
5	21	336.54696757682353	287.47064853550705	18/12/03 04:11:32
5	21	336.3851944243882	287.47858199164114	18/12/03 04:11:32
5	21	336.2342749861153	287.4859831748739	18/12/03 04:11:32
5	21	336.0112530386958	287.49692031005463	18/12/03 04:11:32
5	21	335.752016763492	287.5096334184211	18/12/03 04:11:33
5	21	335.59693953400495	287.5172385023242	18/12/03 04:11:33
5	21	335.3047482379094	287.5315677454368	18/12/03 04:11:33
5	21	335.1528328727513	287.5390177695442	18/12/03 04:11:33
5	21	334.9462302047408	287.5491496930382	18/12/03 04:11:33
5	21	334.70445563410743	287.5610064685389	18/12/03 04:11:33
5	21	334.43134777940367	287.5743998478021	18/12/03 04:11:33
5	21	334.2350457152157	287.5840266232703	18/12/03 04:11:33
5	21	333.94857566509535	287.5980752929176	18/12/03 04:11:33
5	21	333.7249405309426	287.60904249915757	18/12/03 04:11:33
5	21	333.54467920923116	287.6178826266258	18/12/03 04:11:34
5	21	333.3649313635728	287.6266975729087	18/12/03 04:11:34
5	21	333.1609357599438	287.63670164434194	18/12/03 04:11:34
5	21	332.8704717863779	287.6509461784821	18/12/03 04:11:34
5	21	332.62767150517766	287.6628532554677	18/12/03 04:11:34
5	21	332.4549621487328	287.6713230298566	18/12/03 04:11:34
5	21	332.27573804170856	287.6801122916707	18/12/03 04:11:34
5	21	332.05030301966116	287.69116776553386	18/12/03 04:11:34
5	57	331.8408170444407	287.5781950064072	18/12/03 04:11:34
5	57	331.6418599003489	287.45481975400963	18/12/03 04:11:34
5	57	331.47638934253087	287.3522098581531	18/12/03 04:11:35
5	57	331.31283027622845	287.25078529670253	18/12/03 04:11:35
5	57	331.1737077013094	287.164514040281	18/12/03 04:11:35
5	57	330.9427272495807	287.0212808246002	18/12/03 04:11:35
5	57	330.75411396086133	286.9043198971225	18/12/03 04:11:35
5	57	330.6259073183927	286.82481771615875	18/12/03 04:11:35
5	57	330.39453767680914	286.68134316007877	18/12/03 04:11:35
5	57	330.15894856848047	286.5352520717951	18/12/03 04:11:35
5	57	330.0070655018095	286.44106791082424	18/12/03 04:11:35
5	57	329.82398121678466	286.3275355720983	18/12/03 04:11:35
5	57	329.6079403217782	286.1935665202641	18/12/03 04:11:36
5	57	329.38306621980263	286.0541199112189	18/12/03 04:11:36
5	57	329.18010352728146	285.9282607794375	18/12/03 04:11:36
5	57	328.97330048472213	285.80002020939503	18/12/03 04:11:36
5	57	328.75404762913206	285.66405938968785	18/12/03 04:11:36
5	57	328.5264513900971	285.52292475708214	18/12/03 04:11:36
5	57	328.36695728209514	285.42402091565185	18/12/03 04:11:36
5	57	328.21336408514685	285.32877628632957	18/12/03 04:11:36
5	87	328.03568231760306	285.15035502798895	18/12/03 04:11:36
5	87	328.0432790216916	284.9882845591088	18/12/03 04:11:36
5	87	328.05150344628123	284.8128221040794	18/12/03 04:11:37
5	87	328.06090878904666	284.612165570114	18/12/03 04:11:37
5	87	328.07280782987874	284.35830769906846	18/12/03 04:11:37
5	87	328.08533830011515	284.0909787149679	18/12/03 04:11:37
5	87	328.0969380697703	283.84350558912223	18/12/03 04:11:37
5	87	328.1098874093575	283.56724031485055	18/12/03 04:11:37
5	87	328.12386607563906	283.26901506187727	18/12/03 04:11:37
5	87	328.1340705423842	283.0513097661622	18/12/03 04:11:37
5	87	328.1469483931653	282.7765696565135	18/12/03 04:11:37
5	87	328.1600598556059	282.4968456024125	18/12/03 04:11:37
5	87	328.1696975484522	282.2912320389094	18/12/03 04:11:38
