"floorId","partitionId","location_x","location_y","timeStamp"
"5","9","321.49672552708586","282.1284895942735",18/12/21 22:56:27
"5","9","320.6018090787069","283.863447391046",18/12/21 22:56:27
"5","104","320.17259466254103","285.2350086247251",18/12/21 22:56:27
"5","104","321.5538163595098","285.32925978011195",18/12/21 22:56:27
"5","104","323.9131981321818","285.49025816187867",18/12/21 22:56:27
"5","104","325.18386046685004","285.57696501959157",18/12/21 22:56:27
"5","104","327.550491646144","285.7384580829517",18/12/21 22:56:28
"5","104","330.04113034156904","285.90841311277075",18/12/21 22:56:28
"5","104","331.4689734229043","286.005845596218",18/12/21 22:56:28
"5","103","332.74542112384887","286.1310912422572",18/12/21 22:56:28
"5","103","334.30235620573524","286.3197674099343",18/12/21 22:56:28
"5","103","336.5296172436504","286.58967659365",18/12/21 22:56:28
"5","103","337.9185616118214","286.75799491568665",18/12/21 22:56:28
"5","103","339.23860857594104","286.9179639505176",18/12/21 22:56:28
"5","103","340.59651777266515","287.08252129543973",18/12/21 22:56:28
"5","103","340.4665337892277","286.64938872649344",18/12/21 22:56:28
"5","103","338.6715338941683","285.5418670592649",18/12/21 22:56:28
"5","103","337.2742141695591","284.6797155486659",18/12/21 22:56:28
"5","103","336.00776336792404","283.89831065435345",18/12/21 22:56:28
"5","103","334.18234539718884","282.7720209203528",18/12/21 22:56:28
"5","103","333.0753650829101","282.0890099148181",18/12/21 22:56:28
"5","103","331.01044195149706","280.8149445984378",18/12/21 22:56:28
"2","90","330.67172452007804","281.3938236151998",18/12/21 22:56:28
"2","90","331.1349594919738","283.804954868201",18/12/21 22:56:28
"2","90","331.5101789746877","285.75796678740863",18/12/21 22:56:28
"2","90","331.8650245396486","287.6049327627207",18/12/21 22:56:28
"2","90","330.820852691766","288.21054718397966",18/12/21 22:56:28
"2","90","328.6368001105851","287.79871952044266",18/12/21 22:56:28
"2","90","326.6929774493844","287.4321899085687",18/12/21 22:56:28
"2","90","325.03381192844876","287.11933560011676",18/12/21 22:56:28
"2","90","323.77081953361926","286.88118418768767",18/12/21 22:56:28
"2","90","322.479571957422","286.6377049432156",18/12/21 22:56:28
"2","90","320.44417828373605","286.25390858765405",18/12/21 22:56:28
"2","90","318.5643670447951","285.89944904895333",18/12/21 22:56:28
"2","90","317.20050597443685","285.6422777139615",18/12/21 22:56:28
"2","91","315.3809184818728","286.9856837400651",18/12/21 22:56:28
"2","91","314.2174688359969","288.04396554489654",18/12/21 22:56:28
"2","25","313.7386873323704","288.9072696848455",18/12/21 22:56:28
"2","25","315.0688235485696","289.1600658382324",18/12/21 22:56:28
"2","25","317.25916351153904","289.57634614885393",18/12/21 22:56:28
"2","25","318.70083637174264","289.8503401571843",18/12/21 22:56:28
"2","25","320.257315840438","290.1461534864659",18/12/21 22:56:28
"2","25","319.12510575723746","290.09318233925404",18/12/21 22:56:28
"2","25","320.2484800590225","292.2055395789547",18/12/21 22:56:28
"2","25","319.82025130720314","290.46164914058244",18/12/21 22:56:28
"2","25","319.63565945795926","292.09137681289366",18/12/21 22:56:28
"2","25","317.7385546435544","292.68472082916446",18/12/21 22:56:28
"2","25","318.15384553843523","290.47094515965875",18/12/21 22:56:28
"2","25","318.3680798477987","290.62217753831806",18/12/21 22:56:28
"2","25","320.58676796966637","290.45940851898433",18/12/21 22:56:28
"2","25","319.00326083139623","291.4527503485467",18/12/21 22:56:28
"2","25","318.69316551341296","291.30457996131156",18/12/21 22:56:28
"2","25","319.6510980172489","292.799654760617",18/12/21 22:56:28
"2","25","318.956594050982","293.3459691810127",18/12/21 22:56:28
"2","25","320.0589514923465","292.6969073384235",18/12/21 22:56:28
"2","25","319.4513222833126","291.9199854883517",18/12/21 22:56:28
"2","25","318.138084268649","291.199761941524",18/12/21 22:56:29
"2","25","318.012380804568","290.42602860654716",18/12/21 22:56:29
"2","25","318.01033133241816","291.2703600471994",18/12/21 22:56:29
"2","25","318.8160865360474","290.5208844592478",18/12/21 22:56:29
"2","25","318.89879889906786","290.9932864070664",18/12/21 22:56:29
"2","25","318.6387484645403","291.0898765283272",18/12/21 22:56:29
"2","25","320.67017524094206","291.61160055999034",18/12/21 22:56:29
"2","25","321.000671881346","291.75556355662997",18/12/21 22:56:29
"2","25","320.7649292529775","291.574327676586",18/12/21 22:56:29
"2","25","320.73258118330443","291.56167309530576",18/12/21 22:56:29
"2","25","320.90071948469216","291.4526245760129",18/12/21 22:56:29
"2","25","319.9802478732029","290.43519734626057",18/12/21 22:56:29
"2","25","320.9943769274674","290.86613958288274",18/12/21 22:56:29
"2","25","319.6762615213068","290.79748895445346",18/12/21 22:56:29
"2","25","318.859034351617","290.5382837342273",18/12/21 22:56:29
"2","25","319.22718394774273","290.67656182956307",18/12/21 22:56:29
"2","25","319.1290109166219","292.3323671441653",18/12/21 22:56:29
"2","25","318.80410267161034","292.72152070837944",18/12/21 22:56:29
"2","25","319.78619570073204","292.5848466478192",18/12/21 22:56:29
"2","25","318.7352719354677","290.8551640161696",18/12/21 22:56:29
"2","25","320.3986079141427","290.5446087896126",18/12/21 22:56:29
"2","25","319.41057881472835","289.7501701989906",18/12/21 22:56:29
"2","25","317.5393726882815","290.2425145158272",18/12/21 22:56:29
"2","25","318.49031336898616","291.3776409045573",18/12/21 22:56:29
"2","25","318.36739964347186","291.0695597867267",18/12/21 22:56:29
"2","25","320.16775791269293","289.59578713851715",18/12/21 22:56:29
"2","25","320.5016074885735","289.9685331101124",18/12/21 22:56:29
"2","25","321.173301863725","289.7227843965306",18/12/21 22:56:29
"2","25","319.25673846881165","290.1642329310878",18/12/21 22:56:29
"2","25","319.33195296177547","290.14482358269333",18/12/21 22:56:29
"2","25","320.79250322087694","289.4482221599645",18/12/21 22:56:29
"2","25","319.3511636160718","291.26857738112193",18/12/21 22:56:29
"2","25","319.7920780291201","291.78712073236335",18/12/21 22:56:29
"2","25","319.699938357934","291.80411209138674",18/12/21 22:56:29
"2","25","319.47314093392083","293.62646522534266",18/12/21 22:56:29
"2","25","317.5205443385067","294.4087534996678",18/12/21 22:56:29
"2","25","318.228623193146","296.1795277257604",18/12/21 22:56:29
"2","25","319.00491093620167","295.94499223901596",18/12/21 22:56:29
"2","25","319.01921914454863","295.9424342275547",18/12/21 22:56:29
"2","25","318.8595933214241","296.28632836445416",18/12/21 22:56:29
"2","25","320.9946480953924","295.9823220502824",18/12/21 22:56:29
"2","25","319.51147139781335","295.3185864151927",18/12/21 22:56:29
"2","25","318.71005551758384","295.79788698191817",18/12/21 22:56:29
"2","25","319.49377711758945","295.68037014179856",18/12/21 22:56:29
"2","25","319.7247204619697","294.02952256365376",18/12/21 22:56:29
"2","25","320.1777464112128","293.701036612132",18/12/21 22:56:29
"2","25","320.2237914419446","293.77452617746945",18/12/21 22:56:29
"2","25","319.4058862609537","292.2720978333716",18/12/21 22:56:29
"2","25","320.8890667477512","292.4032937174058",18/12/21 22:56:29
"2","25","320.6333246693124","292.3255984714796",18/12/21 22:56:29
"2","25","319.20297940335837","291.69921798660465",18/12/21 22:56:30
"2","25","318.7960352998152","292.0018577854623",18/12/21 22:56:30
"2","25","320.7858415876404","292.4149509177309",18/12/21 22:56:30
"2","25","320.7596609986888","292.7451219029857",18/12/21 22:56:30
"2","25","320.60179410062557","292.7454461100115",18/12/21 22:56:30
"2","25","320.48982249728056","291.7255905040443",18/12/21 22:56:30
"2","25","320.054157325927","291.06182440542125",18/12/21 22:56:30
"2","25","320.3997938482886","289.8794264406556",18/12/21 22:56:30
"2","25","320.4137211886049","290.93546701648575",18/12/21 22:56:30
"2","25","318.8077724082597","292.4489819899931",18/12/21 22:56:30
"2","25","318.99056053462806","293.7490521520638",18/12/21 22:56:30
"2","25","320.4561702092348","293.82734760073936",18/12/21 22:56:30
"2","25","320.0553420466114","294.6626791305559",18/12/21 22:56:30
"2","25","319.41958434555363","294.50090561048046",18/12/21 22:56:30
"2","25","319.8818039635773","293.2352508682292",18/12/21 22:56:30
"2","25","317.7737075083873","293.2609639656099",18/12/21 22:56:30
"2","25","317.7732096796745","292.04242635282367",18/12/21 22:56:30
"2","25","319.36708271653663","291.06613370814046",18/12/21 22:56:30
"2","25","317.1554217916974","291.9706368783402",18/12/21 22:56:30
"2","25","317.8793025538342","290.51455752753077",18/12/21 22:56:30
"2","25","317.4557590256981","290.1328812781649",18/12/21 22:56:30
"2","25","318.01776566454635","290.43641148826225",18/12/21 22:56:30
"2","25","317.57974463951973","290.9401610642647",18/12/21 22:56:30
"2","25","317.9742923652526","290.1250283034317",18/12/21 22:56:30
"2","25","317.1313606539879","289.5770429388794",18/12/21 22:56:30
"2","25","317.14525577706496","290.6397835823988",18/12/21 22:56:30
"2","25","317.2053651993693","290.70183205736873",18/12/21 22:56:30
"2","25","316.2630260350621","289.37100427555157",18/12/21 22:56:30
"2","25","316.2271913374066","290.1475289597879",18/12/21 22:56:30
"2","25","317.18664256089477","290.74553934115704",18/12/21 22:56:30
"2","25","316.3207806339215","291.1852817507558",18/12/21 22:56:30
"2","25","315.76190153561896","290.20045028359203",18/12/21 22:56:30
"2","25","315.61479563813737","290.09049005931763",18/12/21 22:56:30
"2","25","313.533919958037","289.300053861341",18/12/21 22:56:30
"2","25","313.5009865990209","289.3160540773784",18/12/21 22:56:30
"2","25","313.0251784921397","289.78500524681016",18/12/21 22:56:30
"2","25","312.78008065178693","291.0216562354338",18/12/21 22:56:30
"2","25","312.5450967183799","290.69867036685207",18/12/21 22:56:30
"2","25","314.2628513348898","291.4205872242153",18/12/21 22:56:30
"2","25","315.3849054658823","290.92273788100835",18/12/21 22:56:30
"2","25","316.26367495215544","292.3584105414587",18/12/21 22:56:30
"2","25","316.20627660385026","293.4829810009992",18/12/21 22:56:30
"2","25","315.76979648365324","294.56642448309907",18/12/21 22:56:30
"2","25","314.222783483519","293.9838401322665",18/12/21 22:56:30
"2","25","315.2979318592249","295.1683557262139",18/12/21 22:56:30
"2","25","315.4048889158356","294.9423447163643",18/12/21 22:56:30
"2","25","315.4654969154829","295.2278411293212",18/12/21 22:56:30
"2","25","316.4920306452283","294.75488570858414",18/12/21 22:56:30
"2","25","317.62711813768095","294.0728504822575",18/12/21 22:56:30
"2","25","317.80385752533203","294.36032469129475",18/12/21 22:56:30
"2","25","319.6994285250526","293.4329713818437",18/12/21 22:56:31
"2","25","320.8390595811728","291.6573676261051",18/12/21 22:56:31
"2","25","321.3773705970907","290.24071814140177",18/12/21 22:56:31
"2","25","320.0952290414831","292.33895212834847",18/12/21 22:56:31
"2","25","320.4563514595124","290.28137723373356",18/12/21 22:56:31
"2","25","321.0334398915781","290.62968910439616",18/12/21 22:56:31
"2","25","320.9766587616428","292.14236194286957",18/12/21 22:56:31
"2","25","321.0544721082047","292.4191437921758",18/12/21 22:56:31
"2","25","320.8673177742153","292.55837599534993",18/12/21 22:56:31
"2","25","320.55093218498666","292.7763428680473",18/12/21 22:56:31
"2","25","319.8771126788129","291.3048461191121",18/12/21 22:56:31
"2","25","320.3579029511723","292.1748890874106",18/12/21 22:56:31
"2","25","319.36283421035574","294.02958332775415",18/12/21 22:56:31
"2","25","321.41218136845134","293.9487439616033",18/12/21 22:56:31
"2","25","320.5632384009314","292.92009622985285",18/12/21 22:56:31
"2","25","320.8093809287943","293.19206916043186",18/12/21 22:56:31
"2","25","319.3140123075596","291.18945043113774",18/12/21 22:56:31
"2","25","319.4726987382868","291.6434390603585",18/12/21 22:56:31
"2","25","319.872624472543","291.69616830114927",18/12/21 22:56:31
"2","25","319.1549305621058","291.1842625748761",18/12/21 22:56:31
"2","25","317.63670891640373","290.76866227659593",18/12/21 22:56:31
"2","25","317.56420602455086","290.71131615672357",18/12/21 22:56:31
"2","25","315.8615634702006","291.7909559526593",18/12/21 22:56:31
"2","25","317.4820776439937","291.6932674055925",18/12/21 22:56:31
"2","25","317.79558936686277","293.8160966124652",18/12/21 22:56:31
"2","25","319.63607341417986","295.0150198804915",18/12/21 22:56:31
"2","25","319.9667599481968","294.8157914692428",18/12/21 22:56:31
"2","25","320.6864939630067","295.35041563847193",18/12/21 22:56:31
"2","25","319.09773121413866","294.56294508620726",18/12/21 22:56:31
"2","25","320.6502538114591","293.29284065788823",18/12/21 22:56:31
"2","25","320.67084256222284","292.82055985537073",18/12/21 22:56:31
"2","25","320.7840878781691","292.559019254993",18/12/21 22:56:31
"2","25","319.7140137731807","294.77894525200895",18/12/21 22:56:31
"2","25","320.2911853025039","294.95143491197234",18/12/21 22:56:31
"2","25","320.06511428250826","295.4395424736582",18/12/21 22:56:31
"2","25","320.3910188097866","295.3678155982374",18/12/21 22:56:31
"2","25","320.7880801912802","294.54055984599296",18/12/21 22:56:31
"2","25","321.1123814436451","295.33828079951735",18/12/21 22:56:31
"2","25","321.17721196344627","295.30539562582356",18/12/21 22:56:31
"2","25","321.18774253129504","295.5300906932212",18/12/21 22:56:31
"2","25","320.73288373838733","295.3568137220643",18/12/21 22:56:31
"2","25","320.27133007585456","294.3997797284782",18/12/21 22:56:31
"2","25","320.0849494963292","293.94739654080354",18/12/21 22:56:31
"2","25","320.15959201993303","293.8299258651559",18/12/21 22:56:31
"2","25","320.063735857806","293.6723562702555",18/12/21 22:56:31
"2","25","319.7317316359511","295.2965820226646",18/12/21 22:56:31
"2","25","319.607502936006","294.72973025459584",18/12/21 22:56:31
"2","25","318.9381506615474","293.6087000832394",18/12/21 22:56:31
"2","25","317.31566376802976","291.9870062626899",18/12/21 22:56:31
"2","25","317.3708612463852","294.2103313574646",18/12/21 22:56:31
"2","25","315.6574267955002","294.87234012372426",18/12/21 22:56:32
"2","25","317.88071429481846","294.9128859442188",18/12/21 22:56:32
"2","25","317.85494128763287","294.68189909649783",18/12/21 22:56:32
"2","25","317.19400919415324","295.31985939070324",18/12/21 22:56:32
"2","25","318.65494007522614","294.42016574743116",18/12/21 22:56:32
"2","25","317.92373330925886","295.3118204981374",18/12/21 22:56:32
"2","25","317.7158547661552","295.2998016696077",18/12/21 22:56:32
"2","25","317.1401614644051","294.97181595666007",18/12/21 22:56:32
"2","25","318.95355986405394","295.60512691480574",18/12/21 22:56:32
"2","25","320.43286404242565","295.6752072870834",18/12/21 22:56:32
"2","25","320.4342521559616","295.66856186655605",18/12/21 22:56:32
"2","25","320.14903800298305","296.3001971057919",18/12/21 22:56:32
"2","25","319.78755314320466","295.1295358857944",18/12/21 22:56:32
"2","25","320.5381855397072","296.3808218198408",18/12/21 22:56:32
"2","25","321.2865712204111","295.57440938282423",18/12/21 22:56:32
"2","25","321.04559290807566","295.6214946387234",18/12/21 22:56:32
"2","25","321.0861720479378","295.0975277564566",18/12/21 22:56:32
"2","25","320.870207706594","294.9804079933391",18/12/21 22:56:32
"2","25","320.5930927835012","295.8753614497936",18/12/21 22:56:32
"2","25","319.45633177787573","295.26197258931467",18/12/21 22:56:32
"2","25","321.14468626087137","295.07781856537207",18/12/21 22:56:32
"2","25","321.28983022227595","295.1930200921141",18/12/21 22:56:32
"2","25","321.2259598114448","295.73204493481484",18/12/21 22:56:32
"2","25","321.1652859407163","295.7353889772074",18/12/21 22:56:32
"2","25","320.82229476248267","293.38059793268593",18/12/21 22:56:32
"2","25","318.7061581434815","293.95732947616943",18/12/21 22:56:32
"2","25","318.58516803904723","294.4714319281686",18/12/21 22:56:32
"2","25","317.2883706350402","296.4840305825369",18/12/21 22:56:32
"2","25","315.9427789358668","296.07016091402824",18/12/21 22:56:32
"2","25","316.54272447628415","294.243310940354",18/12/21 22:56:32
"2","25","317.4527165509425","295.0134004118993",18/12/21 22:56:32
"2","25","317.35833633134735","293.15032520217403",18/12/21 22:56:32
"2","25","317.3919650004295","293.20809466757254",18/12/21 22:56:32
"2","25","317.3625788405647","292.8203395528113",18/12/21 22:56:32
"2","25","318.3289543806452","292.31682845815584",18/12/21 22:56:32
"2","25","317.1244881834593","292.9039561885415",18/12/21 22:56:32
"2","25","316.88287509151195","294.8091868600227",18/12/21 22:56:32
"2","25","316.03383660571876","294.19773728846235",18/12/21 22:56:32
"2","25","317.12320974271296","292.7715256193731",18/12/21 22:56:32
"2","25","317.64743280064727","291.7621020976161",18/12/21 22:56:32
"2","25","317.853650269273","291.995214235868",18/12/21 22:56:32
"2","25","317.252169076803","292.7207129271196",18/12/21 22:56:32
"2","25","317.35438645603716","291.7285326956523",18/12/21 22:56:32
"2","25","316.3812155562317","293.7368401079218",18/12/21 22:56:32
"2","25","314.85685985706","294.64581734541684",18/12/21 22:56:32
"2","25","314.1173900678015","292.3514318042948",18/12/21 22:56:32
"2","25","315.04600809924085","291.03139285453267",18/12/21 22:56:32
"2","25","315.70595440653744","290.67242362818405",18/12/21 22:56:32
"2","25","315.9496965970349","290.5397649462368",18/12/21 22:56:32
"2","25","314.6487004100243","289.4470421529879",18/12/21 22:56:33
"2","25","314.5454808602492","291.3751883341848",18/12/21 22:56:33
"2","25","314.6772176832269","289.75168085164694",18/12/21 22:56:33
"2","25","316.397683501355","290.5482941310172",18/12/21 22:56:33
"2","25","314.1098624321829","290.2699504320357",18/12/21 22:56:33
"2","25","316.2952459021844","289.85993669324995",18/12/21 22:56:33
"2","25","314.93423129369796","289.75290943663776",18/12/21 22:56:33
"2","25","315.30105932329684","291.5635595559201",18/12/21 22:56:33
"2","25","315.31224857324145","291.5754908512299",18/12/21 22:56:33
"2","25","314.05576570255806","291.2007497478582",18/12/21 22:56:33
"2","25","314.5931693281325","293.2003832801677",18/12/21 22:56:33
"2","25","314.3543255171941","291.47449618515105",18/12/21 22:56:33
"2","25","316.4788096776493","292.36858818373577",18/12/21 22:56:33
"2","25","316.2991731885945","292.5009163340063",18/12/21 22:56:33
"2","25","316.6201071374759","290.69191695420875",18/12/21 22:56:33
"2","25","316.98347116826676","289.2047346978042",18/12/21 22:56:33
"2","25","319.2045514459952","289.43658191016226",18/12/21 22:56:33
"2","25","320.1706403720288","291.0532124343673",18/12/21 22:56:33
"2","25","320.20013600307306","290.34767005083694",18/12/21 22:56:33
"2","25","318.789283373687","290.23825148418666",18/12/21 22:56:33
"2","25","318.6699799959448","291.05169145092873",18/12/21 22:56:33
"2","25","318.4417974676499","290.71933229408035",18/12/21 22:56:33
"2","25","318.23560506412997","289.9583146350876",18/12/21 22:56:33
"2","25","320.0205853629828","290.4698510188015",18/12/21 22:56:33
"2","25","318.3939961871482","291.11584815987266",18/12/21 22:56:33
"2","25","318.07588216544406","292.7957771369208",18/12/21 22:56:33
"2","25","318.0776743815871","293.229877781023",18/12/21 22:56:33
"2","25","318.64116284949495","291.449313134517",18/12/21 22:56:33
"2","25","320.1918916071722","292.2115702690063",18/12/21 22:56:33
"2","25","318.31797613811244","292.2153597526914",18/12/21 22:56:33
"2","25","317.62674594268327","294.61501458515227",18/12/21 22:56:33
"2","25","316.3094612413143","293.4754099541368",18/12/21 22:56:33
"2","25","316.31962963943585","295.4860321299203",18/12/21 22:56:33
"2","25","314.94025635915307","294.34028388060125",18/12/21 22:56:33
"2","25","313.21464757037126","292.9259095850748",18/12/21 22:56:33
"2","25","313.94907509681366","293.1818744270775",18/12/21 22:56:33
"2","25","312.49022660127656","292.50971309014506",18/12/21 22:56:33
"2","25","313.050101588058","291.9397139760565",18/12/21 22:56:33
"2","25","312.24410000683184","291.9610248721504",18/12/21 22:56:33
"2","25","312.62132112845114","292.37401427166174",18/12/21 22:56:33
"2","25","313.7495628500917","292.5614232733053",18/12/21 22:56:33
"2","25","314.17473391919015","292.4461970139866",18/12/21 22:56:33
"2","25","313.300162125252","291.8236741699618",18/12/21 22:56:33
"2","25","312.93553992015836","292.4361460505485",18/12/21 22:56:33
"2","25","312.0932910196529","292.8622726372829",18/12/21 22:56:33
"2","25","312.1892038027239","293.24921046901693",18/12/21 22:56:33
"2","25","312.19966981856015","293.61055263237427",18/12/21 22:56:33
"2","25","313.742906226662","292.00778214073466",18/12/21 22:56:33
"2","25","312.12729111960374","291.57246240570527",18/12/21 22:56:33
"2","25","312.58507776671246","291.8012938986938",18/12/21 22:56:33
"2","25","314.34118225572877","293.1141367725111",18/12/21 22:56:34
"2","25","315.3276623797691","292.48779286562035",18/12/21 22:56:34
"2","25","315.91405380991284","293.2948056888596",18/12/21 22:56:34
"2","25","315.3693434035979","293.9468181455814",18/12/21 22:56:34
"2","25","314.6916856147446","294.22479548685925",18/12/21 22:56:34
"2","25","313.2806679692311","294.7457209437112",18/12/21 22:56:34
"2","25","313.54175024110253","294.71162465831975",18/12/21 22:56:34
"2","25","313.5363072760952","294.71444848088896",18/12/21 22:56:34
"2","25","314.82507810256175","295.44214732027837",18/12/21 22:56:34
"2","25","312.93916920887784","293.8625261398598",18/12/21 22:56:34
"2","25","313.68767953640736","295.04379333190025",18/12/21 22:56:34
"2","25","315.4974616358022","293.6207024299408",18/12/21 22:56:34
"2","25","315.2779781391949","294.76289847313905",18/12/21 22:56:34
"2","25","313.89621257248507","293.90914225346665",18/12/21 22:56:34
"2","25","315.8415540522668","294.8959366976729",18/12/21 22:56:34
"2","25","315.7206581453596","295.5918592321731",18/12/21 22:56:34
"2","25","315.26685286679435","295.2505806116193",18/12/21 22:56:34
"2","25","314.9735863458194","293.18866872652904",18/12/21 22:56:34
"2","25","315.36321170938686","295.37299176798297",18/12/21 22:56:34
"2","25","314.6291583221983","294.41497193024304",18/12/21 22:56:34
"2","25","315.25406174892714","292.1342882844066",18/12/21 22:56:34
"2","25","315.08512112053927","291.84286071959184",18/12/21 22:56:34
"2","25","314.269403971615","292.2423924739907",18/12/21 22:56:34
"2","25","313.9863232303319","291.8132538421825",18/12/21 22:56:34
"2","25","312.7409749304243","291.03056244771216",18/12/21 22:56:34
"2","25","312.685654457734","290.92609592193287",18/12/21 22:56:34
"2","25","311.955206403638","290.22195523175344",18/12/21 22:56:34
"2","25","313.11593254415266","290.8501941376001",18/12/21 22:56:34
"2","25","314.5367136729154","292.33218958218805",18/12/21 22:56:34
"2","25","314.08861640689935","293.1819332622744",18/12/21 22:56:34
"2","25","312.4122051267929","293.4897465036327",18/12/21 22:56:34
"2","25","312.67706561964064","294.3132797084136",18/12/21 22:56:34
"2","25","312.90816608687015","293.4574371414658",18/12/21 22:56:34
"2","25","312.4886856839217","292.90492960804323",18/12/21 22:56:34
"2","25","313.70675536604233","294.2895669802135",18/12/21 22:56:34
"2","25","312.5621394687674","294.42288579179746",18/12/21 22:56:34
"2","25","312.5621394687674","294.42288579179746",18/12/21 22:56:34
"2","25","312.5621394687674","294.42288579179746",18/12/21 22:56:34
"2","25","312.52873038797486","292.6103954149215",18/12/21 22:56:34
"2","25","312.4875346790773","290.37546933571974",18/12/21 22:56:34
"2","25","312.4635105261612","289.0721247078487",18/12/21 22:56:34
"2","91","310.90050635898143","288.10784629308785",18/12/21 22:56:34
"2","91","308.6905756525466","287.0791837664188",18/12/21 22:56:34
"2","91","307.47627785591504","286.5139612298141",18/12/21 22:56:34
"2","91","305.86298661229864","285.76301811558915",18/12/21 22:56:34
"2","22","305.53902686886477","284.8799257593341",18/12/21 22:56:34
"2","22","305.8427859539617","284.7595579587836",18/12/21 22:56:34
"2","22","305.8427859539617","284.7595579587836",18/12/21 22:56:34
"2","22","305.05781348126226","284.23664818834783",18/12/21 22:56:34
"2","22","305.05781348126226","284.23664818834783",18/12/21 22:56:34
"2","22","305.1840864490133","283.91002370713846",18/12/21 22:56:35
"2","22","305.1840864490133","283.91002370713846",18/12/21 22:56:35
"2","22","303.6752614281813","283.59009100774693",18/12/21 22:56:35
"2","22","303.6752614281813","283.59009100774693",18/12/21 22:56:35
"2","22","302.27049466298536","283.2602606818984",18/12/21 22:56:35
"2","22","302.27049466298536","283.2602606818984",18/12/21 22:56:35
"2","22","304.30581119223416","282.78655952394826",18/12/21 22:56:35
"2","22","303.1315159822338","283.83995055734806",18/12/21 22:56:35
"2","22","303.1315159822338","283.83995055734806",18/12/21 22:56:35
"2","22","303.0334907630734","283.5285825646668",18/12/21 22:56:35
"2","22","304.65557708670394","284.72323834013423",18/12/21 22:56:35
"2","22","304.65557708670394","284.72323834013423",18/12/21 22:56:35
"2","22","305.7843088924622","283.7130732225716",18/12/21 22:56:35
"2","22","305.7843088924622","283.7130732225716",18/12/21 22:56:35
"2","22","305.6498780839377","283.7804047868064",18/12/21 22:56:35
"2","22","305.37346808433915","283.29489707300837",18/12/21 22:56:35
"2","22","305.37346808433915","282.04621353231744",18/12/21 22:56:35
"2","22","306.2444987736917","282.04621353231744",18/12/21 22:56:35
"2","22","306.03241109678225","280.60047125843147",18/12/21 22:56:35
"2","22","306.03241109678225","280.60047125843147",18/12/21 22:56:35
"2","22","304.5499673274247","277.5513227331463",18/12/21 22:56:35
"2","22","304.5499673274247","277.5513227331463",18/12/21 22:56:35
"2","22","304.5583682199966","280.0215381685522",18/12/21 22:56:35
"2","22","304.5583682199966","280.0215381685522",18/12/21 22:56:35
"2","22","306.4417790642375","280.30189617366057",18/12/21 22:56:35
"2","22","306.4417790642375","280.30189617366057",18/12/21 22:56:35
"2","22","303.48766012666505","281.9765676892393",18/12/21 22:56:35
"2","22","303.8126460806545","281.911014065152",18/12/21 22:56:35
"2","22","303.8126460806545","281.911014065152",18/12/21 22:56:35
"2","22","305.4342698736192","281.8487449614134",18/12/21 22:56:35
"2","22","305.4342698736192","281.8487449614134",18/12/21 22:56:35
"2","22","304.1812514833199","282.875051115668",18/12/21 22:56:35
"2","22","304.1812514833199","282.875051115668",18/12/21 22:56:35
"2","22","304.6230677271119","282.15511225655484",18/12/21 22:56:35
"2","22","304.6230677271119","282.15511225655484",18/12/21 22:56:35
"2","22","304.04100625736646","282.32931799457714",18/12/21 22:56:35
"2","22","304.04100625736646","282.32931799457714",18/12/21 22:56:35
"2","22","304.2824976688888","282.1240757272906",18/12/21 22:56:35
"2","22","304.2824976688888","282.1240757272906",18/12/21 22:56:35
"2","22","304.2956714057517","283.85069936877323",18/12/21 22:56:35
"2","22","305.1794051634236","284.4677229070656",18/12/21 22:56:35
"2","22","305.1794051634236","284.4677229070656",18/12/21 22:56:35
"2","22","305.9271552622793","281.85376389719517",18/12/21 22:56:35
"2","22","305.9271552622793","281.85376389719517",18/12/21 22:56:35
"2","22","305.2267617524924","281.55240899834814",18/12/21 22:56:35
"2","22","305.4790386348313","282.5221331667766",18/12/21 22:56:35
"2","22","305.4790386348313","282.5221331667766",18/12/21 22:56:35
"2","22","305.56925303744384","280.91160716787556",18/12/21 22:56:35
"2","22","305.56925303744384","280.91160716787556",18/12/21 22:56:35
"2","22","305.1655929603916","282.7491496280377",18/12/21 22:56:35
"2","22","305.1655929603916","282.7491496280377",18/12/21 22:56:36
"2","22","304.18280548009227","284.37304541371975",18/12/21 22:56:36
"2","22","304.18280548009227","284.37304541371975",18/12/21 22:56:36
"2","22","302.5839973255662","284.45342165546754",18/12/21 22:56:36
"2","22","302.5839973255662","284.45342165546754",18/12/21 22:56:36
"2","22","302.73227960249613","284.04413973766407",18/12/21 22:56:36
"2","22","302.73227960249613","284.04413973766407",18/12/21 22:56:36
"2","22","303.2314160004236","284.6556813484856",18/12/21 22:56:36
"2","22","304.75739260554843","284.62354363646256",18/12/21 22:56:36
"2","22","304.75739260554843","284.62354363646256",18/12/21 22:56:36
"2","22","306.3211288995019","283.14621728722943",18/12/21 22:56:36
"2","22","306.4685673341207","283.45730130984396",18/12/21 22:56:36
"2","22","306.4685673341207","283.45730130984396",18/12/21 22:56:36
"2","22","305.50517125098645","282.70245069413943",18/12/21 22:56:36
"2","22","305.50517125098645","282.70245069413943",18/12/21 22:56:36
"2","22","305.3278544561011","282.4250082279528",18/12/21 22:56:36
"2","22","305.3278544561011","282.4250082279528",18/12/21 22:56:36
"2","22","303.9645696902804","280.6229806106032",18/12/21 22:56:36
"2","22","303.9645696902804","280.6229806106032",18/12/21 22:56:36
"2","22","304.0180467038581","280.4532255291382",18/12/21 22:56:36
"2","22","303.9166857816365","281.6316422957982",18/12/21 22:56:36
"2","22","303.56535683906435","281.6316422957982",18/12/21 22:56:36
"2","22","302.6974251648758","281.14399560668346",18/12/21 22:56:36
"2","22","302.6974251648758","281.14399560668346",18/12/21 22:56:36
"2","22","303.5034846286715","282.4833691052098",18/12/21 22:56:36
"2","22","304.37652644814966","283.20283985642396",18/12/21 22:56:36
"2","22","304.37652644814966","283.20283985642396",18/12/21 22:56:36
"2","22","303.8923796687633","284.40589756565925",18/12/21 22:56:36
"2","22","303.8923796687633","284.40589756565925",18/12/21 22:56:36
"2","22","302.91508658807874","283.27962790778673",18/12/21 22:56:36
"2","22","302.91508658807874","283.27962790778673",18/12/21 22:56:36
"2","22","302.75820129369305","281.6686741710874",18/12/21 22:56:36
"2","22","302.75820129369305","281.6686741710874",18/12/21 22:56:36
"2","22","302.6908371624767","281.5742334398677",18/12/21 22:56:36
"2","22","306.13518894071234","279.4956713333559",18/12/21 22:56:36
"2","22","306.13518894071234","279.4956713333559",18/12/21 22:56:36
"2","22","305.65410830186437","278.72376385650557",18/12/21 22:56:36
"2","22","305.5114469728305","279.6697526624829",18/12/21 22:56:36
"2","22","305.5114469728305","279.6697526624829",18/12/21 22:56:36
"2","22","306.0692285002837","279.5990207162921",18/12/21 22:56:36
"2","22","306.0692285002837","279.5990207162921",18/12/21 22:56:36
"2","22","304.2391722201209","278.77866182510803",18/12/21 22:56:36
"2","22","304.2391722201209","278.77866182510803",18/12/21 22:56:36
"2","22","302.47694835127584","278.07610992839017",18/12/21 22:56:36
"2","22","302.47694835127584","278.07610992839017",18/12/21 22:56:36
"2","22","303.08359970195886","277.7344263987894",18/12/21 22:56:36
"2","22","303.2399111929253","277.5966907901313",18/12/21 22:56:36
"2","22","303.2399111929253","277.5966907901313",18/12/21 22:56:36
"2","22","304.6150425187078","278.1260123621536",18/12/21 22:56:36
"2","22","304.6150425187078","278.1260123621536",18/12/21 22:56:37
"2","22","306.4777819359334","277.85013671887924",18/12/21 22:56:37
"2","22","306.2586251933007","281.50356842626104",18/12/21 22:56:37
"2","22","306.2586251933007","281.50356842626104",18/12/21 22:56:37
"2","22","304.78385572670186","280.1970819146857",18/12/21 22:56:37
"2","22","304.78385572670186","280.1970819146857",18/12/21 22:56:37
"2","22","304.06614194611956","280.705443541734",18/12/21 22:56:37
"2","22","304.06614194611956","280.705443541734",18/12/21 22:56:37
"2","22","304.0587358585662","281.94409308622335",18/12/21 22:56:37
"2","22","304.0587358585662","281.94409308622335",18/12/21 22:56:37
"2","22","304.4492197560458","281.88487836759003",18/12/21 22:56:37
"2","22","304.1975646942988","280.8003229801136",18/12/21 22:56:37
"2","22","304.1975646942988","280.8003229801136",18/12/21 22:56:37
"2","22","302.1807490246357","280.2067716432089",18/12/21 22:56:37
"2","22","302.38327694515965","280.6862328086927",18/12/21 22:56:37
"2","22","302.38327694515965","280.6862328086927",18/12/21 22:56:37
"2","22","303.34773140207335","281.72549800872775",18/12/21 22:56:37
"2","22","303.34773140207335","281.72549800872775",18/12/21 22:56:37
"2","22","304.9181574366253","283.29191454490416",18/12/21 22:56:37
"2","22","304.9181574366253","283.29191454490416",18/12/21 22:56:37
"2","22","303.5943436776969","284.7545675472007",18/12/21 22:56:37
"2","22","303.5943436776969","284.7545675472007",18/12/21 22:56:37
"2","22","303.2032809193048","284.1057852256105",18/12/21 22:56:37
"2","22","303.2032809193048","284.1057852256105",18/12/21 22:56:37
"2","22","303.32539761059616","282.717214164316",18/12/21 22:56:37
"2","22","303.32539761059616","282.717214164316",18/12/21 22:56:37
"2","22","304.10883049650874","280.66829562181175",18/12/21 22:56:37
"2","22","302.81861420838055","279.8599771163851",18/12/21 22:56:37
"2","22","303.6790706074562","280.1138832244342",18/12/21 22:56:37
"2","22","303.6790706074562","280.1138832244342",18/12/21 22:56:37
"2","22","302.3984843685661","278.6042106597758",18/12/21 22:56:37
"2","22","302.41455519708205","278.7283667822601",18/12/21 22:56:37
"2","22","302.41455519708205","278.7283667822601",18/12/21 22:56:37
"2","22","303.9219487081471","279.81368508909895",18/12/21 22:56:37
"2","22","303.9219487081471","279.81368508909895",18/12/21 22:56:37
"2","22","305.51198928724455","278.4657938753441",18/12/21 22:56:37
"2","22","303.7644149304153","279.31420745316143",18/12/21 22:56:37
"2","22","303.7644149304153","279.31420745316143",18/12/21 22:56:37
"2","22","304.20115107990136","280.6155623269092",18/12/21 22:56:37
"2","22","304.20115107990136","280.6155623269092",18/12/21 22:56:37
"2","22","306.3953941542841","280.53040546504144",18/12/21 22:56:37
"2","22","306.3953941542841","280.53040546504144",18/12/21 22:56:37
"2","22","305.95935075380083","283.4573291058688",18/12/21 22:56:37
"2","22","305.95935075380083","283.4573291058688",18/12/21 22:56:37
"2","22","303.6765183662738","284.18060087118135",18/12/21 22:56:37
"2","22","306.1304349124896","282.21959090008687",18/12/21 22:56:37
"2","22","306.1304349124896","282.21959090008687",18/12/21 22:56:37
"2","22","305.56388093116004","284.6320345467341",18/12/21 22:56:37
"2","22","306.184027309811","283.1038755449239",18/12/21 22:56:37
"2","22","306.184027309811","283.1038755449239",18/12/21 22:56:37
"2","22","302.75918348387756","281.3259722964409",18/12/21 22:56:38
"2","22","302.75918348387756","281.3259722964409",18/12/21 22:56:38
"2","22","303.3315876139361","282.4900167138061",18/12/21 22:56:38
"2","22","303.3315876139361","282.4900167138061",18/12/21 22:56:38
"2","22","305.94007678234914","282.5565286934725",18/12/21 22:56:38
"2","22","305.94007678234914","282.5565286934725",18/12/21 22:56:38
"2","22","305.8095115435948","283.6014021068081",18/12/21 22:56:38
"2","22","305.8095115435948","283.6014021068081",18/12/21 22:56:38
"2","22","305.6178073874189","283.60894929115267",18/12/21 22:56:38
"2","22","305.6178073874189","283.60894929115267",18/12/21 22:56:38
"2","22","305.72977765661295","282.87421084207216",18/12/21 22:56:38
"2","22","305.72977765661295","282.87421084207216",18/12/21 22:56:38
"2","22","303.83121338510796","282.8588159482133",18/12/21 22:56:38
"2","22","303.83121338510796","282.8588159482133",18/12/21 22:56:38
"2","22","304.2367627340992","283.0046025098184",18/12/21 22:56:38
"2","22","305.420112967137","281.97105480903014",18/12/21 22:56:38
"2","22","305.420112967137","281.97105480903014",18/12/21 22:56:38
"2","22","303.6781246160645","281.3462672869027",18/12/21 22:56:38
"2","22","303.6781246160645","281.3462672869027",18/12/21 22:56:38
"2","22","303.784862721567","280.64114084144376",18/12/21 22:56:38
"2","22","304.37379094288485","279.09376134297435",18/12/21 22:56:38
"2","22","304.37379094288485","279.09376134297435",18/12/21 22:56:38
"2","22","303.52788517903025","278.6846205324823",18/12/21 22:56:38
"2","22","303.52788517903025","278.6846205324823",18/12/21 22:56:38
"2","22","303.2705512581838","280.52360640143576",18/12/21 22:56:38
"2","22","303.2705512581838","280.52360640143576",18/12/21 22:56:38
"2","22","302.89685121242746","277.9600323956244",18/12/21 22:56:38
"2","22","302.89685121242746","277.9600323956244",18/12/21 22:56:38
"2","22","302.67397209390646","279.12099225987913",18/12/21 22:56:38
"2","22","302.67397209390646","279.12099225987913",18/12/21 22:56:38
"2","22","304.05865149508907","278.3257046833112",18/12/21 22:56:38
"2","22","304.05865149508907","278.3257046833112",18/12/21 22:56:38
"2","22","304.6007345953564","278.33661294026217",18/12/21 22:56:38
"2","22","304.41744680092694","278.36562156617487",18/12/21 22:56:38
"2","22","302.48080907021506","277.78721574477487",18/12/21 22:56:38
"2","22","302.48080907021506","277.78721574477487",18/12/21 22:56:38
"2","22","302.91784455419145","277.64568711430235",18/12/21 22:56:38
"2","22","303.7070796259739","278.1858324013394",18/12/21 22:56:38
"2","22","304.4790941442325","281.2077852439206",18/12/21 22:56:38
"2","22","304.4790941442325","281.2077852439206",18/12/21 22:56:38
"2","22","302.9835014315188","283.0456458868742",18/12/21 22:56:38
"2","22","302.9835014315188","283.0456458868742",18/12/21 22:56:38
"2","22","303.57731936739526","281.5687825055485",18/12/21 22:56:38
"2","22","303.57731936739526","281.5687825055485",18/12/21 22:56:38
"2","22","303.926298694096","282.2771053933543",18/12/21 22:56:38
"2","22","304.36727131818037","282.5342588576106",18/12/21 22:56:38
"2","22","304.36727131818037","282.5342588576106",18/12/21 22:56:38
"2","22","304.36727131818037","282.5342588576106",18/12/21 22:56:38
"2","22","304.65732181710536","284.2876596851856",18/12/21 22:56:38
"2","90","306.1995084369144","285.49903876247953",18/12/21 22:56:38
"2","90","306.1995084369144","285.49903876247953",18/12/21 22:56:39
"2","90","309.84760492103595","286.2409286961913",18/12/21 22:56:39
"2","90","309.84760492103595","286.2409286961913",18/12/21 22:56:39
"2","90","313.9675655831872","287.07877861486594",18/12/21 22:56:39
"2","90","313.9675655831872","287.07877861486594",18/12/21 22:56:39
"2","90","318.28862562114836","287.66670082097943",18/12/21 22:56:39
"2","90","318.28862562114836","287.66670082097943",18/12/21 22:56:39
"2","90","320.39616810111136","287.6485472621419",18/12/21 22:56:39
"2","90","324.0190186865756","287.6173414231669",18/12/21 22:56:39
"2","90","324.0190186865756","287.6173414231669",18/12/21 22:56:39
"2","90","328.07129809409287","287.5824366497876",18/12/21 22:56:39
"2","90","328.07129809409287","287.5824366497876",18/12/21 22:56:39
"2","90","329.81430002534944","287.56742310277076",18/12/21 22:56:39
"2","93","334.1249023704944","287.2153923198846",18/12/21 22:56:39
"2","93","334.1249023704944","287.2153923198846",18/12/21 22:56:39
"2","93","337.54981883686116","286.6722916603632",18/12/21 22:56:39
"2","93","339.02595489703947","286.438215741812",18/12/21 22:56:39
"2","93","339.02595489703947","286.438215741812",18/12/21 22:56:39
"2","93","340.15712924122454","285.4823560575641",18/12/21 22:56:39
"2","93","340.15712924122454","285.4823560575641",18/12/21 22:56:39
"2","93","338.8349409184901","284.80020582073234",18/12/21 22:56:39
"2","93","335.01285282575253","282.82829436695334",18/12/21 22:56:39
"2","93","335.01285282575253","282.82829436695334",18/12/21 22:56:39
"2","93","333.8334335129679","282.21980225602914",18/12/21 22:56:39
"2","93","333.8334335129679","282.21980225602914",18/12/21 22:56:39
"3","95","330.9383575940888","280.73666306614825",18/12/21 22:56:39
"3","95","330.9383575940888","280.73666306614825",18/12/21 22:56:39
"3","95","333.97263225795405","282.37482504889863",18/12/21 22:56:39
"3","95","333.97263225795405","282.37482504889863",18/12/21 22:56:39
"3","95","335.77222944434186","283.34640212137424",18/12/21 22:56:39
"3","95","339.45404885145007","285.33416435394486",18/12/21 22:56:39
"3","95","339.45404885145007","285.33416435394486",18/12/21 22:56:39
"3","95","339.76516326401503","285.502130625759",18/12/21 22:56:39
"3","95","339.76516326401503","285.502130625759",18/12/21 22:56:39
"3","95","339.76516326401503","285.502130625759",18/12/21 22:56:39
"3","95","335.92588848293815","283.42936046338986",18/12/21 22:56:39
"3","95","335.92588848293815","283.42936046338986",18/12/21 22:56:39
"3","95","334.1357150992917","282.4628711687505",18/12/21 22:56:39
"3","95","334.1357150992917","282.4628711687505",18/12/21 22:56:39
"3","95","330.5939427973203","280.5507183878098",18/12/21 22:56:39
"3","95","330.5939427973203","280.5507183878098",18/12/21 22:56:39
"1","88","331.2248331173346","283.89199391623725",18/12/21 22:56:39
"1","88","331.59106536454647","285.6058471119088",18/12/21 22:56:39
"1","88","331.59106536454647","285.6058471119088",18/12/21 22:56:39
"1","88","330.123438252319","287.53828939505496",18/12/21 22:56:39
"1","88","330.123438252319","287.53828939505496",18/12/21 22:56:39
"1","88","327.05516526639474","287.37977856124235",18/12/21 22:56:39
"1","88","325.5025959729638","287.2995708827266",18/12/21 22:56:39
"1","88","325.5025959729638","287.2995708827266",18/12/21 22:56:39
"1","88","321.75020287294484","287.10571754509806",18/12/21 22:56:39
"1","88","320.418808198858","287.0369360250406",18/12/21 22:56:40
"1","88","320.418808198858","287.0369360250406",18/12/21 22:56:40
"1","89","316.7752640622998","286.8300645845997",18/12/21 22:56:40
"1","89","316.7752640622998","286.8300645845997",18/12/21 22:56:40
"1","89","314.3890943046551","286.3922187180129",18/12/21 22:56:40
"1","89","311.27502191787505","285.82080768640645",18/12/21 22:56:40
"1","89","311.27502191787505","285.82080768640645",18/12/21 22:56:40
"1","89","314.05981276173395","286.6531270483523",18/12/21 22:56:40
"1","89","314.05981276173395","286.6531270483523",18/12/21 22:56:40
"1","89","313.46559440714697","288.36072147651544",18/12/21 22:56:40
"1","89","313.34398340255643","288.22289928815997",18/12/21 22:56:40
"1","89","313.34398340255643","288.22289928815997",18/12/21 22:56:40
"1","89","312.8274818095672","285.5616498286644",18/12/21 22:56:40
"1","89","313.31386777379583","285.56278884184485",18/12/21 22:56:40
"1","89","313.31386777379583","285.56278884184485",18/12/21 22:56:40
"1","89","314.5169916991266","286.41254064338943",18/12/21 22:56:40
"1","89","314.5169916991266","286.41254064338943",18/12/21 22:56:40
"1","89","316.1923174083081","288.0743087759036",18/12/21 22:56:40
"1","89","315.2331909437802","286.1893738630472",18/12/21 22:56:40
"1","89","315.2331909437802","286.1893738630472",18/12/21 22:56:40
"1","89","314.3537490421998","287.8723907550655",18/12/21 22:56:40
"1","89","314.3537490421998","287.8723907550655",18/12/21 22:56:40
"1","89","314.6320448145142","287.8469703402963",18/12/21 22:56:40
"1","89","314.6320448145142","287.8469703402963",18/12/21 22:56:40
"1","89","315.1494406901435","287.1434814549712",18/12/21 22:56:40
"1","89","315.1494406901435","287.1434814549712",18/12/21 22:56:40
"1","89","313.90402225231577","287.302904401101",18/12/21 22:56:40
"1","89","313.09676256164556","287.53376672315403",18/12/21 22:56:40
"1","89","313.09676256164556","287.53376672315403",18/12/21 22:56:40
"1","89","312.2005754343644","288.44503093081835",18/12/21 22:56:40
"1","89","313.4532653304661","288.26816042028986",18/12/21 22:56:40
"1","89","313.4532653304661","288.26816042028986",18/12/21 22:56:40
"1","89","313.4532653304661","288.26816042028986",18/12/21 22:56:40
"1","24","314.05106075029863","288.99967499112466",18/12/21 22:56:40
"1","24","314.05106075029863","288.99967499112466",18/12/21 22:56:40
"1","24","316.1063874618293","289.5858172227269",18/12/21 22:56:40
"1","24","316.1063874618293","289.5858172227269",18/12/21 22:56:40
"1","24","315.295294279716","291.0145642730802",18/12/21 22:56:40
"1","24","315.295294279716","291.0145642730802",18/12/21 22:56:40
"1","24","313.3519220772965","289.88992079477674",18/12/21 22:56:40
"1","24","313.3519220772965","289.88992079477674",18/12/21 22:56:40
"1","24","313.3617777966338","291.6124488703308",18/12/21 22:56:40
"1","24","313.3617777966338","291.6124488703308",18/12/21 22:56:40
"1","24","312.81397183078286","293.29288001490215",18/12/21 22:56:40
"1","24","312.81397183078286","293.29288001490215",18/12/21 22:56:40
"1","24","314.6841231279108","292.4824193643632",18/12/21 22:56:40
"1","24","314.6841231279108","292.4824193643632",18/12/21 22:56:40
"1","24","315.11658091837637","290.4714962309751",18/12/21 22:56:40
"1","24","314.8959315387522","290.8773367835738",18/12/21 22:56:40
"1","24","314.8959315387522","290.8773367835738",18/12/21 22:56:40
"1","24","313.2412635990596","292.1060028703487",18/12/21 22:56:41
"1","24","314.23025129846974","292.31019284478816",18/12/21 22:56:41
"1","24","314.23025129846974","292.31019284478816",18/12/21 22:56:41
"1","24","314.704100813622","292.2382355209447",18/12/21 22:56:41
"1","24","314.704100813622","292.2382355209447",18/12/21 22:56:41
"1","24","315.8092579204546","291.38610972945935",18/12/21 22:56:41
"1","24","315.4749580357335","289.926325280663",18/12/21 22:56:41
"1","24","315.4749580357335","289.926325280663",18/12/21 22:56:41
"1","24","314.8525168890824","291.4787943426362",18/12/21 22:56:41
"1","24","314.8525168890824","291.4787943426362",18/12/21 22:56:41
"1","24","315.0808830587058","294.27712873170776",18/12/21 22:56:41
"1","24","315.0808830587058","294.27712873170776",18/12/21 22:56:41
"1","24","313.1833586955422","293.51571129117184",18/12/21 22:56:41
"1","24","313.1833586955422","293.51571129117184",18/12/21 22:56:41
"1","24","314.05382625234733","293.83035097171086",18/12/21 22:56:41
"1","24","314.4460990235106","295.0459190975219",18/12/21 22:56:41
"1","24","314.4460990235106","295.0459190975219",18/12/21 22:56:41
"1","24","312.67002398990206","295.1214989563184",18/12/21 22:56:41
"1","24","312.67002398990206","295.1214989563184",18/12/21 22:56:41
"1","24","312.7194051239312","295.7588985601631",18/12/21 22:56:41
"1","24","312.7194051239312","295.7588985601631",18/12/21 22:56:41
"1","24","314.37119276617017","296.4060139099347",18/12/21 22:56:41
"1","24","313.7493094281378","294.5107369199511",18/12/21 22:56:41
"1","24","313.7493094281378","294.5107369199511",18/12/21 22:56:41
"1","24","314.20560859579655","292.98095160495035",18/12/21 22:56:41
"1","24","314.20560859579655","292.98095160495035",18/12/21 22:56:41
"1","24","317.15795976828804","295.29659879710084",18/12/21 22:56:41
"1","24","317.01806840885547","293.76003192088496",18/12/21 22:56:41
"1","24","317.20027184665287","293.9597275868203",18/12/21 22:56:41
"1","24","317.20027184665287","294.18910265858034",18/12/21 22:56:41
"1","24","316.42081392271274","293.9368252657464",18/12/21 22:56:41
"1","24","316.84534996534575","292.2478661996427",18/12/21 22:56:41
"1","24","316.84534996534575","290.63437651361915",18/12/21 22:56:41
"1","24","317.0134398905676","290.63437651361915",18/12/21 22:56:41
"1","24","316.2144028914002","289.6861177582691",18/12/21 22:56:41
"1","24","316.1738577401437","289.93284954339344",18/12/21 22:56:41
"1","24","316.1738577401437","289.93284954339344",18/12/21 22:56:41
"1","24","316.3663131655466","289.6001346341883",18/12/21 22:56:41
"1","24","316.3663131655466","289.6001346341883",18/12/21 22:56:41
"1","24","316.0273075967972","289.7991263101396",18/12/21 22:56:41
"1","24","317.58903330359067","290.4232225333054",18/12/21 22:56:41
"1","24","317.58903330359067","290.4232225333054",18/12/21 22:56:41
"1","24","316.07688719337045","291.6189352395239",18/12/21 22:56:41
"1","24","316.07688719337045","291.6189352395239",18/12/21 22:56:41
"1","24","317.6493895708603","289.6325352162587",18/12/21 22:56:41
"1","24","317.6493895708603","289.6325352162587",18/12/21 22:56:41
"1","24","316.3696016176952","289.8985859018043",18/12/21 22:56:41
"1","24","316.3696016176952","289.8985859018043",18/12/21 22:56:41
"1","24","316.91622105234336","290.6821790149998",18/12/21 22:56:41
"1","24","316.91622105234336","290.6821790149998",18/12/21 22:56:41
"1","24","316.5368501203277","292.48603185696396",18/12/21 22:56:42
"1","24","316.5368501203277","292.48603185696396",18/12/21 22:56:42
"1","24","317.9349929411826","292.8100418794455",18/12/21 22:56:42
"1","24","315.1980619113952","292.33685102736547",18/12/21 22:56:42
"1","24","315.1980619113952","292.33685102736547",18/12/21 22:56:42
"1","24","315.4992909279968","293.4549809720494",18/12/21 22:56:42
"1","24","315.4244869215574","293.0647917770294",18/12/21 22:56:42
"1","24","315.4244869215574","293.0647917770294",18/12/21 22:56:42
"1","24","313.7778232960969","291.96707404329027",18/12/21 22:56:42
"1","24","313.7778232960969","291.96707404329027",18/12/21 22:56:42
"1","24","313.7082217137156","292.03151571861076",18/12/21 22:56:42
"1","24","314.9600029863348","293.3082199446545",18/12/21 22:56:42
"1","24","314.9600029863348","293.3082199446545",18/12/21 22:56:42
"1","24","315.85059646378517","292.93609226798935",18/12/21 22:56:42
"1","24","315.85059646378517","292.93609226798935",18/12/21 22:56:42
"1","24","316.9644654279008","294.3747071175225",18/12/21 22:56:42
"1","24","319.1268084321783","291.69765547827615",18/12/21 22:56:42
"1","24","319.1268084321783","291.69765547827615",18/12/21 22:56:42
"1","24","317.2435334473191","291.87623002534895",18/12/21 22:56:42
"1","24","318.7714934610527","291.47315589950136",18/12/21 22:56:42
"1","24","318.7714934610527","291.47315589950136",18/12/21 22:56:42
"1","24","318.07309957160936","289.3311762394508",18/12/21 22:56:42
"1","24","318.07309957160936","289.3311762394508",18/12/21 22:56:42
"1","24","318.71843905975607","293.28981602674986",18/12/21 22:56:42
"1","24","318.71843905975607","293.28981602674986",18/12/21 22:56:42
"1","24","319.42999091977765","295.85336767937736",18/12/21 22:56:42
"1","24","318.3034349246019","295.85336767937736",18/12/21 22:56:42
"1","24","318.1928396363025","295.7363208554109",18/12/21 22:56:42
"1","24","315.85106225285307","295.5891365358746",18/12/21 22:56:42
"1","24","315.85106225285307","295.5891365358746",18/12/21 22:56:42
"1","24","316.1701683648977","294.07249985219914",18/12/21 22:56:42
"1","24","317.3754932454478","293.8782218763503",18/12/21 22:56:42
"1","24","318.71376569232143","293.7850976379092",18/12/21 22:56:42
"1","24","318.71376569232143","293.7850976379092",18/12/21 22:56:42
"1","24","317.5103143810068","293.6464553801092",18/12/21 22:56:42
"1","24","317.5103143810068","293.6464553801092",18/12/21 22:56:42
"1","24","316.8319006675358","294.6684335895853",18/12/21 22:56:42
"1","24","318.06144800466814","295.6174632696655",18/12/21 22:56:42
"1","24","318.06144800466814","295.6174632696655",18/12/21 22:56:42
"1","24","318.3272328141882","295.52415243741405",18/12/21 22:56:42
"1","24","317.91402170813603","295.8739998594536",18/12/21 22:56:42
"1","24","317.91402170813603","295.8739998594536",18/12/21 22:56:42
"1","24","317.2472136184025","293.92747725280987",18/12/21 22:56:42
"1","24","317.2472136184025","293.92747725280987",18/12/21 22:56:42
"1","24","317.1103556263717","292.6175386544685",18/12/21 22:56:42
"1","24","318.6979480079543","294.248845568612",18/12/21 22:56:42
"1","24","318.6979480079543","294.248845568612",18/12/21 22:56:42
"1","24","318.19388765873634","294.19474926245937",18/12/21 22:56:42
"1","24","318.19388765873634","294.19474926245937",18/12/21 22:56:42
"1","24","318.19388765873634","294.19474926245937",18/12/21 22:56:42
"1","24","317.0830448143563","293.1266664017596",18/12/21 22:56:43
"1","24","317.0830448143563","293.1266664017596",18/12/21 22:56:43
"1","24","314.71658953032","290.8513037415247",18/12/21 22:56:43
"1","24","314.71658953032","290.8513037415247",18/12/21 22:56:43
"1","88","313.73486624867587","288.5023183349335",18/12/21 22:56:43
"1","88","313.73486624867587","288.5023183349335",18/12/21 22:56:43
"1","89","317.89921451415375","286.41462824260844",18/12/21 22:56:43
"1","89","317.89921451415375","286.41462824260844",18/12/21 22:56:43
"1","88","318.16882675806164","286.10048945515",18/12/21 22:56:43
"1","88","319.2900971862816","285.9270838948602",18/12/21 22:56:43
"1","88","319.2900971862816","285.9270838948602",18/12/21 22:56:43
"1","88","318.6843243762315","286.20498557386884",18/12/21 22:56:43
"1","88","318.6843243762315","286.20498557386884",18/12/21 22:56:43
"1","88","319.21426441570065","285.5694064375496",18/12/21 22:56:43
"1","88","319.21426441570065","285.5694064375496",18/12/21 22:56:43
"1","88","317.08263497985143","286.83174091808394",18/12/21 22:56:43
"1","88","317.08263497985143","286.83174091808394",18/12/21 22:56:43
"1","88","317.78160200866853","285.57722964614663",18/12/21 22:56:43
"1","88","317.78160200866853","285.57722964614663",18/12/21 22:56:43
"1","88","316.98496000327526","285.4455975874878",18/12/21 22:56:43
"1","88","318.2052472109361","285.863470081162",18/12/21 22:56:43
"1","88","319.59711504179535","285.9296884847708",18/12/21 22:56:43
"1","88","319.59711504179535","285.9296884847708",18/12/21 22:56:43
"1","88","320.3177845461798","286.30608237739295",18/12/21 22:56:43
"1","88","320.3177845461798","286.30608237739295",18/12/21 22:56:43
"1","88","320.0464984163443","285.4524506297396",18/12/21 22:56:43
"1","88","319.91107388075363","285.49262772263205",18/12/21 22:56:43
"1","88","318.612946280728","285.49262772263205",18/12/21 22:56:43
"1","88","319.54026984626506","287.3167184197598",18/12/21 22:56:43
"1","88","319.54026984626506","287.3167184197598",18/12/21 22:56:43
"1","88","321.06018889438553","286.92927040016014",18/12/21 22:56:43
"1","88","319.82645936065717","286.1942100625614",18/12/21 22:56:43
"1","88","319.82645936065717","286.1942100625614",18/12/21 22:56:43
"1","88","319.1930504209702","286.61770443158224",18/12/21 22:56:43
"1","88","319.58121933803636","286.9364801142439",18/12/21 22:56:43
"1","88","319.58121933803636","286.9364801142439",18/12/21 22:56:43
"1","88","318.6039373462241","287.90358138316765",18/12/21 22:56:43
"1","88","318.6039373462241","287.90358138316765",18/12/21 22:56:43
"1","88","319.03152866738736","287.84370113293045",18/12/21 22:56:43
"1","88","319.03152866738736","287.84370113293045",18/12/21 22:56:43
"1","88","321.3793300626414","287.11720944190347",18/12/21 22:56:43
"1","88","321.3793300626414","287.11720944190347",18/12/21 22:56:43
"1","88","322.48605523905104","286.4078264672387",18/12/21 22:56:43
"1","88","321.32550769129745","287.25431062268603",18/12/21 22:56:43
"1","88","322.83649193134573","286.309006075151",18/12/21 22:56:43
"1","88","322.83649193134573","286.309006075151",18/12/21 22:56:43
"1","88","322.09475823817263","287.1232573921735",18/12/21 22:56:43
"1","88","322.09475823817263","287.1232573921735",18/12/21 22:56:43
"1","88","322.97860009112674","286.9279628460183",18/12/21 22:56:43
"1","88","322.97860009112674","286.9279628460183",18/12/21 22:56:44
"1","88","322.7708751320511","286.84077588798",18/12/21 22:56:44
"1","88","322.67215767495327","287.0152271643689",18/12/21 22:56:44
"1","88","322.67215767495327","287.0152271643689",18/12/21 22:56:44
"1","88","324.7400780333732","287.4369525256081",18/12/21 22:56:44
"1","88","324.7400780333732","287.4369525256081",18/12/21 22:56:44
"1","88","324.37883243229015","285.41198676262974",18/12/21 22:56:44
"1","88","323.196069772194","285.7893957917091",18/12/21 22:56:44
"1","88","323.196069772194","285.7893957917091",18/12/21 22:56:44
"1","88","322.882904261761","288.1500083638884",18/12/21 22:56:44
"1","88","322.65216157287466","288.22957979892266",18/12/21 22:56:44
"1","88","322.65216157287466","288.22957979892266",18/12/21 22:56:44
"1","88","324.3534247891445","287.4373200585139",18/12/21 22:56:44
"1","88","324.3534247891445","287.4373200585139",18/12/21 22:56:44
"1","88","324.3682270048186","286.2483101107013",18/12/21 22:56:44
"1","88","323.93271656117287","287.9063692633239",18/12/21 22:56:44
"1","88","323.93271656117287","287.9063692633239",18/12/21 22:56:44
"1","88","324.19430231057544","285.4999333754813",18/12/21 22:56:44
"1","88","324.19430231057544","285.4999333754813",18/12/21 22:56:44
"1","88","322.9869726175843","285.37004220496675",18/12/21 22:56:44
"1","88","322.9869726175843","285.37004220496675",18/12/21 22:56:44
"1","88","321.78260331856893","285.7974476021886",18/12/21 22:56:44
"1","88","321.78260331856893","285.7974476021886",18/12/21 22:56:44
"1","88","321.84344418034505","285.8805548829052",18/12/21 22:56:44
"1","88","320.1674935698362","287.24800900379796",18/12/21 22:56:44
"1","88","320.1674935698362","287.24800900379796",18/12/21 22:56:44
"1","88","317.92457848577175","285.40796480130956",18/12/21 22:56:44
"1","88","317.92457848577175","285.40796480130956",18/12/21 22:56:44
"1","88","317.6735573783973","285.5637596319554",18/12/21 22:56:44
"1","88","317.6735573783973","285.5637596319554",18/12/21 22:56:44
"1","88","318.18985790187395","285.82630827225444",18/12/21 22:56:44
"1","88","319.4167677967621","286.91935898988265",18/12/21 22:56:44
"1","88","319.4167677967621","286.91935898988265",18/12/21 22:56:44
"1","88","320.36495133642615","288.161828391798",18/12/21 22:56:44
"1","88","320.36495133642615","288.161828391798",18/12/21 22:56:44
"1","88","319.1932188075548","288.4292259553846",18/12/21 22:56:44
"1","88","319.1932188075548","288.4292259553846",18/12/21 22:56:44
"1","88","322.7078933358747","288.43226477413504",18/12/21 22:56:44
"1","88","322.7078933358747","288.43226477413504",18/12/21 22:56:44
"1","88","321.0236851321748","286.79894494951617",18/12/21 22:56:44
"1","88","321.0236851321748","286.79894494951617",18/12/21 22:56:44
"1","88","321.7901877078346","288.4164528705111",18/12/21 22:56:44
"1","88","321.7901877078346","288.4164528705111",18/12/21 22:56:44
"1","88","321.83525497498096","288.12305525958016",18/12/21 22:56:44
"1","88","320.79303126519085","288.6702664165189",18/12/21 22:56:44
"1","88","320.79303126519085","288.6702664165189",18/12/21 22:56:44
"1","88","320.89613089406953","288.45527997036413",18/12/21 22:56:44
"1","88","320.89613089406953","288.45527997036413",18/12/21 22:56:44
"1","88","323.3394638175856","286.0490763691711",18/12/21 22:56:44
"1","88","323.3394638175856","286.0490763691711",18/12/21 22:56:44
"1","88","323.2018677692099","286.29117994410785",18/12/21 22:56:45
"1","88","323.2018677692099","286.29117994410785",18/12/21 22:56:45
"1","88","321.8702440807119","285.6854611741739",18/12/21 22:56:45
"1","88","321.8702440807119","285.6854611741739",18/12/21 22:56:45
"1","88","323.9123500546259","287.11790012556594",18/12/21 22:56:45
"1","88","323.9123500546259","287.11790012556594",18/12/21 22:56:45
"1","88","323.7895707478366","285.9420140437907",18/12/21 22:56:45
"1","88","324.26826821603424","285.5035153976918",18/12/21 22:56:45
"1","88","324.26826821603424","285.5035153976918",18/12/21 22:56:45
"1","88","326.2600882657318","285.4621573411852",18/12/21 22:56:45
"1","88","326.2600882657318","285.4621573411852",18/12/21 22:56:45
"1","88","325.937947245089","287.13239917074816",18/12/21 22:56:45
"1","88","325.937947245089","287.13239917074816",18/12/21 22:56:45
"1","88","325.2196689094208","287.3636134638017",18/12/21 22:56:45
"1","88","325.2196689094208","287.3636134638017",18/12/21 22:56:45
"1","88","325.341703462618","285.91512247899374",18/12/21 22:56:45
"1","88","324.15708571419304","286.7465715025919",18/12/21 22:56:45
"1","88","324.15708571419304","286.7465715025919",18/12/21 22:56:45
"1","88","324.09280999070785","286.83760136297076",18/12/21 22:56:45
"1","88","324.09280999070785","286.83760136297076",18/12/21 22:56:45
"1","88","324.4687868237509","287.209605463106",18/12/21 22:56:45
"1","88","324.98936803215867","286.1460306772239",18/12/21 22:56:45
"1","88","324.98936803215867","286.1460306772239",18/12/21 22:56:45
"1","88","325.08629567087957","288.3384868917776",18/12/21 22:56:45
"1","88","325.08629567087957","288.3384868917776",18/12/21 22:56:45
"1","88","326.87650487962975","288.0817480460352",18/12/21 22:56:45
"1","88","326.87650487962975","288.0817480460352",18/12/21 22:56:45
"1","88","326.2052490018596","287.2895555491322",18/12/21 22:56:45
"1","88","326.2435509180398","287.0153451279434",18/12/21 22:56:45
"1","88","326.2435509180398","287.0153451279434",18/12/21 22:56:45
"1","88","324.7710973291605","288.4350785403548",18/12/21 22:56:45
"1","88","324.7710973291605","288.4350785403548",18/12/21 22:56:45
"1","88","326.42467684509097","286.7985354168153",18/12/21 22:56:45
"1","88","323.98982696303835","285.4798773127299",18/12/21 22:56:45
"1","88","323.98982696303835","285.4798773127299",18/12/21 22:56:45
"1","88","325.59277243281053","288.04893520160056",18/12/21 22:56:45
"1","88","327.3490228850456","287.54847164178886",18/12/21 22:56:45
"1","88","327.537543422755","287.8948584477537",18/12/21 22:56:45
"1","88","327.461579699371","287.6278826893469",18/12/21 22:56:45
"1","88","327.461579699371","287.6278826893469",18/12/21 22:56:45
"1","88","326.993965720345","286.37424045654933",18/12/21 22:56:45
"1","88","327.2016123449372","286.57453963102773",18/12/21 22:56:45
"1","88","327.2016123449372","286.57453963102773",18/12/21 22:56:45
"1","88","328.1677594403142","286.3299198994358",18/12/21 22:56:45
"1","88","328.1677594403142","286.3299198994358",18/12/21 22:56:45
"1","88","329.3957778263434","288.2413727162268",18/12/21 22:56:45
"1","88","327.2544478428884","286.005319058934",18/12/21 22:56:45
"1","88","327.2544478428884","286.005319058934",18/12/21 22:56:45
"1","88","327.23484961567294","287.954739094041",18/12/21 22:56:45
"1","88","327.23484961567294","287.954739094041",18/12/21 22:56:45
"1","88","328.14210935211366","288.31535834013357",18/12/21 22:56:46
"1","88","328.14210935211366","288.31535834013357",18/12/21 22:56:46
"1","88","327.903535821677","287.5754394302873",18/12/21 22:56:46
"1","88","327.903535821677","287.5754394302873",18/12/21 22:56:46
"1","88","326.52705196011726","287.5650828910583",18/12/21 22:56:46
"1","88","326.52705196011726","287.5650828910583",18/12/21 22:56:46
"1","88","327.3829220602123","288.6403787193084",18/12/21 22:56:46
"1","88","327.3829220602123","286.7163465725878",18/12/21 22:56:46
"1","88","326.94869614062833","285.85458137828294",18/12/21 22:56:46
"1","88","326.94869614062833","285.85458137828294",18/12/21 22:56:46
"1","88","325.6917163053199","286.377565073994",18/12/21 22:56:46
"1","88","323.2943747769918","286.9478396988439",18/12/21 22:56:46
"1","88","323.2322527127626","286.5557395378858",18/12/21 22:56:46
"1","88","323.2322527127626","286.5557395378858",18/12/21 22:56:46
"1","88","325.0353300720694","287.2800215085111",18/12/21 22:56:46
"1","88","325.0353300720694","287.2800215085111",18/12/21 22:56:46
"1","88","325.6495193886425","285.81401962342403",18/12/21 22:56:46
"1","88","324.5125270564168","286.08153343302746",18/12/21 22:56:46
"1","88","324.5125270564168","286.08153343302746",18/12/21 22:56:46
"1","88","323.74435360534744","286.18248460847656",18/12/21 22:56:46
"1","88","323.74435360534744","286.18248460847656",18/12/21 22:56:46
"1","88","323.6968968830296","287.51256403040526",18/12/21 22:56:46
"1","88","324.5852190099995","285.45984720282365",18/12/21 22:56:46
"1","88","324.5852190099995","285.45984720282365",18/12/21 22:56:46
"1","88","323.82406309121285","285.6103801294139",18/12/21 22:56:46
"1","88","324.18607418255766","287.00217454310837",18/12/21 22:56:46
"1","88","324.18607418255766","287.00217454310837",18/12/21 22:56:46
"1","88","324.24793960410744","288.2009899863705",18/12/21 22:56:46
"1","88","324.24793960410744","288.2009899863705",18/12/21 22:56:46
"1","88","325.18629026188194","287.5348113101877",18/12/21 22:56:46
"1","88","326.8811753843587","288.20168279822633",18/12/21 22:56:46
"1","88","326.8811753843587","288.20168279822633",18/12/21 22:56:46
"1","88","326.0894363675195","286.193663395005",18/12/21 22:56:46
"1","88","324.28738480775803","286.89140663414656",18/12/21 22:56:46
"1","88","324.28738480775803","286.89140663414656",18/12/21 22:56:46
"1","88","325.33079473160615","287.3607714862542",18/12/21 22:56:46
"1","88","325.33079473160615","287.3607714862542",18/12/21 22:56:46
"1","88","324.3049711944487","285.91357578526924",18/12/21 22:56:46
"1","88","324.3049711944487","285.91357578526924",18/12/21 22:56:46
"1","88","322.5629798834738","286.48361136315845",18/12/21 22:56:46
"1","88","323.2699853371327","286.5258413620391",18/12/21 22:56:46
"1","88","324.25629269155485","285.9927873659131",18/12/21 22:56:46
"1","88","321.95890890831953","286.7282586216738",18/12/21 22:56:46
"1","88","321.95890890831953","286.7282586216738",18/12/21 22:56:46
"1","88","323.6388132632139","286.78406708001216",18/12/21 22:56:46
"1","88","323.6388132632139","286.78406708001216",18/12/21 22:56:46
"1","88","325.2794001338168","288.327429832633",18/12/21 22:56:46
"1","88","325.5417956977372","286.7403041958305",18/12/21 22:56:46
"1","88","325.5417956977372","286.7403041958305",18/12/21 22:56:46
"1","88","326.2963506365905","287.2756540675026",18/12/21 22:56:46
"1","88","328.4407416245435","288.3276367435761",18/12/21 22:56:47
"1","88","328.4407416245435","288.3276367435761",18/12/21 22:56:47
"1","88","330.6111859146647","288.0529152422325",18/12/21 22:56:47
"1","88","330.6111859146647","288.0529152422325",18/12/21 22:56:47
"1","88","329.70820974982155","288.3225634016525",18/12/21 22:56:47
"1","88","329.70820974982155","288.3225634016525",18/12/21 22:56:47
"1","88","329.70820974982155","288.3225634016525",18/12/21 22:56:47
"1","88","327.2560190714606","288.13198656309766",18/12/21 22:56:47
"1","88","327.2560190714606","288.13198656309766",18/12/21 22:56:47
"1","88","323.6368544404879","287.85071604051285",18/12/21 22:56:47
"1","88","323.6368544404879","287.85071604051285",18/12/21 22:56:47
"1","88","320.0293001859604","287.5703478412493",18/12/21 22:56:47
"1","88","320.0293001859604","287.5703478412493",18/12/21 22:56:47
"1","88","317.72208692003016","287.39103820844923",18/12/21 22:56:47
"1","89","316.91353728630423","285.8027751055031",18/12/21 22:56:47
"1","89","316.02104428716774","287.9792030709519",18/12/21 22:56:47
"1","89","316.02104428716774","287.9792030709519",18/12/21 22:56:47
"1","89","315.93138954075914","287.9188899222495",18/12/21 22:56:47
"1","89","315.2533954247063","287.1244201009573",18/12/21 22:56:47
"1","89","314.8310632819767","286.43407785765964",18/12/21 22:56:47
"1","89","314.8310632819767","286.43407785765964",18/12/21 22:56:47
"1","89","314.9058334775802","286.4969318555164",18/12/21 22:56:47
"1","89","314.79936148726426","286.6803816566039",18/12/21 22:56:47
"1","89","314.5233438370111","286.47358601709533",18/12/21 22:56:47
"1","89","314.5233438370111","286.47358601709533",18/12/21 22:56:47
"1","89","315.3656043462616","288.06171598392274",18/12/21 22:56:47
"1","89","312.9547541607755","288.2456530079615",18/12/21 22:56:47
"1","89","312.9547541607755","288.2456530079615",18/12/21 22:56:47
"1","89","312.1649820633957","288.1415756687846",18/12/21 22:56:47
"1","89","312.1649820633957","288.1415756687846",18/12/21 22:56:47
"1","89","312.05092352684943","288.21472574534477",18/12/21 22:56:47
"1","89","312.05092352684943","288.21472574534477",18/12/21 22:56:47
"1","89","312.63957667887075","288.1353709657059",18/12/21 22:56:47
"1","89","312.63957667887075","288.1353709657059",18/12/21 22:56:47
"1","89","313.66763333412683","288.6253184612992",18/12/21 22:56:47
"1","89","313.7024773761974","288.20084807647123",18/12/21 22:56:47
"1","89","315.0613588083315","288.4947226524795",18/12/21 22:56:47
"1","89","315.0613588083315","288.4947226524795",18/12/21 22:56:47
"1","89","315.60573191997804","288.3006941935733",18/12/21 22:56:47
"1","89","315.6433483667546","286.7911108365941",18/12/21 22:56:47
"1","89","314.1716373072634","287.0209796664466",18/12/21 22:56:47
"1","89","314.1716373072634","287.4436711156613",18/12/21 22:56:47
"1","89","315.40799997174344","287.4436711156613",18/12/21 22:56:47
"1","89","314.0477173252907","287.1394021374587",18/12/21 22:56:47
"1","89","313.15462784939166","287.7145096624494",18/12/21 22:56:47
"1","89","313.494416816315","288.2366656203353",18/12/21 22:56:47
"1","89","315.1603227979271","287.4819655982403",18/12/21 22:56:47
"1","89","315.1603227979271","286.34128751548366",18/12/21 22:56:47
"1","89","315.62692969099874","286.34128751548366",18/12/21 22:56:47
"1","89","313.58268551368474","287.3409050442593",18/12/21 22:56:47
"1","89","314.91725024899705","285.53180366467336",18/12/21 22:56:48
"1","89","314.91725024899705","285.53180366467336",18/12/21 22:56:48
"1","89","315.4181408444001","285.6419127842493",18/12/21 22:56:48
"1","89","313.9666446930832","286.39007781134484",18/12/21 22:56:48
"1","89","313.9666446930832","286.39007781134484",18/12/21 22:56:48
"1","89","316.59990057946715","287.1137904794936",18/12/21 22:56:48
"1","89","316.17420219744065","287.1307489977139",18/12/21 22:56:48
"1","89","316.17420219744065","287.1307489977139",18/12/21 22:56:48
"1","89","315.7184419581312","286.15411728307697",18/12/21 22:56:48
"1","89","315.7184419581312","286.15411728307697",18/12/21 22:56:48
"1","89","315.7328924012148","286.2535270513701",18/12/21 22:56:48
"1","89","316.10770452641185","286.4374013456089",18/12/21 22:56:48
"1","89","316.10770452641185","286.4374013456089",18/12/21 22:56:48
"1","89","314.5932217031895","288.00750087412473",18/12/21 22:56:48
"1","89","314.5932217031895","288.00894768824986",18/12/21 22:56:48
"1","89","314.6074506599369","288.00894768824986",18/12/21 22:56:48
"1","89","314.6074506599369","288.00894768824986",18/12/21 22:56:48
