floorId	partitionId	location_x	location_y	timeStamp
3	58	317.916907934856	292.1204678329153	18/12/03 04:11:01
3	58	317.8785581541906	291.8571111853122	18/12/03 04:11:01
3	58	317.84568864250724	291.6313887885971	18/12/03 04:11:01
3	58	317.81741941634453	291.4372575966224	18/12/03 04:11:01
3	58	317.7743247125431	291.14131648494794	18/12/03 04:11:01
3	58	317.7386886080362	290.89659526741474	18/12/03 04:11:01
3	58	317.7103506509565	290.701992084634	18/12/03 04:11:01
3	58	317.68131749724114	290.5026148287761	18/12/03 04:11:01
3	58	317.6507437673527	290.2926580866922	18/12/03 04:11:01
3	58	317.6216951813002	290.0931748534723	18/12/03 04:11:01
3	58	317.59463550859	289.9073499395731	18/12/03 04:11:02
3	58	317.56981798968536	289.73692240473076	18/12/03 04:11:02
3	58	317.53165758401894	289.4748662382258	18/12/03 04:11:02
3	58	317.49915492617407	289.25166311008	18/12/03 04:11:02
3	58	317.4566893520583	288.9600423747427	18/12/03 04:11:02
3	56	317.5981381039811	288.80835824518374	18/12/03 04:11:02
3	56	317.7809913909845	288.7797980425113	18/12/03 04:11:02
3	56	318.0722025677527	288.73431321494655	18/12/03 04:11:02
3	56	318.2730751653727	288.7029385418773	18/12/03 04:11:02
3	56	318.46392033638944	288.67313007164074	18/12/03 04:11:02
3	56	318.71683488989913	288.63362686650055	18/12/03 04:11:03
3	56	318.8826566584899	288.6077268490818	18/12/03 04:11:03
3	56	319.0367010978345	288.58366635511777	18/12/03 04:11:03
3	56	319.2117529569918	288.5563246722984	18/12/03 04:11:03
3	56	319.37820635658625	288.5303259992319	18/12/03 04:11:03
3	56	319.5848133260581	288.4980556637166	18/12/03 04:11:03
3	56	319.793534460813	288.46545511270483	18/12/03 04:11:03
3	56	319.9610966809595	288.4392832508474	18/12/03 04:11:03
3	56	320.1648476357145	288.4074590017027	18/12/03 04:11:03
3	56	320.43651768195593	288.365026340481	18/12/03 04:11:03
3	56	320.6155590150569	288.3370615341386	18/12/03 04:11:04
3	56	320.88190188696063	288.29546093440865	18/12/03 04:11:04
3	56	321.1102030198396	288.2598021462499	18/12/03 04:11:04
3	56	321.26940887625034	288.23493548073765	18/12/03 04:11:04
3	56	321.5615038612307	288.18931260948733	18/12/03 04:11:04
3	56	321.8517440945522	288.1439794354262	18/12/03 04:11:04
3	56	322.09405152559685	288.10613297691793	18/12/03 04:11:04
3	56	322.36595976641166	288.06366311163276	18/12/03 04:11:04
3	56	322.62550308616443	288.0231245468856	18/12/03 04:11:04
3	56	322.8730922520799	287.98445312416226	18/12/03 04:11:04
3	56	323.0561564558131	287.9558599780046	18/12/03 04:11:05
3	56	323.28432755377173	287.9202215002474	18/12/03 04:11:05
3	56	323.4656060717651	287.8919072637417	18/12/03 04:11:05
3	56	323.6958881945892	287.85593906099575	18/12/03 04:11:05
3	56	323.85447100164623	287.831169710747	18/12/03 04:11:05
3	56	324.05702087228906	287.7995330612142	18/12/03 04:11:05
3	56	324.3302445344191	287.75685773777195	18/12/03 04:11:05
3	56	324.4916215536288	287.7316519542127	18/12/03 04:11:05
3	56	324.73320409329705	287.6939187178672	18/12/03 04:11:05
3	56	324.93862536770297	287.66183357831943	18/12/03 04:11:05
3	56	325.09680463438133	287.63712725780994	18/12/03 04:11:06
3	56	325.30751078452965	287.60421666346843	18/12/03 04:11:06
3	56	325.5979671093236	287.5588497376693	18/12/03 04:11:06
3	56	325.856355096675	287.5184916264872	18/12/03 04:11:06
3	56	326.05507455232106	287.487453256758	18/12/03 04:11:06
3	56	326.2634701868643	287.4549035462433	18/12/03 04:11:06
3	56	326.54986357799066	287.4101712177811	18/12/03 04:11:06
3	56	326.75423529425854	287.37825001071513	18/12/03 04:11:06
3	56	327.04249627641883	287.3332259796573	18/12/03 04:11:06
3	56	327.2846341493008	287.29540600476093	18/12/03 04:11:06
3	56	327.4867313660614	287.26384005609896	18/12/03 04:11:07
3	56	327.70654511232453	287.22950692899826	18/12/03 04:11:07
3	56	327.90851983132393	287.19796011349456	18/12/03 04:11:07
3	56	328.05906352755306	287.1744464072559	18/12/03 04:11:07
3	56	328.2690855017566	287.1416426756565	18/12/03 04:11:07
3	56	328.5500947703298	287.09775130353614	18/12/03 04:11:07
3	56	328.6991754854653	287.074466103097	18/12/03 04:11:07
3	56	328.94094183867685	287.03670415656455	18/12/03 04:11:07
3	56	329.10954823443393	287.0103692029325	18/12/03 04:11:07
3	56	329.3431429019835	286.97388360752564	18/12/03 04:11:07
3	56	329.630072844136	286.9290674741382	18/12/03 04:11:08
3	56	329.8036059745932	286.901963004443	18/12/03 04:11:08
3	56	330.0957604681101	286.85633083844124	18/12/03 04:11:08
3	56	330.2923809955679	286.8256203042978	18/12/03 04:11:08
3	56	330.5373025567688	286.78736553982844	18/12/03 04:11:08
3	56	330.70975710840554	286.7604295354106	18/12/03 04:11:08
3	56	330.9924351219417	286.7162775188406	18/12/03 04:11:08
3	56	331.208266535322	286.68256639988704	18/12/03 04:11:08
3	56	331.4024658701712	286.65223403642204	18/12/03 04:11:08
3	56	331.66554327100107	286.61114347682985	18/12/03 04:11:08
3	56	331.8831722558629	286.5771515917677	18/12/03 04:11:09
3	56	332.01256590853694	286.50562979457055	18/12/03 04:11:09
3	56	332.01256590853694	286.50562979457055	18/12/03 04:11:09
3	56	331.959748944262	286.29592049693395	18/12/03 04:11:09
3	56	331.9221526552181	286.14664475802374	18/12/03 04:11:09
3	56	331.85522793186504	285.8809207255739	18/12/03 04:11:09
3	56	331.85522793186504	285.8809207255739	18/12/03 04:11:09
3	56	331.782705132435	285.5929695807117	18/12/03 04:11:09
3	56	331.7195925730639	285.34238171222177	18/12/03 04:11:09
3	56	331.6662404617659	285.13054761798077	18/12/03 04:11:09
3	56	331.59469316599814	284.84646970193194	18/12/03 04:11:10
3	56	331.54625193798955	284.65413422711254	18/12/03 04:11:10
3	56	331.47618609041854	284.375938388254	18/12/03 04:11:10
3	56	331.41912821827975	284.14939060280045	18/12/03 04:11:10
3	56	331.3813961041496	283.9995755715655	18/12/03 04:11:10
3	56	331.3433625360742	283.84856362006104	18/12/03 04:11:10
3	56	331.28594463720054	283.6205863515856	18/12/03 04:11:10
3	56	331.24117856091857	283.442843034757	18/12/03 04:11:10
3	56	331.1737951008708	283.17529759224766	18/12/03 04:11:10
3	56	331.11910048477677	282.95813309438154	18/12/03 04:11:10
3	56	331.0537081911084	282.698493560677	18/12/03 04:11:11
3	56	330.997117103951	282.47379914093545	18/12/03 04:11:11
3	56	330.924046780195	282.18367405549554	18/12/03 04:11:11
3	56	330.85093659309325	281.8933906929877	18/12/03 04:11:11
3	56	330.80892841999844	281.7265976067957	18/12/03 04:11:11
3	56	330.76139133874125	281.53785203879505	18/12/03 04:11:11
3	56	330.69898468601656	281.29006696651004	18/12/03 04:11:11
3	56	330.6370503081366	281.0441570573917	18/12/03 04:11:11
3	56	330.60008019401363	280.8973675405629	18/12/03 04:11:11
3	56	330.53584685786234	280.64232963760765	18/12/03 04:11:11
2	60	330.5246402901432	280.511774930076	18/12/03 04:11:12
2	60	330.67104265364753	280.58173667091614	18/12/03 04:11:12
2	60	330.87469030935046	280.6790543929116	18/12/03 04:11:12
2	60	331.11359574657274	280.793220857743	18/12/03 04:11:12
2	60	331.3658564127198	280.9137694262681	18/12/03 04:11:12
2	60	331.5260098599744	280.9903024391464	18/12/03 04:11:12
2	60	331.7572541078302	281.1008078282126	18/12/03 04:11:12
2	60	331.95611373113866	281.19583747866676	18/12/03 04:11:12
2	60	332.1812180105934	281.30340874243774	18/12/03 04:11:12
2	60	332.404763162907	281.41023494139984	18/12/03 04:11:12
2	60	332.62523296360877	281.51559151277326	18/12/03 04:11:13
2	60	332.89140291723294	281.6427869546306	18/12/03 04:11:13
2	60	333.083643573593	281.734653579303	18/12/03 04:11:13
2	60	333.3257939549176	281.8503707154001	18/12/03 04:11:13
2	60	333.4796318400939	281.9238856915008	18/12/03 04:11:13
2	60	333.73606312742226	282.04642728740095	18/12/03 04:11:13
2	60	333.90322264550895	282.1263083125662	18/12/03 04:11:13
2	60	334.088523214882	282.21485845685146	18/12/03 04:11:13
2	60	334.33470763935907	282.3325033533673	18/12/03 04:11:13
2	60	334.4752281992324	282.39965433889273	18/12/03 04:11:13
2	60	334.6299898449532	282.4736107552425	18/12/03 04:11:14
2	60	334.89428559192214	282.59991056428925	18/12/03 04:11:14
2	60	335.0624757053189	282.6802840831566	18/12/03 04:11:14
2	60	335.2803181981825	282.78438513497633	18/12/03 04:11:14
2	60	335.41632804315225	282.8493805715097	18/12/03 04:11:14
2	60	335.55528883153477	282.91578618430896	18/12/03 04:11:14
2	60	335.804488439125	283.0348719555109	18/12/03 04:11:14
2	60	335.9930404695204	283.1249758853222	18/12/03 04:11:14
2	60	336.13753595092595	283.1940263786387	18/12/03 04:11:14
2	60	336.39458495923765	283.3168631667359	18/12/03 04:11:14
2	60	336.53047746407833	283.3818025295864	18/12/03 04:11:15
2	60	336.75977065837196	283.491375562778	18/12/03 04:11:15
2	60	336.9021602856413	283.5594197252006	18/12/03 04:11:15
2	60	337.14756191057705	283.6766905429289	18/12/03 04:11:15
2	60	337.3191447708576	283.7586853640248	18/12/03 04:11:15
2	60	337.4960556558184	283.8432263044111	18/12/03 04:11:15
2	60	337.6598438729701	283.9214962757883	18/12/03 04:11:15
2	60	337.8798346397896	284.02662392978954	18/12/03 04:11:15
2	60	338.1191415328772	284.14098223955114	18/12/03 04:11:15
2	60	338.2686750009434	284.2124402508111	18/12/03 04:11:15
2	60	338.53072430344037	284.3376665446345	18/12/03 04:11:16
2	60	338.7843594641461	284.45887194703715	18/12/03 04:11:16
2	60	339.0541448144805	284.5877950894699	18/12/03 04:11:16
2	60	339.2028615372889	284.6588628002	18/12/03 04:11:16
2	60	339.46581198366874	284.78451972637987	18/12/03 04:11:16
2	60	339.61013110098366	284.8534859400542	18/12/03 04:11:16
2	60	339.836161871647	284.961499948985	18/12/03 04:11:16
2	60	340.07192299795514	285.074163832437	18/12/03 04:11:16
2	60	340.2627983210618	285.1653780011726	18/12/03 04:11:16
2	60	340.5031747886133	285.28024743172256	18/12/03 04:11:16
2	60	340.7654243418986	285.40556941999665	18/12/03 04:11:17
2	60	340.9407963532468	285.48937497418905	18/12/03 04:11:17
2	60	341.1759434806761	285.60174544413724	18/12/03 04:11:17
2	36	341.1797641501369	285.6950890638102	18/12/03 04:11:17
2	36	340.97583710273017	285.7427967170657	18/12/03 04:11:17
2	36	340.69295156764935	285.8089762905468	18/12/03 04:11:17
2	36	340.479537018668	285.8589034945737	18/12/03 04:11:17
2	36	340.22671301581147	285.9180503317213	18/12/03 04:11:17
2	36	340.0116326429072	285.96836724643697	18/12/03 04:11:17
2	36	339.77770697457055	286.02309291826174	18/12/03 04:11:17
2	36	339.5197915193204	286.0834308737453	18/12/03 04:11:18
2	36	339.22883909448706	286.15149765338197	18/12/03 04:11:18
2	36	339.0131276322392	286.2019622081089	18/12/03 04:11:18
2	36	338.79080551165447	286.25397329136035	18/12/03 04:11:18
2	36	338.5307577228221	286.31481009499794	18/12/03 04:11:18
2	36	338.25078628372216	286.38030793115	18/12/03 04:11:18
2	36	338.102522563145	286.4149934437469	18/12/03 04:11:18
2	36	337.885640685077	286.46573181105936	18/12/03 04:11:18
2	36	337.7208763908402	286.50427754551833	18/12/03 04:11:18
2	36	337.5099679777573	286.553618452318	18/12/03 04:11:18
2	36	337.2787060873648	286.6077209473934	18/12/03 04:11:19
2	36	337.01423795547925	286.6695918668892	18/12/03 04:11:19
2	36	336.74050530685656	286.7336301710341	18/12/03 04:11:19
2	36	336.5188899863743	286.785475902143	18/12/03 04:11:19
2	36	336.26450251026074	286.8449885055828	18/12/03 04:11:19
2	36	336.0180317079902	286.9026490450839	18/12/03 04:11:19
2	36	335.84738140987037	286.9425717789938	18/12/03 04:11:19
2	36	335.84738140987037	286.9425717789938	18/12/03 04:11:19
2	36	335.61441731438964	286.99707249593894	18/12/03 04:11:19
2	36	335.36764583234304	287.05480337788197	18/12/03 04:11:19
2	36	335.20425908080506	287.09302684351854	18/12/03 04:11:20
2	36	335.20425908080506	287.09302684351854	18/12/03 04:11:20
2	36	334.9838183388263	287.1445977882041	18/12/03 04:11:20
2	36	334.7782667046837	287.19268550492677	18/12/03 04:11:20
2	36	334.599435916637	287.23452202115175	18/12/03 04:11:20
2	36	334.31540698654237	287.30096908584375	18/12/03 04:11:20
2	36	334.0706783592883	287.3582220527219	18/12/03 04:11:20
2	36	333.91361899628447	287.39496525930485	18/12/03 04:11:20
2	36	333.69851159878266	287.44528849628205	18/12/03 04:11:20
2	36	333.52953254131	287.48482025228924	18/12/03 04:11:20
2	36	333.3281952075847	287.5319220557376	18/12/03 04:11:21
2	36	333.1809645404581	287.5663658909482	18/12/03 04:11:21
2	36	332.9450774234989	287.6215504332952	18/12/03 04:11:21
2	36	332.68001701492943	287.68355991278605	18/12/03 04:11:21
2	36	332.68001701492943	287.68355991278605	18/12/03 04:11:21
2	36	332.43181630669426	287.7416251546303	18/12/03 04:11:21
2	36	332.1615503648677	287.8048524410712	18/12/03 04:11:21
2	60	331.8744033232538	287.8307047835715	18/12/03 04:11:21
2	60	331.5803293683312	287.81880703760015	18/12/03 04:11:21
2	60	331.3214681001367	287.8083339387104	18/12/03 04:11:21
2	60	331.06110150598306	287.7977999368214	18/12/03 04:11:22
2	60	330.88752081967476	287.7907771492652	18/12/03 04:11:22
2	60	330.6314096986398	287.7804153167822	18/12/03 04:11:22
2	60	330.4791582699817	287.77425547572307	18/12/03 04:11:22
2	60	330.2718981793149	287.7658700751547	18/12/03 04:11:22
2	60	330.01403932064875	287.755437532097	18/12/03 04:11:22
2	60	329.793619756103	287.7465197209744	18/12/03 04:11:22
2	60	329.58873499427915	287.73823042228344	18/12/03 04:11:22
2	60	329.30000020399456	287.7265486900851	18/12/03 04:11:22
2	60	329.0403391921726	287.71604323489055	18/12/03 04:11:22
2	60	328.8882652583154	287.7098905749776	18/12/03 04:11:23
2	60	328.66761740693954	287.70096352774726	18/12/03 04:11:23
2	60	328.5159408641773	287.69482694562095	18/12/03 04:11:23
2	60	328.32273188500574	287.68701002979043	18/12/03 04:11:23
2	60	328.0558186592373	287.676211162011	18/12/03 04:11:23
2	60	327.7924432344167	287.6655554278082	18/12/03 04:11:23
2	60	327.54969217327834	287.6557341212581	18/12/03 04:11:23
2	60	327.3116325361195	287.646102621965	18/12/03 04:11:23
2	60	327.3116325361195	287.646102621965	18/12/03 04:11:23
2	60	327.0525481755908	287.6356204971283	18/12/03 04:11:23
2	60	326.7880383761292	287.6249188680032	18/12/03 04:11:24
2	60	326.6243743058575	287.6182972903349	18/12/03 04:11:24
2	60	326.3664052944383	287.60786029067896	18/12/03 04:11:24
2	60	326.1252088963153	287.5981018832238	18/12/03 04:11:24
2	60	325.83552154204284	287.5863816118616	18/12/03 04:11:24
2	60	325.6705068681141	287.57970539100256	18/12/03 04:11:24
2	60	325.5201991631725	287.5736241897911	18/12/03 04:11:24
2	60	325.2368482811658	287.5621602816195	18/12/03 04:11:24
2	60	324.99579103082027	287.5524075038534	18/12/03 04:11:24
2	60	324.7029850485414	287.5405610579586	18/12/03 04:11:24
2	60	324.5451499892244	287.5341753124354	18/12/03 04:11:25
2	60	324.36714544304397	287.52697354282355	18/12/03 04:11:25
2	60	324.1974162362162	287.5201065797588	18/12/03 04:11:25
2	60	323.93569251405813	287.50951767071473	18/12/03 04:11:25
2	60	323.74020990853336	287.5016087677214	18/12/03 04:11:25
2	60	323.4779373461578	287.49099765350957	18/12/03 04:11:25
2	60	323.28907481983305	287.48335658797447	18/12/03 04:11:25
2	60	323.041324494521	287.4733330194621	18/12/03 04:11:25
2	60	322.8871204813906	287.4670941800638	18/12/03 04:11:25
2	60	322.61717903237763	287.45617279537896	18/12/03 04:11:25
2	60	322.4150462403083	287.44799483683397	18/12/03 04:11:26
2	60	322.2025114172759	287.43939602931573	18/12/03 04:11:26
2	60	321.9661131205556	287.4298317451098	18/12/03 04:11:26
2	60	321.81506219083275	287.4237204742526	18/12/03 04:11:26
2	60	321.52830580602085	287.41211878506846	18/12/03 04:11:26
2	60	321.2700630824734	287.4016707114724	18/12/03 04:11:26
2	60	321.07460475335944	287.39376279066244	18/12/03 04:11:26
2	60	320.8528773381611	287.3847920660649	18/12/03 04:11:26
2	60	320.60203219223894	287.3746432862278	18/12/03 04:11:26
2	60	320.3747953299502	287.3654496585107	18/12/03 04:11:26
2	60	320.0755307240136	287.35334190738195	18/12/03 04:11:27
2	60	319.83251115002986	287.34350973724605	18/12/03 04:11:27
2	60	319.6108991188575	287.3345436808954	18/12/03 04:11:27
2	60	319.3415603326795	287.3236466789524	18/12/03 04:11:27
2	60	319.0884444268181	287.31340602792284	18/12/03 04:11:27
2	60	318.9068432723867	287.30605874548803	18/12/03 04:11:27
2	60	318.7083592368175	287.29802840959786	18/12/03 04:11:27
2	60	318.4088881460999	287.2859123044363	18/12/03 04:11:27
2	60	318.19331846564035	287.2771907116046	18/12/03 04:11:27
2	60	318.0289044204209	287.27053879119	18/12/03 04:11:27
2	60	317.79028171189253	287.26088451096035	18/12/03 04:11:28
2	60	317.5737072714613	287.25212226720157	18/12/03 04:11:28
2	60	317.2951066623639	287.24085054721746	18/12/03 04:11:28
2	60	317.00000564330355	287.2289112479293	18/12/03 04:11:28
2	60	316.7522534260479	287.218887602872	18/12/03 04:11:28
2	60	316.4955265552945	287.2085008581735	18/12/03 04:11:28
2	60	316.2290014791564	287.1977176942863	18/12/03 04:11:28
2	60	316.04976856663717	287.19046622700347	18/12/03 04:11:28
2	60	315.8003016019989	287.18037320610233	18/12/03 04:11:28
2	60	315.63205322631103	287.173566155017	18/12/03 04:11:28
2	60	315.3345787543411	287.1615308297486	18/12/03 04:11:29
2	60	315.053600245819	287.15016290388553	18/12/03 04:11:29
2	60	314.89125383201394	287.1435946364192	18/12/03 04:11:29
2	60	314.5943967249321	287.1315842887134	18/12/03 04:11:29
2	60	314.37591166322215	287.12274474437686	18/12/03 04:11:29
2	60	314.13072513138854	287.1128249027094	18/12/03 04:11:29
2	60	313.867966460918	287.10219412136786	18/12/03 04:11:29
2	60	313.5993756819603	287.09132738256017	18/12/03 04:11:29
2	60	313.3025187865706	287.07931704341905	18/12/03 04:11:29
2	60	313.01731226612793	287.06777805918466	18/12/03 04:11:29
2	60	312.79481578649944	287.0587762195119	18/12/03 04:11:30
2	60	312.49924561193313	287.0468179389677	18/12/03 04:11:30
2	60	312.2164995329679	287.0353785001272	18/12/03 04:11:30
2	60	311.94567901364894	287.0244215497113	18/12/03 04:11:30
2	60	311.68577824572617	287.0139063943813	18/12/03 04:11:30
2	60	311.47410018630273	287.00534225010205	18/12/03 04:11:30
2	60	311.2868408355643	286.9977660464004	18/12/03 04:11:30
2	60	311.1157045152277	286.9908421538497	18/12/03 04:11:30
2	60	310.81872148531875	286.9788267115145	18/12/03 04:11:30
2	60	310.65023400893296	286.97200998681024	18/12/03 04:11:30
2	60	310.38086252266834	286.9611116618758	18/12/03 04:11:31
2	60	310.1262619194331	286.9508109424454	18/12/03 04:11:31
2	60	309.9261660477532	286.94271539433134	18/12/03 04:11:31
2	60	309.7132236904581	286.9341000986507	18/12/03 04:11:31
2	60	309.42618786373987	286.92248710370905	18/12/03 04:11:31
2	60	309.42618786373987	286.92248710370905	18/12/03 04:11:31
2	60	309.2484614166691	286.9152965855273	18/12/03 04:11:31
2	60	308.9685590791758	286.90397219976467	18/12/03 04:11:31
2	60	308.75048895219635	286.89514944300123	18/12/03 04:11:31
2	60	308.48911958456415	286.8845748705553	18/12/03 04:11:31
2	60	308.25869940157867	286.8752524509464	18/12/03 04:11:32
2	60	308.016433348866	286.8654507670352	18/12/03 04:11:32
2	60	307.83413658163556	286.8580753412568	18/12/03 04:11:32
2	60	307.67130929833644	286.8514876186058	18/12/03 04:11:32
2	60	307.44334569536977	286.84226458816255	18/12/03 04:11:32
2	60	307.1533813228601	286.83053310910054	18/12/03 04:11:32
2	60	306.94171556723876	286.82196946261274	18/12/03 04:11:32
2	60	306.67023956415386	286.81098599240755	18/12/03 04:11:32
2	60	306.3917611263518	286.79971921527203	18/12/03 04:11:32
2	60	306.1006552004668	286.78794155084796	18/12/03 04:11:32
