"floorId","partitionId","location_x","location_y","timeStamp"
"3","18","342.22273021142354","280.74017362726255",18/12/21 22:53:50
"3","18","343.62181929015645","282.71258804748305",18/12/21 22:53:50
"3","18","344.635178505905","284.14120639665634",18/12/21 22:53:50
"3","95","344.96902648281343","285.47492827028134",18/12/21 22:53:50
"3","95","344.96902648281343","285.47492827028134",18/12/21 22:53:50
"3","95","341.6843632915355","287.45229419982036",18/12/21 22:53:50
"3","95","341.6843632915355","287.45229419982036",18/12/21 22:53:50
"3","93","340.1813471481479","286.93014393788985",18/12/21 22:53:50
"3","93","337.06530318539086","284.8605341107953",18/12/21 22:53:50
"3","93","336.0212398610559","284.16708955674585",18/12/21 22:53:50
"3","93","336.0212398610559","284.16708955674585",18/12/21 22:53:50
"3","93","332.1322264046648","281.5840899061477",18/12/21 22:53:50
"3","93","332.1322264046648","281.5840899061477",18/12/21 22:53:50
"2","92","330.92632703655727","280.6208220689387",18/12/21 22:53:50
"2","92","332.3184460492701","281.01535181934605",18/12/21 22:53:50
"2","92","334.12172753651623","281.52640596671455",18/12/21 22:53:50
"2","92","335.64332369378604","281.9576298395777",18/12/21 22:53:50
"2","92","336.99756614263083","282.3414252841156",18/12/21 22:53:50
"2","92","339.2046964050382","282.9669311091148",18/12/21 22:53:50
"2","92","342.52209397293177","283.9070892583182",18/12/21 22:53:50
"2","92","344.2929593041333","284.40895659203306",18/12/21 22:53:50
"2","92","344.2929593041333","284.40895659203306",18/12/21 22:53:50
"2","92","346.56537968888125","285.0529657888244",18/12/21 22:53:50
"2","92","348.66416667992826","285.6477668799483",18/12/21 22:53:50
"2","92","350.36741397946463","286.1304711069802",18/12/21 22:53:50
"2","92","352.38179525383254","286.7013514226315",18/12/21 22:53:50
"2","92","353.9063929374118","287.13342593499806",18/12/21 22:53:50
"2","92","353.9063929374118","287.13342593499806",18/12/21 22:53:50
"2","92","357.7738543091593","286.91535446084725",18/12/21 22:53:50
"2","92","359.6665999063386","285.6190812772375",18/12/21 22:53:50
"2","31","360.19208301287205","284.5532550311724",18/12/21 22:53:50
"2","31","360.19208301287205","284.5532550311724",18/12/21 22:53:50
"2","31","359.99934977708585","282.49430074839546",18/12/21 22:53:50
"2","31","359.8237672206257","280.618565849171",18/12/21 22:53:50
"2","31","359.8237672206257","280.618565849171",18/12/21 22:53:50
"2","31","359.31089206574256","278.8646291121228",18/12/21 22:53:50
"2","31","359.31089206574256","279.5764304973538",18/12/21 22:53:50
"2","31","358.22753209332166","277.92432871610515",18/12/21 22:53:50
"2","31","359.1847500868404","277.92432871610515",18/12/21 22:53:50
"2","31","359.02513119138166","278.072974739865",18/12/21 22:53:50
"2","31","358.95878829262335","277.93922675351314",18/12/21 22:53:50
"2","31","360.0560578726257","278.9032900075841",18/12/21 22:53:50
"2","31","360.6562535200279","281.12049564715954",18/12/21 22:53:50
"2","31","361.4179409342397","280.27492702385615",18/12/21 22:53:50
"2","31","361.4179409342397","280.27492702385615",18/12/21 22:53:50
"2","31","360.7159317111484","279.1432827043889",18/12/21 22:53:50
"2","31","360.570686085044","281.1114501991478",18/12/21 22:53:50
"2","31","361.06108545130473","280.2202402040472",18/12/21 22:53:50
"2","31","360.317715706604","280.7620221197693",18/12/21 22:53:50
"2","31","360.317715706604","280.7620221197693",18/12/21 22:53:50
"2","31","359.44268802724673","278.8966159555224",18/12/21 22:53:51
"2","31","360.2836189810118","280.52770076209",18/12/21 22:53:51
"2","31","360.2836189810118","280.52770076209",18/12/21 22:53:51
"2","31","359.63942082756046","283.66548125342746",18/12/21 22:53:51
"2","31","360.1390969789837","283.8388394989217",18/12/21 22:53:51
"2","31","361.2939384550917","283.6523330820776",18/12/21 22:53:51
"2","31","359.4318012259273","284.5670748727687",18/12/21 22:53:51
"2","31","358.83046216518585","282.4721321401229",18/12/21 22:53:51
"2","31","357.52359779241476","280.49010090221",18/12/21 22:53:51
"2","31","357.52359779241476","280.49010090221",18/12/21 22:53:51
"2","31","358.0002547697123","282.0327119507517",18/12/21 22:53:51
"2","31","359.6993722218869","283.05230209334854",18/12/21 22:53:51
"2","31","359.9406452396914","283.0498471398438",18/12/21 22:53:51
"2","31","360.77632274682475","281.3559636463311",18/12/21 22:53:51
"2","31","360.771333349844","281.6864052269058",18/12/21 22:53:51
"2","31","360.771333349844","281.6864052269058",18/12/21 22:53:51
"2","31","360.7897782429585","281.1432558765864",18/12/21 22:53:51
"2","31","360.12496829056386","281.0109094944935",18/12/21 22:53:51
"2","31","359.52675069698876","281.34530290528613",18/12/21 22:53:51
"2","31","360.9123104577972","280.54768049595526",18/12/21 22:53:51
"2","31","360.9074202960538","280.83557407474814",18/12/21 22:53:51
"2","31","360.1955801177905","279.91534986855197",18/12/21 22:53:51
"2","31","359.9214992093211","280.88983717277995",18/12/21 22:53:51
"2","31","359.9214992093211","280.88983717277995",18/12/21 22:53:51
"2","31","357.3235899411925","281.76002567798025",18/12/21 22:53:51
"2","31","358.5898179015477","282.41485176484963",18/12/21 22:53:51
"2","31","359.4454473404893","284.3151323414516",18/12/21 22:53:51
"2","31","360.4735520116712","284.57284949321985",18/12/21 22:53:51
"2","31","359.82978799251555","282.2588178678738",18/12/21 22:53:51
"2","31","360.233884837275","281.80173943296006",18/12/21 22:53:51
"2","31","360.233884837275","281.80173943296006",18/12/21 22:53:51
"2","31","358.7756972151436","280.8440503963359",18/12/21 22:53:51
"2","31","358.15861528543076","278.63509554642445",18/12/21 22:53:51
"2","31","357.47725652424083","278.4920837352605",18/12/21 22:53:51
"2","31","357.47725652424083","278.4920837352605",18/12/21 22:53:51
"2","31","359.8850475189338","279.70211365031633",18/12/21 22:53:51
"2","31","359.52091221827254","278.4013184414609",18/12/21 22:53:51
"2","31","357.11500138663126","278.79355235383207",18/12/21 22:53:51
"2","31","357.01230977614176","279.68215852837443",18/12/21 22:53:51
"2","31","356.9978313967037","279.75034040893394",18/12/21 22:53:51
"2","31","356.8584481515556","280.44825985831665",18/12/21 22:53:51
"2","31","357.1009931230045","281.976224562168",18/12/21 22:53:51
"2","31","358.65046874894045","282.1976825224881",18/12/21 22:53:51
"2","31","358.65046874894045","282.1976825224881",18/12/21 22:53:51
"2","31","358.53506499234925","280.0455908755524",18/12/21 22:53:51
"2","31","358.91339798201807","279.01378527861175",18/12/21 22:53:51
"2","31","358.00213492108","277.92401876864477",18/12/21 22:53:51
"2","31","358.00213492108","277.92401876864477",18/12/21 22:53:51
"2","31","358.24927709296543","279.1535862950913",18/12/21 22:53:51
"2","31","360.09241858237414","278.94448846962115",18/12/21 22:53:51
"2","31","359.11876744401076","279.5752224653707",18/12/21 22:53:52
"2","31","358.76470416941027","278.5175471144544",18/12/21 22:53:52
"2","31","360.7591590175957","279.31183507970053",18/12/21 22:53:52
"2","31","360.60423253020053","279.3725759108306",18/12/21 22:53:52
"2","31","360.39664318113097","277.560776575256",18/12/21 22:53:52
"2","31","360.32444787478636","277.70578180381983",18/12/21 22:53:52
"2","31","360.8155748414696","278.7096190775614",18/12/21 22:53:52
"2","31","359.749615996882","279.36186440226334",18/12/21 22:53:52
"2","31","359.749615996882","280.1293472876197",18/12/21 22:53:52
"2","31","359.20801951661946","279.19479070367163",18/12/21 22:53:52
"2","31","360.6552630767045","281.10142461304923",18/12/21 22:53:52
"2","31","360.6552630767045","281.10142461304923",18/12/21 22:53:52
"2","31","361.46265054567334","282.57532297280045",18/12/21 22:53:52
"2","31","359.96844038490735","281.2908129386767",18/12/21 22:53:52
"2","31","360.72095134607616","284.16068305433123",18/12/21 22:53:52
"2","31","360.72095134607616","284.16068305433123",18/12/21 22:53:52
"2","31","360.9149108494962","283.0239330240887",18/12/21 22:53:52
"2","31","359.60543336430874","283.44565826418733",18/12/21 22:53:52
"2","31","359.30517485662006","283.6273972655808",18/12/21 22:53:52
"2","31","359.30517485662006","283.6273972655808",18/12/21 22:53:52
"2","31","358.76159357049505","283.145032664571",18/12/21 22:53:52
"2","31","359.6369063217307","284.77251647223244",18/12/21 22:53:52
"2","31","359.6369063217307","284.77251647223244",18/12/21 22:53:52
"2","31","360.5962230119076","283.55873662046974",18/12/21 22:53:52
"2","31","359.27271598382106","282.3276282937344",18/12/21 22:53:52
"2","31","359.27271598382106","282.3276282937344",18/12/21 22:53:52
"2","31","358.19480817643733","279.2355182107699",18/12/21 22:53:52
"2","31","358.19480817643733","279.2355182107699",18/12/21 22:53:52
"2","31","360.6591538657062","278.1590469921593",18/12/21 22:53:52
"2","31","361.12907647567266","278.50601703452395",18/12/21 22:53:52
"2","31","359.4581456681136","278.0721061572075",18/12/21 22:53:52
"2","31","357.99926876492356","278.2456591289393",18/12/21 22:53:52
"2","31","358.62034276095545","279.92745741385244",18/12/21 22:53:52
"2","31","358.62034276095545","280.3076434655968",18/12/21 22:53:52
"2","31","359.00755323808113","280.3076434655968",18/12/21 22:53:52
"2","31","360.11631172225265","278.3979120600756",18/12/21 22:53:52
"2","31","358.9283953430282","278.63258110977426",18/12/21 22:53:52
"2","31","357.10942942891654","278.43455414920504",18/12/21 22:53:52
"2","31","357.8057905169758","278.18229740480336",18/12/21 22:53:52
"2","31","357.9430464749265","278.30297510184465",18/12/21 22:53:52
"2","31","358.149497941366","277.9464818393797",18/12/21 22:53:52
"2","31","357.90473591136276","277.7291276317763",18/12/21 22:53:52
"2","31","359.5244641663292","279.1462935172193",18/12/21 22:53:52
"2","31","359.5244641663292","279.1462935172193",18/12/21 22:53:52
"2","31","360.1782409600353","277.7653647639193",18/12/21 22:53:52
"2","31","360.1313139698106","277.55995634193897",18/12/21 22:53:52
"2","31","360.1313139698106","277.55995634193897",18/12/21 22:53:52
"2","31","361.3705340477286","279.2929172327239",18/12/21 22:53:52
"2","31","360.82626432530947","279.29439822511756",18/12/21 22:53:52
"2","31","360.82626432530947","279.29439822511756",18/12/21 22:53:52
"2","31","361.42164543127336","279.09975079378876",18/12/21 22:53:53
"2","31","360.38396283797573","277.98584102734117",18/12/21 22:53:53
"2","31","360.5889270663349","280.3394861933508",18/12/21 22:53:53
"2","31","360.5889270663349","279.87144869969336",18/12/21 22:53:53
"2","31","360.7370085621365","280.7579285714371",18/12/21 22:53:53
"2","31","360.0997570684493","282.37492480718726",18/12/21 22:53:53
"2","31","360.0997570684493","282.37492480718726",18/12/21 22:53:53
"2","31","358.9770500302543","282.0629118779081",18/12/21 22:53:53
"2","31","359.7706111017868","284.0192162213823",18/12/21 22:53:53
"2","31","359.7706111017868","284.0192162213823",18/12/21 22:53:53
"2","31","360.30947420143985","281.84381239683654",18/12/21 22:53:53
"2","31","360.30947420143985","281.84381239683654",18/12/21 22:53:53
"2","31","359.3965567536831","284.3312740562006",18/12/21 22:53:53
"2","31","358.8905506670383","284.5668123554286",18/12/21 22:53:53
"2","31","359.1966440926529","284.34518298420284",18/12/21 22:53:53
"2","31","359.0637111421263","284.7294702338785",18/12/21 22:53:53
"2","31","359.7094669048303","283.7664022333541",18/12/21 22:53:53
"2","31","358.78160003787326","281.89152494202995",18/12/21 22:53:53
"2","31","358.11790242519055","281.8103458776641",18/12/21 22:53:53
"2","31","360.3652937645307","281.45127906634815",18/12/21 22:53:53
"2","31","360.3652937645307","281.8699413589068",18/12/21 22:53:53
"2","31","360.1809217914569","281.8139414020551",18/12/21 22:53:53
"2","31","359.80135105027665","281.8139414020551",18/12/21 22:53:53
"2","31","357.1716641872172","282.1912254747735",18/12/21 22:53:53
"2","31","357.4960561487997","282.89157986343616",18/12/21 22:53:53
"2","31","358.13316000461566","283.5179429189805",18/12/21 22:53:53
"2","31","358.13316000461566","283.5179429189805",18/12/21 22:53:53
"2","31","359.0260111755657","282.44321408956085",18/12/21 22:53:53
"2","31","359.0260111755657","282.44321408956085",18/12/21 22:53:53
"2","31","357.614493843123","281.12871950821346",18/12/21 22:53:53
"2","31","357.614493843123","280.02109512757806",18/12/21 22:53:53
"2","31","357.1983085629415","280.02109512757806",18/12/21 22:53:53
"2","31","358.6339307182391","282.86862564727375",18/12/21 22:53:53
"2","31","356.86356925380505","281.1868705014845",18/12/21 22:53:53
"2","31","357.1019711664787","279.9081013217017",18/12/21 22:53:53
"2","31","356.9006744068118","279.5640931094615",18/12/21 22:53:53
"2","31","357.281081383467","280.4938035546149",18/12/21 22:53:53
"2","31","358.53439501019926","279.29013602624855",18/12/21 22:53:53
"2","31","358.98609621701445","277.6717560608942",18/12/21 22:53:53
"2","31","358.98609621701445","277.6717560608942",18/12/21 22:53:53
"2","31","358.87610604339085","278.4462178406292",18/12/21 22:53:53
"2","31","358.87610604339085","278.4462178406292",18/12/21 22:53:53
"2","31","358.10146244231333","279.428530697822",18/12/21 22:53:53
"2","31","358.7915464754032","280.84144449392346",18/12/21 22:53:53
"2","31","357.47693945617993","280.7339052427487",18/12/21 22:53:53
"2","31","357.47693945617993","280.7339052427487",18/12/21 22:53:53
"2","31","357.5992332546672","280.39803447492545",18/12/21 22:53:53
"2","31","357.5992332546672","281.9775463539204",18/12/21 22:53:53
"2","31","359.5012127774461","281.9775463539204",18/12/21 22:53:53
"2","31","359.00479077048675","281.8397507819174",18/12/21 22:53:54
"2","31","357.540663876873","282.240262782049",18/12/21 22:53:54
"2","31","357.94803873846973","281.2979588009462",18/12/21 22:53:54
"2","31","357.91242791706577","281.21651961452403",18/12/21 22:53:54
"2","31","357.90144618292527","283.25476022006876",18/12/21 22:53:54
"2","31","357.90144618292527","283.2582581903142",18/12/21 22:53:54
"2","31","358.68418308483257","284.2569776848572",18/12/21 22:53:54
"2","31","359.6197343203877","283.37938245973777",18/12/21 22:53:54
"2","31","359.72306965431073","282.5867653653583",18/12/21 22:53:54
"2","31","359.72306965431073","282.0842040863347",18/12/21 22:53:54
"2","31","359.7966451212525","282.0842040863347",18/12/21 22:53:54
"2","31","361.38054333149233","284.8042856862426",18/12/21 22:53:54
"2","31","360.91414682170756","284.8042856862426",18/12/21 22:53:54
"2","31","358.68089172159495","284.2243652818874",18/12/21 22:53:54
"2","31","357.3047796332948","283.5585637954066",18/12/21 22:53:54
"2","31","357.8796077609745","281.9647853451225",18/12/21 22:53:54
"2","31","358.46448409473965","281.4984160427192",18/12/21 22:53:54
"2","31","358.0403629512848","281.60221021350156",18/12/21 22:53:54
"2","31","357.8395458574301","280.6512350254804",18/12/21 22:53:54
"2","31","357.8395458574301","280.6512350254804",18/12/21 22:53:54
"2","31","357.4349763235885","279.0993907185107",18/12/21 22:53:54
"2","31","360.40395697708806","277.96038377161074",18/12/21 22:53:54
"2","31","360.40395697708806","277.96038377161074",18/12/21 22:53:54
"2","31","357.7219523312019","277.75317569349943",18/12/21 22:53:54
"2","31","357.72542440072124","277.7592525976074",18/12/21 22:53:54
"2","31","357.3596124991216","277.62356369207515",18/12/21 22:53:54
"2","31","357.3596124991216","277.62356369207515",18/12/21 22:53:54
"2","31","360.013735510152","279.6038586978024",18/12/21 22:53:54
"2","31","360.013735510152","279.6038586978024",18/12/21 22:53:54
"2","31","359.6099979645145","281.02755672056975",18/12/21 22:53:54
"2","31","359.6099979645145","279.93246961420374",18/12/21 22:53:54
"2","31","360.2442312962197","280.81412649410333",18/12/21 22:53:54
"2","31","360.2442312962197","280.81412649410333",18/12/21 22:53:54
"2","31","360.33682256637763","278.8053514469815",18/12/21 22:53:54
"2","31","360.33682256637763","278.8053514469815",18/12/21 22:53:54
"2","31","360.0916058612557","278.1972141103714",18/12/21 22:53:54
"2","31","360.6042218468532","279.72723971513267",18/12/21 22:53:54
"2","31","360.6042218468532","279.7606770667377",18/12/21 22:53:54
"2","31","360.5943915509739","279.7486250749797",18/12/21 22:53:54
"2","31","360.112803538182","279.38861145543206",18/12/21 22:53:54
"2","31","360.153065246088","279.5770158759006",18/12/21 22:53:54
"2","31","357.7243459326517","279.66653239635633",18/12/21 22:53:54
"2","31","357.82515198249246","281.72507893485056",18/12/21 22:53:54
"2","31","358.03119240341954","282.55079454997224",18/12/21 22:53:54
"2","31","358.06628185635606","282.3023712231128",18/12/21 22:53:54
"2","31","359.20853548366404","282.51280973403544",18/12/21 22:53:54
"2","31","359.7195319459156","281.79232609175494",18/12/21 22:53:54
"2","31","360.4784064887585","281.46625569341666",18/12/21 22:53:54
"2","31","360.4784064887585","281.46625569341666",18/12/21 22:53:54
"2","31","359.9914672464224","281.6445844808983",18/12/21 22:53:54
"2","31","359.88460121674575","281.76105469559633",18/12/21 22:53:55
"2","31","360.75447028773203","283.07436644023534",18/12/21 22:53:55
"2","31","360.75447028773203","283.07436644023534",18/12/21 22:53:55
"2","31","361.12208076541157","284.32614203535115",18/12/21 22:53:55
"2","31","361.1034180093563","284.3404663152367",18/12/21 22:53:55
"2","31","360.16195648213574","284.0151799097855",18/12/21 22:53:55
"2","31","360.55410018162877","284.03926180119197",18/12/21 22:53:55
"2","31","360.2005651131309","281.85598707667526",18/12/21 22:53:55
"2","31","358.57890269104485","282.6794604272542",18/12/21 22:53:55
"2","31","358.6641207196301","280.24292645496945",18/12/21 22:53:55
"2","31","358.62454103964455","280.2905806608211",18/12/21 22:53:55
"2","31","358.62454103964455","280.2905806608211",18/12/21 22:53:55
"2","31","357.9170548536002","279.8385788299025",18/12/21 22:53:55
"2","31","357.9164351282696","279.8074125922747",18/12/21 22:53:55
"2","31","357.9164351282696","279.8074125922747",18/12/21 22:53:55
"2","31","359.15962750413274","278.6145517171147",18/12/21 22:53:55
"2","31","359.45676070023603","279.4637535474696",18/12/21 22:53:55
"2","31","359.200794353235","279.08672416593254",18/12/21 22:53:55
"2","31","360.75221501414563","279.50849001120497",18/12/21 22:53:55
"2","31","361.2994465899633","279.44531225662473",18/12/21 22:53:55
"2","31","361.29575622212303","279.40578873494366",18/12/21 22:53:55
"2","31","361.13408778573074","279.3053961399103",18/12/21 22:53:55
"2","31","360.19145608559637","280.820875341353",18/12/21 22:53:55
"2","31","360.19145608559637","280.820875341353",18/12/21 22:53:55
"2","31","358.4576170446504","280.4753755683217",18/12/21 22:53:55
"2","31","357.5281003965499","279.9898455478855",18/12/21 22:53:55
"2","31","357.0593033459317","280.72708596352186",18/12/21 22:53:55
"2","31","357.0593033459317","280.72708596352186",18/12/21 22:53:55
"2","31","357.23113328902235","280.6596592447395",18/12/21 22:53:55
"2","31","358.3324411852324","279.26684039620085",18/12/21 22:53:55
"2","31","358.0432772392652","279.2642497525613",18/12/21 22:53:55
"2","31","358.35669650998835","279.46162272945276",18/12/21 22:53:55
"2","31","358.4288792729124","279.646253074963",18/12/21 22:53:55
"2","31","358.3286863603664","279.4653753825117",18/12/21 22:53:55
"2","31","358.47864981086684","279.72556347119854",18/12/21 22:53:55
"2","31","358.1493111607583","279.2161330393281",18/12/21 22:53:55
"2","31","358.1181367820241","279.23044474299826",18/12/21 22:53:55
"2","31","359.03766834507775","279.66338007833383",18/12/21 22:53:55
"2","31","359.03766834507775","279.66338007833383",18/12/21 22:53:55
"2","31","359.92857282140676","278.289250283089",18/12/21 22:53:55
"2","31","359.92857282140676","278.289250283089",18/12/21 22:53:55
"2","31","360.03022565557","279.8079601311306",18/12/21 22:53:55
"2","31","360.15622390640544","281.6903944572855",18/12/21 22:53:55
"2","31","360.25372118233366","283.1470195905467",18/12/21 22:53:55
"2","31","360.3411585497582","284.4533480573082",18/12/21 22:53:55
"2","31","360.3411585497582","285.7361865375578",18/12/21 22:53:55
"2","92","358.1477055592953","286.6147102400811",18/12/21 22:53:55
"2","92","356.41757725337163","287.6923429318258",18/12/21 22:53:55
"2","92","356.41757725337163","287.6923429318258",18/12/21 22:53:55
"2","93","354.84773144883644","287.25746791681496",18/12/21 22:53:55
"2","93","352.84559725027884","286.7017957121851",18/12/21 22:53:56
"2","93","351.26445748251876","286.26296627646985",18/12/21 22:53:56
"2","93","349.18770365166887","285.6865841435972",18/12/21 22:53:56
"2","93","347.93215091706185","285.33811811341263",18/12/21 22:53:56
"2","93","347.93215091706185","284.6929343402848",18/12/21 22:53:56
"2","93","343.8443419275918","284.2035878531928",18/12/21 22:53:56
"2","93","343.8443419275918","283.7074267225226",18/12/21 22:53:56
"2","93","342.0566311883594","283.7074267225226",18/12/21 22:53:56
"2","93","337.5605483993974","282.4595841766329",18/12/21 22:53:56
"2","93","336.11729038814934","282.05902243529823",18/12/21 22:53:56
"2","93","336.11729038814934","282.05902243529823",18/12/21 22:53:56
"2","93","334.3151836431169","280.9021575453742",18/12/21 22:53:56
"2","95","330.5","280.5",18/12/21 22:53:56
"3","95","332.66855336184227","281.5163758019427",18/12/21 22:53:56
"3","95","334.69561010610755","282.4664337808183",18/12/21 22:53:56
"3","95","336.74869252226455","283.4286896901694",18/12/21 22:53:56
"3","95","336.74869252226455","284.1879810477715",18/12/21 22:53:56
"3","95","340.4762910828552","285.1757718893005",18/12/21 22:53:56
"3","95","340.8326956812776","285.34281458970696",18/12/21 22:53:56
"3","95","339.189048995586","284.5724564571033",18/12/21 22:53:56
"3","95","337.08424005909467","283.58595692778346",18/12/21 22:53:56
"3","95","334.9351279928941","282.57869303555736",18/12/21 22:53:56
"3","95","334.9351279928941","282.57869303555736",18/12/21 22:53:56
"3","95","330.90588312048874","280.69023270966744",18/12/21 22:53:56
"3","88","330.5","280.5",18/12/21 22:53:56
"1","88","331.25810384512016","284.37102662545465",18/12/21 22:53:56
"1","88","331.25810384512016","284.37102662545465",18/12/21 22:53:56
"1","88","331.6317593575245","288.10695283682696",18/12/21 22:53:56
"1","88","330.42284787302907","287.55360507063045",18/12/21 22:53:56
"1","88","328.7425609985667","286.7844974887456",18/12/21 22:53:56
"1","88","326.85065759861527","285.9185279503226",18/12/21 22:53:56
"1","40","325.31438194850165","285.20555599861734",18/12/21 22:53:56
"1","40","324.8072735424067","283.2648957302802",18/12/21 22:53:56
"1","40","324.41219612003624","281.7529684040986",18/12/21 22:53:56
"1","40","324.41219612003624","281.7529684040986",18/12/21 22:53:56
"1","40","323.97132701856043","280.06580025920425",18/12/21 22:53:56
"1","40","323.97132701856043","280.06580025920425",18/12/21 22:53:56
"1","40","323.97132701856043","280.06580025920425",18/12/21 22:53:56
"1","40","325.4866319241164","283.7139502200151",18/12/21 22:53:56
"1","88","326.8533594512446","285.3300845444749",18/12/21 22:53:56
"1","88","328.5981464975783","285.59658324615236",18/12/21 22:53:56
"1","88","330.4464725368453","285.8788964893509",18/12/21 22:53:56
"1","88","330.4464725368453","285.8788964893509",18/12/21 22:53:56
"1","30","334.38076246522064","284.2552792095857",18/12/21 22:53:56
"1","30","335.83516860985503","283.1040330856604",18/12/21 22:53:56
"1","30","337.40802236338214","281.85902886594516",18/12/21 22:53:56
"1","30","337.40802236338214","281.85902886594516",18/12/21 22:53:56
"1","30","340.98517400780213","282.04449306725337",18/12/21 22:53:56
"1","30","339.6821862934265","284.07701361569144",18/12/21 22:53:56
"1","30","338.9109305183226","283.75306908838036",18/12/21 22:53:56
"1","30","338.9109305183226","283.75306908838036",18/12/21 22:53:57
"1","30","338.9109305183226","283.75306908838036",18/12/21 22:53:57
"1","30","337.3752054641136","284.43813187291323",18/12/21 22:53:57
"1","30","335.29806435093445","285.36471184304673",18/12/21 22:53:57
"1","30","333.246867206746","286.27971861679987",18/12/21 22:53:57
"1","88","331.2754801966834","286.7208462216633",18/12/21 22:53:57
"1","88","329.423047214613","286.46398856618964",18/12/21 22:53:57
"1","88","329.423047214613","286.46398856618964",18/12/21 22:53:57
"1","88","327.4091897573718","286.18474785414674",18/12/21 22:53:57
"1","88","326.07764814814664","286.0001167990848",18/12/21 22:53:57
"1","88","324.08447304841525","285.72374389489846",18/12/21 22:53:57
"1","88","322.42901620244515","285.49419887582934",18/12/21 22:53:57
"1","55","320.6931433252734","284.9996154839497",18/12/21 22:53:57
"1","55","320.6931433252734","284.9996154839497",18/12/21 22:53:57
"1","55","319.1354846889361","284.67065616002907",18/12/21 22:53:57
"1","55","318.9299339707876","284.213703733306",18/12/21 22:53:57
"1","55","320.3772125125164","283.4539138089124",18/12/21 22:53:57
"1","55","320.4745942788446","283.3349495638971",18/12/21 22:53:57
"1","55","320.54344544772295","283.2599922154814",18/12/21 22:53:57
"1","55","319.85353530953347","281.41099115845475",18/12/21 22:53:57
"1","55","320.3766428546072","281.3121555875494",18/12/21 22:53:57
"1","55","321.48691983162735","282.52290645477683",18/12/21 22:53:57
"1","55","321.3072241651266","281.476177685711",18/12/21 22:53:57
"1","55","321.08227582842875","279.2045909100993",18/12/21 22:53:57
"1","55","321.08227582842875","279.2045909100993",18/12/21 22:53:57
"1","55","321.2182579773992","278.74244889793795",18/12/21 22:53:57
"1","55","321.2182579773992","278.74244889793795",18/12/21 22:53:57
"1","55","321.2182579773992","278.74244889793795",18/12/21 22:53:57
"1","55","320.8550593895717","280.73927577130024",18/12/21 22:53:57
"1","55","320.42469658573003","283.10536429919586",18/12/21 22:53:57
"1","55","320.0705883273575","285.0522135163896",18/12/21 22:53:57
"1","88","321.1883347835472","285.4986202350491",18/12/21 22:53:57
"1","88","323.2082177622974","285.9948595072592",18/12/21 22:53:57
"1","88","323.2082177622974","285.9948595072592",18/12/21 22:53:57
"1","88","324.45506131790944","286.3011805887803",18/12/21 22:53:57
"1","88","327.2692486103464","286.99256235126535",18/12/21 22:53:57
"1","88","327.2692486103464","286.99256235126535",18/12/21 22:53:57
"1","88","331.0719399202299","287.9267970509527",18/12/21 22:53:57
"1","30","332.46443576277244","287.6317691494753",18/12/21 22:53:57
"1","30","332.46443576277244","285.8949338374023",18/12/21 22:53:57
"1","30","335.43352660474864","284.0563593878734",18/12/21 22:53:57
"1","30","336.47712649014505","282.7996456609975",18/12/21 22:53:57
"1","30","337.99378192971926","280.9732735652111",18/12/21 22:53:57
"1","30","339.38120129677344","279.30252887856506",18/12/21 22:53:57
"1","30","339.38120129677344","279.30252887856506",18/12/21 22:53:57
"1","30","340.29937474159107","278.19685496282204",18/12/21 22:53:57
"1","30","340.8846748236116","278.27034387087605",18/12/21 22:53:57
"1","30","340.8846748236116","278.27034387087605",18/12/21 22:53:57
"1","30","340.1047724322738","278.2411339266636",18/12/21 22:53:57
"1","30","340.1047724322738","278.2411339266636",18/12/21 22:53:58
"1","30","340.11451888776503","277.5171717565992",18/12/21 22:53:58
"1","30","339.02888483541943","277.4864325550801",18/12/21 22:53:58
"1","30","339.0216203052675","278.82615421294497",18/12/21 22:53:58
"1","30","339.0216203052675","278.82615421294497",18/12/21 22:53:58
"1","30","338.1717297409707","277.8356765228885",18/12/21 22:53:58
"1","30","339.1953520994994","278.65419234756297",18/12/21 22:53:58
"1","30","339.1953520994994","278.6251682334536",18/12/21 22:53:58
"1","30","339.3353743839549","278.342815757559",18/12/21 22:53:58
"1","30","339.3353743839549","278.342815757559",18/12/21 22:53:58
"1","30","339.3280403505029","280.14426451363545",18/12/21 22:53:58
"1","30","338.8257247805104","277.9824754532042",18/12/21 22:53:58
"1","30","338.57490200637113","277.8847609239943",18/12/21 22:53:58
"1","30","338.5171715222133","278.1939055794171",18/12/21 22:53:58
"1","30","338.5171715222133","278.1939055794171",18/12/21 22:53:58
"1","30","338.2718143866402","280.6003722573287",18/12/21 22:53:58
"1","30","337.95236028759507","280.25803114204865",18/12/21 22:53:58
"1","30","338.78980453316177","279.5648520312266",18/12/21 22:53:58
"1","30","340.0540562324774","281.04482390587935",18/12/21 22:53:58
"1","30","339.23948096274296","283.33767483444",18/12/21 22:53:58
"1","30","339.23948096274296","283.33767483444",18/12/21 22:53:58
"1","30","336.9793549189553","283.6342438158841",18/12/21 22:53:58
"1","30","338.0404967131912","281.70866864913876",18/12/21 22:53:58
"1","30","339.0372007604005","283.9980512487812",18/12/21 22:53:58
"1","30","339.0372007604005","283.9980512487812",18/12/21 22:53:58
"1","30","339.2805744503971","283.8427870048639",18/12/21 22:53:58
"1","30","339.2805744503971","283.8427870048639",18/12/21 22:53:58
"1","30","337.04943516765366","282.04945576236327",18/12/21 22:53:58
"1","30","337.0148920629237","281.02871453997045",18/12/21 22:53:58
"1","30","337.0148920629237","281.02871453997045",18/12/21 22:53:58
"1","30","338.8038463488783","283.34216470079025",18/12/21 22:53:58
"1","30","340.25925959131865","283.276713893624",18/12/21 22:53:58
"1","30","340.5488035220428","283.6006255585409",18/12/21 22:53:58
"1","30","341.04223302848084","284.6395534230313",18/12/21 22:53:58
"1","30","341.04223302848084","284.6395534230313",18/12/21 22:53:58
"1","30","341.1281418886877","284.71708770834346",18/12/21 22:53:58
"1","30","339.49780562151705","284.9049620968132",18/12/21 22:53:58
"1","30","338.6297143430608","283.6464478080368",18/12/21 22:53:58
"1","30","338.6297143430608","283.6464478080368",18/12/21 22:53:58
"1","30","338.70707823778844","285.7920417679191",18/12/21 22:53:58
"1","30","339.9860515797082","285.5750727195534",18/12/21 22:53:58
"1","30","338.97350323316425","285.85223123499327",18/12/21 22:53:58
"1","30","337.0608903520218","285.70136593515707",18/12/21 22:53:58
"1","30","337.4983986934361","285.2107144050416",18/12/21 22:53:58
"1","30","337.4983986934361","285.21051852825127",18/12/21 22:53:58
"1","30","337.49827658219306","285.15820060259944",18/12/21 22:53:58
"1","30","337.3554771168708","284.5374307186281",18/12/21 22:53:58
"1","30","336.78640323724323","283.41447890286327",18/12/21 22:53:58
"1","30","336.4862572468035","285.06584753001084",18/12/21 22:53:58
"1","30","336.4862572468035","287.5643757969953",18/12/21 22:53:58
"1","30","334.3763100591196","287.9284965195781",18/12/21 22:53:59
"1","30","333.7152767174921","287.64472580481686",18/12/21 22:53:59
"1","30","335.1238532139201","288.3458315343653",18/12/21 22:53:59
"1","30","335.48677972999826","285.8878518622417",18/12/21 22:53:59
"1","30","336.18354345778715","286.1763652637338",18/12/21 22:53:59
"1","30","336.18354345778715","286.1763652637338",18/12/21 22:53:59
"1","30","336.14648545561823","286.7356061182786",18/12/21 22:53:59
"1","30","336.14648545561823","286.7356061182786",18/12/21 22:53:59
"1","30","334.72853524335744","286.6173508030553",18/12/21 22:53:59
"1","30","336.4376674795546","287.02069021698117",18/12/21 22:53:59
"1","30","335.92184278981944","287.56165538143955",18/12/21 22:53:59
"1","30","336.5489642491269","287.10824171052906",18/12/21 22:53:59
"1","30","336.5489642491269","287.10824171052906",18/12/21 22:53:59
"1","30","335.6630943671682","285.8061744332631",18/12/21 22:53:59
"1","30","335.06441457135503","283.8983776408224",18/12/21 22:53:59
"1","30","332.8611426606141","283.61433909657376",18/12/21 22:53:59
"1","30","333.11534899541374","283.86075429523055",18/12/21 22:53:59
"1","30","332.8936510335456","284.8084184711559",18/12/21 22:53:59
"1","30","332.8936510335456","284.8084184711559",18/12/21 22:53:59
"1","30","333.54362911466905","288.5224451769669",18/12/21 22:53:59
"1","30","334.9050755131165","288.5224451769669",18/12/21 22:53:59
"1","30","333.93947082134497","288.3721795735274",18/12/21 22:53:59
"1","30","333.75129537006194","288.3721795735274",18/12/21 22:53:59
"1","30","335.78776535838693","287.83590419168166",18/12/21 22:53:59
"1","30","335.78776535838693","287.83590419168166",18/12/21 22:53:59
"1","30","335.3718455508973","287.5715791556662",18/12/21 22:53:59
"1","30","333.6529011311115","286.5984804682589",18/12/21 22:53:59
"1","30","335.9074130524678","286.8991070880935",18/12/21 22:53:59
"1","30","335.87016250657115","286.85417620927535",18/12/21 22:53:59
"1","30","335.87016250657115","287.06438188585815",18/12/21 22:53:59
"1","30","336.41428603095846","287.06438188585815",18/12/21 22:53:59
"1","30","335.6919567966767","287.2770191651807",18/12/21 22:53:59
"1","30","335.6919567966767","287.2770191651807",18/12/21 22:53:59
"1","30","334.5854533642591","287.3141546570636",18/12/21 22:53:59
"1","30","334.61801161287525","287.9776083629185",18/12/21 22:53:59
"1","30","334.4432693082073","288.0932553557552",18/12/21 22:53:59
"1","30","334.62397923127156","286.4828580520071",18/12/21 22:53:59
"1","30","334.62397923127156","286.4229411675119",18/12/21 22:53:59
"1","30","335.97216193153906","284.7195656018871",18/12/21 22:53:59
"1","30","334.1507746104584","283.62877813810957",18/12/21 22:53:59
"1","30","335.2603760849691","282.8867384663967",18/12/21 22:53:59
"1","30","335.48650388937244","282.89727126945144",18/12/21 22:53:59
"1","30","337.781464343125","281.9193528251673",18/12/21 22:53:59
"1","30","337.83069563485856","280.81718890885554",18/12/21 22:53:59
"1","30","337.62593124374706","281.3634341056505",18/12/21 22:53:59
"1","30","338.36941741310847","281.7459719179424",18/12/21 22:53:59
"1","30","337.73336223149323","281.328457055416",18/12/21 22:53:59
"1","30","336.8581683088894","279.10804591975557",18/12/21 22:53:59
"1","30","337.7003763228197","277.10088198230454",18/12/21 22:53:59
"1","30","340.024069857028","277.363642777301",18/12/21 22:53:59
"1","30","340.024069857028","277.363642777301",18/12/21 22:54:00
"1","30","340.39789909320336","275.7853503030617",18/12/21 22:54:00
"1","30","338.5359566694891","274.4962162226847",18/12/21 22:54:00
"1","30","338.7069669045151","274.313085968134",18/12/21 22:54:00
"1","30","338.77188350889105","274.2028013298937",18/12/21 22:54:00
"1","30","338.00714671575923","274.59525402018454",18/12/21 22:54:00
"1","30","340.0110136820221","275.6548489053413",18/12/21 22:54:00
"1","30","338.7173606066471","274.9199526606116",18/12/21 22:54:00
"1","30","338.7173606066471","274.96938003675825",18/12/21 22:54:00
"1","30","336.66529667870253","275.2342072455723",18/12/21 22:54:00
"1","30","335.8672162876338","275.1153491485072",18/12/21 22:54:00
"1","30","336.4393281279492","275.7683275703432",18/12/21 22:54:00
"1","30","335.490592683217","276.9918698138981",18/12/21 22:54:00
"1","30","335.64912444625344","278.79779436389344",18/12/21 22:54:00
"1","30","336.28041076001824","278.12834488897073",18/12/21 22:54:00
"1","30","336.28041076001824","278.12834488897073",18/12/21 22:54:00
"1","30","336.37137121368676","276.83621132612257",18/12/21 22:54:00
"1","30","336.9479377297635","276.6211053201534",18/12/21 22:54:00
"1","30","337.13641599801565","277.1055258993581",18/12/21 22:54:00
"1","30","337.1875631232638","277.18907659578525",18/12/21 22:54:00
"1","30","335.4650054726629","277.951780920996",18/12/21 22:54:00
"1","30","335.4650054726629","277.951780920996",18/12/21 22:54:00
"1","30","334.2406727023797","279.27809806022157",18/12/21 22:54:00
"1","30","334.2406727023797","279.27809806022157",18/12/21 22:54:00
"1","30","335.48915369362237","277.6931296482657",18/12/21 22:54:00
"1","30","334.34029007138724","279.54614928830387",18/12/21 22:54:00
"1","30","336.82808302573716","279.64718796488546",18/12/21 22:54:00
"1","30","337.6648315782777","280.53509584953963",18/12/21 22:54:00
"1","30","339.02412108074896","279.0839170673809",18/12/21 22:54:00
"1","30","339.0632736597949","278.94453414849147",18/12/21 22:54:00
"1","30","338.8859650659636","277.0479619021622",18/12/21 22:54:00
"1","30","340.3503900755024","276.60420988594547",18/12/21 22:54:00
"1","30","339.6945484548996","276.2754084780902",18/12/21 22:54:00
"1","30","339.55447245813554","274.8437827883629",18/12/21 22:54:00
"1","30","339.840094308271","275.20680801516073",18/12/21 22:54:00
"1","30","339.07527587218306","275.5998249724859",18/12/21 22:54:00
"1","30","337.3381989834851","276.4279935412308",18/12/21 22:54:00
"1","30","337.50082200232816","276.6370485127387",18/12/21 22:54:00
"1","30","337.8976516880444","276.3877928774825",18/12/21 22:54:00
"1","30","337.2981419689753","275.0699113826848",18/12/21 22:54:00
"1","30","336.55309836484315","276.0864574458083",18/12/21 22:54:00
"1","30","335.9355041549262","275.06970745935615",18/12/21 22:54:00
"1","30","335.9819667121657","275.5334812633119",18/12/21 22:54:00
"1","30","336.5657960090192","277.85949456156334",18/12/21 22:54:00
"1","30","337.11858905878177","278.6458619893251",18/12/21 22:54:00
"1","30","335.4528630794398","278.42502778764464",18/12/21 22:54:00
"1","30","335.45283673687175","278.424767065833",18/12/21 22:54:00
"1","30","337.0820742224662","277.7364359943812",18/12/21 22:54:00
"1","30","336.48841777338015","278.11643779542834",18/12/21 22:54:00
"1","30","338.01216739423165","280.00841777157245",18/12/21 22:54:00
"1","30","337.94677429768024","278.8240523471804",18/12/21 22:54:01
"1","30","336.9333249336255","278.17144990364415",18/12/21 22:54:01
"1","30","335.22385118847706","276.4386036450114",18/12/21 22:54:01
"1","30","335.22385118847706","276.4386036450114",18/12/21 22:54:01
"1","30","336.3447803395635","276.6182127083881",18/12/21 22:54:01
"1","30","336.1326498720779","276.4522480271261",18/12/21 22:54:01
"1","30","335.22341201502167","278.14511188551836",18/12/21 22:54:01
"1","30","335.0351257539329","279.04192787091296",18/12/21 22:54:01
"1","30","333.41630417221126","278.60080411511126",18/12/21 22:54:01
"1","30","332.69934287213755","278.2940990175411",18/12/21 22:54:01
"1","30","332.69934287213755","278.2940990175411",18/12/21 22:54:01
"1","30","332.69934287213755","278.2940990175411",18/12/21 22:54:01
