floorId	partitionId	location_x	location_y	timeStamp
5	63	312.76903148299783	281.4722161281895	18/12/03 04:19:48
5	63	312.8974859542085	281.6297575306402	18/12/03 04:19:48
5	63	313.0721165467953	281.8439310678292	18/12/03 04:19:48
5	63	313.2085005830481	282.0111975875591	18/12/03 04:19:48
5	63	313.36888109009425	282.2078942830317	18/12/03 04:19:49
5	63	313.5159258040175	282.3882354594509	18/12/03 04:19:49
5	63	313.63350377668854	282.5324375143683	18/12/03 04:19:49
5	63	313.7981892001962	282.7344139215581	18/12/03 04:19:49
5	63	313.97462151597216	282.9507971599383	18/12/03 04:19:49
5	63	314.10669981876356	283.11278296595157	18/12/03 04:19:49
5	63	314.2944372566539	283.34303123196366	18/12/03 04:19:49
5	63	314.4010645716729	283.4738029878187	18/12/03 04:19:49
5	63	314.5035916637687	283.59954607582284	18/12/03 04:19:49
5	63	314.61665389779836	283.73820985875983	18/12/03 04:19:49
5	63	314.75148951610703	283.9035773403932	18/12/03 04:19:50
5	63	314.8694633021271	284.0482648357125	18/12/03 04:19:50
5	63	315.0327180991054	284.24848666863414	18/12/03 04:19:50
5	63	315.1541670969048	284.39743629459286	18/12/03 04:19:50
5	63	315.298914344983	284.57495977235277	18/12/03 04:19:50
5	63	315.40852315834667	284.7093881500926	18/12/03 04:19:50
5	63	315.53112694417376	284.85975405159	18/12/03 04:19:50
5	63	315.67424721321055	285.0352821409642	18/12/03 04:19:50
5	63	315.8038458339263	285.1942267714688	18/12/03 04:19:50
5	21	315.9829014390842	285.2223468589522	18/12/03 04:19:50
5	21	316.2646770595047	285.2323030152476	18/12/03 04:19:51
5	21	316.4401307841393	285.23850243272193	18/12/03 04:19:51
5	21	316.7250687050999	285.24857032458334	18/12/03 04:19:51
5	21	316.8786858274558	285.25399817557184	18/12/03 04:19:51
5	21	317.1484318038256	285.263529280842	18/12/03 04:19:51
5	21	317.43848085894683	285.2737777676409	18/12/03 04:19:51
5	21	317.43848085894683	285.2737777676409	18/12/03 04:19:51
5	21	317.5996866283538	285.27947375309753	18/12/03 04:19:51
5	21	317.8927485499372	285.2898286954136	18/12/03 04:19:51
5	21	318.06066114451085	285.2957616573677	18/12/03 04:19:51
5	21	318.3322879160864	285.30535921796496	18/12/03 04:19:52
5	21	318.5628014651054	285.31350409905446	18/12/03 04:19:52
5	21	318.83530514253425	285.32313264392116	18/12/03 04:19:52
5	21	319.1190413890812	285.33315807626013	18/12/03 04:19:52
5	21	319.38594345800215	285.3425886959489	18/12/03 04:19:52
5	21	319.618628345289	285.35081029830735	18/12/03 04:19:52
5	21	319.8079444020564	285.3574995223346	18/12/03 04:19:52
5	21	320.06877601519136	285.36671565076784	18/12/03 04:19:52
5	21	320.32409033218335	285.3757368330853	18/12/03 04:19:52
5	21	320.61048704175295	285.3858562692477	18/12/03 04:19:52
5	21	320.8797054714615	285.3953687343779	18/12/03 04:19:53
5	21	321.0461557263054	285.40125002655697	18/12/03 04:19:53
5	21	321.3180900913986	285.4108584555507	18/12/03 04:19:53
5	21	321.6149014191131	285.42134587800604	18/12/03 04:19:53
5	21	321.7779217123852	285.4271059771825	18/12/03 04:19:53
5	21	322.0688497557609	285.4373855218296	18/12/03 04:19:53
5	21	322.2719013472113	285.4445600721952	18/12/03 04:19:53
5	21	322.53037615135725	285.45369292600515	18/12/03 04:19:53
5	21	322.713450059041	285.460161592229	18/12/03 04:19:53
5	21	322.95146854996324	285.4685716501796	18/12/03 04:19:53
5	21	323.2022092988458	285.4774312317211	18/12/03 04:19:54
5	21	323.35559877475066	285.48285103913344	18/12/03 04:19:54
5	21	323.61220377646174	285.4919178260308	18/12/03 04:19:54
5	21	323.85227012505067	285.5004002422322	18/12/03 04:19:54
5	21	324.05142386187447	285.50743706723387	18/12/03 04:19:54
5	21	324.2091670499994	285.51301070711503	18/12/03 04:19:54
5	21	324.47174136022073	285.5222884113672	18/12/03 04:19:54
5	21	324.6874759434838	285.5299110979079	18/12/03 04:19:54
5	21	324.83908422849777	285.53526796937547	18/12/03 04:19:54
5	21	325.03683746731906	285.542255309695	18/12/03 04:19:54
5	21	325.26856001915377	285.55044290924604	18/12/03 04:19:55
5	21	325.4249999479539	285.5559705002408	18/12/03 04:19:55
5	21	325.67780631352326	285.5649030675237	18/12/03 04:19:55
5	21	325.87893610723785	285.5720097137939	18/12/03 04:19:55
5	21	326.15133012706747	285.5816343840592	18/12/03 04:19:55
5	21	326.40148173818113	285.5904731492231	18/12/03 04:19:55
5	21	326.58532666219884	285.59696905825496	18/12/03 04:19:55
5	21	326.8240318129729	285.6054033783927	18/12/03 04:19:55
5	21	327.11604329966315	285.61572120502797	18/12/03 04:19:55
5	21	327.399698086686	285.62574375910606	18/12/03 04:19:55
5	21	327.57163122160324	285.6318187813562	18/12/03 04:19:56
5	21	327.775283228626	285.63901454658514	18/12/03 04:19:56
5	21	328.00450958856436	285.6471139466084	18/12/03 04:19:56
5	21	328.255183707313	285.65597117386517	18/12/03 04:19:56
5	21	328.4231157912437	285.66190482444904	18/12/03 04:19:56
5	21	328.61635467009575	285.66873265603124	18/12/03 04:19:56
5	21	328.9103824628438	285.6791217260843	18/12/03 04:19:56
5	21	329.1571794716751	285.68784196096306	18/12/03 04:19:56
5	21	329.37006923325185	285.69536412961907	18/12/03 04:19:56
5	21	329.65318956638805	285.70536779949975	18/12/03 04:19:56
5	21	329.91265878786754	285.7145357896866	18/12/03 04:19:57
5	21	330.17570644496897	285.72383021900356	18/12/03 04:19:57
5	21	330.4147874328956	285.7322778188332	18/12/03 04:19:57
5	21	330.713919507196	285.7428472416962	18/12/03 04:19:57
5	21	331.0070984785535	285.753206319806	18/12/03 04:19:57
5	21	331.1636211639748	285.75873683489283	18/12/03 04:19:57
5	21	331.3428162191271	285.76506844716573	18/12/03 04:19:57
5	21	331.51848097264775	285.7712753210572	18/12/03 04:19:57
5	21	331.7584305842399	285.77975361251646	18/12/03 04:19:57
5	21	332.0516657291503	285.7906395342568	18/12/03 04:19:57
5	21	332.26359708812646	285.80229926229305	18/12/03 04:19:58
5	21	332.4601390998876	285.8131123218417	18/12/03 04:19:58
5	21	332.72145834974225	285.82748920027376	18/12/03 04:19:58
5	21	332.9144111207947	285.8381047922521	18/12/03 04:19:58
5	21	333.1436735200698	285.8507180139924	18/12/03 04:19:58
5	21	333.35739108928027	285.8624760131181	18/12/03 04:19:58
5	21	333.6048632078163	285.87609107043016	18/12/03 04:19:58
5	21	333.8444408443578	285.8892718007342	18/12/03 04:19:58
5	21	334.1245190032535	285.9046807292542	18/12/03 04:19:58
5	21	334.35640549165004	285.9174383192732	18/12/03 04:19:58
5	21	334.63867994739456	285.9329680804254	18/12/03 04:19:59
5	21	334.84821678623484	285.94449607027195	18/12/03 04:19:59
5	21	335.0371392394404	285.9548899281463	18/12/03 04:19:59
5	21	335.3047727982689	285.96961419794945	18/12/03 04:19:59
5	21	335.58552678721264	285.9850603082938	18/12/03 04:19:59
5	21	335.8410969220078	285.99912089036286	18/12/03 04:19:59
5	21	335.9986625021171	286.00778960187785	18/12/03 04:19:59
5	21	336.2732289738538	286.0228952964942	18/12/03 04:19:59
5	21	336.45020938182773	286.03263214447503	18/12/03 04:19:59
5	21	336.72561407307535	286.0477839550205	18/12/03 04:19:59
5	21	336.9903377584365	286.06234813368184	18/12/03 04:20:00
5	21	337.27076314133757	286.07777616526187	18/12/03 04:20:00
5	21	337.4335044204503	286.086729625778	18/12/03 04:20:00
5	21	337.72877324924536	286.1029742922491	18/12/03 04:20:00
5	21	337.9637006125673	286.1158991806556	18/12/03 04:20:00
5	21	338.19667593635455	286.12871667461985	18/12/03 04:20:00
5	21	338.48495030295123	286.14457653004933	18/12/03 04:20:00
5	21	338.75431365686273	286.1593959671761	18/12/03 04:20:00
5	21	338.9117871161797	286.1680596105248	18/12/03 04:20:00
5	21	339.14149896485816	286.1806975594118	18/12/03 04:20:00
5	21	339.3800287990698	286.1938206432672	18/12/03 04:20:01
5	21	339.5838721977647	286.2050353997914	18/12/03 04:20:01
5	21	339.879477275752	286.22129856552635	18/12/03 04:20:01
5	21	340.0302152719454	286.22959164706384	18/12/03 04:20:01
5	21	340.2830813739441	286.2435034626306	18/12/03 04:20:01
5	21	340.5604759677576	286.25876475071095	18/12/03 04:20:01
5	21	340.8334414426642	286.27378236403666	18/12/03 04:20:01
5	21	341.0178841405028	286.283929761314	18/12/03 04:20:01
5	21	341.28126116026675	286.2984198511067	18/12/03 04:20:01
5	60	341.1377880421881	286.20839217810607	18/12/03 04:20:01
5	60	341.1377880421881	286.20839217810607	18/12/03 04:20:02
5	60	340.98064117985433	286.1240648803443	18/12/03 04:20:02
5	60	340.8316622860932	286.0441206336197	18/12/03 04:20:02
5	60	340.61353319026074	285.92706938015147	18/12/03 04:20:02
5	60	340.4395907211465	285.8337293148865	18/12/03 04:20:02
5	60	340.17778351090277	285.6932397483338	18/12/03 04:20:02
5	60	340.0168670579836	285.60688963329767	18/12/03 04:20:02
5	60	339.847861753114	285.5161989223576	18/12/03 04:20:02
5	60	339.70686586816987	285.44053847456826	18/12/03 04:20:02
5	60	339.4844408185517	285.3211819496573	18/12/03 04:20:02
5	60	339.28574273470537	285.2145576605537	18/12/03 04:20:03
5	60	339.07443142963643	285.10116493302263	18/12/03 04:20:03
5	60	338.88948902981883	285.00192214454705	18/12/03 04:20:03
5	60	338.700075067659	284.9002798505166	18/12/03 04:20:03
5	60	338.5601238942924	284.8251800101932	18/12/03 04:20:03
5	60	338.3772406475178	284.72704219326596	18/12/03 04:20:03
5	60	338.1289067722843	284.59378261474086	18/12/03 04:20:03
5	60	337.88797330732746	284.4644942042791	18/12/03 04:20:03
5	60	337.739109990927	284.3846119780515	18/12/03 04:20:03
5	60	337.57884221598357	284.2986099530759	18/12/03 04:20:03
5	60	337.32476798148963	284.1622700140687	18/12/03 04:20:04
5	60	337.1470080357884	284.0668814352028	18/12/03 04:20:04
5	60	336.9932384319893	283.98436642361617	18/12/03 04:20:04
5	60	336.8381533474013	283.90114550585656	18/12/03 04:20:04
5	60	336.6174965910204	283.78273787288106	18/12/03 04:20:04
5	60	336.39002593149485	283.6606738001213	18/12/03 04:20:04
5	60	336.12928684820673	283.5207574060678	18/12/03 04:20:04
5	60	335.9774036048928	283.43925464302345	18/12/03 04:20:04
5	60	335.81958598964513	283.3545674094675	18/12/03 04:20:04
5	60	335.660347370649	283.2691176445798	18/12/03 04:20:04
5	60	335.4530728156141	283.1578910959788	18/12/03 04:20:05
5	60	335.21394559161547	283.0295719407529	18/12/03 04:20:05
5	60	335.0689502976938	282.9517653517889	18/12/03 04:20:05
5	60	334.9254569002872	282.87476470239477	18/12/03 04:20:05
5	60	334.9254569002872	282.87476470239477	18/12/03 04:20:05
5	60	334.77643344379334	282.794796542658	18/12/03 04:20:05
5	60	334.5947115841587	282.6972819430048	18/12/03 04:20:05
5	60	334.41619825191026	282.60148908593214	18/12/03 04:20:05
5	60	334.1684982912737	282.46856967522314	18/12/03 04:20:05
5	60	334.0110731653919	282.38409305718403	18/12/03 04:20:05
5	60	333.84806522533046	282.2966206196504	18/12/03 04:20:06
5	60	333.6625477218533	282.1970692221653	18/12/03 04:20:06
5	60	333.41191532325615	282.0625762224874	18/12/03 04:20:06
5	60	333.27578940481794	281.9895290697364	18/12/03 04:20:06
5	60	333.0214008862568	281.85302048131604	18/12/03 04:20:06
5	60	332.8344293557637	281.75268883173226	18/12/03 04:20:06
5	60	332.63659149138624	281.6465261489389	18/12/03 04:20:06
5	60	332.46492686558634	281.55440840761077	18/12/03 04:20:06
5	60	332.20583681633553	281.415376909267	18/12/03 04:20:06
5	60	332.00743450702134	281.3089113370902	18/12/03 04:20:06
5	60	331.8711305754542	281.2357686598985	18/12/03 04:20:07
5	60	331.73480964354223	281.1626168600739	18/12/03 04:20:07
5	60	331.59284974683834	281.0864391095175	18/12/03 04:20:07
5	60	331.33738109094026	280.94935090365215	18/12/03 04:20:07
5	60	331.17609094627454	280.8628002601759	18/12/03 04:20:07
5	60	331.17609094627454	280.8628002601759	18/12/03 04:20:07
5	60	330.94330382323477	280.73788329557254	18/12/03 04:20:07
5	60	330.8110667794701	280.66692296967693	18/12/03 04:20:07
5	60	330.5781782952156	280.5419516131677	18/12/03 04:20:07
2	36	330.527874651923	280.6346363110418	18/12/03 04:20:07
2	36	330.5813485935756	280.8929187915136	18/12/03 04:20:08
2	36	330.64207666562044	281.1862391751855	18/12/03 04:20:08
2	36	330.7015474571998	281.47348681562556	18/12/03 04:20:08
2	36	330.7585704471158	281.7489114210361	18/12/03 04:20:08
2	36	330.81859999981486	282.03885791260853	18/12/03 04:20:08
2	36	330.866465224712	282.2700499405888	18/12/03 04:20:08
2	36	330.9241049181238	282.5484532624302	18/12/03 04:20:08
2	36	330.9661702777261	282.75163157852666	18/12/03 04:20:08
2	36	331.01892965631805	283.00646267475287	18/12/03 04:20:08
2	36	331.07604288743465	283.28232315080277	18/12/03 04:20:08
2	36	331.12581525127814	283.5227267790961	18/12/03 04:20:09
2	36	331.18039458031626	283.7863483497301	18/12/03 04:20:09
2	36	331.23928299926615	284.0707830939697	18/12/03 04:20:09
2	36	331.2960408558672	284.34492708889746	18/12/03 04:20:09
2	36	331.349398776485	284.6026491805192	18/12/03 04:20:09
2	36	331.39154262706734	284.80620661295535	18/12/03 04:20:09
2	36	331.42751584128905	284.9799594860855	18/12/03 04:20:09
2	36	331.46126325084475	285.14296158355893	18/12/03 04:20:09
2	36	331.4991706606136	285.32605674207485	18/12/03 04:20:09
2	36	331.5416451509164	285.5312111850267	18/12/03 04:20:09
2	36	331.59256120952244	285.7771389305078	18/12/03 04:20:10
2	36	331.62971612404266	285.95659948993955	18/12/03 04:20:10
2	36	331.6679741011468	286.14138791059656	18/12/03 04:20:10
2	36	331.7166304393624	286.3764010653522	18/12/03 04:20:10
2	36	331.7598941887626	286.58536767907555	18/12/03 04:20:10
2	36	331.80776257068817	286.8165749557007	18/12/03 04:20:10
2	36	331.85168655789516	287.0287305592979	18/12/03 04:20:10
2	36	331.8980305146398	287.25257476701773	18/12/03 04:20:10
2	36	331.94897063048967	287.4986187104902	18/12/03 04:20:10
2	36	331.9881829326506	287.68801658081975	18/12/03 04:20:10
2	60	332.0147167981058	287.85786616588933	18/12/03 04:20:11
2	60	331.8359806133434	287.71917754580653	18/12/03 04:20:11
2	60	331.65258977579424	287.57687719275077	18/12/03 04:20:11
2	60	331.50208041358815	287.46009090360815	18/12/03 04:20:11
2	60	331.34157855562603	287.3355510336815	18/12/03 04:20:11
2	60	331.1092776755088	287.1552994044419	18/12/03 04:20:11
