floorId	partitionId	location_x	location_y	timeStamp
3	58	324.1710724775772	295.4361997191981	18/12/03 04:11:01
3	58	323.9970783665631	295.2715812080831	18/12/03 04:11:01
3	58	323.81981965770586	295.1038740106144	18/12/03 04:11:01
3	58	323.6882811380987	294.9794233891204	18/12/03 04:11:01
3	58	323.520408222239	294.8205962351191	18/12/03 04:11:01
3	58	323.3481684732114	294.6576375529288	18/12/03 04:11:01
3	58	323.1324801702612	294.4535715239717	18/12/03 04:11:01
3	58	322.931411798747	294.26333763755986	18/12/03 04:11:01
3	58	322.72654697045533	294.06951186485617	18/12/03 04:11:01
3	58	322.5873446200019	293.9378103748357	18/12/03 04:11:01
3	58	322.5873446200019	293.9378103748357	18/12/03 04:11:02
3	58	322.44781130819206	293.80579575717303	18/12/03 04:11:02
3	58	322.2505453336507	293.6191593771635	18/12/03 04:11:02
3	58	322.08153440992896	293.4592555363779	18/12/03 04:11:02
3	58	321.88353884782754	293.2719288823289	18/12/03 04:11:02
3	58	321.7025732322522	293.10071452326014	18/12/03 04:11:02
3	58	321.555849712727	292.9618971392176	18/12/03 04:11:02
3	58	321.41563268729533	292.8292356495557	18/12/03 04:11:02
3	58	321.2019101578003	292.62702946917324	18/12/03 04:11:02
3	58	321.032437158604	292.46668845165675	18/12/03 04:11:02
3	58	320.84593974452	292.2902403727283	18/12/03 04:11:03
3	58	320.6481239890885	292.103083836542	18/12/03 04:11:03
3	58	320.4962947345063	291.9594358378405	18/12/03 04:11:03
3	58	320.2801253351858	291.75491463618977	18/12/03 04:11:03
3	58	320.1367156249866	291.6192324982437	18/12/03 04:11:03
3	58	320.02403358686576	291.51262228461786	18/12/03 04:11:03
3	58	319.903452643973	291.39853879540004	18/12/03 04:11:03
3	58	319.7147154543593	291.21997163030954	18/12/03 04:11:03
3	58	319.5651455720599	291.0784612585604	18/12/03 04:11:03
3	58	319.4313018459865	290.9518296456865	18/12/03 04:11:03
3	58	319.27757712589647	290.80638831784324	18/12/03 04:11:04
3	58	319.0698842978419	290.60988693096107	18/12/03 04:11:04
3	58	318.9135227319119	290.46195084261313	18/12/03 04:11:04
3	58	318.78694386068577	290.34219262092154	18/12/03 04:11:04
3	58	318.6206196472656	290.1848307181766	18/12/03 04:11:04
3	58	318.47432442830336	290.04641855590035	18/12/03 04:11:04
3	58	318.2850995160968	289.8673899489449	18/12/03 04:11:04
3	58	318.111818779566	289.7034463724276	18/12/03 04:11:04
3	58	318.00173633178883	289.59929567130706	18/12/03 04:11:04
3	58	317.7940906027114	289.4028388454933	18/12/03 04:11:04
3	58	317.67264615189146	289.28793837811185	18/12/03 04:11:05
3	58	317.47843805715684	289.1041951053346	18/12/03 04:11:05
3	58	317.32726532928234	288.9611682566738	18/12/03 04:11:05
3	58	317.1978945618092	288.83876857889675	18/12/03 04:11:05
3	56	317.34545990876086	288.8227091437005	18/12/03 04:11:05
3	56	317.5642976304222	288.8075439803203	18/12/03 04:11:05
3	56	317.8056143318368	288.7908210535071	18/12/03 04:11:05
3	56	318.08689768188646	288.7713284910401	18/12/03 04:11:05
3	56	318.29400789422846	288.7569760284755	18/12/03 04:11:05
3	56	318.48328883573777	288.743859110693	18/12/03 04:11:05
3	56	318.74368372074895	288.72581409110234	18/12/03 04:11:06
3	56	318.93793842395996	288.71235249824167	18/12/03 04:11:06
3	56	319.2173518986354	288.69298951565395	18/12/03 04:11:06
3	56	319.46657466979565	288.67571870871075	18/12/03 04:11:06
3	56	319.70815063626344	288.6589778151738	18/12/03 04:11:06
3	56	319.9095672556102	288.6450199110397	18/12/03 04:11:06
3	56	320.126129557802	288.63001243120584	18/12/03 04:11:06
3	56	320.41465685421485	288.6100178728796	18/12/03 04:11:06
3	56	320.57689008588767	288.5987753254553	18/12/03 04:11:06
3	56	320.7938048052014	288.5837434235831	18/12/03 04:11:06
3	56	321.0728241050033	288.5644077567904	18/12/03 04:11:07
3	56	321.2431328944726	288.55260558393934	18/12/03 04:11:07
3	56	321.2431328944726	288.55260558393934	18/12/03 04:11:07
3	56	321.46225705980277	288.53742057039346	18/12/03 04:11:07
3	56	321.74120047619334	288.5180901622204	18/12/03 04:11:07
3	56	321.89405746910734	288.5074973756855	18/12/03 04:11:07
3	56	322.1781751158771	288.4878084002212	18/12/03 04:11:07
3	56	322.1781751158771	288.4878084002212	18/12/03 04:11:07
3	56	322.41468392230536	288.4714186541431	18/12/03 04:11:07
3	56	322.6751893912992	288.4533659712294	18/12/03 04:11:07
3	56	322.94044348486784	288.43498421494127	18/12/03 04:11:08
3	56	323.0995023698994	288.423961645522	18/12/03 04:11:08
3	56	323.2528669534186	288.4133336836325	18/12/03 04:11:08
3	56	323.4446447625952	288.4000437362378	18/12/03 04:11:08
3	56	323.7432710788547	288.379349329253	18/12/03 04:11:08
3	56	323.9387306616061	288.3658042398409	18/12/03 04:11:08
3	56	324.2019830086303	288.34756120192895	18/12/03 04:11:08
3	56	324.36756015982314	288.33608692532437	18/12/03 04:11:08
3	56	324.612587818482	288.3191068341042	18/12/03 04:11:08
3	56	324.8879510286832	288.30002452946366	18/12/03 04:11:08
3	56	324.8879510286832	288.30002452946366	18/12/03 04:11:09
3	56	325.05569409505244	288.2884001578148	18/12/03 04:11:09
3	56	325.23063415701944	288.2762770439324	18/12/03 04:11:09
3	56	325.40816324777984	288.2639745137942	18/12/03 04:11:09
3	56	325.6608530993037	288.2464634427879	18/12/03 04:11:09
3	56	325.89226888881115	288.23042663601626	18/12/03 04:11:09
3	56	326.08558251778436	288.21703025835006	18/12/03 04:11:09
3	56	326.2876212673255	288.20302924142004	18/12/03 04:11:09
3	56	326.4703999839029	288.19036291918695	18/12/03 04:11:09
3	56	326.682376005093	288.1756732625335	18/12/03 04:11:09
3	56	326.8563693113225	288.16361575756594	18/12/03 04:11:10
3	56	327.0164025528812	288.1525256665338	18/12/03 04:11:10
3	56	327.249656082504	288.1363615068136	18/12/03 04:11:10
3	56	327.53495676527535	288.1165905485261	18/12/03 04:11:10
3	56	327.7171406263949	288.103965448986	18/12/03 04:11:10
3	56	327.9646244258352	288.0868151504727	18/12/03 04:11:10
3	56	328.1695910069481	288.07261123870444	18/12/03 04:11:10
3	56	328.4437142923233	288.0536148592071	18/12/03 04:11:10
3	56	328.60454154617514	288.0424697441779	18/12/03 04:11:10
3	56	328.8479447698275	288.0256022241456	18/12/03 04:11:10
3	56	329.12465802364	288.0064263632763	18/12/03 04:11:11
3	56	329.28671715725403	287.99519588061617	18/12/03 04:11:11
3	56	329.57898640370104	287.97494201012387	18/12/03 04:11:11
3	56	329.8098969239227	287.9589402178425	18/12/03 04:11:11
3	56	330.033134609679	287.943470142796	18/12/03 04:11:11
3	56	330.26371127125987	287.9274914864749	18/12/03 04:11:11
3	56	330.54276178114435	287.90815365686495	18/12/03 04:11:11
3	56	330.74466274448514	287.89416218833554	18/12/03 04:11:11
3	56	330.9465170160607	287.88017395548343	18/12/03 04:11:11
3	56	331.19134156260685	287.86320793966286	18/12/03 04:11:11
3	56	331.4681510505598	287.84402540989555	18/12/03 04:11:12
3	56	331.6231804027286	287.8332820817503	18/12/03 04:11:12
3	56	331.7800627007048	287.82241034692237	18/12/03 04:11:12
3	56	331.9325237908712	287.8118449959219	18/12/03 04:11:12
3	12	332.11940040563536	287.79889560698723	18/12/03 04:11:12
3	12	332.3047332842	287.786054075608	18/12/03 04:11:12
3	12	332.54102728730766	287.76968149844225	18/12/03 04:11:12
3	12	332.75445822005616	287.75489308075066	18/12/03 04:11:12
3	12	332.91735777957405	287.7436059318032	18/12/03 04:11:12
3	12	333.09604982456415	287.73122453719725	18/12/03 04:11:12
3	12	333.3682909848551	287.7123612171556	18/12/03 04:11:13
3	12	333.5762537750264	287.697951681641	18/12/03 04:11:13
3	12	333.8362769755611	287.67993493191545	18/12/03 04:11:13
3	12	334.0901452622294	287.6623446500685	18/12/03 04:11:13
3	12	334.2964134285618	287.6480525333593	18/12/03 04:11:13
3	12	334.45189433547904	287.6372794154942	18/12/03 04:11:13
3	12	334.6522067481998	287.623399967047	18/12/03 04:11:13
3	12	334.84545830437094	287.61000975834855	18/12/03 04:11:13
3	12	335.07356154440174	287.5942047110345	18/12/03 04:11:13
3	12	335.2479734158529	287.5821198854088	18/12/03 04:11:13
3	12	335.41071205391046	287.57084388654977	18/12/03 04:11:14
3	12	335.6134131792202	287.55679892657594	18/12/03 04:11:14
3	12	335.8337826381268	287.5415297452871	18/12/03 04:11:14
3	12	336.08626050498685	287.52403580424993	18/12/03 04:11:14
3	12	336.292669584686	287.50973392379325	18/12/03 04:11:14
3	12	336.4768765693695	287.49697040448456	18/12/03 04:11:14
3	12	336.73437342718006	287.4791287025413	18/12/03 04:11:14
3	12	336.9628702311464	287.4632963855724	18/12/03 04:11:14
3	12	337.1346801426554	287.451391847171	18/12/03 04:11:14
3	12	337.4109734886981	287.4322477551968	18/12/03 04:11:14
3	12	337.66748019659053	287.4144746597595	18/12/03 04:11:15
3	12	337.8782324544602	287.39987184479406	18/12/03 04:11:15
3	12	338.0620384697522	287.3871361082569	18/12/03 04:11:15
3	12	338.21363778392384	287.37663194210415	18/12/03 04:11:15
3	12	338.42763559514765	287.3618042459651	18/12/03 04:11:15
3	12	338.577853772946	287.3513957773821	18/12/03 04:11:15
3	12	338.73184646837814	287.3407257762151	18/12/03 04:11:15
3	12	338.98956254547545	287.32286888478484	18/12/03 04:11:15
3	12	339.1601424270137	287.3110495739404	18/12/03 04:11:15
3	12	339.4255930481045	287.2926567636264	18/12/03 04:11:15
3	12	339.72251635723234	287.2720832419667	18/12/03 04:11:16
3	12	339.9661217126734	287.25520406844777	18/12/03 04:11:16
3	12	340.1670411564574	287.2412825594201	18/12/03 04:11:16
3	12	340.40808424700043	287.22458092269517	18/12/03 04:11:16
3	12	340.6531528397872	287.2076003629115	18/12/03 04:11:16
3	12	340.8857683279169	287.191482666401	18/12/03 04:11:16
3	12	341.1561303699454	287.1727495486004	18/12/03 04:11:16
3	30	341.2036834827687	287.0976979025371	18/12/03 04:11:16
3	30	341.02654374264114	286.9885098371597	18/12/03 04:11:16
3	30	340.83234703530536	286.86880794101046	18/12/03 04:11:16
3	30	340.5845334152596	286.71605684333196	18/12/03 04:11:17
3	30	340.4257696247324	286.61819562299166	18/12/03 04:11:17
3	30	340.2939747470074	286.53695790798156	18/12/03 04:11:17
3	30	340.0424226148978	286.38190240983744	18/12/03 04:11:17
3	30	339.79146654738565	286.22721432298215	18/12/03 04:11:17
3	30	339.79146654738565	286.22721432298215	18/12/03 04:11:17
3	30	339.66353863976923	286.1483601893453	18/12/03 04:11:17
3	30	339.4448003143213	286.0135309603854	18/12/03 04:11:17
3	30	339.19507844642646	285.8596036281096	18/12/03 04:11:17
3	30	338.9929071650879	285.7349862437308	18/12/03 04:11:17
3	30	338.7923477378072	285.61136239827295	18/12/03 04:11:18
3	30	338.57700890867835	285.47862860213957	18/12/03 04:11:18
3	30	338.3297157020374	285.32619828472656	18/12/03 04:11:18
3	30	338.1748966664211	285.2307685919294	18/12/03 04:11:18
3	30	338.04689460386777	285.15186874955384	18/12/03 04:11:18
3	30	337.9033171412332	285.06336830710325	18/12/03 04:11:18
3	30	337.7264230990094	284.9543316887064	18/12/03 04:11:18
3	30	337.5390703651251	284.8388483841624	18/12/03 04:11:18
3	30	337.3463760789462	284.7200725730316	18/12/03 04:11:18
3	30	337.12779041811007	284.58533744578824	18/12/03 04:11:18
3	30	336.9343286178861	284.4660885427715	18/12/03 04:11:19
3	30	336.71149146899296	284.32873281918097	18/12/03 04:11:19
3	30	336.5589128693495	284.23468412010834	18/12/03 04:11:19
3	30	336.4200305220018	284.14907772364955	18/12/03 04:11:19
3	30	336.1713319809959	283.9957811650396	18/12/03 04:11:19
3	30	336.02842277177535	283.90769263070973	18/12/03 04:11:19
3	30	335.87170915704945	283.8110951286591	18/12/03 04:11:19
3	30	335.66544734717473	283.68395636259083	18/12/03 04:11:19
3	30	335.46339720620125	283.5594136485379	18/12/03 04:11:19
3	30	335.30952871177044	283.46456986465665	18/12/03 04:11:19
3	30	335.07081131653075	283.3174256352512	18/12/03 04:11:20
3	30	334.86219843672615	283.188837681231	18/12/03 04:11:20
3	30	334.6080603236685	283.0321881971376	18/12/03 04:11:20
3	30	334.4678289901593	282.94575029223756	18/12/03 04:11:20
3	30	334.33975817373187	282.86680807031183	18/12/03 04:11:20
3	30	334.1292017612495	282.7370221322993	18/12/03 04:11:20
3	30	333.95850065235373	282.63180280757473	18/12/03 04:11:20
3	30	333.82077216151526	282.54690764259834	18/12/03 04:11:20
3	30	333.6686732012973	282.4531545909107	18/12/03 04:11:20
3	30	333.5216820984468	282.3625499974051	18/12/03 04:11:20
3	30	333.3811551330942	282.2759298664895	18/12/03 04:11:21
3	30	333.16356047150936	282.14180558631506	18/12/03 04:11:21
3	30	332.9611739873637	282.01705555198345	18/12/03 04:11:21
3	30	332.787815132743	281.91019800585383	18/12/03 04:11:21
3	30	332.587455869482	281.7866975405141	18/12/03 04:11:21
3	30	332.3813110079974	281.6596308608589	18/12/03 04:11:21
3	30	332.2148869390683	281.5570478825531	18/12/03 04:11:21
3	30	332.0097639771424	281.43061109676444	18/12/03 04:11:21
3	30	331.82467285524484	281.3165218387358	18/12/03 04:11:21
3	30	331.58455890311507	281.16851677852577	18/12/03 04:11:21
3	30	331.4492888573817	281.0851369870318	18/12/03 04:11:22
3	30	331.24258195274996	280.95772386674247	18/12/03 04:11:22
3	30	331.03050193066673	280.8269987832587	18/12/03 04:11:22
3	30	330.8687840032073	280.7273166474295	18/12/03 04:11:22
3	30	330.6873997108538	280.6155122609171	18/12/03 04:11:22
1	26	330.5235304678142	280.5125227011644	18/12/03 04:11:22
1	26	330.68738219862286	280.5997231034851	18/12/03 04:11:22
1	26	330.8475061759422	280.68493962927045	18/12/03 04:11:22
1	26	331.06666233415416	280.80157254533924	18/12/03 04:11:22
1	26	331.28696235902737	280.91881421685156	18/12/03 04:11:22
1	26	331.46219856145945	281.01207333152684	18/12/03 04:11:23
1	26	331.66462854743355	281.11980473071065	18/12/03 04:11:23
1	26	331.8189308141935	281.20192299503447	18/12/03 04:11:23
1	26	332.0768629110536	281.3391921133197	18/12/03 04:11:23
1	26	332.28822156513485	281.45167526854107	18/12/03 04:11:23
1	26	332.47989605652884	281.55368269123767	18/12/03 04:11:23
1	26	332.7044755160347	281.673201838977	18/12/03 04:11:23
1	26	332.94673999859583	281.80213279529386	18/12/03 04:11:23
1	26	333.13524632041947	281.9024541469322	18/12/03 04:11:23
1	26	333.2715173300499	281.97497634005015	18/12/03 04:11:23
1	26	333.48540363014246	282.0888046855116	18/12/03 04:11:24
1	26	333.6184263640696	282.1595981758153	18/12/03 04:11:24
1	26	333.8361152102317	282.2754502017437	18/12/03 04:11:24
1	26	334.03734739385897	282.3825441414022	18/12/03 04:11:24
1	26	334.2035388358006	282.47098971672835	18/12/03 04:11:24
1	26	334.38527585839796	282.5677085088268	18/12/03 04:11:24
1	26	334.6258845966239	282.6957582930532	18/12/03 04:11:24
1	26	334.81733805018865	282.79764808142545	18/12/03 04:11:24
1	26	334.9685607384082	282.8781274220322	18/12/03 04:11:24
1	26	335.2209200152148	283.0124307361216	18/12/03 04:11:24
1	26	335.3785689955443	283.0963300909977	18/12/03 04:11:25
1	26	335.5238805028137	283.1736635548139	18/12/03 04:11:25
1	26	335.7420819380684	283.2897883759998	18/12/03 04:11:25
1	26	335.98049486109136	283.4166695673271	18/12/03 04:11:25
1	26	336.17202247870273	283.51859882513116	18/12/03 04:11:25
1	26	336.41516754417523	283.64799841967215	18/12/03 04:11:25
1	26	336.63281529045844	283.7638285726184	18/12/03 04:11:25
1	26	336.80643764882484	283.8562288141459	18/12/03 04:11:25
1	26	336.95413871888076	283.9348339815646	18/12/03 04:11:25
1	26	337.19094916954526	284.0608623516634	18/12/03 04:11:25
1	26	337.3438939374714	284.14225816744255	18/12/03 04:11:26
1	26	337.5238987610119	284.23805509894225	18/12/03 04:11:26
1	26	337.7715192595433	284.36983647829186	18/12/03 04:11:26
1	26	337.90848521479927	284.4427285151572	18/12/03 04:11:26
1	26	338.1003103834229	284.5448161269063	18/12/03 04:11:26
1	26	338.35725437626854	284.6815593852133	18/12/03 04:11:26
1	26	338.58903903314757	284.8049130735256	18/12/03 04:11:26
1	26	338.72327596293934	284.87635274783577	18/12/03 04:11:26
1	26	338.89756861735566	284.96910971483044	18/12/03 04:11:26
1	26	339.04900610298466	285.04970336866677	18/12/03 04:11:26
1	26	339.2739523558003	285.1694177204728	18/12/03 04:11:27
1	26	339.53359988742744	285.307599777554	18/12/03 04:11:27
1	26	339.7369175597132	285.4158035953271	18/12/03 04:11:27
1	26	339.9929804289023	285.55207792763025	18/12/03 04:11:27
1	26	340.1644984681844	285.64335826966163	18/12/03 04:11:27
1	26	340.39815182032	285.7677064606099	18/12/03 04:11:27
1	26	340.63480533907244	285.89365131297103	18/12/03 04:11:27
1	26	340.8009432226614	285.9820683850286	18/12/03 04:11:27
1	26	341.0012603778206	286.08867535485064	18/12/03 04:11:27
1	26	341.2045687259108	286.19687421037156	18/12/03 04:11:27
1	26	341.4659310533272	286.2427849444974	18/12/03 04:11:28
1	26	341.649229056015	286.2319545658904	18/12/03 04:11:28
1	26	341.80069622221635	286.2230049497875	18/12/03 04:11:28
1	26	342.08199075056103	286.2063843309189	18/12/03 04:11:28
1	26	342.3673302637772	286.18952470934994	18/12/03 04:11:28
1	26	342.6241805301826	286.17434840851917	18/12/03 04:11:28
1	26	342.92334297445353	286.1566720427709	18/12/03 04:11:28
1	26	343.20548245312057	286.14000149901625	18/12/03 04:11:28
1	26	343.49934840695823	286.12263808265004	18/12/03 04:11:28
1	26	343.6802027167141	286.11195209252116	18/12/03 04:11:28
1	26	343.83224467861385	286.1029685139367	18/12/03 04:11:29
1	26	344.124079603805	286.08572510329276	18/12/03 04:11:29
1	26	344.3796181961591	286.0706263042698	18/12/03 04:11:29
1	26	344.6019485598809	286.0574896525899	18/12/03 04:11:29
1	26	344.8562930033959	286.04246141125907	18/12/03 04:11:29
1	26	345.0159883960457	286.0330256206949	18/12/03 04:11:29
1	26	345.23382870695633	286.02015426907934	18/12/03 04:11:29
1	26	345.4974953968633	286.00457521182904	18/12/03 04:11:29
1	26	345.4974953968633	286.00457521182904	18/12/03 04:11:29
1	26	345.7920476176689	285.98717124656986	18/12/03 04:11:29
1	26	346.0755645626938	285.9704193135914	18/12/03 04:11:30
1	26	346.31541673589095	285.95624736513946	18/12/03 04:11:30
1	26	346.5018353988192	285.94523259864275	18/12/03 04:11:30
1	26	346.6860174979916	285.9343499821526	18/12/03 04:11:30
1	26	346.96439508405746	285.91790171425777	18/12/03 04:11:30
1	26	347.2200051175395	285.90279869405157	18/12/03 04:11:30
1	26	347.46445292536623	285.88835520710904	18/12/03 04:11:30
1	26	347.63966235828923	285.8780027511835	18/12/03 04:11:30
1	26	347.80792915505543	285.868060509101	18/12/03 04:11:30
1	26	348.0280763350233	285.85505285340724	18/12/03 04:11:30
1	26	348.2065387350341	285.84450819208587	18/12/03 04:11:31
1	26	348.4137397553886	285.83226547549714	18/12/03 04:11:31
1	26	348.70248954914933	285.8152043534813	18/12/03 04:11:31
1	26	348.8812507885153	285.8046420348843	18/12/03 04:11:31
1	26	349.1205312736787	285.7905038652939	18/12/03 04:11:31
1	26	349.34230588419376	285.77740005094745	18/12/03 04:11:31
1	26	349.5747181351894	285.7636676990709	18/12/03 04:11:31
1	26	349.7564960641755	285.7529271358108	18/12/03 04:11:31
1	26	350.00330568976136	285.73834409808126	18/12/03 04:11:31
1	26	350.17291702034106	285.7283224126331	18/12/03 04:11:31
1	26	350.3791869129935	285.71613471282245	18/12/03 04:11:32
1	26	350.6307443609338	285.7012711444112	18/12/03 04:11:32
1	26	350.8713376702274	285.68705540505914	18/12/03 04:11:32
1	26	351.13309260706495	285.671589305993	18/12/03 04:11:32
1	26	351.4000463058083	285.65581603195005	18/12/03 04:11:32
1	54	351.52441172684036	285.7624812590485	18/12/03 04:11:32
1	54	351.6106159050269	285.95629685022624	18/12/03 04:11:32
1	54	351.6801611623854	286.1126576607123	18/12/03 04:11:32
1	54	351.7571821235836	286.28582633352767	18/12/03 04:11:32
1	54	351.86608280411866	286.530671191649	18/12/03 04:11:32
1	54	351.9369269717102	286.6899523832581	18/12/03 04:11:33
1	54	351.99855755684007	286.82851838484714	18/12/03 04:11:33
1	54	352.07742219299394	287.00583225061	18/12/03 04:11:33
1	54	352.15476988288907	287.1797355179298	18/12/03 04:11:33
1	54	352.2564377701431	287.40831865724454	18/12/03 04:11:33
1	54	352.370880690612	287.66562430939956	18/12/03 04:11:33
1	54	352.4519015554484	287.8477860925791	18/12/03 04:11:33
1	54	352.55561508478564	288.08096851394765	18/12/03 04:11:33
1	54	352.66469891921446	288.3262251627843	18/12/03 04:11:33
1	54	352.73475149469436	288.4837265927124	18/12/03 04:11:33
1	54	352.8487013193877	288.73992360197735	18/12/03 04:11:34
1	54	352.91445268841454	288.88775449285487	18/12/03 04:11:34
1	54	352.9780222036876	289.0306798526543	18/12/03 04:11:34
1	54	353.09730187224864	289.2988601191328	18/12/03 04:11:34
1	54	353.2062576141042	289.5438287733694	18/12/03 04:11:34
1	54	353.31436346939415	289.78688660065313	18/12/03 04:11:34
1	54	353.40192523696743	289.9837545031584	18/12/03 04:11:34
1	54	353.4756296559609	290.14946648882017	18/12/03 04:11:34
1	54	353.53882198611797	290.29154381134595	18/12/03 04:11:34
1	54	353.6336743574427	290.50480340977435	18/12/03 04:11:34
1	54	353.73784580544697	290.73901538422274	18/12/03 04:11:35
1	54	353.85329070486506	290.9985738174665	18/12/03 04:11:35
1	54	353.9150390452274	291.1374045718838	18/12/03 04:11:35
1	54	353.97714109837415	291.2770305899863	18/12/03 04:11:35
1	54	354.0878639351846	291.525972259923	18/12/03 04:11:35
1	54	354.1870341367166	291.7489397731164	18/12/03 04:11:35
1	54	354.25817284890564	291.90888319869725	18/12/03 04:11:35
1	54	354.334434205905	292.0803440292715	18/12/03 04:11:35
1	54	354.436215817425	292.3091828584648	18/12/03 04:11:35
1	54	354.52789778369157	292.5153143345266	18/12/03 04:11:35
1	54	354.64944086930853	292.78858351344536	18/12/03 04:11:36
1	54	354.7649042786421	293.04818356311984	18/12/03 04:11:36
1	54	354.8722827388238	293.2896059648836	18/12/03 04:11:36
