floorId	partitionId	location_x	location_y	timeStamp
5	48	341.89068795550713	280.57214843017846	18/12/03 04:19:22
5	48	342.0236529809735	280.721345409414	18/12/03 04:19:22
5	48	342.19783516605656	280.9167912099913	18/12/03 04:19:22
5	48	342.3041386060192	281.03607184088764	18/12/03 04:19:22
5	48	342.41292128338455	281.1581343667221	18/12/03 04:19:23
5	48	342.5738428568936	281.3387007418059	18/12/03 04:19:23
5	48	342.747454918529	281.53350682005106	18/12/03 04:19:23
5	48	342.8520380658185	281.6508571503339	18/12/03 04:19:23
5	48	342.95709841805916	281.76874294125344	18/12/03 04:19:23
5	48	343.1198586510399	281.9513724335973	18/12/03 04:19:23
5	48	343.2571968751203	282.10547647783386	18/12/03 04:19:23
5	48	343.445808062921	282.31711272857876	18/12/03 04:19:23
5	48	343.57215879046686	282.4588879571244	18/12/03 04:19:23
5	48	343.7078131684162	282.6111025965691	18/12/03 04:19:23
5	48	343.8300387727582	282.74824911979283	18/12/03 04:19:24
5	48	343.98685147032165	282.92420502022753	18/12/03 04:19:24
5	48	344.12824106126874	283.0828550095061	18/12/03 04:19:24
5	48	344.3180529873686	283.2958385809202	18/12/03 04:19:24
5	48	344.46708868043584	283.46306808451277	18/12/03 04:19:24
5	48	344.6121705086995	283.62586104787283	18/12/03 04:19:24
5	48	344.7531294836305	283.7840278528811	18/12/03 04:19:24
5	48	344.8868795494232	283.93410570770675	18/12/03 04:19:24
5	48	345.0859013564291	284.15742347343604	18/12/03 04:19:24
5	48	345.23670707178405	284.32663907809234	18/12/03 04:19:24
5	48	345.42625761184917	284.5393293542834	18/12/03 04:19:25
5	48	345.5884995340358	284.72137726207507	18/12/03 04:19:25
5	48	345.763651898416	284.91791167839875	18/12/03 04:19:25
5	48	345.9076472892289	285.07948557542755	18/12/03 04:19:25
5	53	346.039528456326	285.2187573880904	18/12/03 04:19:25
5	53	346.29649154726627	285.2745757654746	18/12/03 04:19:25
5	53	346.5264972714645	285.3245383739832	18/12/03 04:19:25
5	53	346.67690410538455	285.35721024676536	18/12/03 04:19:25
5	53	346.9296245319705	285.4121070184856	18/12/03 04:19:25
5	53	347.1776923761026	285.46599314076866	18/12/03 04:19:25
5	53	347.32820873228604	285.4986888043412	18/12/03 04:19:26
5	53	347.5204042454425	285.5404381530343	18/12/03 04:19:26
5	53	347.7571931931477	285.5918742359171	18/12/03 04:19:26
5	53	348.02279341001406	285.64956879852576	18/12/03 04:19:26
5	53	348.28980414478735	285.7075697585262	18/12/03 04:19:26
5	53	348.5121265333756	285.75586336731556	18/12/03 04:19:26
5	53	348.7653418409137	285.8108676387224	18/12/03 04:19:26
5	53	349.0250817729624	285.8672892107692	18/12/03 04:19:26
5	53	349.22636896803203	285.9110134848503	18/12/03 04:19:26
5	53	349.4798465541222	285.96607472927667	18/12/03 04:19:26
5	53	349.76150221024153	286.02725690780716	18/12/03 04:19:27
5	53	349.92554066680304	286.06288988700413	18/12/03 04:19:27
5	53	350.0811889603708	286.09670032708635	18/12/03 04:19:27
5	53	350.33965761200494	286.1528457473726	18/12/03 04:19:27
5	53	350.48756989833885	286.1849757462302	18/12/03 04:19:27
5	53	350.6433876206276	286.21882299018273	18/12/03 04:19:27
5	53	350.88013843746404	286.27025079015135	18/12/03 04:19:27
5	53	351.1420645807266	286.32714725827026	18/12/03 04:19:27
5	53	351.3432986788247	286.3708599984506	18/12/03 04:19:27
5	53	351.5140855932401	286.40795890011094	18/12/03 04:19:27
5	53	351.7254220042716	286.4538660983113	18/12/03 04:19:28
5	53	351.9553179553589	286.50380486153966	18/12/03 04:19:28
5	53	352.14916074562495	286.545912037246	18/12/03 04:19:28
5	53	352.3603355181477	286.59178412379185	18/12/03 04:19:28
5	53	352.6417469405474	286.6529132490614	18/12/03 04:19:28
5	53	352.9154922564445	286.7123771171756	18/12/03 04:19:28
5	53	353.18135696214637	286.7701291329289	18/12/03 04:19:28
5	53	353.39387974824047	286.81629403946675	18/12/03 04:19:28
5	53	353.64494768798687	286.8708318524988	18/12/03 04:19:28
5	53	353.9016586374671	286.9265954588763	18/12/03 04:19:28
5	53	354.1154964869855	286.9730460278657	18/12/03 04:19:29
5	53	354.39989660088384	287.0348243666442	18/12/03 04:19:29
5	53	354.61828107235857	287.08226256797894	18/12/03 04:19:29
5	53	354.8238848171931	287.1269244973587	18/12/03 04:19:29
5	53	355.00180424445057	287.16557274718434	18/12/03 04:19:29
5	53	355.2610059410491	287.2218774019362	18/12/03 04:19:29
5	53	355.5335321821253	287.28107645856267	18/12/03 04:19:29
5	53	355.6860170874891	287.3141997369364	18/12/03 04:19:29
5	53	355.92341958033467	287.36576909613547	18/12/03 04:19:29
5	53	356.1829268240424	287.42214012284677	18/12/03 04:19:29
5	53	356.352602702253	287.4589976815269	18/12/03 04:19:30
5	53	356.5682937809023	287.50585081511275	18/12/03 04:19:30
5	53	356.5682937809023	287.50585081511275	18/12/03 04:19:30
5	53	356.81861862969276	287.5602272114555	18/12/03 04:19:30
5	53	357.0954185093808	287.6203546020772	18/12/03 04:19:30
5	53	357.3233638907417	287.66986965606117	18/12/03 04:19:30
5	53	357.52962286525053	287.71467391661037	18/12/03 04:19:30
5	53	357.73075964937925	287.75836551792656	18/12/03 04:19:30
5	53	357.73075964937925	287.75836551792656	18/12/03 04:19:30
5	53	357.88825721930846	287.7925776639715	18/12/03 04:19:30
5	53	358.08193246316876	287.8346484446903	18/12/03 04:19:31
5	53	358.2800629650659	287.87768701138	18/12/03 04:19:31
5	53	358.51793715973344	287.9293588352179	18/12/03 04:19:31
5	53	358.7408688150338	287.97778479094916	18/12/03 04:19:31
5	53	358.9011926532854	288.0126108684005	18/12/03 04:19:31
5	53	359.18793507834874	288.0748980118018	18/12/03 04:19:31
5	53	359.39409481844257	288.1196807163213	18/12/03 04:19:31
5	53	359.5827002881231	288.1606502238285	18/12/03 04:19:31
5	53	359.7503796595745	288.1970740946691	18/12/03 04:19:31
5	53	360.01476660437197	288.2545051062831	18/12/03 04:19:31
5	53	360.01476660437197	288.2545051062831	18/12/03 04:19:32
5	53	360.27408462507753	288.31083502934445	18/12/03 04:19:32
5	53	360.5531617385561	288.37145708826523	18/12/03 04:19:32
5	53	360.7827309041354	288.4213248660585	18/12/03 04:19:32
5	53	360.9976753313802	288.4680158095426	18/12/03 04:19:32
5	53	361.27379472176835	288.527995382015	18/12/03 04:19:32
5	53	361.495544335068	288.57616457065086	18/12/03 04:19:32
5	53	361.6972377803007	288.61997709174375	18/12/03 04:19:32
5	53	361.96409309844677	288.6779442916274	18/12/03 04:19:32
5	53	362.1822784009439	288.7253392288143	18/12/03 04:19:32
5	53	362.4089475085961	288.7745770463778	18/12/03 04:19:33
5	53	362.61304009847265	288.8189107176508	18/12/03 04:19:33
5	65	362.61002388649126	288.9777082209618	18/12/03 04:19:33
5	65	362.53327077735645	289.1373534367074	18/12/03 04:19:33
5	65	362.4359943295531	289.3396868623051	18/12/03 04:19:33
5	65	362.4359943295531	289.3396868623051	18/12/03 04:19:33
5	65	362.3454523535519	289.52801269634216	18/12/03 04:19:33
5	65	362.273142513391	289.6784159850576	18/12/03 04:19:33
5	65	362.1641213938758	289.9051781363505	18/12/03 04:19:33
5	65	362.09324123752026	290.05260770605804	18/12/03 04:19:33
5	65	361.9672204239476	290.3147289438558	18/12/03 04:19:34
