"floorId","partitionId","location_x","location_y","timeStamp"
"1","6","334.69863751643265","294.24281014286737",18/12/21 22:52:04
"1","6","335.50785252748426","292.94390633971824",18/12/21 22:52:04
"1","6","336.4910049325649","291.3658085775735",18/12/21 22:52:04
"1","6","337.28738136908584","290.08751249061487",18/12/21 22:52:04
"1","88","338.0128249177384","288.8072558365649",18/12/21 22:52:04
"1","88","336.6651177592038","288.1786377590859",18/12/21 22:52:04
"1","88","334.4079566130661","287.1258183158858",18/12/21 22:52:04
"1","88","334.4079566130661","287.1258183158858",18/12/21 22:52:04
"1","88","332.48871779690637","286.2306177471294",18/12/21 22:52:04
"1","88","331.2435142156778","286.044396809156",18/12/21 22:52:04
"1","88","329.56673929284517","286.1089229683378",18/12/21 22:52:04
"1","88","327.90501566191807","286.17286991915705",18/12/21 22:52:04
"1","88","325.9938063964913","286.24641765153984",18/12/21 22:52:04
"1","88","323.6642871154694","286.33606291632606",18/12/21 22:52:04
"1","88","322.1479005181259","286.3944169635085",18/12/21 22:52:04
"1","88","320.67027724167815","286.45127930886474",18/12/21 22:52:04
"1","88","318.317493396368","286.5418198476428",18/12/21 22:52:04
"1","89","316.28559982108084","286.52202897416385",18/12/21 22:52:04
"1","89","314.18970800501353","286.27726433561446",18/12/21 22:52:04
"1","89","312.4279227029867","286.07151767476756",18/12/21 22:52:04
"1","89","311.0340743214787","285.90873980967115",18/12/21 22:52:05
"1","89","309.15254688903997","285.68900929763277",18/12/21 22:52:05
"1","89","307.10551698989093","285.4499509027653",18/12/21 22:52:05
"1","89","305.3939072462238","285.25006389665424",18/12/21 22:52:05
"1","15","304.8939673035453","283.20587041478746",18/12/21 22:52:05
"1","15","304.6510871084318","280.9233168525868",18/12/21 22:52:05
"1","15","304.4479492040976","279.0142556920453",18/12/21 22:52:05
"1","15","303.6133178103353","277.9296062402128",18/12/21 22:52:05
"1","15","303.3030294518317","278.82697227932124",18/12/21 22:52:05
"1","15","303.6215981438446","278.9902173664437",18/12/21 22:52:05
"1","15","302.8319698153363","278.59037541353564",18/12/21 22:52:05
"1","15","304.45446863390134","278.80744228145005",18/12/21 22:52:05
"1","15","303.83970581357295","278.75831728828484",18/12/21 22:52:05
"1","15","302.35638738340305","278.8395087503414",18/12/21 22:52:05
"1","15","302.51198923954723","279.1128986759056",18/12/21 22:52:05
"1","15","303.6816527491991","277.94866404041045",18/12/21 22:52:05
"1","15","303.0068591342432","279.76218805075763",18/12/21 22:52:05
"1","15","302.63247869692697","279.28772082818574",18/12/21 22:52:05
"1","15","303.6023423589824","279.2948280113027",18/12/21 22:52:05
"1","15","303.6129368051062","279.2277316960157",18/12/21 22:52:05
"1","15","303.53855631015415","280.0866227851959",18/12/21 22:52:05
"1","15","303.7142546211363","280.0982074894415",18/12/21 22:52:05
"1","15","305.52206585252094","280.59300228416276",18/12/21 22:52:05
"1","15","305.5903674595675","280.5749093520747",18/12/21 22:52:05
"1","15","305.33225176455255","280.55405080645306",18/12/21 22:52:05
"1","15","304.95954788308285","278.29086178505105",18/12/21 22:52:05
"1","15","304.95438932265813","278.2902089438515",18/12/21 22:52:05
"1","15","305.27684499203207","279.04907325568826",18/12/21 22:52:05
"1","15","303.32834842739857","279.8644264372497",18/12/21 22:52:05
"1","15","303.7546504569581","279.51348928769073",18/12/21 22:52:05
"1","15","303.47021952222156","281.2436196808609",18/12/21 22:52:05
"1","15","302.47389971304426","281.89253908360166",18/12/21 22:52:05
"1","15","302.8732557554633","282.40737008465453",18/12/21 22:52:05
"1","15","303.39154511468837","282.1920769075717",18/12/21 22:52:05
"1","15","303.7549397124501","282.0604850432878",18/12/21 22:52:05
"1","15","304.98876323975946","282.35083559839427",18/12/21 22:52:05
"1","15","306.42146718512396","282.85510552071884",18/12/21 22:52:05
"1","15","306.47921220550285","282.98880341047726",18/12/21 22:52:05
"1","15","306.45609774978055","283.11182720370056",18/12/21 22:52:05
"1","15","305.4272200919537","284.0063566647802",18/12/21 22:52:05
"1","15","305.1600829882208","281.5681919930126",18/12/21 22:52:05
"1","15","306.104934082206","282.92660644222343",18/12/21 22:52:05
"1","15","305.5294996493475","280.77540716823006",18/12/21 22:52:05
"1","15","305.18197882299626","281.28834937821085",18/12/21 22:52:05
"1","15","306.47736501872123","282.12133505717503",18/12/21 22:52:05
"1","15","306.2824833558264","281.3756783772122",18/12/21 22:52:05
"1","15","305.86380349907864","281.25333936114475",18/12/21 22:52:05
"1","15","305.5859351777096","279.33258570257567",18/12/21 22:52:05
"1","15","306.0802990557871","278.007157344515",18/12/21 22:52:05
"1","15","306.3870116488141","277.75823332986647",18/12/21 22:52:06
"1","15","306.05520052936293","278.0236086096292",18/12/21 22:52:06
"1","15","305.85370299973016","277.941115839698",18/12/21 22:52:06
"1","15","304.6427481870625","277.78498343440447",18/12/21 22:52:06
"1","15","303.6023715165024","278.4984925214667",18/12/21 22:52:06
"1","15","304.3619632692449","277.9584522763995",18/12/21 22:52:06
"1","15","304.20961064277736","277.85533785323213",18/12/21 22:52:06
"1","15","304.1258593715197","277.53585486446207",18/12/21 22:52:06
"1","15","303.62486467340165","278.09096645645474",18/12/21 22:52:06
"1","15","303.3579776947047","277.9959534799867",18/12/21 22:52:06
"1","15","304.6631730737136","279.5410762978273",18/12/21 22:52:06
"1","15","305.1320389887246","279.02745186319675",18/12/21 22:52:06
"1","15","306.28894129975964","278.75542503828046",18/12/21 22:52:06
"1","15","305.6283105900386","277.84792325174624",18/12/21 22:52:06
"1","15","304.91747209062714","278.6865073583112",18/12/21 22:52:06
"1","15","303.88813175651035","277.8459687333779",18/12/21 22:52:06
"1","15","303.9759346334365","277.60436776491645",18/12/21 22:52:06
"1","15","305.36635945202977","278.74768398466756",18/12/21 22:52:06
"1","15","303.7035831515832","280.210233605162",18/12/21 22:52:06
"1","15","302.7985041323281","279.33958035603325",18/12/21 22:52:06
"1","15","302.4946022770237","279.0515012703758",18/12/21 22:52:06
"1","15","303.6267614695156","280.0810132610466",18/12/21 22:52:06
"1","15","303.5332981162186","280.3257936327562",18/12/21 22:52:06
"1","15","304.0606809874803","279.32439874430673",18/12/21 22:52:06
"1","15","303.8335625948128","277.5648853399142",18/12/21 22:52:06
"1","15","302.49137289845885","277.69366453444906",18/12/21 22:52:06
"1","15","302.4531821433063","277.72169703637155",18/12/21 22:52:06
"1","15","302.5387145726531","278.80530543468495",18/12/21 22:52:06
"1","15","303.49254308356234","279.2665339987244",18/12/21 22:52:06
"1","15","303.5977263454969","277.9739082656257",18/12/21 22:52:06
"1","15","303.7770698979191","277.85712655248375",18/12/21 22:52:06
"1","15","304.9301632194423","278.8621262028177",18/12/21 22:52:06
"1","15","305.0766259775477","278.755642213476",18/12/21 22:52:06
"1","15","306.1874499958862","280.2833550131841",18/12/21 22:52:06
"1","15","306.4965018527477","280.0912306975358",18/12/21 22:52:06
"1","15","306.46929464058684","280.083244453327",18/12/21 22:52:06
"1","15","305.98565790958685","280.42122372247826",18/12/21 22:52:06
"1","15","305.75768698827954","280.8628837052126",18/12/21 22:52:06
"1","15","304.2119371605826","280.4403939297828",18/12/21 22:52:06
"1","15","305.2706671960694","280.48009974976645",18/12/21 22:52:06
"1","15","304.13710910349414","281.2792866586735",18/12/21 22:52:06
"1","15","304.0696136608834","281.3104574561872",18/12/21 22:52:06
"1","15","304.00800118903686","280.17095196736165",18/12/21 22:52:06
"1","15","303.9384542853991","280.14045872590395",18/12/21 22:52:06
"1","15","302.59099635701625","282.08099297792126",18/12/21 22:52:06
"1","15","302.36517157363966","282.2526331942711",18/12/21 22:52:06
"1","15","302.1866085696939","282.25274772726175",18/12/21 22:52:06
"1","15","302.5331069797483","282.9695092212834",18/12/21 22:52:06
"1","15","302.45104195735195","284.64902676728127",18/12/21 22:52:06
"1","15","303.6338462939132","284.8031912657379",18/12/21 22:52:06
"1","15","302.32907557480337","284.2890259359401",18/12/21 22:52:07
"1","15","302.72188654777733","283.7462961758604",18/12/21 22:52:07
"1","15","302.4032492053892","282.9010865142219",18/12/21 22:52:07
"1","15","304.0125812264766","283.85321478010536",18/12/21 22:52:07
"1","15","304.2473136221117","283.8090497134972",18/12/21 22:52:07
"1","15","304.3527441807673","281.92047659731054",18/12/21 22:52:07
"1","15","302.678263322824","282.5398391339408",18/12/21 22:52:07
"1","15","302.9318589285552","282.3062737392417",18/12/21 22:52:07
"1","15","303.7359258846687","282.2625682553237",18/12/21 22:52:07
"1","15","302.85231460520305","283.36598410610367",18/12/21 22:52:07
"1","15","303.8450209015546","281.9261026214502",18/12/21 22:52:07
"1","15","303.51584562241914","281.9534471145999",18/12/21 22:52:07
"1","15","305.3243288061529","282.1885728633606",18/12/21 22:52:07
"1","15","304.5831685226065","281.63414170308386",18/12/21 22:52:07
"1","15","306.38599010396206","282.18718612413636",18/12/21 22:52:07
"1","15","305.73076217953354","282.3053865102058",18/12/21 22:52:07
"1","15","305.9537067215562","282.38002402885166",18/12/21 22:52:07
"1","15","305.7127238152505","281.92420877987377",18/12/21 22:52:07
"1","15","304.783369925063","282.7685138629224",18/12/21 22:52:07
"1","15","303.91125999064593","283.6804158576763",18/12/21 22:52:07
"1","15","303.9215268717721","283.2333723364138",18/12/21 22:52:07
"1","15","304.00644746229983","284.8088941234218",18/12/21 22:52:07
"1","15","304.3241150603704","284.7675326019232",18/12/21 22:52:07
"1","15","304.51828723184514","284.7865380466404",18/12/21 22:52:07
"1","15","305.1317126939136","283.21708430130695",18/12/21 22:52:07
"1","15","304.06447814594975","282.40402071668933",18/12/21 22:52:07
"1","15","302.7881675832376","282.3931163077176",18/12/21 22:52:07
"1","15","302.99930073864886","283.4062611510287",18/12/21 22:52:07
"1","15","302.97688834686033","283.3766771016442",18/12/21 22:52:07
"1","15","302.2544058008207","281.50244736489276",18/12/21 22:52:07
"1","15","302.4686729694247","281.1573007095944",18/12/21 22:52:07
"1","15","302.2697445933476","281.39437095259933",18/12/21 22:52:07
"1","15","302.3754548909396","281.329361285389",18/12/21 22:52:07
"1","15","302.4589999160272","280.5127243280274",18/12/21 22:52:07
"1","15","303.1213727122589","280.67342537776744",18/12/21 22:52:07
"1","15","302.45199851062466","278.6601747204093",18/12/21 22:52:07
"1","15","302.4491902189575","278.42645051763117",18/12/21 22:52:07
"1","15","302.2721030641436","278.5321057177883",18/12/21 22:52:07
"1","15","303.49387092252766","279.7663817032037",18/12/21 22:52:07
"1","15","302.5240302093842","279.415480732285",18/12/21 22:52:07
"1","15","302.6066379285205","278.8606277884081",18/12/21 22:52:07
"1","15","304.751333756056","278.42854485451517",18/12/21 22:52:07
"1","15","303.48172818869125","278.4766924786427",18/12/21 22:52:07
"1","15","303.4064145268564","278.59597454905156",18/12/21 22:52:07
"1","15","302.7949462575586","278.41711736826755",18/12/21 22:52:07
"1","15","302.9398163600505","278.7234720228247",18/12/21 22:52:07
"1","15","303.3872892451998","278.4813545234327",18/12/21 22:52:07
"1","15","302.8813034682569","279.2674284033824",18/12/21 22:52:07
"1","15","304.14295998075613","280.6332043866892",18/12/21 22:52:07
"1","15","305.85112757111557","280.3338468670199",18/12/21 22:52:07
"1","15","305.2953985112982","280.75429635722537",18/12/21 22:52:08
"1","15","303.30280266555866","281.2655675858634",18/12/21 22:52:08
"1","15","303.2985483824556","281.2536679239677",18/12/21 22:52:08
"1","15","303.2690116556441","283.2547311198282",18/12/21 22:52:08
"1","15","304.0272951068522","283.49348226354164",18/12/21 22:52:08
"1","15","305.08746868548843","284.3448738652797",18/12/21 22:52:08
"1","15","304.5614230782855","283.1207282904583",18/12/21 22:52:08
"1","15","304.2891267203417","283.6414432281286",18/12/21 22:52:08
"1","15","304.58345411952814","283.48562280124315",18/12/21 22:52:08
"1","15","305.06987461031474","284.0979152753083",18/12/21 22:52:08
"1","15","303.9574910320434","283.8767290647699",18/12/21 22:52:08
"1","15","303.7388168227423","283.2536373797023",18/12/21 22:52:08
"1","15","304.4019847983008","282.1765109316258",18/12/21 22:52:08
"1","15","303.62053843923957","282.4454304888364",18/12/21 22:52:08
"1","15","303.566305609595","280.2926067507922",18/12/21 22:52:08
"1","15","304.3756447711281","280.4089370220425",18/12/21 22:52:08
"1","15","303.01486042381487","280.8705482829509",18/12/21 22:52:08
"1","15","302.8763632519742","279.8737377907882",18/12/21 22:52:08
"1","15","304.0379617206283","281.3174434949193",18/12/21 22:52:08
"1","15","304.0574228318464","281.046884730265",18/12/21 22:52:08
"1","15","305.39232348368455","281.79088966368687",18/12/21 22:52:08
"1","15","304.87271190488457","283.197757895693",18/12/21 22:52:08
"1","15","305.68111018793354","281.1611925797469",18/12/21 22:52:08
"1","15","306.0067032081604","281.38491995618415",18/12/21 22:52:08
"1","15","306.362787457555","281.9240937736818",18/12/21 22:52:08
"1","15","305.62136961677027","281.64937862839884",18/12/21 22:52:08
"1","15","305.9378355644841","281.36369201231486",18/12/21 22:52:08
"1","15","305.8447540177196","281.1099631467079",18/12/21 22:52:08
"1","15","305.2787148687262","282.42897231177676",18/12/21 22:52:08
"1","15","303.7412994909552","282.3159618197614",18/12/21 22:52:08
"1","15","303.04426068387403","284.4456805236505",18/12/21 22:52:08
"1","15","303.72238126102326","283.09786746418143",18/12/21 22:52:08
"1","15","303.22380954510754","282.9405991772885",18/12/21 22:52:08
"1","15","303.4076031948353","282.6740946352754",18/12/21 22:52:08
"1","15","303.51229646526605","280.64189520227393",18/12/21 22:52:08
"1","15","304.49901454504146","279.48359771068795",18/12/21 22:52:08
"1","15","302.6546318782222","280.10364580576737",18/12/21 22:52:08
"1","15","304.4709066255631","279.8314726801589",18/12/21 22:52:08
"1","15","303.0892896685685","278.74573660617585",18/12/21 22:52:08
"1","15","303.01493171522947","277.78948802128923",18/12/21 22:52:08
"1","15","302.3514010791954","278.007607138929",18/12/21 22:52:08
"1","15","302.82972380102717","278.64231180616565",18/12/21 22:52:08
"1","15","302.978998098237","278.90142785026825",18/12/21 22:52:08
"1","15","303.5850880617429","278.5722574999627",18/12/21 22:52:08
"1","15","302.9335359237323","278.8665215072719",18/12/21 22:52:08
"1","15","302.4618079576609","278.6539205047348",18/12/21 22:52:08
"1","15","303.263088571798","280.3080511650335",18/12/21 22:52:08
"1","15","304.046260098188","279.5910206828703",18/12/21 22:52:08
"1","15","303.05649703454947","278.1922118677221",18/12/21 22:52:08
"1","15","305.32058662686507","278.1832439730602",18/12/21 22:52:08
"1","15","305.31997451663005","278.1829689008543",18/12/21 22:52:09
"1","15","305.4750820483295","278.2619310872521",18/12/21 22:52:09
"1","15","306.1727166689115","277.56986469576236",18/12/21 22:52:09
"1","15","305.12078347211803","278.03161535378763",18/12/21 22:52:09
"1","15","305.3282040715694","278.3077115485049",18/12/21 22:52:09
"1","15","305.1355730311987","277.9586490900472",18/12/21 22:52:09
"1","15","303.61935905190325","279.5461757794353",18/12/21 22:52:09
"1","15","305.6781052244685","278.22211750620215",18/12/21 22:52:09
"1","15","305.9024792326651","278.53458311498207",18/12/21 22:52:09
"1","15","305.8183249360866","278.6088905923369",18/12/21 22:52:09
"1","15","304.46030450954095","278.57347110587483",18/12/21 22:52:09
"1","15","304.3495026358236","277.67779939310554",18/12/21 22:52:09
"1","15","306.38746132457953","277.80332124335",18/12/21 22:52:09
"1","15","304.57426382779494","279.1300808144385",18/12/21 22:52:09
"1","15","304.47452618044963","279.1060296497205",18/12/21 22:52:09
"1","15","304.7181194092555","279.3162636235738",18/12/21 22:52:09
"1","15","304.6545623707207","280.4405890429428",18/12/21 22:52:09
"1","15","304.20809313182133","278.47954593178457",18/12/21 22:52:09
"1","15","302.51554593736176","279.33532515546335",18/12/21 22:52:09
"1","15","303.6631030426509","280.87363424098606",18/12/21 22:52:09
"1","15","303.9224082970079","281.5959496575675",18/12/21 22:52:09
"1","15","303.1648842863765","282.5784831163914",18/12/21 22:52:09
"1","15","303.3811426102531","281.7880752117624",18/12/21 22:52:09
"1","15","305.6607872054573","282.5714143755756",18/12/21 22:52:09
"1","15","305.35421757968004","282.97893717424154",18/12/21 22:52:09
"1","15","303.2289564640093","281.7835758992547",18/12/21 22:52:09
"1","15","303.2893729895781","282.29261539240815",18/12/21 22:52:09
"1","15","303.29267401264303","282.29629282085",18/12/21 22:52:09
"1","15","303.28266895155366","280.09574032896705",18/12/21 22:52:09
"1","15","304.16715367113284","277.92661100250183",18/12/21 22:52:09
"1","15","304.38297980221415","279.69190892078495",18/12/21 22:52:09
"1","15","305.3537870217011","278.93310536964407",18/12/21 22:52:09
"1","15","305.3537870217011","278.93310536964407",18/12/21 22:52:09
"1","15","305.3537870217011","278.93310536964407",18/12/21 22:52:09
"1","15","305.13396495587415","281.0289551819952",18/12/21 22:52:09
"1","15","304.8871599104428","283.3820688524025",18/12/21 22:52:09
"1","15","304.75032201135747","284.68672261426036",18/12/21 22:52:09
"1","88","305.57186031569137","285.3278763137561",18/12/21 22:52:09
"1","88","307.46743023697945","285.56821443642644",18/12/21 22:52:09
"1","88","308.79753082344195","285.73685705642316",18/12/21 22:52:09
"1","88","310.3629200789449","285.93533177934984",18/12/21 22:52:09
"1","88","311.9248878905211","286.13337269954474",18/12/21 22:52:09
"1","88","314.2949294070893","286.4338687785053",18/12/21 22:52:09
"1","88","316.03197628036895","286.6541078632396",18/12/21 22:52:09
"1","88","317.39420842404695","286.928750107968",18/12/21 22:52:09
"1","88","319.5089944185431","287.6482587552208",18/12/21 22:52:09
"1","88","320.8995108852014","288.1213508905536",18/12/21 22:52:09
"1","88","322.3658761941997","288.62024889848516",18/12/21 22:52:09
"1","7","323.38618835649976","290.06233647072503",18/12/21 22:52:09
"1","7","324.06135465316936","292.16831373566725",18/12/21 22:52:09
"1","7","324.06135465316936","292.16831373566725",18/12/21 22:52:10
"1","7","324.6737324800141","294.0784413401571",18/12/21 22:52:10
"1","7","325.3764552180019","296.27037259777524",18/12/21 22:52:10
"1","7","327.3715028712887","295.4986196223715",18/12/21 22:52:10
"1","7","327.43402218125345","295.69097853652147",18/12/21 22:52:10
"1","7","329.18089722755747","295.83313423141027",18/12/21 22:52:10
"1","7","329.98216630246696","295.19584427202386",18/12/21 22:52:10
"1","7","328.8984376961871","295.07784673087804",18/12/21 22:52:10
"1","7","327.9016224468007","295.0805626508833",18/12/21 22:52:10
"1","7","327.5326134331348","296.2999453684454",18/12/21 22:52:10
"1","7","327.9947086839827","296.20429478830033",18/12/21 22:52:10
"1","7","329.3209745039305","296.16860804999146",18/12/21 22:52:10
"1","7","329.2558300789509","294.1024821290429",18/12/21 22:52:10
"1","7","327.5470345859935","293.1871394290464",18/12/21 22:52:10
"1","7","327.82954995369056","294.6712949988399",18/12/21 22:52:10
"1","7","329.2511870489978","295.9278811372123",18/12/21 22:52:10
"1","7","329.2511870489978","295.9278811372123",18/12/21 22:52:10
"1","7","330.22168589594605","296.01112080337157",18/12/21 22:52:10
"1","7","330.36663681519474","296.28048109157737",18/12/21 22:52:10
"1","7","330.36663681519474","296.28048109157737",18/12/21 22:52:10
"1","7","331.1408006062224","293.843860194018",18/12/21 22:52:10
"1","7","331.1408006062224","293.843860194018",18/12/21 22:52:10
"1","7","331.1428499275907","293.84161934801136",18/12/21 22:52:10
"1","7","330.73451017784333","294.6925267834106",18/12/21 22:52:10
"1","7","330.73451017784333","294.6925267834106",18/12/21 22:52:10
"1","7","330.3331101402022","293.02005321516117",18/12/21 22:52:10
"1","7","330.3331101402022","293.02005321516117",18/12/21 22:52:10
"1","7","330.03679714164707","291.5338923474925",18/12/21 22:52:10
"1","7","329.61532836600173","290.0625732768683",18/12/21 22:52:10
"1","7","329.61532836600173","290.0625732768683",18/12/21 22:52:10
"1","7","326.92608763653254","289.95227356036344",18/12/21 22:52:10
"1","7","328.01186648120546","290.50630625370235",18/12/21 22:52:10
"1","7","328.01186648120546","290.50630625370235",18/12/21 22:52:10
"1","7","330.0015744967568","292.66083300626383",18/12/21 22:52:10
"1","7","330.0015744967568","292.66083300626383",18/12/21 22:52:10
"1","7","329.69498971142724","294.7833666275876",18/12/21 22:52:10
"1","7","329.69498971142724","294.7833666275876",18/12/21 22:52:10
"1","7","330.826104884606","295.35667348805055",18/12/21 22:52:10
"1","7","330.826104884606","295.35667348805055",18/12/21 22:52:10
"1","7","330.3491616017854","294.73525091143983",18/12/21 22:52:10
"1","7","330.3491616017854","294.73525091143983",18/12/21 22:52:10
"1","7","329.51474556211303","294.80059158510034",18/12/21 22:52:10
"1","7","329.51474556211303","294.80059158510034",18/12/21 22:52:10
"1","7","330.54691453914876","296.12921232303205",18/12/21 22:52:10
"1","7","329.48125391103684","294.43135848374465",18/12/21 22:52:10
"1","7","329.48125391103684","294.43135848374465",18/12/21 22:52:10
"1","7","328.8130287858292","292.0793313995084",18/12/21 22:52:10
"1","7","328.8130287858292","292.0793313995084",18/12/21 22:52:10
"1","7","328.4182246789011","290.8627081381615",18/12/21 22:52:10
"1","7","328.4182246789011","290.8627081381615",18/12/21 22:52:11
"1","7","328.0994312220083","290.178702158845",18/12/21 22:52:11
"1","7","328.0994312220083","290.178702158845",18/12/21 22:52:11
"1","7","327.87841788031164","289.9319833257913",18/12/21 22:52:11
"1","7","328.49007772065727","289.19706152475914",18/12/21 22:52:11
"1","7","328.49007772065727","289.19706152475914",18/12/21 22:52:11
"1","7","329.2386434352515","290.15775105341885",18/12/21 22:52:11
"1","7","329.2386434352515","290.15775105341885",18/12/21 22:52:11
"1","7","328.6852362767852","289.5356375859441",18/12/21 22:52:11
"1","7","328.6852362767852","289.5356375859441",18/12/21 22:52:11
"1","7","329.9588312605375","291.0349859875201",18/12/21 22:52:11
"1","7","329.9588312605375","291.0349859875201",18/12/21 22:52:11
"1","7","327.8919389683497","291.5682960933506",18/12/21 22:52:11
"1","7","328.69714037923177","295.34913718948604",18/12/21 22:52:11
"1","7","328.69714037923177","295.34913718948604",18/12/21 22:52:11
"1","7","329.71512956680107","292.8891894213947",18/12/21 22:52:11
"1","7","330.917207861954","291.1992082383325",18/12/21 22:52:11
"1","7","331.14920670563487","290.81388090628496",18/12/21 22:52:11
"1","7","331.14920670563487","290.81388090628496",18/12/21 22:52:11
"1","7","327.78953001468136","289.34524428007506",18/12/21 22:52:11
"1","7","327.3134530557648","290.4399491881239",18/12/21 22:52:11
"1","7","327.3134530557648","290.4399491881239",18/12/21 22:52:11
"1","7","327.0327059136291","292.84126184034795",18/12/21 22:52:11
"1","7","327.0327059136291","292.84126184034795",18/12/21 22:52:11
"1","7","328.6349130615561","290.2507460610905",18/12/21 22:52:11
"1","7","330.1196071951331","291.04360271437895",18/12/21 22:52:11
"1","7","330.1196071951331","291.04360271437895",18/12/21 22:52:11
"1","7","329.621628392463","289.27675396010403",18/12/21 22:52:11
"1","7","329.621628392463","289.27675396010403",18/12/21 22:52:11
"1","7","330.33743192690923","291.2502690836637",18/12/21 22:52:11
"1","7","330.48456067475325","291.8226619739107",18/12/21 22:52:11
"1","7","330.48456067475325","291.8226619739107",18/12/21 22:52:11
"1","7","330.20574957769696","290.58473749539587",18/12/21 22:52:11
"1","7","329.2327116650345","291.9073403908864",18/12/21 22:52:11
"1","7","329.2327116650345","291.9073403908864",18/12/21 22:52:11
"1","7","329.3749713235904","290.34123028484777",18/12/21 22:52:11
"1","7","329.3749713235904","290.34123028484777",18/12/21 22:52:11
"1","7","330.5394175965148","290.3364482734401",18/12/21 22:52:11
"1","7","330.5394175965148","290.3364482734401",18/12/21 22:52:11
"1","7","328.41778809461","289.87611660520963",18/12/21 22:52:11
"1","7","328.41778809461","289.87611660520963",18/12/21 22:52:11
"1","7","324.5364080195942","289.0339704324851",18/12/21 22:52:11
"1","7","324.5364080195942","289.0339704324851",18/12/21 22:52:11
"1","88","326.5766179028659","287.955992942718",18/12/21 22:52:11
"1","88","326.5766179028659","287.955992942718",18/12/21 22:52:11
"1","88","329.8375006483385","286.9910781193461",18/12/21 22:52:11
"1","88","331.32240889882866","286.5516848341278",18/12/21 22:52:11
"1","88","331.32240889882866","286.5516848341278",18/12/21 22:52:11
"1","26","334.88794062616284","286.7143371656155",18/12/21 22:52:11
"1","26","334.88794062616284","286.7143371656155",18/12/21 22:52:12
"1","26","338.780158547512","287.2181108196605",18/12/21 22:52:12
"1","26","338.780158547512","287.2181108196605",18/12/21 22:52:12
"1","26","342.9328201765785","288.0671073237965",18/12/21 22:52:12
"1","26","344.8408558345269","288.6799532745812",18/12/21 22:52:12
"1","26","344.8408558345269","288.6799532745812",18/12/21 22:52:12
"1","73","345.74047448641363","290.02357472997153",18/12/21 22:52:12
"1","73","345.9115694876477","291.46977038541917",18/12/21 22:52:12
"1","73","345.9115694876477","291.46977038541917",18/12/21 22:52:12
"1","73","345.0850365302312","291.0621978219636",18/12/21 22:52:12
"1","73","345.16521111912857","290.9498932850015",18/12/21 22:52:12
"1","73","344.73239970069307","290.19867519501497",18/12/21 22:52:12
"1","73","344.73239970069307","290.19867519501497",18/12/21 22:52:12
"1","73","346.52477042062276","291.5789778376937",18/12/21 22:52:12
"1","73","346.52477042062276","291.5789778376937",18/12/21 22:52:12
"1","73","348.5535768118223","290.27706557207694",18/12/21 22:52:12
"1","73","348.5535768118223","290.27706557207694",18/12/21 22:52:12
"1","73","347.20526781249754","291.8945588629191",18/12/21 22:52:12
"1","73","347.20526781249754","291.8945588629191",18/12/21 22:52:12
"1","73","348.54334426943507","292.6758680189877",18/12/21 22:52:12
"1","73","347.633352161745","291.94070940135106",18/12/21 22:52:12
"1","73","347.633352161745","291.94070940135106",18/12/21 22:52:12
"1","73","348.059488602254","289.9616130857985",18/12/21 22:52:12
"1","73","348.059488602254","289.9616130857985",18/12/21 22:52:12
"1","73","350.1113787894512","292.727562859431",18/12/21 22:52:12
"1","73","350.5313730202342","292.32577785826703",18/12/21 22:52:12
"1","73","350.5313730202342","292.32577785826703",18/12/21 22:52:12
"1","73","350.2990665058435","291.6779820459488",18/12/21 22:52:12
"1","73","350.2990665058435","291.6779820459488",18/12/21 22:52:12
"1","73","348.66487216650273","290.4445315727305",18/12/21 22:52:12
"1","73","348.66487216650273","290.4445315727305",18/12/21 22:52:12
"1","73","347.9863061434061","289.4355313194724",18/12/21 22:52:12
"1","73","347.9863061434061","289.4355313194724",18/12/21 22:52:12
"1","73","345.57878759827844","289.66723103992456",18/12/21 22:52:12
"1","73","345.57878759827844","289.66723103992456",18/12/21 22:52:12
"1","73","345.0452761165891","290.5180890856594",18/12/21 22:52:12
"1","73","345.0452761165891","290.5180890856594",18/12/21 22:52:12
"1","73","344.62208631865997","290.74612123809595",18/12/21 22:52:12
"1","73","344.62208631865997","290.74612123809595",18/12/21 22:52:12
"1","73","344.5447886116603","290.93712454862174",18/12/21 22:52:12
"1","73","343.31012902553675","290.4056844343902",18/12/21 22:52:12
"1","73","343.41673305800197","290.55015195878497",18/12/21 22:52:12
"1","73","343.41673305800197","290.55015195878497",18/12/21 22:52:12
"1","73","345.8750812646233","291.0491523734238",18/12/21 22:52:12
"1","73","344.7754938429842","292.45506431779546",18/12/21 22:52:12
"1","73","344.7754938429842","292.45506431779546",18/12/21 22:52:12
"1","73","345.2605278164728","292.1554260130374",18/12/21 22:52:12
"1","73","345.2605278164728","292.1554260130374",18/12/21 22:52:12
"1","73","347.31886527827805","293.5395237260111",18/12/21 22:52:12
"1","73","347.31886527827805","293.5395237260111",18/12/21 22:52:12
"1","73","345.23362603256265","293.0198415757217",18/12/21 22:52:13
"1","73","345.23362603256265","293.0198415757217",18/12/21 22:52:13
"1","73","344.67633991403056","295.5667102321995",18/12/21 22:52:13
"1","73","344.67633991403056","295.5667102321995",18/12/21 22:52:13
"1","73","343.57850110863734","295.17565854988675",18/12/21 22:52:13
"1","73","343.57850110863734","295.17565854988675",18/12/21 22:52:13
"1","73","344.29954732552903","295.50746384526076",18/12/21 22:52:13
"1","73","343.4831701094891","295.47933093976104",18/12/21 22:52:13
"1","73","343.4831701094891","295.47933093976104",18/12/21 22:52:13
"1","73","343.12080994735084","291.8190200564344",18/12/21 22:52:13
"1","73","343.12080994735084","291.8190200564344",18/12/21 22:52:13
"1","73","343.38130706983645","291.5078758836466",18/12/21 22:52:13
"1","73","346.1702233886011","291.2539309203055",18/12/21 22:52:13
"1","73","346.1702233886011","291.2539309203055",18/12/21 22:52:13
"1","73","345.2110677182421","290.0804862993756",18/12/21 22:52:13
"1","73","345.2110677182421","290.0804862993756",18/12/21 22:52:13
"1","73","347.251508801877","292.2295220224941",18/12/21 22:52:13
"1","73","347.251508801877","292.6546962890796",18/12/21 22:52:13
"1","73","347.933286494734","292.6546962890796",18/12/21 22:52:13
"1","73","347.07350813855254","294.7028774546817",18/12/21 22:52:13
"1","73","347.07350813855254","294.7028774546817",18/12/21 22:52:13
"1","73","346.73204261797","295.5375448919831",18/12/21 22:52:13
"1","73","347.762460294854","295.0343786267277",18/12/21 22:52:13
"1","73","347.762460294854","295.0343786267277",18/12/21 22:52:13
"1","73","348.71324011405324","295.885857690402",18/12/21 22:52:13
"1","73","348.71324011405324","295.885857690402",18/12/21 22:52:13
"1","73","350.4623467205837","293.23444506272955",18/12/21 22:52:13
"1","73","350.4623467205837","293.23444506272955",18/12/21 22:52:13
"1","73","350.6231766483283","292.2170276090832",18/12/21 22:52:13
"1","73","351.19443331734794","292.2170276090832",18/12/21 22:52:13
"1","73","350.55869926994086","291.6422876381898",18/12/21 22:52:13
"1","73","350.55869926994086","291.6422876381898",18/12/21 22:52:13
"1","73","348.0592700723099","292.91755438601285",18/12/21 22:52:13
"1","73","348.5807265232498","290.6559374792506",18/12/21 22:52:13
"1","73","348.5807265232498","290.6559374792506",18/12/21 22:52:13
"1","73","347.1629746619308","294.1053731424376",18/12/21 22:52:13
"1","73","347.1629746619308","294.1053731424376",18/12/21 22:52:13
"1","73","345.6409112880733","293.2451434214998",18/12/21 22:52:13
"1","73","345.6409112880733","293.2451434214998",18/12/21 22:52:13
"1","73","345.7617040788442","293.2417158877603",18/12/21 22:52:13
"1","73","346.8334612612157","293.3028505147874",18/12/21 22:52:13
"1","73","347.08798838214125","293.64763810653614",18/12/21 22:52:13
"1","73","347.08798838214125","293.64763810653614",18/12/21 22:52:13
"1","73","344.9908198363094","293.7555099762366",18/12/21 22:52:13
"1","73","344.9908198363094","293.7555099762366",18/12/21 22:52:13
"1","73","344.32440638650377","292.93217925728874",18/12/21 22:52:13
"1","73","344.32440638650377","292.93217925728874",18/12/21 22:52:13
"1","73","344.37015589902734","291.12832644858713",18/12/21 22:52:13
"1","73","344.37015589902734","291.12832644858713",18/12/21 22:52:13
"1","73","343.43520049754613","291.6510362864813",18/12/21 22:52:13
"1","73","343.47410508844223","291.46548353598433",18/12/21 22:52:14
"1","73","343.47410508844223","291.46548353598433",18/12/21 22:52:14
"1","73","343.13846671901763","290.574538343204",18/12/21 22:52:14
"1","73","343.13846671901763","290.574538343204",18/12/21 22:52:14
"1","73","342.93893404496737","289.79528820774806",18/12/21 22:52:14
"1","73","343.5337930886873","289.69218287434757",18/12/21 22:52:14
"1","73","343.25177506709497","289.69218287434757",18/12/21 22:52:14
"1","73","343.52996752251147","293.096377516354",18/12/21 22:52:14
"1","73","341.94100584100545","291.17205507012244",18/12/21 22:52:14
"1","73","341.94100584100545","291.1819774315688",18/12/21 22:52:14
"1","73","342.0130954756139","291.1819774315688",18/12/21 22:52:14
"1","73","342.9094516065797","292.16936540128",18/12/21 22:52:14
"1","73","342.9094516065797","292.16936540128",18/12/21 22:52:14
"1","73","342.987565641813","294.2011706021656",18/12/21 22:52:14
"1","73","342.987565641813","294.2011706021656",18/12/21 22:52:14
"1","73","343.2825462381716","295.1545050660518",18/12/21 22:52:14
"1","73","343.2825462381716","295.1545050660518",18/12/21 22:52:14
"1","73","343.78494475601264","295.89906442624914",18/12/21 22:52:14
"1","73","343.78494475601264","295.89906442624914",18/12/21 22:52:14
"1","73","343.3863768026949","293.7028067215012",18/12/21 22:52:14
"1","73","342.679588688728","294.0577506723829",18/12/21 22:52:14
"1","73","344.30488270992504","295.9406523758099",18/12/21 22:52:14
"1","73","344.30488270992504","295.9406523758099",18/12/21 22:52:14
"1","73","344.55965211482567","293.6593084386241",18/12/21 22:52:14
"1","73","344.55965211482567","293.6593084386241",18/12/21 22:52:14
"1","73","345.0671941102703","295.20914741362515",18/12/21 22:52:14
"1","73","345.0671941102703","295.20914741362515",18/12/21 22:52:14
"1","73","347.7329520536992","294.145364904623",18/12/21 22:52:14
"1","73","347.7329520536992","294.145364904623",18/12/21 22:52:14
"1","73","348.21057321850697","292.9318913114634",18/12/21 22:52:14
"1","73","348.21057321850697","292.9318913114634",18/12/21 22:52:14
"1","73","348.2156942017584","293.2565645188785",18/12/21 22:52:14
"1","73","348.2156942017584","293.2565645188785",18/12/21 22:52:14
"1","73","347.78413296450293","291.0404761094947",18/12/21 22:52:14
"1","73","346.10139436886203","289.28300969417927",18/12/21 22:52:14
"1","73","346.10139436886203","289.28300969417927",18/12/21 22:52:14
"1","73","344.16205069941634","289.29753102225476",18/12/21 22:52:14
"1","73","344.16205069941634","289.29753102225476",18/12/21 22:52:14
"1","73","344.3351012808599","290.0968272459951",18/12/21 22:52:14
"1","73","343.3943313795408","290.0968272459951",18/12/21 22:52:14
"1","73","342.67819304165374","291.1678557461736",18/12/21 22:52:14
"1","73","342.67819304165374","291.1678557461736",18/12/21 22:52:14
"1","73","343.85045326559214","290.1250044547564",18/12/21 22:52:14
"1","73","343.85045326559214","290.1250044547564",18/12/21 22:52:14
"1","26","343.2597134090272","288.01939283712517",18/12/21 22:52:14
"1","26","343.2597134090272","288.01939283712517",18/12/21 22:52:14
"1","88","338.8656735921329","286.80020799111907",18/12/21 22:52:14
"1","88","338.8656735921329","286.80020799111907",18/12/21 22:52:14
"1","88","334.36903633024104","285.98722023343214",18/12/21 22:52:14
"1","88","334.36903633024104","285.98722023343214",18/12/21 22:52:14
"1","30","331.45075127688386","285.6881180896455",18/12/21 22:52:15
"1","30","329.84744835551885","286.0362733484254",18/12/21 22:52:15
"1","30","329.84744835551885","286.0362733484254",18/12/21 22:52:15
"1","30","325.5012686659236","286.9800409261997",18/12/21 22:52:15
"1","30","323.36407301900334","287.44413033413474",18/12/21 22:52:15
"1","30","321.9810954787316","287.74444220720875",18/12/21 22:52:15
"1","30","320.6858464399296","288.0257039440143",18/12/21 22:52:15
"1","30","320.6858464399296","288.0257039440143",18/12/21 22:52:15
"1","30","319.1293500207309","288.36369522837794",18/12/21 22:52:15
"1","88","320.29617574457126","287.90597697275",18/12/21 22:52:15
"1","88","320.29617574457126","287.90597697275",18/12/21 22:52:15
"1","88","318.8502378119883","286.288339930683",18/12/21 22:52:15
"1","88","318.27344646174765","285.975317179464",18/12/21 22:52:15
"1","88","318.27344646174765","285.975317179464",18/12/21 22:52:15
"1","88","318.9379905040636","286.2299868866439",18/12/21 22:52:15
"1","88","318.9379905040636","286.2299868866439",18/12/21 22:52:15
"1","88","320.6661160951913","287.4184018806729",18/12/21 22:52:15
"1","88","320.6661160951913","287.4184018806729",18/12/21 22:52:15
"1","88","321.4455322837569","285.3779896195698",18/12/21 22:52:15
"1","88","321.9882948560103","285.821370365257",18/12/21 22:52:15
"1","88","322.25068022983925","285.4348073105542",18/12/21 22:52:15
"1","88","322.25068022983925","285.4348073105542",18/12/21 22:52:15
"1","88","320.17380440378236","286.07422492016855",18/12/21 22:52:15
"1","88","319.8076361299937","286.4113127950904",18/12/21 22:52:15
"1","88","320.73820357098043","288.15058144949677",18/12/21 22:52:15
"1","88","320.73820357098043","288.6024643041873",18/12/21 22:52:15
"1","88","320.68377857931995","288.6024643041873",18/12/21 22:52:15
"1","88","321.096854987572","287.7472482402116",18/12/21 22:52:15
"1","88","321.096854987572","287.7472482402116",18/12/21 22:52:15
"1","88","321.44567100533357","286.8030867388983",18/12/21 22:52:15
"1","88","323.83576375350185","286.18677017787536",18/12/21 22:52:15
"1","88","323.83576375350185","286.18677017787536",18/12/21 22:52:15
"1","88","325.49257955036626","286.63686603758964",18/12/21 22:52:15
"1","88","325.49257955036626","286.63686603758964",18/12/21 22:52:15
"1","88","326.49953776231104","286.23006022071763",18/12/21 22:52:15
"1","88","326.167921832087","286.35779026384296",18/12/21 22:52:15
"1","88","326.167921832087","286.35779026384296",18/12/21 22:52:15
"1","88","326.08189017238857","286.6250323226774",18/12/21 22:52:15
"1","88","326.08189017238857","286.6250323226774",18/12/21 22:52:15
"1","88","324.2808774103943","287.9769611192447",18/12/21 22:52:15
"1","88","324.2808774103943","288.36861089747043",18/12/21 22:52:15
"1","88","323.9807015702058","288.29224726934194",18/12/21 22:52:15
"1","88","323.600356305368","288.29224726934194",18/12/21 22:52:15
"1","88","324.58394163226694","287.3144597342313",18/12/21 22:52:15
"1","88","324.58394163226694","287.3144597342313",18/12/21 22:52:15
"1","88","323.26736890443397","286.60801230160394",18/12/21 22:52:15
"1","88","323.26736890443397","286.60801230160394",18/12/21 22:52:15
"1","88","322.3031327320354","288.25339685974166",18/12/21 22:52:15
"1","88","322.3031327320354","288.25339685974166",18/12/21 22:52:15
"1","88","325.4785193683776","287.19763505391916",18/12/21 22:52:15
"1","88","325.4785193683776","287.19763505391916",18/12/21 22:52:16
"1","88","324.6259588178572","286.5044309588487",18/12/21 22:52:16
"1","88","324.559609460625","286.45362584324164",18/12/21 22:52:16
"1","88","324.559609460625","286.45362584324164",18/12/21 22:52:16
"1","88","329.0007203292952","286.8064012102999",18/12/21 22:52:16
"1","88","329.0007203292952","286.8064012102999",18/12/21 22:52:16
"1","88","329.6847406983674","286.9184968712037",18/12/21 22:52:16
"1","88","330.2381057023988","286.50548294931014",18/12/21 22:52:16
"1","88","330.2381057023988","286.50548294931014",18/12/21 22:52:16
"1","88","330.8698971764667","285.68818428725564",18/12/21 22:52:16
"1","88","330.8698971764667","285.68818428725564",18/12/21 22:52:16
"1","88","331.57219812662913","285.36353647667954",18/12/21 22:52:16
"1","88","331.57219812662913","285.36353647667954",18/12/21 22:52:16
"1","88","329.2752376653996","286.21913657013255",18/12/21 22:52:16
"1","88","329.2752376653996","286.21913657013255",18/12/21 22:52:16
"1","88","326.27545535077115","285.91732917045863",18/12/21 22:52:16
"1","88","326.27545535077115","285.91732917045863",18/12/21 22:52:16
"1","88","325.3622198530559","286.8612329871078",18/12/21 22:52:16
"1","88","325.3622198530559","286.8612329871078",18/12/21 22:52:16
"1","88","326.6828924841453","287.8112470756257",18/12/21 22:52:16
"1","88","326.6828924841453","287.8112470756257",18/12/21 22:52:16
"1","88","326.1350851375525","288.2321657660648",18/12/21 22:52:16
"1","88","326.1350851375525","288.2321657660648",18/12/21 22:52:16
"1","88","326.1061813426243","287.01129842103086",18/12/21 22:52:16
"1","88","326.1061813426243","287.01129842103086",18/12/21 22:52:16
"1","88","326.6634126022075","286.83013796213527",18/12/21 22:52:16
"1","88","326.6634126022075","286.83013796213527",18/12/21 22:52:16
"1","88","325.8183592010073","287.14863052398056",18/12/21 22:52:16
"1","88","327.01094366461524","286.26158559082927",18/12/21 22:52:16
"1","88","327.01094366461524","286.26158559082927",18/12/21 22:52:16
"1","88","326.6661889352828","288.2067856028268",18/12/21 22:52:16
"1","88","326.3696862408239","287.6150699002595",18/12/21 22:52:16
"1","88","328.89302755803783","285.795547589866",18/12/21 22:52:16
"1","88","328.89302755803783","285.795547589866",18/12/21 22:52:16
"1","88","329.2330515306669","285.9834029915957",18/12/21 22:52:16
"1","88","329.2330515306669","286.02421706171066",18/12/21 22:52:16
"1","88","327.48577939518145","286.02421706171066",18/12/21 22:52:16
"1","88","325.8119232272723","287.6226569167691",18/12/21 22:52:16
"1","88","326.0999963280086","288.58706685942843",18/12/21 22:52:16
"1","88","325.6424436589808","287.945638153832",18/12/21 22:52:16
"1","88","327.74341756975974","287.3975096790004",18/12/21 22:52:16
"1","88","327.74341756975974","287.3975096790004",18/12/21 22:52:16
"1","88","328.54126598025874","286.41047822138876",18/12/21 22:52:16
"1","88","328.54126598025874","286.41047822138876",18/12/21 22:52:16
"1","88","330.03472749156765","287.641278596839",18/12/21 22:52:16
"1","88","330.03472749156765","287.641278596839",18/12/21 22:52:16
"1","88","329.0204212920013","286.28536732707545",18/12/21 22:52:16
"1","88","329.0204212920013","286.28536732707545",18/12/21 22:52:16
"1","88","329.29523376444223","287.9898139834485",18/12/21 22:52:16
"1","88","329.29523376444223","287.9898139834485",18/12/21 22:52:16
"1","88","327.2904500833183","285.5270634437023",18/12/21 22:52:17
"1","88","326.28187820463006","287.55949237909425",18/12/21 22:52:17
"1","88","326.28187820463006","287.55949237909425",18/12/21 22:52:17
"1","88","328.3619313095468","285.4015142444103",18/12/21 22:52:17
"1","88","327.77842782357885","285.4015142444103",18/12/21 22:52:17
"1","88","326.1378235280043","285.51239377288834",18/12/21 22:52:17
"1","88","326.1378235280043","286.7612129696501",18/12/21 22:52:17
"1","88","327.13943723463115","287.4313382578335",18/12/21 22:52:17
"1","88","327.13943723463115","287.4313382578335",18/12/21 22:52:17
"1","88","326.90070935175794","285.6983065029894",18/12/21 22:52:17
"1","88","328.3990876885129","285.6983065029894",18/12/21 22:52:17
"1","88","326.79737231025337","285.6362102630251",18/12/21 22:52:17
"1","88","326.79737231025337","285.6362102630251",18/12/21 22:52:17
"1","88","326.60918014245976","286.7512959936111",18/12/21 22:52:17
"1","88","326.60918014245976","286.7512959936111",18/12/21 22:52:17
"1","88","326.1511456029371","286.51261381178483",18/12/21 22:52:17
"1","88","326.1511456029371","286.51261381178483",18/12/21 22:52:17
"1","88","323.8298301464946","287.0442916332352",18/12/21 22:52:17
"1","88","323.8298301464946","287.0442916332352",18/12/21 22:52:17
"1","88","326.51269901659686","287.5370301552131",18/12/21 22:52:17
"1","88","325.02412443152593","287.3211743409266",18/12/21 22:52:17
"1","88","325.02412443152593","287.3211743409266",18/12/21 22:52:17
"1","88","327.00889605366746","287.89575341814276",18/12/21 22:52:17
"1","88","327.00889605366746","287.89575341814276",18/12/21 22:52:17
"1","88","328.067284378527","287.6359206640194",18/12/21 22:52:17
"1","88","329.438225729478","286.50809469500064",18/12/21 22:52:17
"1","88","326.81342454609745","287.9944286043199",18/12/21 22:52:17
"1","88","326.81342454609745","287.9944286043199",18/12/21 22:52:17
"1","88","328.70232382620236","287.91388280921166",18/12/21 22:52:17
"1","88","328.2555765408456","287.0904380924295",18/12/21 22:52:17
"1","88","328.2555765408456","287.0904380924295",18/12/21 22:52:17
"1","88","328.5631596886175","285.728762376719",18/12/21 22:52:17
"1","88","328.5631596886175","285.728762376719",18/12/21 22:52:17
"1","88","327.43201213159074","286.11371861420554",18/12/21 22:52:17
"1","88","328.952735850112","286.71088452289695",18/12/21 22:52:17
"1","88","328.952735850112","286.71088452289695",18/12/21 22:52:17
"1","88","326.9129001613129","287.7668821535386",18/12/21 22:52:17
"1","88","326.9129001613129","287.7668821535386",18/12/21 22:52:17
"1","88","327.8885669791845","288.01461761947337",18/12/21 22:52:17
"1","88","327.8885669791845","288.01461761947337",18/12/21 22:52:17
"1","88","327.4620355876659","287.21237905959333",18/12/21 22:52:17
"1","88","327.4620355876659","287.21237905959333",18/12/21 22:52:17
"1","88","325.445190591471","285.746417385661",18/12/21 22:52:17
"1","88","324.39370586186243","287.5746208188155",18/12/21 22:52:17
"1","88","324.3781680272736","286.82362487343806",18/12/21 22:52:17
"1","88","324.3781680272736","286.82362487343806",18/12/21 22:52:17
"1","88","323.43200867645595","288.1638036481597",18/12/21 22:52:17
"1","88","324.6240356377903","288.22072010785246",18/12/21 22:52:17
"1","88","324.6240356377903","288.22072010785246",18/12/21 22:52:17
"1","88","326.20504088060324","287.77793216310204",18/12/21 22:52:18
"1","88","326.87391043251813","285.8035963257698",18/12/21 22:52:18
"1","88","326.87391043251813","285.8035963257698",18/12/21 22:52:18
"1","88","326.59989465122294","285.9147861944224",18/12/21 22:52:18
"1","88","326.59989465122294","285.9147861944224",18/12/21 22:52:18
"1","88","326.84725012235117","286.13558148431105",18/12/21 22:52:18
"1","88","326.84725012235117","286.13558148431105",18/12/21 22:52:18
"1","88","327.73896439730436","286.81252023185664",18/12/21 22:52:18
"1","88","327.73896439730436","286.81252023185664",18/12/21 22:52:18
"1","88","326.4073117592007","287.2234264401877",18/12/21 22:52:18
"1","88","326.4073117592007","287.2234264401877",18/12/21 22:52:18
"1","88","325.8243798555372","287.6566978187115",18/12/21 22:52:18
"1","88","326.2429071626444","286.5915984930378",18/12/21 22:52:18
"1","88","324.24643186670005","286.62817168401915",18/12/21 22:52:18
"1","88","325.6193237788437","286.13170665326095",18/12/21 22:52:18
"1","88","325.6193237788437","286.13170665326095",18/12/21 22:52:18
"1","88","325.79957826970843","286.1088556098428",18/12/21 22:52:18
"1","88","325.79957826970843","286.1088556098428",18/12/21 22:52:18
"1","88","327.0167799993404","286.44104639729386",18/12/21 22:52:18
"1","88","327.6267201600329","285.8609097044871",18/12/21 22:52:18
"1","88","328.37541094033384","287.2384682082245",18/12/21 22:52:18
"1","88","328.37541094033384","287.2384682082245",18/12/21 22:52:18
"1","88","329.83163153966876","286.18324687633856",18/12/21 22:52:18
"1","88","329.83163153966876","286.18324687633856",18/12/21 22:52:18
"1","88","330.744777306209","286.17422477508654",18/12/21 22:52:18
"1","88","330.744777306209","286.17422477508654",18/12/21 22:52:18
"1","88","329.6854150224285","286.6234293956824",18/12/21 22:52:18
"1","88","329.6854150224285","286.6234293956824",18/12/21 22:52:18
"1","88","329.7117813413394","286.694041409912",18/12/21 22:52:18
"1","88","329.7117813413394","286.694041409912",18/12/21 22:52:18
"1","88","329.7117813413394","286.694041409912",18/12/21 22:52:18
"1","88","330.5253728217626","286.5579058113209",18/12/21 22:52:18
"1","88","330.5253728217626","286.5579058113209",18/12/21 22:52:18
"1","88","329.5537681336359","287.3605603209736",18/12/21 22:52:18
"1","88","329.5537681336359","287.79460043378384",18/12/21 22:52:18
"1","88","327.1777060303941","288.5147497145304",18/12/21 22:52:18
"1","88","327.1777060303941","288.5147497145304",18/12/21 22:52:18
"1","88","330.40139063538174","286.5749238974169",18/12/21 22:52:18
"1","88","330.40139063538174","286.5749238974169",18/12/21 22:52:18
"1","88","329.358937627608","286.8140004099849",18/12/21 22:52:18
"1","88","329.358937627608","286.8140004099849",18/12/21 22:52:18
"1","88","329.6020412420903","287.40035162773165",18/12/21 22:52:18
"1","88","329.6020412420903","287.40035162773165",18/12/21 22:52:18
"1","88","329.6925683335569","287.440381854626",18/12/21 22:52:18
"1","88","329.6925683335569","287.440381854626",18/12/21 22:52:18
"1","88","330.133857681196","285.8855349295722",18/12/21 22:52:18
"1","88","330.133857681196","285.8855349295722",18/12/21 22:52:18
"1","88","329.2931516935647","287.42267277776614",18/12/21 22:52:18
"1","88","329.2931516935647","287.42267277776614",18/12/21 22:52:18
"1","88","330.96875753149686","287.0824266700202",18/12/21 22:52:18
"1","88","330.96875753149686","287.0773959093231",18/12/21 22:52:19
"1","88","329.35454753537","287.0773959093231",18/12/21 22:52:19
"1","88","327.50494115638384","287.555163867507",18/12/21 22:52:19
"1","88","327.50494115638384","287.555163867507",18/12/21 22:52:19
"1","88","328.0749628389137","287.7674363828588",18/12/21 22:52:19
"1","88","328.0749628389137","287.7674363828588",18/12/21 22:52:19
"1","88","327.45634872437904","287.97590141231086",18/12/21 22:52:19
"1","88","327.45634872437904","287.97590141231086",18/12/21 22:52:19
"1","88","327.3952798532273","288.5956624253352",18/12/21 22:52:19
"1","88","327.3952798532273","288.5956624253352",18/12/21 22:52:19
"1","88","326.8197546953959","287.5668370061308",18/12/21 22:52:19
"1","88","326.8197546953959","287.5668370061308",18/12/21 22:52:19
"1","88","327.2650958197188","288.41818126397675",18/12/21 22:52:19
"1","88","327.2650958197188","288.41818126397675",18/12/21 22:52:19
"1","88","325.25385635684387","287.64862571406553",18/12/21 22:52:19
"1","88","326.2965802138606","287.36632874080914",18/12/21 22:52:19
"1","88","326.2965802138606","287.36632874080914",18/12/21 22:52:19
"1","88","323.8014435075335","288.1546049382663",18/12/21 22:52:19
"1","88","323.8014435075335","288.1546049382663",18/12/21 22:52:19
"1","88","324.2749705119439","286.8417066030252",18/12/21 22:52:19
"1","88","324.4856170727833","288.29276186470435",18/12/21 22:52:19
"1","88","324.4856170727833","288.29276186470435",18/12/21 22:52:19
"1","88","323.5478943398606","288.3630981446747",18/12/21 22:52:19
"1","88","324.1339961863016","288.4946610206407",18/12/21 22:52:19
"1","88","324.1339961863016","288.4946610206407",18/12/21 22:52:19
"1","88","322.7955487606373","287.40946133461307",18/12/21 22:52:19
"1","88","322.7955487606373","287.40946133461307",18/12/21 22:52:19
"1","88","323.2772180048075","287.4451740025391",18/12/21 22:52:19
"1","88","323.2772180048075","287.4451740025391",18/12/21 22:52:19
"1","88","323.129842595001","287.2801665723762",18/12/21 22:52:19
"1","88","323.129842595001","287.2801665723762",18/12/21 22:52:19
"1","88","322.4013919227806","288.4100717193461",18/12/21 22:52:19
"1","88","322.4013919227806","288.4100717193461",18/12/21 22:52:19
"1","88","324.9247093193796","288.0747718119113",18/12/21 22:52:19
"1","88","324.9247093193796","288.0747718119113",18/12/21 22:52:19
"1","88","324.9825252959864","287.2589923919166",18/12/21 22:52:19
"1","88","323.5076944338235","287.118979132565",18/12/21 22:52:19
"1","88","323.5076944338235","287.118979132565",18/12/21 22:52:19
"1","88","321.08650804509756","286.635315404092",18/12/21 22:52:19
"1","88","321.08650804509756","286.635315404092",18/12/21 22:52:19
"1","88","319.2339652479382","286.298008406812",18/12/21 22:52:19
"1","88","322.4046675571479","287.1537599908478",18/12/21 22:52:19
"1","88","322.4046675571479","287.1537599908478",18/12/21 22:52:19
"1","88","318.9823222284333","288.59875797162056",18/12/21 22:52:19
"1","88","318.9823222284333","288.59875797162056",18/12/21 22:52:19
"1","88","319.4152071931921","286.52805169352905",18/12/21 22:52:19
"1","88","319.4152071931921","286.52805169352905",18/12/21 22:52:19
"1","88","319.91527605174605","288.629657316844",18/12/21 22:52:19
"1","88","319.12854720261583","287.42806790491437",18/12/21 22:52:19
"1","88","319.12854720261583","287.42806790491437",18/12/21 22:52:19
"1","88","319.14929355172677","288.15141807309766",18/12/21 22:52:20
"1","88","319.14929355172677","288.15141807309766",18/12/21 22:52:20
"1","88","317.10174603549723","285.96280176285626",18/12/21 22:52:20
"1","88","317.6462642587425","285.6864723519441",18/12/21 22:52:20
"1","88","317.6462642587425","285.6864723519441",18/12/21 22:52:20
"1","88","317.4525254669863","285.6863209269691",18/12/21 22:52:20
"1","88","317.4525254669863","285.6863209269691",18/12/21 22:52:20
"1","88","317.92670825536425","287.73339693926926",18/12/21 22:52:20
"1","88","317.12816938413533","287.5609261446954",18/12/21 22:52:20
"1","88","317.12816938413533","287.5609261446954",18/12/21 22:52:20
"1","88","317.9958907597309","286.56968914102356",18/12/21 22:52:20
"1","88","317.5003162322651","286.54481119539975",18/12/21 22:52:20
"1","88","317.5003162322651","286.54481119539975",18/12/21 22:52:20
"1","88","317.79766045874084","285.7453468002612",18/12/21 22:52:20
"1","88","317.79766045874084","285.7453468002612",18/12/21 22:52:20
"1","88","317.04163091738207","287.33944222785834",18/12/21 22:52:20
"1","88","317.04163091738207","287.33944222785834",18/12/21 22:52:20
"1","88","318.7628989761658","287.73565239691675",18/12/21 22:52:20
"1","88","318.7628989761658","287.73565239691675",18/12/21 22:52:20
"1","88","317.2579835570608","285.9744845501539",18/12/21 22:52:20
"1","88","317.2077733917059","285.9848318120707",18/12/21 22:52:20
"1","88","317.1759413966094","285.99285905533765",18/12/21 22:52:20
"1","88","317.1759413966094","285.99285905533765",18/12/21 22:52:20
"1","88","317.963431189549","286.0764835750368",18/12/21 22:52:20
"1","88","318.4513014019553","285.7038333680021",18/12/21 22:52:20
"1","88","318.4513014019553","285.7038333680021",18/12/21 22:52:20
"1","88","318.5126750203578","286.56889058044135",18/12/21 22:52:20
"1","88","318.5126750203578","286.56889058044135",18/12/21 22:52:20
"1","88","317.3771381611804","287.0688893831062",18/12/21 22:52:20
"1","88","317.25389011071707","287.0688893831062",18/12/21 22:52:20
"1","88","317.42423774504215","285.85749494375517",18/12/21 22:52:20
"1","88","317.42423774504215","285.85749494375517",18/12/21 22:52:20
"1","88","317.1029496924986","286.06307933758023",18/12/21 22:52:20
"1","88","319.4454764342258","286.45122658762347",18/12/21 22:52:20
"1","88","320.1057758539061","286.9479490767469",18/12/21 22:52:20
"1","88","320.1057758539061","286.9479490767469",18/12/21 22:52:20
"1","88","318.11663227143094","288.22516083132695",18/12/21 22:52:20
"1","88","318.11663227143094","288.22516083132695",18/12/21 22:52:20
"1","88","318.97914006118214","287.8890389122657",18/12/21 22:52:20
"1","88","318.97914006118214","287.8890389122657",18/12/21 22:52:20
"1","88","319.17051758741667","287.5352887199235",18/12/21 22:52:20
"1","88","317.8110956660524","287.70637082051036",18/12/21 22:52:20
"1","88","318.0162503076555","287.94331311691343",18/12/21 22:52:20
"1","88","318.0162503076555","287.94331311691343",18/12/21 22:52:20
"1","88","317.8137089294738","288.143919068549",18/12/21 22:52:20
"1","88","318.66025398834984","287.61876457902764",18/12/21 22:52:20
"1","88","319.3856136232042","288.07391249014324",18/12/21 22:52:20
"1","88","319.3856136232042","288.07391249014324",18/12/21 22:52:20
"1","88","320.0247331992971","286.0010743608858",18/12/21 22:52:20
"1","88","320.0247331992971","286.0010743608858",18/12/21 22:52:20
"1","88","319.7580710851703","285.8476552468905",18/12/21 22:52:21
"1","88","319.7580710851703","285.8476552468905",18/12/21 22:52:21
"1","88","320.5365253799227","285.5578955413548",18/12/21 22:52:21
"1","88","320.53901009854343","285.3837440097419",18/12/21 22:52:21
"1","88","319.6563681525305","285.9814249394248",18/12/21 22:52:21
"1","88","319.6563681525305","285.9814249394248",18/12/21 22:52:21
"1","88","318.62707581374144","287.14937695838273",18/12/21 22:52:21
"1","88","318.62707581374144","287.14937695838273",18/12/21 22:52:21
"1","88","319.9780201488094","288.6209591046613",18/12/21 22:52:21
"1","88","317.6539032940897","285.7697613111907",18/12/21 22:52:21
"1","88","317.6539032940897","285.7697613111907",18/12/21 22:52:21
"1","88","317.3837243747921","287.4015002840919",18/12/21 22:52:21
"1","88","317.3837243747921","287.4015002840919",18/12/21 22:52:21
"1","88","319.80498835657164","287.05648160288257",18/12/21 22:52:21
"1","88","319.80498835657164","287.05648160288257",18/12/21 22:52:21
"1","88","318.65255474217906","287.97222353729654",18/12/21 22:52:21
"1","88","318.65255474217906","287.97222353729654",18/12/21 22:52:21
"1","88","317.6918959135457","286.84673203893607",18/12/21 22:52:21
"1","88","319.48517676013046","285.8590494329232",18/12/21 22:52:21
"1","88","319.48517676013046","285.8590494329232",18/12/21 22:52:21
"1","88","318.042167747211","286.8307772963508",18/12/21 22:52:21
"1","88","318.6374174464768","287.0934787467886",18/12/21 22:52:21
"1","88","318.6374174464768","287.0934787467886",18/12/21 22:52:21
"1","88","320.1017741697489","288.3372131404415",18/12/21 22:52:21
"1","88","320.1017741697489","288.3372131404415",18/12/21 22:52:21
"1","88","320.036732440957","287.9501465171271",18/12/21 22:52:21
"1","88","318.4270776629671","287.815791464122",18/12/21 22:52:21
"1","88","318.4270776629671","287.815791464122",18/12/21 22:52:21
"1","88","317.73495982376613","288.46815302744113",18/12/21 22:52:21
"1","88","317.73495982376613","288.46815302744113",18/12/21 22:52:21
"1","88","317.63533244882444","288.4964516175796",18/12/21 22:52:21
"1","88","317.63533244882444","288.4964516175796",18/12/21 22:52:21
"1","88","317.46530660535274","286.20930747244864",18/12/21 22:52:21
"1","88","317.46530660535274","286.20930747244864",18/12/21 22:52:21
"1","88","318.259289619591","287.542681339939",18/12/21 22:52:21
"1","88","318.7834960240387","286.42145391944325",18/12/21 22:52:21
"1","88","318.7834960240387","287.15801251856425",18/12/21 22:52:21
"1","88","317.9555627811139","287.15801251856425",18/12/21 22:52:21
"1","88","317.57830253943763","286.78861331643844",18/12/21 22:52:21
"1","88","319.58860871849055","287.227552338211",18/12/21 22:52:21
"1","88","319.58860871849055","287.227552338211",18/12/21 22:52:21
"1","88","320.76681612453785","287.0056654609098",18/12/21 22:52:21
"1","88","320.76681612453785","287.0056654609098",18/12/21 22:52:21
"1","88","321.4748022990468","287.65061645851415",18/12/21 22:52:21
"1","88","320.57827742434984","286.7720698040843",18/12/21 22:52:21
"1","88","320.57827742434984","286.7720698040843",18/12/21 22:52:21
"1","88","320.082908148879","287.60340905655676",18/12/21 22:52:21
"1","88","319.9141664668252","287.5618183802778",18/12/21 22:52:21
"1","88","319.9141664668252","287.5618183802778",18/12/21 22:52:21
"1","88","320.336798609241","286.940876128401",18/12/21 22:52:21
"1","88","318.51582663243767","285.8655024305362",18/12/21 22:52:22
"1","88","318.3300539325087","286.76718932125715",18/12/21 22:52:22
"1","88","318.3300539325087","286.76718932125715",18/12/21 22:52:22
"1","88","317.03407980449464","285.7861551955239",18/12/21 22:52:22
"1","88","317.03407980449464","285.7861551955239",18/12/21 22:52:22
"1","88","318.4701849933393","288.09959733405344",18/12/21 22:52:22
"1","88","318.4701849933393","288.09959733405344",18/12/21 22:52:22
"1","88","320.4465444768483","288.59255649756",18/12/21 22:52:22
"1","88","320.4465444768483","288.59255649756",18/12/21 22:52:22
"1","88","322.3308771400641","288.2635356619786",18/12/21 22:52:22
"1","88","323.1307018402316","287.4458380927493",18/12/21 22:52:22
"1","88","323.1307018402316","287.4458380927493",18/12/21 22:52:22
"1","88","321.8840028569966","286.9964456872721",18/12/21 22:52:22
"1","88","321.8840028569966","286.9964456872721",18/12/21 22:52:22
"1","88","323.17223334963614","285.6648574820324",18/12/21 22:52:22
"1","88","322.98469340373833","287.07134313938377",18/12/21 22:52:22
"1","88","322.98469340373833","287.07134313938377",18/12/21 22:52:22
"1","88","322.1118815407794","285.65465900680005",18/12/21 22:52:22
"1","88","322.1118815407794","285.65465900680005",18/12/21 22:52:22
"1","88","320.2301630254372","286.3136444350427",18/12/21 22:52:22
"1","88","320.2301630254372","286.3136444350427",18/12/21 22:52:22
"1","88","321.82649875374744","287.26554060709236",18/12/21 22:52:22
"1","88","321.82649875374744","287.26554060709236",18/12/21 22:52:22
"1","88","323.5962215330819","288.52389200390274",18/12/21 22:52:22
"1","88","323.5962215330819","288.52389200390274",18/12/21 22:52:22
"1","88","323.6756518786669","287.13420083891447",18/12/21 22:52:22
"1","88","323.6756518786669","287.13420083891447",18/12/21 22:52:22
"1","88","324.3177937917129","287.2446016366362",18/12/21 22:52:22
"1","88","324.7526912797533","288.2372630880982",18/12/21 22:52:22
"1","88","324.7526912797533","288.2372630880982",18/12/21 22:52:22
"1","88","323.38131294262666","287.7860484940278",18/12/21 22:52:22
"1","88","324.0293579702166","286.20991280053295",18/12/21 22:52:22
"1","88","324.0293579702166","286.20991280053295",18/12/21 22:52:22
"1","88","322.34234607551036","287.13801449967383",18/12/21 22:52:22
"1","88","322.34234607551036","287.13801449967383",18/12/21 22:52:22
"1","88","322.0797917352845","287.78237268978376",18/12/21 22:52:22
"1","88","322.35461649838305","286.32730474980474",18/12/21 22:52:22
"1","88","322.35461649838305","286.32730474980474",18/12/21 22:52:22
"1","88","320.4481716819498","286.2563365341617",18/12/21 22:52:22
"1","88","320.4481716819498","286.2563365341617",18/12/21 22:52:22
"1","88","320.4226702010702","286.82845994601746",18/12/21 22:52:22
"1","88","320.57948010000416","286.3544130412039",18/12/21 22:52:22
"1","88","320.57948010000416","286.3544130412039",18/12/21 22:52:22
"1","88","322.1659174955677","287.76024802145184",18/12/21 22:52:22
"1","88","323.4754691872985","287.73980902240413",18/12/21 22:52:22
"1","88","323.4754691872985","287.73980902240413",18/12/21 22:52:22
"1","88","323.676834306676","287.6729391253702",18/12/21 22:52:22
"1","88","323.676834306676","287.6729391253702",18/12/21 22:52:22
"1","88","322.8449985573245","286.01085378733586",18/12/21 22:52:22
"1","88","322.8449985573245","286.01085378733586",18/12/21 22:52:22
"1","88","320.17254330727235","285.8857171625329",18/12/21 22:52:23
"1","88","320.17254330727235","285.8857171625329",18/12/21 22:52:23
"1","88","320.8009403454526","287.1776776686677",18/12/21 22:52:23
"1","88","322.76275471427573","287.49610499254516",18/12/21 22:52:23
"1","88","322.76275471427573","287.49610499254516",18/12/21 22:52:23
"1","88","320.93697542884433","287.0740292606863",18/12/21 22:52:23
"1","88","320.93697542884433","287.0740292606863",18/12/21 22:52:23
"1","88","320.5318379749841","288.13574220187616",18/12/21 22:52:23
"1","88","320.5318379749841","288.13574220187616",18/12/21 22:52:23
"1","88","319.84694504663656","287.7085216869057",18/12/21 22:52:23
"1","88","319.84694504663656","287.7085216869057",18/12/21 22:52:23
"1","88","318.95139489895877","286.20961172152806",18/12/21 22:52:23
"1","88","316.9397661967832","286.8725832898907",18/12/21 22:52:23
"1","88","316.9397661967832","286.8725832898907",18/12/21 22:52:23
"1","88","318.816725400758","287.2007994654538",18/12/21 22:52:23
"1","88","320.32150872609714","285.5547834933022",18/12/21 22:52:23
"1","88","320.32150872609714","285.5547834933022",18/12/21 22:52:23
"1","88","320.0629383947017","285.9011586395219",18/12/21 22:52:23
"1","88","320.0629383947017","285.9011586395219",18/12/21 22:52:23
"1","88","319.78917561161893","286.1727384257459",18/12/21 22:52:23
"1","88","319.78917561161893","286.1727384257459",18/12/21 22:52:23
"1","88","317.1183627292595","286.0198432125197",18/12/21 22:52:23
"1","88","317.1183627292595","286.0198432125197",18/12/21 22:52:23
"1","88","318.0994845813217","285.36312650488657",18/12/21 22:52:23
"1","88","318.20935074722166","285.5959086376817",18/12/21 22:52:23
"1","88","319.409885566468","287.9465770305448",18/12/21 22:52:23
"1","88","319.409885566468","287.9465770305448",18/12/21 22:52:23
"1","88","320.74977163949535","288.382155727542",18/12/21 22:52:23
"1","88","321.50737933346636","288.68175180156743",18/12/21 22:52:23
"1","88","321.50737933346636","288.68175180156743",18/12/21 22:52:23
"1","88","320.0700062687039","287.8127677449022",18/12/21 22:52:23
"1","88","320.0700062687039","287.8127677449022",18/12/21 22:52:23
"1","88","318.7068745149221","287.37828897732425",18/12/21 22:52:23
