"floorId","partitionId","location_x","location_y","timeStamp"
"2","80","331.45956059101906","278.8611351625001",18/12/21 22:56:27
"2","80","330.4384753324905","280.4303769847156",18/12/21 22:56:27
"2","80","329.5445326746852","281.8042213268739",18/12/21 22:56:27
"2","80","328.66427611674914","283.15703236146214",18/12/21 22:56:27
"2","80","327.76348992803145","284.5413940965899",18/12/21 22:56:27
"2","90","325.74900237805815","285.589720704697",18/12/21 22:56:27
"2","90","323.4023074857768","286.14552412691563",18/12/21 22:56:28
"2","90","321.66775926700586","286.5563435475259",18/12/21 22:56:28
"2","90","320.2955906931405","286.88133508849006",18/12/21 22:56:28
"2","90","317.95943675569987","287.4346419361462",18/12/21 22:56:28
"2","91","315.6831719241938","287.16042744927864",18/12/21 22:56:28
"2","91","314.1328072436049","286.5053505484501",18/12/21 22:56:28
"2","91","312.85844153428565","285.96689172657733",18/12/21 22:56:28
"2","91","311.11187263530394","285.22891249127",18/12/21 22:56:28
"2","16","310.57446488089","284.0768273091611",18/12/21 22:56:28
"2","16","309.86387912250933","282.48376531039935",18/12/21 22:56:28
"2","16","309.52516051605835","281.7243921681057",18/12/21 22:56:28
"2","16","309.93868803512294","281.54946272992294",18/12/21 22:56:28
"2","16","311.3944587221806","281.51030396686684",18/12/21 22:56:28
"2","16","310.52278127650555","282.4817597645856",18/12/21 22:56:28
"2","16","310.38217487468347","282.3419087936194",18/12/21 22:56:28
"2","16","311.33801225402675","282.8376270082769",18/12/21 22:56:28
"2","16","310.2184848253979","281.40103999023",18/12/21 22:56:28
"2","16","309.8027717026855","279.72304798634246",18/12/21 22:56:28
"2","16","308.778271979426","277.65415761162905",18/12/21 22:56:28
"2","16","308.83647282536504","279.5333152023379",18/12/21 22:56:28
"2","16","309.38982953838143","279.8422448945349",18/12/21 22:56:28
"2","16","309.28233883055236","279.5719057691924",18/12/21 22:56:28
"2","16","308.43997280472803","280.4332831764576",18/12/21 22:56:28
"2","16","308.55251269026144","280.3065616426373",18/12/21 22:56:28
"2","16","308.5470459012295","280.3066605446851",18/12/21 22:56:28
"2","16","308.07273059146036","282.12372703174367",18/12/21 22:56:28
"2","16","310.0081870889381","281.8879941294257",18/12/21 22:56:28
"2","16","308.47061016182835","280.0486489114882",18/12/21 22:56:28
"2","16","309.23135207671146","279.5305856692191",18/12/21 22:56:28
"2","16","310.9047624139186","278.7231037703223",18/12/21 22:56:28
"2","16","310.5156826449228","279.0500768540933",18/12/21 22:56:28
"2","16","310.8718433347292","279.3174739256861",18/12/21 22:56:28
"2","16","309.8488581583514","280.0287434363863",18/12/21 22:56:28
"2","16","309.9073169360905","277.5459487920234",18/12/21 22:56:28
"2","16","310.66003133870373","278.33359122213704",18/12/21 22:56:28
"2","16","310.6744027965283","278.3225225873619",18/12/21 22:56:28
"2","16","309.91181423515366","278.35395769045084",18/12/21 22:56:28
"2","16","310.0795306219427","278.01803178075915",18/12/21 22:56:28
"2","16","311.2232695488569","277.70363153095593",18/12/21 22:56:28
"2","16","309.51986645305794","278.13922530134636",18/12/21 22:56:28
"2","16","310.3131336203792","279.31106266391276",18/12/21 22:56:28
"2","16","309.8614448622182","278.027940391078",18/12/21 22:56:28
"2","16","310.02899798114737","280.20638150821327",18/12/21 22:56:28
"2","16","310.804089680549","282.10954449238847",18/12/21 22:56:28
"2","16","310.50111067500694","282.0804470323227",18/12/21 22:56:28
"2","16","308.7855587297711","282.02560972242463",18/12/21 22:56:28
"2","16","308.7595462566131","281.19048159161304",18/12/21 22:56:28
"2","16","307.2892556381646","281.0126794345929",18/12/21 22:56:28
"2","16","306.95675901024384","281.6879476410321",18/12/21 22:56:28
"2","16","307.61002837083265","282.64711728288137",18/12/21 22:56:28
"2","16","307.4780981970117","282.8012950028531",18/12/21 22:56:29
"2","16","308.22879211003504","281.25647273574873",18/12/21 22:56:29
"2","16","308.253565484725","280.49069483764185",18/12/21 22:56:29
"2","16","307.42689292031275","280.0053796087676",18/12/21 22:56:29
"2","16","306.95069975865874","278.84365290646633",18/12/21 22:56:29
"2","16","307.44658603875644","278.8570114323101",18/12/21 22:56:29
"2","16","307.39355776764484","278.1451499762494",18/12/21 22:56:29
"2","16","307.1066473084651","278.9978438744904",18/12/21 22:56:29
"2","16","307.6324766868556","280.1802231967321",18/12/21 22:56:29
"2","16","307.5302456023939","279.88680373164084",18/12/21 22:56:29
"2","16","308.1793039796556","281.66578510689226",18/12/21 22:56:29
"2","16","310.197732783858","282.987827294403",18/12/21 22:56:29
"2","16","309.50374594321727","283.4882122347756",18/12/21 22:56:29
"2","16","307.0885628590743","282.9911885460275",18/12/21 22:56:29
"2","16","307.1660224827552","282.9628286176986",18/12/21 22:56:29
"2","16","308.65755746033517","282.29216382163514",18/12/21 22:56:29
"2","16","308.67150362141064","282.4842064419223",18/12/21 22:56:29
"2","16","308.661082186877","282.1990103700805",18/12/21 22:56:29
"2","16","308.7334405606818","282.20655347026315",18/12/21 22:56:29
"2","16","310.75686747512714","283.10479336778815",18/12/21 22:56:29
"2","16","310.4114686153931","281.7019671453485",18/12/21 22:56:29
"2","16","309.02612581922983","279.9309875044059",18/12/21 22:56:29
"2","16","307.7402065767379","279.7874029582387",18/12/21 22:56:29
"2","16","309.41454966649866","279.9787471427265",18/12/21 22:56:29
"2","16","309.41628280753395","279.9751248964912",18/12/21 22:56:29
"2","16","310.7212924246119","280.4192068708853",18/12/21 22:56:29
"2","16","310.7368377160556","282.87681103426775",18/12/21 22:56:29
"2","16","309.7264724252371","283.83537690225216",18/12/21 22:56:29
"2","16","309.55433592506347","284.68255942922383",18/12/21 22:56:29
"2","16","309.3806613276559","283.8336740662872",18/12/21 22:56:29
"2","16","309.846344508961","283.340759912757",18/12/21 22:56:29
"2","16","310.43548792769946","282.41427782027824",18/12/21 22:56:29
"2","16","309.8936465171213","282.4077066290305",18/12/21 22:56:29
"2","16","309.8022651042875","283.08279636669437",18/12/21 22:56:29
"2","16","309.95182116914407","280.9945512596661",18/12/21 22:56:29
"2","16","310.84955055016707","279.4720610354507",18/12/21 22:56:29
"2","16","310.8634241912631","279.5684415442611",18/12/21 22:56:29
"2","16","309.200200355084","281.3177656243791",18/12/21 22:56:29
"2","16","307.96211122884216","281.0138032202579",18/12/21 22:56:29
"2","16","307.78096148993444","282.0295582054857",18/12/21 22:56:29
"2","16","307.7079001638268","281.8977366497267",18/12/21 22:56:29
"2","16","306.9362335797258","280.32297675967595",18/12/21 22:56:29
"2","16","307.2605574275168","279.5911872902646",18/12/21 22:56:29
"2","16","307.22877382355915","279.70914594180294",18/12/21 22:56:29
"2","16","308.39756048427193","280.9580857113267",18/12/21 22:56:29
"2","16","307.1425762385933","281.15780299673725",18/12/21 22:56:29
"2","16","307.1978358654981","279.29498136130974",18/12/21 22:56:29
"2","16","308.0060382223438","279.44025083108795",18/12/21 22:56:29
"2","16","308.3093988427305","279.39521690342434",18/12/21 22:56:29
"2","16","308.3145617656878","279.47233767147",18/12/21 22:56:29
"2","16","310.01377513194024","279.6188491001336",18/12/21 22:56:30
"2","16","311.30500755238614","280.1775428647849",18/12/21 22:56:30
"2","16","310.9694220380912","280.6063686994698",18/12/21 22:56:30
"2","16","309.88642172172644","282.7119541313927",18/12/21 22:56:30
"2","16","309.3170517457757","282.8847331680697",18/12/21 22:56:30
"2","16","309.3379654286812","282.67314131486137",18/12/21 22:56:30
"2","16","310.48467416982663","281.52997072797956",18/12/21 22:56:30
"2","16","309.3840531139361","280.0417671773947",18/12/21 22:56:30
"2","16","309.35574058056574","280.052814038051",18/12/21 22:56:30
"2","16","310.7326666253706","280.0882473998592",18/12/21 22:56:30
"2","16","309.8083157950765","279.3681604374142",18/12/21 22:56:30
"2","16","309.47317515094295","279.0162070900068",18/12/21 22:56:30
"2","16","310.44275164241367","281.31404663619696",18/12/21 22:56:30
"2","16","309.364373820408","281.13744174075885",18/12/21 22:56:30
"2","16","308.99111745565654","281.0871075709728",18/12/21 22:56:30
"2","16","309.70493125712875","281.76352387031915",18/12/21 22:56:30
"2","16","308.8044546620463","281.0273327984044",18/12/21 22:56:30
"2","16","307.0300519397094","281.6368008056618",18/12/21 22:56:30
"2","16","308.9188560791136","283.0125049778057",18/12/21 22:56:30
"2","16","307.9979208548991","283.39553222922217",18/12/21 22:56:30
"2","16","307.6281985543369","284.1225124200575",18/12/21 22:56:30
"2","16","307.86723163979696","283.8476284527609",18/12/21 22:56:30
"2","16","307.86306285076745","283.84404409162704",18/12/21 22:56:30
"2","16","307.3918180294546","283.50803042138705",18/12/21 22:56:30
"2","16","308.45227525885343","283.32144850599644",18/12/21 22:56:30
"2","16","309.20890969318543","284.08371333873663",18/12/21 22:56:30
"2","16","309.00575641602455","283.9753305477702",18/12/21 22:56:30
"2","16","308.80017177129986","282.91474834915147",18/12/21 22:56:30
"2","16","309.6058198498762","282.451878165515",18/12/21 22:56:30
"2","16","309.1763730859249","281.9697748571608",18/12/21 22:56:30
"2","16","309.1652702224146","281.9762632725565",18/12/21 22:56:30
"2","16","311.39212341294535","281.67065817733686",18/12/21 22:56:30
"2","16","311.2120281660877","281.78413341911454",18/12/21 22:56:30
"2","16","310.94468807828747","280.9182710009566",18/12/21 22:56:30
"2","16","311.08765073557703","280.58947674432386",18/12/21 22:56:30
"2","16","310.6674412768781","282.65472286945345",18/12/21 22:56:30
"2","16","310.659669938638","282.6714079989157",18/12/21 22:56:30
"2","16","309.66219570502767","283.76051728654505",18/12/21 22:56:30
"2","16","309.59293667872356","282.7709331100235",18/12/21 22:56:30
"2","16","308.3821393805906","281.4911561200401",18/12/21 22:56:30
"2","16","307.21369934945227","282.94615838141374",18/12/21 22:56:30
"2","16","307.05563593733393","280.7988656063594",18/12/21 22:56:30
"2","16","308.0692304828522","281.37149111517556",18/12/21 22:56:30
"2","16","308.7154124188922","281.3780759352267",18/12/21 22:56:30
"2","16","309.6076114652009","282.1471884245264",18/12/21 22:56:30
"2","16","311.04477178434126","282.85617639491244",18/12/21 22:56:30
"2","16","311.4974439381052","282.50932871182914",18/12/21 22:56:30
"2","16","311.44098092553986","281.8554356821691",18/12/21 22:56:30
"2","16","310.64490311909395","283.6954707430803",18/12/21 22:56:30
"2","16","310.78389555228074","283.6359440752906",18/12/21 22:56:30
"2","16","310.6957440216055","283.61799509042936",18/12/21 22:56:31
"2","16","310.82579235037053","284.18502290574827",18/12/21 22:56:31
"2","16","309.99496022820483","283.50679564935217",18/12/21 22:56:31
"2","16","309.07463260673387","284.34242532137426",18/12/21 22:56:31
"2","16","308.33213665997584","282.97094981094176",18/12/21 22:56:31
"2","16","308.33213665997584","282.97094981094176",18/12/21 22:56:31
"2","16","308.33213665997584","282.97094981094176",18/12/21 22:56:31
"2","16","309.88408053999785","284.5790644954796",18/12/21 22:56:31
"2","90","311.02006080895734","285.477940940523",18/12/21 22:56:31
"2","90","312.40449535749855","286.17268333275723",18/12/21 22:56:31
"2","90","314.50127302642613","287.22489655239195",18/12/21 22:56:31
"2","90","316.69749839289847","288.3270150068875",18/12/21 22:56:31
"2","90","318.03454079984505","288.23154670500725",18/12/21 22:56:31
"2","90","320.27637881585207","287.8195231055782",18/12/21 22:56:31
"2","90","322.24670290277135","287.4574005897952",18/12/21 22:56:31
"2","90","324.4583276610133","287.05092983366967",18/12/21 22:56:31
"2","90","325.7122114484413","286.82048066309045",18/12/21 22:56:31
"2","90","327.9150819084959","286.4156188445527",18/12/21 22:56:31
"2","90","330.37211410299506","285.9640450727358",18/12/21 22:56:31
"2","93","332.52259288199997","285.70309014234766",18/12/21 22:56:31
"2","93","334.68485793485115","285.88918908432936",18/12/21 22:56:31
"2","93","336.03183116075485","286.00511857775007",18/12/21 22:56:31
"2","93","338.04757413725633","286.178606853269",18/12/21 22:56:31
"2","93","339.7674867747655","286.3266339981",18/12/21 22:56:31
"2","93","341.0280773843354","286.4351288278175",18/12/21 22:56:31
"2","93","342.5673281496826","286.35254281637737",18/12/21 22:56:31
"2","93","344.11151685016836","286.22166436634086",18/12/21 22:56:31
"2","93","345.67809273138977","286.08888848012026",18/12/21 22:56:31
"2","93","347.136815300376","285.9652537528346",18/12/21 22:56:31
"2","93","349.3954336318299","285.7738234785736",18/12/21 22:56:31
"2","93","351.3777915039942","285.60580779134256",18/12/21 22:56:31
"2","93","353.02339815846454","285.46633361422994",18/12/21 22:56:31
"2","93","354.9375695646537","285.3040971034541",18/12/21 22:56:31
"2","41","355.29761604254315","285.0942867793481",18/12/21 22:56:31
"2","41","353.46077693511893","284.75953274667364",18/12/21 22:56:31
"2","41","352.49603192844006","284.57193935163923",18/12/21 22:56:31
"2","41","352.12988920817673","284.44806100675953",18/12/21 22:56:31
"2","41","352.08999567965344","282.2865699790351",18/12/21 22:56:31
"2","41","352.37400622773686","281.264308179536",18/12/21 22:56:31
"2","41","354.14433288894105","282.91461695570365",18/12/21 22:56:31
"2","41","354.558865612384","283.1169447979212",18/12/21 22:56:31
"2","41","355.04793458405254","283.4473023505218",18/12/21 22:56:31
"2","41","354.3892164745526","283.98992521095755",18/12/21 22:56:31
"2","41","354.16248774270326","283.16820238077105",18/12/21 22:56:31
"2","41","354.15865941162787","283.1544799409865",18/12/21 22:56:31
"2","41","354.439113472142","283.46853609678544",18/12/21 22:56:31
"2","41","356.3445815621588","284.74807554672003",18/12/21 22:56:31
"2","41","355.11826430657436","282.85773449456735",18/12/21 22:56:31
"2","41","354.8743565802492","284.74760518883755",18/12/21 22:56:31
"2","41","354.6010645182385","282.98877660042893",18/12/21 22:56:32
"2","41","355.29704805036243","282.4497703951609",18/12/21 22:56:32
"2","41","355.2845338933597","282.45265667290647",18/12/21 22:56:32
"2","41","355.92875202230056","280.3571305892408",18/12/21 22:56:32
"2","41","355.6398978821775","281.4511790388399",18/12/21 22:56:32
"2","41","353.1510612244286","281.36857693803626",18/12/21 22:56:32
"2","41","354.83115814037734","281.02786900456357",18/12/21 22:56:32
"2","41","354.871620838012","278.9094322666893",18/12/21 22:56:32
"2","41","355.95207084143806","278.2683817709488",18/12/21 22:56:32
"2","41","355.9055904863249","278.07635459135395",18/12/21 22:56:32
"2","41","356.3277715947109","278.63050870211146",18/12/21 22:56:32
"2","41","356.29064320256356","278.6459178000451",18/12/21 22:56:32
"2","41","354.92256211329294","279.8565596020402",18/12/21 22:56:32
"2","41","355.4908724140639","279.78863645620856",18/12/21 22:56:32
"2","41","354.94210177202933","279.29712065895984",18/12/21 22:56:32
"2","41","353.32772301078626","279.75819647452244",18/12/21 22:56:32
"2","41","354.03765026344604","280.58908225133337",18/12/21 22:56:32
"2","41","353.97241146066125","279.94158222954013",18/12/21 22:56:32
"2","41","354.8483258884106","280.87386698720087",18/12/21 22:56:32
"2","41","356.3148908505756","282.3384342703853",18/12/21 22:56:32
"2","41","356.20804364250074","282.3810729051263",18/12/21 22:56:32
"2","41","356.2268240270043","282.41815435169315",18/12/21 22:56:32
"2","41","354.11796588961096","281.60409315597303",18/12/21 22:56:32
"2","41","354.48391580935277","280.99456301660786",18/12/21 22:56:32
"2","41","356.22953088361254","281.2430478158552",18/12/21 22:56:32
"2","41","356.41356626125526","281.1164379279179",18/12/21 22:56:32
"2","41","356.29514239652366","282.34287592161957",18/12/21 22:56:32
"2","41","356.31990041932113","282.1225547060357",18/12/21 22:56:32
"2","41","356.15213101910797","281.445839265259",18/12/21 22:56:32
"2","41","355.9511506133293","281.6592259444134",18/12/21 22:56:32
"2","41","356.17939809953793","281.2737874997383",18/12/21 22:56:32
"2","41","355.006935724859","281.68649863914084",18/12/21 22:56:32
"2","41","354.9807189389038","281.6869730274643",18/12/21 22:56:32
"2","41","356.377773366712","281.7499469782061",18/12/21 22:56:32
"2","41","355.2041986064409","282.3274622078533",18/12/21 22:56:32
"2","41","355.4326981270697","282.44158375272013",18/12/21 22:56:32
"2","41","355.24664658449075","282.52193115075727",18/12/21 22:56:32
"2","41","355.50721787918087","282.1054539934967",18/12/21 22:56:32
"2","41","353.367147802697","282.49420416107904",18/12/21 22:56:32
"2","41","353.29542206903875","281.54362542652086",18/12/21 22:56:32
"2","41","353.74146325648974","282.0415772434284",18/12/21 22:56:32
"2","41","353.6483950492737","281.9659670031326",18/12/21 22:56:32
"2","41","352.09046125628635","282.67432790285204",18/12/21 22:56:32
"2","41","352.6002953263478","282.2912191194172",18/12/21 22:56:32
"2","41","354.43628291650026","281.44954839072585",18/12/21 22:56:32
"2","41","355.93780063004095","280.78088892842646",18/12/21 22:56:32
"2","41","356.0785149437177","280.8182480130496",18/12/21 22:56:32
"2","41","354.51455496755733","281.7176131219878",18/12/21 22:56:32
"2","41","354.51455496755733","281.7176131219878",18/12/21 22:56:32
"2","41","354.51455496755733","281.7176131219878",18/12/21 22:56:32
"2","41","355.2011904005064","284.04263747332277",18/12/21 22:56:33
"2","93","354.59889361140733","285.21666666666664",18/12/21 22:56:33
"2","93","352.53490716123304","285.21666666666664",18/12/21 22:56:33
"2","93","350.6263049749253","285.21666666666664",18/12/21 22:56:33
"2","93","349.1982983458296","285.21666666666664",18/12/21 22:56:33
"2","93","347.41209210129364","285.21666666666664",18/12/21 22:56:33
"2","93","347.41209210129364","285.21666666666664",18/12/21 22:56:33
"2","32","345.8031752260402","285.12894121121616",18/12/21 22:56:33
"2","32","344.9046970720045","283.5696753103035",18/12/21 22:56:33
"2","32","343.7775793388022","281.6136163457063",18/12/21 22:56:33
"2","32","343.598184996333","281.30228603703665",18/12/21 22:56:33
"2","32","343.3731936865079","279.15558910066943",18/12/21 22:56:33
"2","32","343.20441813841376","280.7029202774431",18/12/21 22:56:33
"2","32","341.8375673432921","279.5049911589547",18/12/21 22:56:33
"2","32","341.94619640874254","278.74494579658017",18/12/21 22:56:33
"2","32","342.32328320633593","278.63183856963565",18/12/21 22:56:33
"2","32","344.2952344263025","279.03759158022046",18/12/21 22:56:33
"2","32","345.78330643694824","278.8195655416894",18/12/21 22:56:33
"2","32","345.210628807326","279.0547931331264",18/12/21 22:56:33
"2","32","344.6044725124168","280.9121268391802",18/12/21 22:56:33
"2","32","345.8656358286762","278.9485281920188",18/12/21 22:56:33
"2","32","345.5657728972277","278.6469077372982",18/12/21 22:56:33
"2","32","344.8345318421655","278.6670431471995",18/12/21 22:56:33
"2","32","345.6600497840724","280.23288635677085",18/12/21 22:56:33
"2","32","345.58282096715953","280.30057078776883",18/12/21 22:56:33
"2","32","346.2074261960342","279.45306957872805",18/12/21 22:56:33
"2","32","345.54981775231107","278.6496911775885",18/12/21 22:56:33
"2","32","345.39664413414613","278.39982821725056",18/12/21 22:56:33
"2","32","343.72659367450143","279.78392503179947",18/12/21 22:56:33
"2","32","344.1738293589849","279.75825013889437",18/12/21 22:56:33
"2","32","342.2806846075555","280.9208167345465",18/12/21 22:56:33
"2","32","342.97057908014517","281.0002474166492",18/12/21 22:56:33
"2","32","345.3298668064094","281.30225548447396",18/12/21 22:56:33
"2","32","346.1281181048179","281.45138834018906",18/12/21 22:56:33
"2","32","346.12312900614404","281.46688330829596",18/12/21 22:56:33
"2","32","345.41840122615355","281.46923174659105",18/12/21 22:56:33
"2","32","346.1840213422808","281.4629111024084",18/12/21 22:56:33
"2","32","345.78040515994525","281.50727796581975",18/12/21 22:56:33
"2","32","346.13784191334526","281.5082777394435",18/12/21 22:56:33
"2","32","343.94339702846554","280.49060720428105",18/12/21 22:56:33
"2","32","344.38325899020106","280.34873431794927",18/12/21 22:56:33
"2","32","343.73011621417703","280.6162765895744",18/12/21 22:56:33
"2","32","343.6389943436256","282.23965360043667",18/12/21 22:56:33
"2","32","343.41710772129255","281.6419099448031",18/12/21 22:56:33
"2","32","343.6012920020701","280.0079183167102",18/12/21 22:56:33
"2","32","344.3077300948381","279.0795275537022",18/12/21 22:56:33
"2","32","345.50096893854555","279.78504138518775",18/12/21 22:56:33
"2","32","346.12886369242256","281.21851037535146",18/12/21 22:56:33
"2","32","344.7162309276168","279.9104889683265",18/12/21 22:56:33
"2","32","345.78529956993697","281.44321236157356",18/12/21 22:56:33
"2","32","345.09881318074844","282.5425018729546",18/12/21 22:56:34
"2","32","346.32143871499824","280.7815672968667",18/12/21 22:56:34
"2","32","346.2683775857301","279.7969567489939",18/12/21 22:56:34
"2","32","345.0680637312614","279.8173179885298",18/12/21 22:56:34
"2","32","346.21536502517097","281.12382723606066",18/12/21 22:56:34
"2","32","345.96443470542545","281.02225085517256",18/12/21 22:56:34
"2","32","346.06667694842764","281.47419335486535",18/12/21 22:56:34
"2","32","344.9845319966863","281.42774622943506",18/12/21 22:56:34
"2","32","344.95989996177536","281.36774589387096",18/12/21 22:56:34
"2","32","343.233457100674","279.8089764699124",18/12/21 22:56:34
"2","32","344.08429099035857","278.46604330851136",18/12/21 22:56:34
"2","32","343.3789813481664","279.5879931774789",18/12/21 22:56:34
"2","32","343.4239583839367","279.4809451434845",18/12/21 22:56:34
"2","32","343.0083924490948","280.1795460610225",18/12/21 22:56:34
"2","32","343.13827692097243","281.7842172109626",18/12/21 22:56:34
"2","32","341.8178328711364","280.13299785002505",18/12/21 22:56:34
"2","32","342.10637201921315","280.5125190517638",18/12/21 22:56:34
"2","32","341.9596998346401","280.30521452681757",18/12/21 22:56:34
"2","32","344.0681379245733","280.2389819599377",18/12/21 22:56:34
"2","32","344.6268810116085","279.99256493261294",18/12/21 22:56:34
"2","32","345.28164354989934","280.9489818262146",18/12/21 22:56:34
"2","32","345.00049958006576","279.3512624403644",18/12/21 22:56:34
"2","32","345.4707357770929","281.5129145574424",18/12/21 22:56:34
"2","32","345.39940352217246","281.44248537185365",18/12/21 22:56:34
"2","32","343.94540363317645","281.54511796874294",18/12/21 22:56:34
"2","32","344.1214936010217","281.35847836705045",18/12/21 22:56:34
"2","32","344.01401385654384","281.2364150360262",18/12/21 22:56:34
"2","32","344.2006666848754","280.8177899916824",18/12/21 22:56:34
"2","32","344.5249064595668","280.819371850758",18/12/21 22:56:34
"2","32","345.5221984145212","280.5248564826103",18/12/21 22:56:34
"2","32","345.2121108229988","280.2828206951161",18/12/21 22:56:34
"2","32","345.1055164132759","280.3468758014922",18/12/21 22:56:34
"2","32","346.36645009008225","279.36067976102925",18/12/21 22:56:34
"2","32","345.164417658999","280.80250594372563",18/12/21 22:56:34
"2","32","343.28329411855503","279.4340725439753",18/12/21 22:56:34
"2","32","343.2672939256996","280.40984078294474",18/12/21 22:56:34
"2","32","343.0596194592989","281.38673467619196",18/12/21 22:56:34
"2","32","343.5888212680479","280.9577158311017",18/12/21 22:56:34
"2","32","344.99931665726217","281.3285424674253",18/12/21 22:56:34
"2","32","344.24097132459065","282.56923508961665",18/12/21 22:56:34
"2","32","344.64785353184476","281.8912903777519",18/12/21 22:56:34
"2","32","344.5639123656213","281.25861596186235",18/12/21 22:56:34
"2","32","345.68479846290495","282.5015140238274",18/12/21 22:56:34
"2","32","345.60217931905083","282.5480022107501",18/12/21 22:56:34
"2","32","345.56117261361925","282.52558990627944",18/12/21 22:56:34
"2","32","345.7761732812623","282.728305784535",18/12/21 22:56:34
"2","32","345.85065207110983","282.79693459443354",18/12/21 22:56:34
"2","32","345.86964785707124","282.79087605010994",18/12/21 22:56:34
"2","32","344.53389104498876","282.27877944082223",18/12/21 22:56:34
"2","32","343.6305986701882","280.1937883827859",18/12/21 22:56:34
"2","32","342.9025897377709","280.40061124368344",18/12/21 22:56:35
"2","32","343.793107470647","279.6428869810221",18/12/21 22:56:35
"2","32","344.3977773186561","281.2782345152127",18/12/21 22:56:35
"2","32","344.80084111190445","280.60969667027746",18/12/21 22:56:35
"2","32","346.26869651850654","280.5778814782958",18/12/21 22:56:35
"2","32","345.8296560633876","278.58292356854815",18/12/21 22:56:35
"2","32","345.7529085547542","278.95567635331656",18/12/21 22:56:35
"2","32","345.1008549102404","278.5490974366376",18/12/21 22:56:35
"2","32","345.00553054894925","278.50432934745925",18/12/21 22:56:35
"2","32","344.6179545359371","278.760791966354",18/12/21 22:56:35
"2","32","344.25952416142405","277.59014406469703",18/12/21 22:56:35
"2","32","344.40573400636794","278.2253646263533",18/12/21 22:56:35
"2","32","344.2026787142828","278.3237025024622",18/12/21 22:56:35
"2","32","346.0563348856436","279.8536577190485",18/12/21 22:56:35
"2","32","345.18372748532346","280.40293090804727",18/12/21 22:56:35
"2","32","345.28229582899974","281.65247254669123",18/12/21 22:56:35
"2","32","345.8284971373474","281.95644993107373",18/12/21 22:56:35
"2","32","346.4441150345318","283.1286866549417",18/12/21 22:56:35
"2","32","346.4441150345318","283.1286866549417",18/12/21 22:56:35
"2","32","346.4441150345318","283.1286866549417",18/12/21 22:56:35
"2","32","344.58286693292206","281.48445652481075",18/12/21 22:56:35
"2","32","342.7872676787917","279.89822071200945",18/12/21 22:56:35
"2","32","342.8592716901334","280.1198970927301",18/12/21 22:56:35
"2","32","343.6956963641148","281.878328636986",18/12/21 22:56:35
"2","32","342.55819439061094","282.41069746344476",18/12/21 22:56:35
"2","32","343.4641621272212","283.379268553205",18/12/21 22:56:35
"2","32","342.5227469564121","283.4689877738082",18/12/21 22:56:35
"2","32","343.1744188988692","284.0183494390204",18/12/21 22:56:35
"2","32","342.0521008723829","284.42678785794243",18/12/21 22:56:35
"2","32","344.2108985020775","284.0220809506504",18/12/21 22:56:35
"2","32","344.21027267521794","284.0214180397891",18/12/21 22:56:35
"2","32","342.87876908983833","283.79102981159053",18/12/21 22:56:35
"2","32","343.06785513902514","282.396027498643",18/12/21 22:56:35
"2","32","343.034293399597","282.23113136559465",18/12/21 22:56:35
"2","32","344.0444833890949","283.252122730988",18/12/21 22:56:35
"2","32","343.8218657432381","283.16685553858616",18/12/21 22:56:35
"2","32","343.73897905866045","283.35299324428473",18/12/21 22:56:35
"2","32","344.3192764626744","281.810876333579",18/12/21 22:56:35
"2","32","343.9683790275537","281.5623646396761",18/12/21 22:56:35
"2","32","343.97217791903944","281.52357582775517",18/12/21 22:56:35
"2","32","343.74718773474143","281.91852668854546",18/12/21 22:56:35
"2","32","344.44966073310445","281.09711009193717",18/12/21 22:56:35
"2","32","345.5638001844982","280.5115664124165",18/12/21 22:56:35
"2","32","345.7079886858764","281.02350344627735",18/12/21 22:56:35
"2","32","344.19077418187254","281.6649415187213",18/12/21 22:56:35
"2","32","343.85545153715924","280.91513403212724",18/12/21 22:56:35
"2","32","342.6881033076488","281.37586082042617",18/12/21 22:56:35
"2","32","344.04774948817084","281.58238830826383",18/12/21 22:56:35
"2","32","343.5024232154515","281.5327973070597",18/12/21 22:56:35
"2","32","342.2262922548726","279.91259944833104",18/12/21 22:56:35
"2","32","342.2314024999954","279.9304655981905",18/12/21 22:56:36
"2","32","341.9771102435924","278.06705048237603",18/12/21 22:56:36
"2","32","342.49283078101485","278.7938159066719",18/12/21 22:56:36
"2","32","344.759765894757","278.47338796874556",18/12/21 22:56:36
"2","32","343.79375597747975","278.90357584038406",18/12/21 22:56:36
"2","32","343.77534993225527","278.64322616056916",18/12/21 22:56:36
"2","32","342.6728835138931","279.65911141565823",18/12/21 22:56:36
"2","32","343.3431054732511","280.5905254211137",18/12/21 22:56:36
"2","32","343.02618880895227","279.6476854229439",18/12/21 22:56:36
"2","32","342.61515866111205","280.4417129227625",18/12/21 22:56:36
"2","32","343.9177467512491","281.5033581814952",18/12/21 22:56:36
"2","32","343.8674615564876","282.1729280923435",18/12/21 22:56:36
"2","32","343.586535527164","283.40796461687256",18/12/21 22:56:36
"2","32","343.6268956116268","283.18169775857535",18/12/21 22:56:36
"2","32","345.2507672355986","281.38753765676114",18/12/21 22:56:36
"2","32","344.9896454281919","282.72870905328233",18/12/21 22:56:36
"2","32","344.49610412924363","283.2492901385523",18/12/21 22:56:36
"2","32","343.95053863898727","282.6722409847105",18/12/21 22:56:36
"2","32","344.0053871999418","282.57387828984827",18/12/21 22:56:36
"2","32","346.22690634321145","283.6279520586349",18/12/21 22:56:36
"2","32","346.20673742500884","284.82341425166703",18/12/21 22:56:36
"2","32","345.5112449018638","283.8849422995798",18/12/21 22:56:36
"2","32","345.47470918277713","283.98888817648185",18/12/21 22:56:36
"2","32","343.13723698419193","284.3541447940817",18/12/21 22:56:36
"2","32","343.5705146746722","284.28809515925803",18/12/21 22:56:36
"2","32","343.88676125830864","282.7978189391088",18/12/21 22:56:36
"2","32","343.14924908956687","283.86069962351075",18/12/21 22:56:36
"2","32","341.7716445752859","283.45276447657824",18/12/21 22:56:36
"2","32","342.68151296981773","282.5292894618423",18/12/21 22:56:36
"2","32","343.36018029681605","282.4670638088329",18/12/21 22:56:36
"2","32","345.21616034970356","280.93836831446487",18/12/21 22:56:36
"2","32","343.5502016226772","280.35570877621456",18/12/21 22:56:36
"2","32","342.8800837108349","282.6451045053236",18/12/21 22:56:36
"2","32","344.3344808835077","283.8911020310885",18/12/21 22:56:36
"2","32","344.61100624080495","283.6752323034323",18/12/21 22:56:36
"2","32","345.14000673208426","283.76617942158197",18/12/21 22:56:36
"2","32","342.79807304829814","283.8028880560213",18/12/21 22:56:36
"2","32","342.1994367994812","284.46953214078746",18/12/21 22:56:36
"2","32","342.49647864792826","283.08010875058903",18/12/21 22:56:36
"2","32","342.79761131963744","284.61301262765414",18/12/21 22:56:36
"2","32","344.0574385697791","282.7012110487358",18/12/21 22:56:36
"2","32","344.5265562155358","284.1299829342968",18/12/21 22:56:36
"2","32","345.7991150583247","283.31242300825704",18/12/21 22:56:36
"2","32","345.2477433336872","282.8451028722875",18/12/21 22:56:36
"2","32","345.38691393196643","282.08677400355367",18/12/21 22:56:36
"2","32","345.7660590225569","281.5121975801303",18/12/21 22:56:36
"2","32","344.2827536244669","281.8855314984984",18/12/21 22:56:36
"2","32","343.43652181985897","283.25807741604865",18/12/21 22:56:36
"2","32","344.33281586899454","282.6101090672067",18/12/21 22:56:36
"2","32","344.29455169217636","282.5015795772545",18/12/21 22:56:37
"2","32","344.32712306904284","282.6255738248918",18/12/21 22:56:37
"2","32","344.8227279602658","282.1749744610382",18/12/21 22:56:37
"2","32","346.364775981815","281.7660396419617",18/12/21 22:56:37
"2","32","344.8792077080244","282.73357343610155",18/12/21 22:56:37
"2","32","344.7197139977881","283.19092591268213",18/12/21 22:56:37
"2","32","345.98071935762215","284.0187162385558",18/12/21 22:56:37
"2","32","345.3836034409729","283.88163689435714",18/12/21 22:56:37
"2","32","344.81421024252995","283.90288094389547",18/12/21 22:56:37
"2","32","345.0422229620672","284.44777822101685",18/12/21 22:56:37
"2","32","342.70340612056566","284.177754736613",18/12/21 22:56:37
"2","32","341.9471090117405","284.68175255129506",18/12/21 22:56:37
"2","32","343.3188240100267","284.3177345823768",18/12/21 22:56:37
"2","32","343.7829737655287","283.12884841460794",18/12/21 22:56:37
"2","32","344.9901056652317","284.6031725271788",18/12/21 22:56:37
"2","32","344.45335774253067","284.6525832024293",18/12/21 22:56:37
"2","32","343.27772492528396","284.85167572202437",18/12/21 22:56:37
"2","32","343.27772492528396","284.85167572202437",18/12/21 22:56:37
"2","32","343.27772492528396","284.85167572202437",18/12/21 22:56:37
"2","32","345.69882298784285","285.1607489174532",18/12/21 22:56:37
"2","93","344.4633819904546","286.0165550962789",18/12/21 22:56:37
"2","93","343.2653891866129","286.58917475630295",18/12/21 22:56:37
"2","93","341.4110358838669","287.4755232839215",18/12/21 22:56:37
"2","90","339.59542181659543","287.5642840162196",18/12/21 22:56:37
"2","90","338.3097210317288","287.5940606018286",18/12/21 22:56:37
"2","90","336.1250789914414","287.6446564959148",18/12/21 22:56:37
"2","90","334.2625611052772","287.68779205586657",18/12/21 22:56:37
"2","90","332.96405536158755","287.7178652018861",18/12/21 22:56:37
"2","90","330.85906715810336","287.69989815287585",18/12/21 22:56:37
"2","90","329.0955010306599","287.6398254638388",18/12/21 22:56:37
"2","90","326.92577332328585","287.56591761551266",18/12/21 22:56:37
"2","90","324.5615872560902","287.48538589502294",18/12/21 22:56:37
"2","90","322.164648676623","287.4037385194669",18/12/21 22:56:37
"2","90","319.68081038532074","287.3191310624684",18/12/21 22:56:37
"2","90","318.15777703440045","287.26725168723027",18/12/21 22:56:37
"2","91","316.2254993135842","287.109692386882",18/12/21 22:56:37
"2","91","314.88844277380866","286.886678306843",18/12/21 22:56:37
"2","91","313.3915061690316","286.6369970631111",18/12/21 22:56:37
"2","91","311.53544128852485","286.3274150899446",18/12/21 22:56:37
"2","91","309.22296354973463","285.9417058247153",18/12/21 22:56:37
"2","91","307.72759701672385","285.69228646079193",18/12/21 22:56:37
"2","91","306.2903268254686","285.45255726465484",18/12/21 22:56:37
"2","22","304.87471584978175","284.5070624434243",18/12/21 22:56:37
"2","22","304.87183367071793","282.99732850874653",18/12/21 22:56:37
"2","22","304.86738884040756","280.6690515333076",18/12/21 22:56:37
"2","22","304.86274530365125","278.2366887749337",18/12/21 22:56:37
"2","22","304.8617986314484","277.74080593140843",18/12/21 22:56:37
"2","22","304.8708061985934","278.69539069880017",18/12/21 22:56:37
"2","22","304.9918583025135","278.30414641850683",18/12/21 22:56:37
"2","22","305.3159780972713","278.1336323999438",18/12/21 22:56:37
"2","22","305.77629588659704","278.34032621691773",18/12/21 22:56:38
"2","22","305.87754857878326","278.3776466388762",18/12/21 22:56:38
"2","22","305.85914115076497","278.3925121831618",18/12/21 22:56:38
"2","22","305.99861716299733","279.69351728143346",18/12/21 22:56:38
"2","22","305.51077401102975","279.80450025765356",18/12/21 22:56:38
"2","22","306.2606383458554","281.864923509953",18/12/21 22:56:38
"2","22","306.2606383458554","281.864923509953",18/12/21 22:56:38
"2","22","306.2606383458554","281.864923509953",18/12/21 22:56:38
"2","22","305.81765937705285","284.1022288969094",18/12/21 22:56:38
"2","90","306.88857560407183","285.37625221361793",18/12/21 22:56:38
"2","90","308.59995149200336","285.5877085106624",18/12/21 22:56:38
"2","90","310.2095707897477","285.78659184117595",18/12/21 22:56:38
"2","90","311.9013854598054","285.9956311690867",18/12/21 22:56:38
"2","90","311.9013854598054","285.9956311690867",18/12/21 22:56:38
"2","90","315.7168441658287","286.4670663313976",18/12/21 22:56:38
"2","90","318.0892616976686","286.6049291577645",18/12/21 22:56:38
"2","90","318.0892616976686","286.6049291577645",18/12/21 22:56:38
"2","90","322.13615006745863","286.56908362121493",18/12/21 22:56:38
"2","90","322.13615006745863","286.56908362121493",18/12/21 22:56:38
"2","90","323.60554677386375","286.55606835898567",18/12/21 22:56:38
"2","90","326.2364927511843","286.53276461013655",18/12/21 22:56:38
"2","90","326.2364927511843","286.53276461013655",18/12/21 22:56:38
"2","90","330.25209859216477","286.49719616030825",18/12/21 22:56:38
"2","90","330.25209859216477","286.49719616030825",18/12/21 22:56:38
"2","93","333.93317317208096","286.623804566076",18/12/21 22:56:38
"2","93","333.93317317208096","286.623804566076",18/12/21 22:56:38
"2","93","337.9787626363868","286.92552552392607",18/12/21 22:56:38
"2","93","337.9787626363868","286.92552552392607",18/12/21 22:56:38
"2","93","340.3660681305234","286.5920230512551",18/12/21 22:56:38
"2","93","340.3660681305234","286.5920230512551",18/12/21 22:56:38
"2","93","337.23252109607915","284.6571447883565",18/12/21 22:56:38
"2","93","337.23252109607915","284.6571447883565",18/12/21 22:56:38
"2","93","335.2879327959294","283.45641552184526",18/12/21 22:56:38
"2","93","332.2017953848129","281.55081138460065",18/12/21 22:56:38
"2","93","332.2017953848129","281.55081138460065",18/12/21 22:56:38
"2","93","330.55154175213113","280.5318256004247",18/12/21 22:56:38
"2","95","330.5","280.5",18/12/21 22:56:38
"3","95","333.6680632073659","282.179668258206",18/12/21 22:56:38
"3","95","333.6680632073659","282.179668258206",18/12/21 22:56:38
"3","95","337.0052809287921","283.9490201651911",18/12/21 22:56:38
"3","95","337.0052809287921","283.9490201651911",18/12/21 22:56:38
"3","95","340.4881378380069","285.79558818336693",18/12/21 22:56:38
"3","95","340.4881378380069","285.79558818336693",18/12/21 22:56:38
"3","95","339.7145002833209","285.3854150400594",18/12/21 22:56:38
"3","95","339.7145002833209","285.3854150400594",18/12/21 22:56:38
"3","95","338.26371992634756","284.61622908771756",18/12/21 22:56:38
"3","95","334.41242684257526","282.5743207284335",18/12/21 22:56:38
"3","95","334.41242684257526","282.5743207284335",18/12/21 22:56:38
"1","30","330.78111678599396","280.6405063103381",18/12/21 22:56:38
"1","30","332.6586346605866","281.57891739888305",18/12/21 22:56:38
"1","30","332.6586346605866","281.57891739888305",18/12/21 22:56:39
"1","30","334.85187674232577","283.81774954894",18/12/21 22:56:39
"1","30","334.85187674232577","283.81774954894",18/12/21 22:56:39
"1","30","333.44005865703707","281.6219884921833",18/12/21 22:56:39
"1","30","333.44005865703707","281.6219884921833",18/12/21 22:56:39
"1","30","334.0748471430799","282.4278272577211",18/12/21 22:56:39
"1","30","334.0748471430799","282.4278272577211",18/12/21 22:56:39
"1","30","335.98486518433606","283.07871407783017",18/12/21 22:56:39
"1","30","335.81866231031705","286.8715366477641",18/12/21 22:56:39
"1","30","335.81866231031705","286.8715366477641",18/12/21 22:56:39
"1","30","333.3118002453234","284.9087840377566",18/12/21 22:56:39
"1","30","333.3118002453234","284.9087840377566",18/12/21 22:56:39
"1","30","334.7157457528491","283.1037224251167",18/12/21 22:56:39
"1","30","333.34434037441866","284.9573486985104",18/12/21 22:56:39
"1","30","333.34434037441866","284.9573486985104",18/12/21 22:56:39
"1","30","333.9843731475255","286.04721524032317",18/12/21 22:56:39
"1","30","334.17254964537494","286.1325995964802",18/12/21 22:56:39
"1","30","334.17254964537494","286.1325995964802",18/12/21 22:56:39
"1","30","332.4027294870637","287.07238343571015",18/12/21 22:56:39
"1","30","332.4027294870637","287.07238343571015",18/12/21 22:56:39
"1","30","332.90560077382935","287.64417756653853",18/12/21 22:56:39
"1","30","335.54273003630385","287.3160229427518",18/12/21 22:56:39
"1","30","335.54273003630385","287.3160229427518",18/12/21 22:56:39
"1","30","335.1244086667104","287.48630331397237",18/12/21 22:56:39
"1","30","335.1244086667104","287.48630331397237",18/12/21 22:56:39
"1","30","333.9837737427807","286.0315133384944",18/12/21 22:56:39
"1","30","333.9837737427807","286.0315133384944",18/12/21 22:56:39
"1","30","335.27916210428094","286.95015322666796",18/12/21 22:56:39
"1","30","335.27916210428094","286.95015322666796",18/12/21 22:56:39
"1","30","335.9014248769271","285.8345606133578",18/12/21 22:56:39
"1","30","334.830644768437","287.5848678710723",18/12/21 22:56:39
"1","30","334.830644768437","287.5848678710723",18/12/21 22:56:39
"1","30","333.4140903609755","287.22882177106055",18/12/21 22:56:39
"1","30","334.12417821463697","286.3143654694112",18/12/21 22:56:39
"1","30","334.12417821463697","286.3143654694112",18/12/21 22:56:39
"1","30","337.0092733731631","288.1872844550616",18/12/21 22:56:39
"1","30","337.0092733731631","288.1872844550616",18/12/21 22:56:39
"1","30","338.8441698276992","287.3372178720147",18/12/21 22:56:39
"1","30","340.4944837884572","286.8426959291135",18/12/21 22:56:39
"1","30","340.4944837884572","286.8426959291135",18/12/21 22:56:39
"1","30","336.7046200155593","286.1846129565865",18/12/21 22:56:39
"1","30","336.7046200155593","286.1846129565865",18/12/21 22:56:39
"1","30","336.7869490240174","286.20803433371003",18/12/21 22:56:39
"1","30","337.46278788905306","283.82162706808117",18/12/21 22:56:39
"1","30","337.06627420105957","283.82162706808117",18/12/21 22:56:39
"1","30","337.1186153235367","284.12792280952243",18/12/21 22:56:39
"1","30","336.54660698947265","283.7466536820287",18/12/21 22:56:39
"1","30","336.54660698947265","283.7466536820287",18/12/21 22:56:39
"1","30","335.75646013301946","282.5927744985269",18/12/21 22:56:39
"1","30","333.92746593561316","283.9319512263569",18/12/21 22:56:39
"1","30","333.79192406626146","284.31003542971393",18/12/21 22:56:40
"1","30","333.79192406626146","284.31003542971393",18/12/21 22:56:40
"1","30","332.8204546263776","283.15452069689564",18/12/21 22:56:40
"1","30","332.8204546263776","283.15452069689564",18/12/21 22:56:40
"1","30","332.5191579375873","283.0541401967346",18/12/21 22:56:40
"1","30","333.44173756089884","282.0229758186828",18/12/21 22:56:40
"1","30","333.44173756089884","282.0229758186828",18/12/21 22:56:40
"1","30","334.5491431663028","281.52529915391614",18/12/21 22:56:40
"1","30","334.5491431663028","281.52529915391614",18/12/21 22:56:40
"1","30","336.0739826531827","282.90082039757687",18/12/21 22:56:40
"1","30","337.34194657108924","283.10672010424724",18/12/21 22:56:40
"1","30","337.32378967358335","283.1007661093869",18/12/21 22:56:40
"1","30","337.32378967358335","283.1007661093869",18/12/21 22:56:40
"1","30","339.1286935530222","284.62541663826397",18/12/21 22:56:40
"1","30","340.33072638195904","285.655308918142",18/12/21 22:56:40
"1","30","340.33072638195904","285.655308918142",18/12/21 22:56:40
"1","30","337.25250432263954","284.6567342659343",18/12/21 22:56:40
"1","30","336.4268777006291","283.1415381927939",18/12/21 22:56:40
"1","30","336.4268777006291","283.1415381927939",18/12/21 22:56:40
"1","30","340.1725735231768","283.9331872545236",18/12/21 22:56:40
"1","30","340.1725735231768","283.9331872545236",18/12/21 22:56:40
"1","30","339.77000920685566","282.98735172602494",18/12/21 22:56:40
"1","30","339.77000920685566","282.98735172602494",18/12/21 22:56:40
"1","30","339.00487878389265","282.5555805818479",18/12/21 22:56:40
"1","30","339.00487878389265","282.5555805818479",18/12/21 22:56:40
"1","30","339.11983996288575","281.3934065748258",18/12/21 22:56:40
"1","30","338.33488685883646","280.9020400825276",18/12/21 22:56:40
"1","30","338.33488685883646","280.9020400825276",18/12/21 22:56:40
"1","30","339.57796285493896","281.3951347522653",18/12/21 22:56:40
"1","30","339.57796285493896","281.3951347522653",18/12/21 22:56:40
"1","30","337.9296964038607","280.56497603961196",18/12/21 22:56:40
"1","30","338.3139327138645","279.6053517445531",18/12/21 22:56:40
"1","30","338.3139327138645","279.6053517445531",18/12/21 22:56:40
"1","30","337.41933413159353","278.5855103749588",18/12/21 22:56:40
"1","30","337.2506195937131","278.84774190545573",18/12/21 22:56:40
"1","30","337.2506195937131","278.84774190545573",18/12/21 22:56:40
"1","30","338.41872247833726","280.2188908077488",18/12/21 22:56:40
"1","30","338.41872247833726","280.2188908077488",18/12/21 22:56:40
"1","30","337.86955832391294","280.22219571997147",18/12/21 22:56:40
"1","30","337.86955832391294","280.22219571997147",18/12/21 22:56:40
"1","30","338.30497238349506","280.52811362161395",18/12/21 22:56:40
"1","30","338.30497238349506","280.52811362161395",18/12/21 22:56:40
"1","30","339.7731733335405","280.7741424156446",18/12/21 22:56:40
"1","30","339.7731733335405","280.7741424156446",18/12/21 22:56:40
"1","30","339.2035452700692","281.6597041960165",18/12/21 22:56:40
"1","30","339.2035452700692","281.6597041960165",18/12/21 22:56:40
"1","30","339.58742740393205","281.97149428522005",18/12/21 22:56:40
"1","30","340.62401425172914","281.8927699101094",18/12/21 22:56:40
"1","30","340.62401425172914","281.8927699101094",18/12/21 22:56:40
"1","30","338.2269041026167","283.3097959503393",18/12/21 22:56:40
"1","30","338.2269041026167","283.3097959503393",18/12/21 22:56:41
"1","30","337.2426239852489","283.50076109966164",18/12/21 22:56:41
"1","30","337.9303675008269","281.49063817160356",18/12/21 22:56:41
"1","30","337.9303675008269","281.49063817160356",18/12/21 22:56:41
"1","30","338.06136467635474","280.52341766565627",18/12/21 22:56:41
"1","30","337.0093522988291","279.69324257261445",18/12/21 22:56:41
"1","30","337.0093522988291","279.69324257261445",18/12/21 22:56:41
"1","30","336.72355786915057","279.3858054071968",18/12/21 22:56:41
"1","30","336.72355786915057","279.3858054071968",18/12/21 22:56:41
"1","30","336.2488461911682","280.3354289742373",18/12/21 22:56:41
"1","30","336.2488461911682","280.3354289742373",18/12/21 22:56:41
"1","30","338.5730439581714","280.35517660054626",18/12/21 22:56:41
"1","30","338.5730439581714","280.35517660054626",18/12/21 22:56:41
"1","30","338.79768755485276","281.73431627129344",18/12/21 22:56:41
"1","30","339.09348312088355","283.1673127791363",18/12/21 22:56:41
"1","30","339.09348312088355","283.1673127791363",18/12/21 22:56:41
"1","30","339.3980731889391","281.10658303131413",18/12/21 22:56:41
"1","30","339.3980731889391","281.10658303131413",18/12/21 22:56:41
"1","30","339.42032762366995","279.435353879481",18/12/21 22:56:41
"1","30","339.42032762366995","279.435353879481",18/12/21 22:56:41
"1","30","339.65389255901005","279.3948199804395",18/12/21 22:56:41
"1","30","339.65389255901005","279.3948199804395",18/12/21 22:56:41
"1","30","339.8741778000112","278.61255239745935",18/12/21 22:56:41
"1","30","336.9709258357842","278.81306585802304",18/12/21 22:56:41
"1","30","336.9709258357842","278.81306585802304",18/12/21 22:56:41
"1","30","339.33721565899","281.33127630677825",18/12/21 22:56:41
"1","30","339.33721565899","281.33127630677825",18/12/21 22:56:41
"1","30","337.90528914403177","280.1545117182006",18/12/21 22:56:41
"1","30","337.90528914403177","280.1545117182006",18/12/21 22:56:41
"1","30","338.5943108889774","282.68652996788103",18/12/21 22:56:41
"1","30","338.5943108889774","282.68652996788103",18/12/21 22:56:41
"1","30","338.72015919870097","283.0333342345928",18/12/21 22:56:41
"1","30","338.55165624321893","281.5531099561756",18/12/21 22:56:41
"1","30","338.55165624321893","281.5531099561756",18/12/21 22:56:41
"1","30","340.09029558331827","282.63979146957837",18/12/21 22:56:41
"1","30","339.60162048201784","281.31534294552176",18/12/21 22:56:41
"1","30","339.60162048201784","281.31534294552176",18/12/21 22:56:41
"1","30","340.2401159100544","282.2514200542291",18/12/21 22:56:41
"1","30","340.2401159100544","282.2514200542291",18/12/21 22:56:41
"1","30","338.8423589983911","283.29773462975857",18/12/21 22:56:41
"1","30","337.7612298623257","284.92208203103615",18/12/21 22:56:41
"1","30","337.7612298623257","284.92208203103615",18/12/21 22:56:41
"1","30","336.09842471415055","284.2663448225926",18/12/21 22:56:41
"1","30","336.09842471415055","284.2663448225926",18/12/21 22:56:41
"1","30","338.44162974747286","283.5129856854826",18/12/21 22:56:41
"1","30","338.44162974747286","283.5129856854826",18/12/21 22:56:41
"1","30","339.9799027555366","284.1364287168291",18/12/21 22:56:41
"1","30","339.9799027555366","284.1364287168291",18/12/21 22:56:41
"1","30","339.1481539001754","285.8183151389012",18/12/21 22:56:41
"1","30","339.1481539001754","285.8183151389012",18/12/21 22:56:41
"1","30","341.12451920612716","286.80112873125745",18/12/21 22:56:42
"1","30","341.12451920612716","286.80112873125745",18/12/21 22:56:42
"1","30","340.72647127442985","286.7452393137225",18/12/21 22:56:42
"1","30","339.4710255220175","285.0231764246794",18/12/21 22:56:42
"1","30","339.4710255220175","285.0231764246794",18/12/21 22:56:42
"1","30","339.98672951027976","285.512693086896",18/12/21 22:56:42
"1","30","340.74239944913114","287.62778177333735",18/12/21 22:56:42
"1","30","340.74239944913114","287.62778177333735",18/12/21 22:56:42
"1","30","340.6634386680644","286.7366990051195",18/12/21 22:56:42
"1","30","340.6634386680644","286.7366990051195",18/12/21 22:56:42
"1","30","340.8579473166829","285.80066801418485",18/12/21 22:56:42
"1","30","338.70366010757476","288.67345692792804",18/12/21 22:56:42
"1","30","338.70366010757476","288.67345692792804",18/12/21 22:56:42
"1","30","338.6740224349858","286.6517603554145",18/12/21 22:56:42
"1","30","338.6740224349858","286.6517603554145",18/12/21 22:56:42
"1","30","337.5074607643202","287.8348208393538",18/12/21 22:56:42
"1","30","337.83332410485315","287.63276385951013",18/12/21 22:56:42
"1","30","337.83332410485315","287.63276385951013",18/12/21 22:56:42
"1","30","339.57236916774684","288.0694047121104",18/12/21 22:56:42
"1","30","340.23456460040046","287.6480925419288",18/12/21 22:56:42
"1","30","340.0625406134971","287.0768329681568",18/12/21 22:56:42
"1","30","340.0625406134971","287.0768329681568",18/12/21 22:56:42
"1","30","340.6576410979884","287.84972678486685",18/12/21 22:56:42
"1","30","340.6576410979884","287.84972678486685",18/12/21 22:56:42
"1","30","338.86155806293044","286.5382461623751",18/12/21 22:56:42
"1","30","338.86155806293044","286.5382461623751",18/12/21 22:56:42
"1","30","338.28867314436803","286.73963674996446",18/12/21 22:56:42
"1","30","338.28867314436803","286.73963674996446",18/12/21 22:56:42
"1","30","339.39428877176806","286.61482411058904",18/12/21 22:56:42
"1","30","340.29309429103677","287.40391590940413",18/12/21 22:56:42
"1","30","340.29309429103677","287.40391590940413",18/12/21 22:56:42
"1","30","338.7961444094512","287.8448477975533",18/12/21 22:56:42
"1","30","337.41592200091037","286.65087959375114",18/12/21 22:56:42
"1","30","337.41592200091037","286.65087959375114",18/12/21 22:56:42
"1","30","338.5034681293234","285.23188550308436",18/12/21 22:56:42
"1","30","338.5034681293234","285.23188550308436",18/12/21 22:56:42
"1","30","338.4628903416128","286.0133508140467",18/12/21 22:56:42
"1","30","338.2311997980436","286.16295431706976",18/12/21 22:56:42
"1","30","338.2311997980436","286.16295431706976",18/12/21 22:56:42
"1","30","339.32909825980505","286.47001219275666",18/12/21 22:56:42
"1","30","338.02185215349095","287.9918736412626",18/12/21 22:56:42
"1","30","338.02185215349095","287.9918736412626",18/12/21 22:56:42
"1","30","339.067135288613","286.72423613385047",18/12/21 22:56:42
"1","30","339.067135288613","286.72423613385047",18/12/21 22:56:42
"1","30","338.1117016213679","287.5129315032815",18/12/21 22:56:42
"1","30","337.40497522416183","286.71287576834055",18/12/21 22:56:42
"1","30","337.40497522416183","286.71287576834055",18/12/21 22:56:42
"1","30","338.6034323392819","286.5063953165282",18/12/21 22:56:42
"1","30","338.6034323392819","286.5063953165282",18/12/21 22:56:42
"1","30","340.38248533522733","285.75787196366474",18/12/21 22:56:42
"1","30","337.1363420961021","283.567025555589",18/12/21 22:56:43
"1","30","337.1363420961021","283.567025555589",18/12/21 22:56:43
"1","30","336.51307001751775","287.1487504413426",18/12/21 22:56:43
"1","30","336.51307001751775","287.1487504413426",18/12/21 22:56:43
"1","30","336.85799077930193","286.7861757968108",18/12/21 22:56:43
"1","30","336.85799077930193","286.7861757968108",18/12/21 22:56:43
"1","30","336.53247329044547","285.79404110447643",18/12/21 22:56:43
"1","30","336.53247329044547","285.79404110447643",18/12/21 22:56:43
"1","30","338.13128489275493","285.8058681085059",18/12/21 22:56:43
"1","30","338.5653653549146","287.2522761343413",18/12/21 22:56:43
"1","30","338.5653653549146","287.2522761343413",18/12/21 22:56:43
"1","30","337.27595190835245","287.62270874246394",18/12/21 22:56:43
"1","30","337.27595190835245","287.62270874246394",18/12/21 22:56:43
"1","30","335.3751511639827","288.4112477983871",18/12/21 22:56:43
"1","30","335.3751511639827","288.4112477983871",18/12/21 22:56:43
"1","30","334.09233543736974","287.28987197364484",18/12/21 22:56:43
"1","30","334.09233543736974","287.28987197364484",18/12/21 22:56:43
"1","30","333.5135495770629","287.0739062775296",18/12/21 22:56:43
"1","30","333.5135495770629","287.0739062775296",18/12/21 22:56:43
"1","30","333.2798474832266","284.6359278250384",18/12/21 22:56:43
"1","30","334.1474019991677","283.1594432291831",18/12/21 22:56:43
"1","30","334.7318564235483","282.6261073120555",18/12/21 22:56:43
"1","30","334.7318564235483","282.6261073120555",18/12/21 22:56:43
"1","30","333.47984614840374","283.36362641305266",18/12/21 22:56:43
"1","30","333.47984614840374","283.36362641305266",18/12/21 22:56:43
"1","30","334.083917745902","283.1812593438236",18/12/21 22:56:43
"1","30","333.4355876181915","284.5505739835381",18/12/21 22:56:43
"1","30","333.4355876181915","284.5505739835381",18/12/21 22:56:43
"1","30","332.76013506852087","286.5594013371558",18/12/21 22:56:43
"1","30","332.5843527479274","288.13009922968286",18/12/21 22:56:43
"1","30","332.5843527479274","288.13009922968286",18/12/21 22:56:43
"1","30","335.2394021584746","286.25555507206366",18/12/21 22:56:43
"1","30","335.2394021584746","286.25555507206366",18/12/21 22:56:43
"1","30","336.7840010452498","284.82363665511133",18/12/21 22:56:43
"1","30","336.7840010452498","284.82363665511133",18/12/21 22:56:43
"1","30","337.0006002920205","283.5337744784739",18/12/21 22:56:43
"1","30","337.0006002920205","283.5337744784739",18/12/21 22:56:43
"1","30","336.2337491599179","283.46901481899255",18/12/21 22:56:43
"1","30","336.7480860164316","284.5065685272984",18/12/21 22:56:43
"1","30","336.7480860164316","284.5065685272984",18/12/21 22:56:43
"1","30","337.581620377655","286.6672722920242",18/12/21 22:56:43
"1","30","337.581620377655","286.6672722920242",18/12/21 22:56:43
"1","30","338.5855551558219","287.6832885462568",18/12/21 22:56:43
"1","30","338.849455325467","287.9176805655439",18/12/21 22:56:43
"1","30","338.849455325467","287.9176805655439",18/12/21 22:56:43
"1","30","337.60883561365796","286.17725464333455",18/12/21 22:56:43
"1","30","337.60883561365796","286.17725464333455",18/12/21 22:56:43
"1","30","336.45181942869","287.44590004636285",18/12/21 22:56:43
"1","30","336.45181942869","287.44590004636285",18/12/21 22:56:43
"1","30","336.75748316097634","287.2667083588497",18/12/21 22:56:44
"1","30","336.27928234172003","288.1655191391293",18/12/21 22:56:44
"1","30","336.27928234172003","288.1655191391293",18/12/21 22:56:44
"1","30","337.87421128719023","288.3395322387499",18/12/21 22:56:44
"1","30","337.87421128719023","288.3395322387499",18/12/21 22:56:44
"1","30","337.8186026016737","287.339809646507",18/12/21 22:56:44
"1","30","338.79485914338073","286.8079951395977",18/12/21 22:56:44
"1","30","338.79485914338073","286.8079951395977",18/12/21 22:56:44
"1","30","338.79485914338073","286.8079951395977",18/12/21 22:56:44
"1","30","337.4717148916686","287.129866920705",18/12/21 22:56:44
"1","30","335.16182405854244","287.6917774422975",18/12/21 22:56:44
"1","30","335.16182405854244","287.6917774422975",18/12/21 22:56:44
"1","88","331.1544301782981","288.3456763563965",18/12/21 22:56:44
"1","88","331.1544301782981","288.3456763563965",18/12/21 22:56:44
"1","88","329.49121898940723","288.1371015590954",18/12/21 22:56:44
"1","88","326.8390181050647","287.80450262905674",18/12/21 22:56:44
"1","88","326.8390181050647","287.80450262905674",18/12/21 22:56:44
"1","88","323.3049987869683","287.36131936534764",18/12/21 22:56:44
"1","88","323.3049987869683","287.36131936534764",18/12/21 22:56:44
"1","88","320.2044442226937","286.9724946964878",18/12/21 22:56:44
"1","88","320.2044442226937","286.9724946964878",18/12/21 22:56:44
"1","89","316.25758586677796","286.48604438290374",18/12/21 22:56:44
"1","89","316.25758586677796","286.48604438290374",18/12/21 22:56:44
"1","89","314.4021492526743","286.2773066991784",18/12/21 22:56:44
"1","89","310.7035608840438","285.86121338547906",18/12/21 22:56:44
"1","89","310.7035608840438","285.86121338547906",18/12/21 22:56:44
"1","89","308.52598816802526","285.61623520544845",18/12/21 22:56:44
"1","89","308.52598816802526","285.61623520544845",18/12/21 22:56:44
"1","89","304.9742859383734","284.84053194976735",18/12/21 22:56:44
"1","15","304.93002662795493","284.84053194976735",18/12/21 22:56:44
"1","15","304.437979816193","280.65890583554346",18/12/21 22:56:44
"1","15","304.16392936434806","278.32990684874795",18/12/21 22:56:44
"1","15","304.16392936434806","278.32990684874795",18/12/21 22:56:44
"1","15","304.25396373321155","277.782369176239",18/12/21 22:56:44
"1","15","304.25396373321155","277.782369176239",18/12/21 22:56:44
"1","15","305.250243992663","279.36964748440016",18/12/21 22:56:44
"1","15","305.250243992663","279.36964748440016",18/12/21 22:56:44
"1","15","305.57770106598366","281.15358860886096",18/12/21 22:56:44
"1","15","305.57770106598366","281.15358860886096",18/12/21 22:56:44
"1","15","305.0573668270662","281.5583073912223",18/12/21 22:56:44
"1","15","305.2907633806491","280.7377893051093",18/12/21 22:56:44
"1","15","305.0115004260081","280.7377893051093",18/12/21 22:56:44
"1","15","306.42833588493545","281.11194582504373",18/12/21 22:56:44
"1","15","305.9152884384094","281.0020914276426",18/12/21 22:56:44
"1","15","304.41562996534776","280.2786071677451",18/12/21 22:56:44
"1","15","304.41562996534776","280.2786071677451",18/12/21 22:56:44
"1","15","302.4591446088439","281.1334544747391",18/12/21 22:56:44
"1","15","302.4591446088439","281.1334544747391",18/12/21 22:56:44
"1","15","302.7272065749494","279.91500023332424",18/12/21 22:56:44
"1","15","302.7272065749494","279.91500023332424",18/12/21 22:56:44
"1","15","302.4384596012826","281.656556613342",18/12/21 22:56:45
"1","15","302.4384596012826","281.656556613342",18/12/21 22:56:45
"1","15","302.30860389457564","279.6681052303118",18/12/21 22:56:45
"1","15","302.30860389457564","279.6681052303118",18/12/21 22:56:45
"1","15","303.45224654279036","281.0106943620634",18/12/21 22:56:45
"1","15","303.45224654279036","281.0106943620634",18/12/21 22:56:45
"1","15","303.0196105918836","281.34410764720025",18/12/21 22:56:45
"1","15","302.898274019556","281.153952206333",18/12/21 22:56:45
"1","15","302.898274019556","281.153952206333",18/12/21 22:56:45
"1","15","304.711086082144","282.50255687203",18/12/21 22:56:45
"1","15","304.711086082144","282.50255687203",18/12/21 22:56:45
"1","15","303.68832893657935","279.4890827907247",18/12/21 22:56:45
"1","15","303.68832893657935","279.4890827907247",18/12/21 22:56:45
"1","15","305.85404909631865","281.4224051659393",18/12/21 22:56:45
"1","15","305.85404909631865","281.4224051659393",18/12/21 22:56:45
"1","15","306.0817779878849","281.34748683888967",18/12/21 22:56:45
"1","15","305.2122811011783","280.88834550626393",18/12/21 22:56:45
"1","15","305.2122811011783","280.88834550626393",18/12/21 22:56:45
"1","15","306.3500015946992","281.4605276681313",18/12/21 22:56:45
"1","15","306.3500015946992","281.4605276681313",18/12/21 22:56:45
"1","15","305.755947984069","283.86391083628706",18/12/21 22:56:45
"1","15","305.755947984069","283.86391083628706",18/12/21 22:56:45
"1","15","304.9952414175795","284.67129200904276",18/12/21 22:56:45
"1","15","304.9952414175795","284.67129200904276",18/12/21 22:56:45
"1","15","302.9924354849285","283.54499963217336",18/12/21 22:56:45
"1","15","302.9924354849285","283.54499963217336",18/12/21 22:56:45
"1","15","303.2686214032603","284.64316667642424",18/12/21 22:56:45
"1","15","303.2686214032603","284.64316667642424",18/12/21 22:56:45
"1","15","304.21661928751604","283.7838439281317",18/12/21 22:56:45
"1","15","303.21105768162977","279.4348787661681",18/12/21 22:56:45
"1","15","303.21105768162977","279.4348787661681",18/12/21 22:56:45
"1","15","303.998596600913","279.5528251951533",18/12/21 22:56:45
"1","15","303.998596600913","279.5528251951533",18/12/21 22:56:45
"1","15","305.01411246207033","279.8922217808922",18/12/21 22:56:45
"1","15","305.01411246207033","279.8922217808922",18/12/21 22:56:45
"1","15","305.0467235975076","281.10714065087353",18/12/21 22:56:45
"1","15","305.0467235975076","281.10714065087353",18/12/21 22:56:45
"1","15","306.1933445912742","281.027846050535",18/12/21 22:56:45
"1","15","305.3730444395722","280.588719571708",18/12/21 22:56:45
"1","15","305.3730444395722","280.588719571708",18/12/21 22:56:45
"1","15","305.8338813595093","282.4000391451493",18/12/21 22:56:45
"1","15","304.4011116560811","283.9288023730053",18/12/21 22:56:45
"1","15","304.4011116560811","283.9288023730053",18/12/21 22:56:45
"1","15","304.90714861737604","284.82731438828944",18/12/21 22:56:45
"1","15","304.90714861737604","284.82731438828944",18/12/21 22:56:45
"1","15","304.90220279206085","284.8280505255469",18/12/21 22:56:45
"1","15","304.7524068369942","284.2491750079106",18/12/21 22:56:45
"1","15","304.7524068369942","284.2491750079106",18/12/21 22:56:45
"1","15","304.6573459257328","284.01823345628196",18/12/21 22:56:45
"1","15","304.6573459257328","284.01823345628196",18/12/21 22:56:45
"1","15","303.89536372921464","283.1016162960732",18/12/21 22:56:46
"1","15","303.89536372921464","283.1016162960732",18/12/21 22:56:46
"1","15","304.5441239554128","283.05106782881586",18/12/21 22:56:46
"1","15","304.5441239554128","283.05106782881586",18/12/21 22:56:46
"1","15","305.3522223316384","281.59107155863506",18/12/21 22:56:46
"1","15","304.85496013244153","282.341640167488",18/12/21 22:56:46
"1","15","304.85496013244153","282.341640167488",18/12/21 22:56:46
"1","15","306.1210548573048","281.3226006720551",18/12/21 22:56:46
"1","15","306.05234092304676","281.445045456476",18/12/21 22:56:46
"1","15","306.05234092304676","281.445045456476",18/12/21 22:56:46
"1","15","305.09127550478485","280.48592636161646",18/12/21 22:56:46
"1","15","305.09127550478485","280.48592636161646",18/12/21 22:56:46
"1","15","304.64724035111027","280.4661627010269",18/12/21 22:56:46
"1","15","303.08437362053274","284.0187948905592",18/12/21 22:56:46
"1","15","303.08437362053274","284.0187948905592",18/12/21 22:56:46
"1","15","303.3318467465982","284.45178263989607",18/12/21 22:56:46
"1","15","303.1884603526224","284.64700749419575",18/12/21 22:56:46
"1","15","303.1884603526224","284.64700749419575",18/12/21 22:56:46
"1","15","302.983134466471","284.2241973915215",18/12/21 22:56:46
"1","15","302.983134466471","284.2241973915215",18/12/21 22:56:46
"1","15","304.9794295486595","284.7624454465325",18/12/21 22:56:46
"1","15","305.1381153978276","284.60214395911356",18/12/21 22:56:46
"1","15","305.1381153978276","284.60214395911356",18/12/21 22:56:46
"1","15","303.46092562469386","284.55525157376775",18/12/21 22:56:46
"1","15","303.46092562469386","284.55525157376775",18/12/21 22:56:46
"1","15","303.291887844977","282.24244044635054",18/12/21 22:56:46
"1","15","303.70217614739545","282.62003522480427",18/12/21 22:56:46
"1","15","303.70217614739545","282.62003522480427",18/12/21 22:56:46
"1","15","304.3614475679863","279.217860064286",18/12/21 22:56:46
"1","15","303.45746071395087","277.85927350427795",18/12/21 22:56:46
"1","15","303.45746071395087","277.85927350427795",18/12/21 22:56:46
"1","15","303.28804367793987","278.1086363365617",18/12/21 22:56:46
"1","15","303.28804367793987","278.1086363365617",18/12/21 22:56:46
"1","15","302.6907472080385","277.58779582329606",18/12/21 22:56:46
"1","15","303.6042244856435","277.80929208148586",18/12/21 22:56:46
"1","15","303.6042244856435","277.80929208148586",18/12/21 22:56:46
"1","15","304.79130883185","279.6856263488272",18/12/21 22:56:46
"1","15","304.79130883185","279.6856263488272",18/12/21 22:56:46
"1","15","304.76051895497733","279.64516113845104",18/12/21 22:56:46
"1","15","304.76051895497733","279.64516113845104",18/12/21 22:56:46
"1","15","305.08448069189967","281.0715532697189",18/12/21 22:56:46
"1","15","305.08448069189967","281.0715532697189",18/12/21 22:56:46
"1","15","305.59286007923276","283.30992982825825",18/12/21 22:56:46
"1","88","307.1815196788629","285.46607720001276",18/12/21 22:56:46
"1","88","307.1815196788629","285.46607720001276",18/12/21 22:56:46
"1","88","310.2687817010127","286.1323927533098",18/12/21 22:56:46
"1","88","312.2048783969872","286.55025535517484",18/12/21 22:56:46
"1","88","312.2048783969872","286.55025535517484",18/12/21 22:56:46
"1","88","316.80519958275704","287.54313044457376",18/12/21 22:56:46
"1","88","316.80519958275704","287.54313044457376",18/12/21 22:56:46
"1","88","318.7170988817853","287.455320679848",18/12/21 22:56:47
"1","88","322.945718454443","287.19258114902135",18/12/21 22:56:47
"1","88","322.945718454443","287.19258114902135",18/12/21 22:56:47
"1","88","326.81007163904553","286.9524748152107",18/12/21 22:56:47
"1","88","326.81007163904553","286.9524748152107",18/12/21 22:56:47
"1","88","330.1471820829811","286.745127992615",18/12/21 22:56:47
"1","88","330.1471820829811","286.745127992615",18/12/21 22:56:47
"1","26","334.75810722246564","287.02328690142895",18/12/21 22:56:47
"1","26","334.75810722246564","287.02328690142895",18/12/21 22:56:47
"1","26","336.47745446978064","287.2716700351629",18/12/21 22:56:47
"1","26","338.45370864830835","287.55716687513177",18/12/21 22:56:47
"1","26","341.42775020477063","287.8903150900606",18/12/21 22:56:47
"1","26","341.42775020477063","287.8903150900606",18/12/21 22:56:47
"1","26","343.4732294678556","286.53300056108947",18/12/21 22:56:47
"1","42","345.04621621810395","284.9495696405614",18/12/21 22:56:47
"1","42","345.04621621810395","284.9495696405614",18/12/21 22:56:47
"1","42","341.9503266924756","283.7290344810215",18/12/21 22:56:47
"1","42","342.0670212828921","283.6490721505759",18/12/21 22:56:47
"1","42","342.7217405251983","283.3505842580734",18/12/21 22:56:47
"1","42","342.7217405251983","283.3505842580734",18/12/21 22:56:47
"1","42","345.14971870274786","283.6047491286207",18/12/21 22:56:47
"1","42","345.43168518130614","283.4233230923572",18/12/21 22:56:47
"1","42","346.14255957954015","282.1100731864969",18/12/21 22:56:47
"1","42","346.14255957954015","282.1100731864969",18/12/21 22:56:47
"1","42","346.0886498246472","282.0396424027826",18/12/21 22:56:47
"1","42","346.0886498246472","282.0396424027826",18/12/21 22:56:47
"1","42","346.0874722971644","280.6147825344335",18/12/21 22:56:47
"1","42","346.3240456470123","280.9332536372773",18/12/21 22:56:47
"1","42","346.3240456470123","280.9332536372773",18/12/21 22:56:47
"1","42","343.9036376927738","280.24197461204375",18/12/21 22:56:47
"1","42","343.9036376927738","280.24197461204375",18/12/21 22:56:47
"1","42","343.90185193873174","281.21787011612554",18/12/21 22:56:47
"1","42","343.90185193873174","281.21787011612554",18/12/21 22:56:47
"1","42","345.0705046415234","282.42413251506673",18/12/21 22:56:47
"1","42","343.90664197908035","284.376522530231",18/12/21 22:56:47
"1","42","342.7620576033047","284.05646987667967",18/12/21 22:56:47
"1","42","342.7620576033047","284.05646987667967",18/12/21 22:56:47
"1","42","342.36237372416156","283.63094403075235",18/12/21 22:56:47
"1","42","342.4383670393299","283.5670926062482",18/12/21 22:56:47
"1","42","343.072125100272","281.4421168199379",18/12/21 22:56:47
"1","42","343.072125100272","281.4421168199379",18/12/21 22:56:47
"1","42","341.9624375381413","281.4065405482602",18/12/21 22:56:47
"1","42","341.9624375381413","281.4065405482602",18/12/21 22:56:47
"1","42","343.8738880585727","280.64555879818477",18/12/21 22:56:47
"1","42","343.6164971814706","277.846390405706",18/12/21 22:56:47
"1","42","343.6164971814706","277.846390405706",18/12/21 22:56:47
"1","42","343.9087320310352","277.89940462897886",18/12/21 22:56:47
"1","42","343.9087320310352","277.89940462897886",18/12/21 22:56:47
"1","42","344.42628686626233","279.82241004960906",18/12/21 22:56:47
"1","42","344.42628686626233","279.82241004960906",18/12/21 22:56:47
"1","42","345.45736886913625","283.65345585516235",18/12/21 22:56:48
"1","42","345.45736886913625","283.65345585516235",18/12/21 22:56:48
"1","26","345.8501689206239","285.23260375748987",18/12/21 22:56:48
"1","26","342.26271440671866","287.2803541060087",18/12/21 22:56:48
"1","26","342.26271440671866","287.2803541060087",18/12/21 22:56:48
"1","26","342.26271440671866","287.2803541060087",18/12/21 22:56:48
"1","88","340.76409591172734","287.8628911615686",18/12/21 22:56:48
"1","88","339.42101055787435","287.9560961811442",18/12/21 22:56:48
"1","88","337.67934453524583","288.07696118444983",18/12/21 22:56:48
"1","88","337.67934453524583","288.07696118444983",18/12/21 22:56:48
"1","88","335.19126499083904","288.2496244496524",18/12/21 22:56:48
"1","88","332.20110369353995","288.4571302804988",18/12/21 22:56:48
"1","88","332.20110369353995","288.4571302804988",18/12/21 22:56:48
"1","88","329.6385029085765","286.501367238427",18/12/21 22:56:48
"1","88","329.6385029085765","286.501367238427",18/12/21 22:56:48
"1","78","328.8278234455818","283.44425042025375",18/12/21 22:56:48
"1","78","328.8278234455818","283.44425042025375",18/12/21 22:56:48
"1","78","331.3580188681196","281.2616612020928",18/12/21 22:56:48
"1","78","329.0864204093531","280.77172628013676",18/12/21 22:56:48
"1","78","329.0864204093531","280.77172628013676",18/12/21 22:56:48
"1","78","330.63304976414264","281.644683030807",18/12/21 22:56:48
"1","78","330.63304976414264","281.644683030807",18/12/21 22:56:48
"1","78","331.11973340740093","283.2283332181214",18/12/21 22:56:48
"1","78","330.52909646960916","283.04164955368435",18/12/21 22:56:48
"1","78","330.52909646960916","283.04164955368435",18/12/21 22:56:48
"1","78","330.47117669853674","282.16779949069667",18/12/21 22:56:48
"1","78","330.47117669853674","282.16779949069667",18/12/21 22:56:48
"1","78","329.9102216997292","282.1053314477099",18/12/21 22:56:48
"1","78","328.51239765655976","282.54330550961265",18/12/21 22:56:48
"1","78","328.51239765655976","282.54330550961265",18/12/21 22:56:48
"1","78","328.7121891944006","282.7059323900864",18/12/21 22:56:48
"1","78","328.7121891944006","282.7059323900864",18/12/21 22:56:48
"1","78","327.88777938829907","284.3370964830064",18/12/21 22:56:48
"1","78","327.88777938829907","284.3370964830064",18/12/21 22:56:48
"1","78","329.21098503246617","282.94045912580214",18/12/21 22:56:48
"1","78","329.21098503246617","282.94045912580214",18/12/21 22:56:48
"1","78","330.5219220688882","283.3885706079714",18/12/21 22:56:48
"1","78","329.7825556383205","283.3885706079714",18/12/21 22:56:48
"1","78","330.1445716079047","282.4463776864939",18/12/21 22:56:48
"1","78","330.1445716079047","282.4463776864939",18/12/21 22:56:48
"1","78","329.27621670090963","283.1175811725328",18/12/21 22:56:48
"1","78","327.43747530154695","283.89653845246045",18/12/21 22:56:48
"1","78","327.43747530154695","283.89653845246045",18/12/21 22:56:48
"1","78","327.84091153927676","283.10175954929724",18/12/21 22:56:48
"1","78","327.84091153927676","283.10175954929724",18/12/21 22:56:48
"1","78","328.52557313663834","283.04174332573547",18/12/21 22:56:48
"1","78","327.97181302417636","283.59596659110247",18/12/21 22:56:48
"1","78","327.97181302417636","283.59596659110247",18/12/21 22:56:48
"1","78","328.33515972418786","284.19386458768105",18/12/21 22:56:48
"1","78","329.58205386826256","282.30432361840934",18/12/21 22:56:48
"1","78","329.5097405757773","282.9528241242065",18/12/21 22:56:49
"1","78","330.09117509543944","284.10118897070765",18/12/21 22:56:49
"1","78","330.09117509543944","284.10118897070765",18/12/21 22:56:49
"1","78","331.09695618745116","283.2943573543474",18/12/21 22:56:49
"1","78","331.09695618745116","283.2943573543474",18/12/21 22:56:49
"1","78","330.0349580686815","282.55951327903614",18/12/21 22:56:49
"1","78","330.0349580686815","282.55951327903614",18/12/21 22:56:49
"1","78","330.58554260662186","283.95506420644784",18/12/21 22:56:49
"1","78","330.58554260662186","283.95506420644784",18/12/21 22:56:49
"1","78","331.15587254365374","283.7376572412162",18/12/21 22:56:49
"1","78","331.15587254365374","283.7376572412162",18/12/21 22:56:49
"1","78","330.4386751718494","284.70783905941477",18/12/21 22:56:49
"1","78","330.40921034275044","284.5054106992178",18/12/21 22:56:49
"1","78","330.40921034275044","284.5054106992178",18/12/21 22:56:49
"1","78","330.26988553760077","283.47030543934727",18/12/21 22:56:49
"1","78","328.4289222424841","284.4570154529785",18/12/21 22:56:49
"1","78","327.84143389501605","283.7613655940815",18/12/21 22:56:49
"1","78","327.84143389501605","283.7613655940815",18/12/21 22:56:49
"1","78","329.64030438276956","281.92101616641213",18/12/21 22:56:49
"1","78","329.64030438276956","281.92101616641213",18/12/21 22:56:49
"1","78","330.2442562844919","281.2731751526877",18/12/21 22:56:49
"1","78","327.7873177509699","279.5720813587722",18/12/21 22:56:49
"1","78","327.7873177509699","279.5720813587722",18/12/21 22:56:49
"1","78","329.75208663414713","278.8207826087665",18/12/21 22:56:49
"1","78","327.6194584837912","278.4113151706177",18/12/21 22:56:49
"1","78","327.8501013656995","277.9926163946972",18/12/21 22:56:49
"1","78","327.8501013656995","277.9926163946972",18/12/21 22:56:49
"1","78","329.7083173626336","278.3348390589801",18/12/21 22:56:49
"1","78","329.7083173626336","278.3348390589801",18/12/21 22:56:49
"1","78","330.7028449837312","278.4181000865552",18/12/21 22:56:49
"1","78","329.7878198736487","278.2695229669242",18/12/21 22:56:49
"1","78","327.9673042957872","279.8738196503003",18/12/21 22:56:49
"1","78","327.9673042957872","279.8738196503003",18/12/21 22:56:49
"1","78","327.06635044080593","281.21976191928985",18/12/21 22:56:49
"1","78","327.06635044080593","281.21976191928985",18/12/21 22:56:49
"1","78","327.10244711731104","279.18512217951536",18/12/21 22:56:49
"1","78","327.10244711731104","279.18512217951536",18/12/21 22:56:49
"1","78","329.5047738596509","279.30726554108645",18/12/21 22:56:49
"1","78","329.5047738596509","279.30726554108645",18/12/21 22:56:49
"1","78","329.0853470202923","281.5032162702984",18/12/21 22:56:49
"1","78","329.0853470202923","281.5032162702984",18/12/21 22:56:49
"1","78","330.71710323290614","281.01367152012745",18/12/21 22:56:49
"1","78","330.25184436616956","280.50241613591805",18/12/21 22:56:49
"1","78","330.25184436616956","280.50241613591805",18/12/21 22:56:49
"1","78","328.58406513030644","281.130516009757",18/12/21 22:56:49
"1","78","328.58406513030644","281.130516009757",18/12/21 22:56:49
"1","78","330.6315444456885","280.6611142912569",18/12/21 22:56:49
"1","78","330.1414139519316","278.9628849332856",18/12/21 22:56:49
"1","78","330.1414139519316","278.9628849332856",18/12/21 22:56:49
"1","78","331.3842991855934","278.8001575987719",18/12/21 22:56:50
"1","78","329.4571145916145","277.7134229728627",18/12/21 22:56:50
"1","78","329.4571145916145","277.7134229728627",18/12/21 22:56:50
"1","78","327.5464571774171","280.06241699237864",18/12/21 22:56:50
"1","78","327.5464571774171","280.06241699237864",18/12/21 22:56:50
"1","78","328.65001777366984","281.2339785563509",18/12/21 22:56:50
"1","78","327.5558242890076","280.6983921582651",18/12/21 22:56:50
"1","78","327.5558242890076","280.6983921582651",18/12/21 22:56:50
"1","78","328.16207413213226","281.9402355638521",18/12/21 22:56:50
"1","78","328.16207413213226","281.9402355638521",18/12/21 22:56:50
"1","78","329.9897723697774","282.24086769976236",18/12/21 22:56:50
"1","78","329.9897723697774","282.24086769976236",18/12/21 22:56:50
"1","78","328.189509036061","281.50821153888506",18/12/21 22:56:50
"1","78","328.189509036061","281.50821153888506",18/12/21 22:56:50
"1","78","328.6727107396392","282.32661372282143",18/12/21 22:56:50
"1","78","327.958098820496","281.81985772710124",18/12/21 22:56:50
"1","78","327.958098820496","281.81985772710124",18/12/21 22:56:50
"1","78","328.96878739603784","280.94891086662676",18/12/21 22:56:50
"1","78","328.24929929257576","279.41920831524374",18/12/21 22:56:50
"1","78","328.24929929257576","279.41920831524374",18/12/21 22:56:50
"1","78","329.66980696365863","280.99242995097165",18/12/21 22:56:50
"1","78","329.66980696365863","280.99242995097165",18/12/21 22:56:50
"1","78","330.4229725924138","280.23581111498555",18/12/21 22:56:50
"1","78","331.28991769802644","277.9369338737577",18/12/21 22:56:50
"1","78","331.28991769802644","277.9369338737577",18/12/21 22:56:50
"1","78","331.23070801777175","278.73589146331295",18/12/21 22:56:50
"1","78","331.23070801777175","278.73589146331295",18/12/21 22:56:50
"1","78","329.25279163413","280.4021351184293",18/12/21 22:56:50
"1","78","329.25279163413","280.4021351184293",18/12/21 22:56:50
"1","78","329.2193476024098","280.9989038539081",18/12/21 22:56:50
"1","78","329.2193476024098","280.9989038539081",18/12/21 22:56:50
"1","78","329.1070224226048","280.2948140509663",18/12/21 22:56:50
"1","78","331.00394453897775","282.06987043399744",18/12/21 22:56:50
"1","78","331.00394453897775","282.06987043399744",18/12/21 22:56:50
"1","78","331.0932033932043","284.055735954673",18/12/21 22:56:50
"1","78","331.0932033932043","284.055735954673",18/12/21 22:56:50
"1","78","329.6803366168109","280.7995207733286",18/12/21 22:56:50
"1","78","330.1801423062413","282.41535328873164",18/12/21 22:56:50
"1","78","330.1801423062413","282.41535328873164",18/12/21 22:56:50
"1","78","330.92377483292216","282.4263828789059",18/12/21 22:56:50
"1","78","330.92377483292216","282.4263828789059",18/12/21 22:56:50
"1","78","330.16467981415786","284.23561760386576",18/12/21 22:56:50
"1","78","327.8885004317275","284.23561760386576",18/12/21 22:56:50
"1","78","328.57965651045305","282.3279563188791",18/12/21 22:56:50
"1","78","328.4482492839484","284.2470031855362",18/12/21 22:56:50
"1","78","328.4482492839484","284.2470031855362",18/12/21 22:56:50
"1","78","328.7412414018128","283.76345852757447",18/12/21 22:56:50
"1","78","328.7412414018128","283.76345852757447",18/12/21 22:56:50
"1","78","327.7093548918094","282.1252557464943",18/12/21 22:56:50
"1","78","327.7093548918094","282.1252557464943",18/12/21 22:56:50
"1","78","327.419212340852","282.1199045257895",18/12/21 22:56:51
"1","78","327.37624164564136","281.26581131299565",18/12/21 22:56:51
"1","78","327.37624164564136","281.26581131299565",18/12/21 22:56:51
"1","78","327.3939307129527","283.04734963133586",18/12/21 22:56:51
"1","78","327.3939307129527","283.04734963133586",18/12/21 22:56:51
"1","78","328.5344859641342","280.8564375406728",18/12/21 22:56:51
"1","78","328.5344859641342","280.8564375406728",18/12/21 22:56:51
"1","78","328.2584528830719","280.1509166770782",18/12/21 22:56:51
"1","78","329.6519908357011","279.18649808938903",18/12/21 22:56:51
"1","78","329.6519908357011","279.18649808938903",18/12/21 22:56:51
"1","78","328.14657184164","278.68782873461",18/12/21 22:56:51
"1","78","328.14657184164","278.68782873461",18/12/21 22:56:51
"1","78","327.33708141825633","279.42002255617876",18/12/21 22:56:51
"1","78","328.1837511071745","281.43152936126876",18/12/21 22:56:51
"1","78","328.1837511071745","281.43152936126876",18/12/21 22:56:51
"1","78","330.2897878784404","281.98162078581703",18/12/21 22:56:51
"1","78","331.35682291081326","282.50343334685874",18/12/21 22:56:51
"1","78","331.35682291081326","282.50343334685874",18/12/21 22:56:51
"1","78","330.87227331965664","277.92243012280994",18/12/21 22:56:51
"1","78","330.87227331965664","277.92243012280994",18/12/21 22:56:51
"1","78","330.7380095304328","277.6564365774623",18/12/21 22:56:51
"1","78","330.7380095304328","277.6564365774623",18/12/21 22:56:51
"1","78","327.2649138049818","277.55415330178806",18/12/21 22:56:51
"1","78","327.2649138049818","277.55415330178806",18/12/21 22:56:51
"1","78","328.8808347736552","280.24116406454624",18/12/21 22:56:51
"1","78","328.8808347736552","280.24116406454624",18/12/21 22:56:51
"1","78","329.46209348269497","281.3739664540271",18/12/21 22:56:51
"1","78","329.46209348269497","281.3739664540271",18/12/21 22:56:51
"1","78","329.124109541362","280.52036202540455",18/12/21 22:56:51
"1","78","328.5494776615543","280.52036202540455",18/12/21 22:56:51
"1","78","329.51035990378034","281.1018723402469",18/12/21 22:56:51
"1","78","329.51035990378034","281.1018723402469",18/12/21 22:56:51
"1","78","329.74895122335244","280.83175445807126",18/12/21 22:56:51
"1","78","328.0888304661833","279.1976034601001",18/12/21 22:56:51
"1","78","328.0888304661833","279.1976034601001",18/12/21 22:56:51
"1","78","328.15751057826367","280.43384872377146",18/12/21 22:56:51
"1","78","328.15751057826367","280.43384872377146",18/12/21 22:56:51
"1","78","329.67177100952347","280.3685904206556",18/12/21 22:56:51
"1","78","331.06742209821476","281.49426562634534",18/12/21 22:56:51
"1","78","331.1892613666435","280.68279219041216",18/12/21 22:56:51
"1","78","331.0989077705362","280.68279219041216",18/12/21 22:56:51
"1","78","329.985952106296","279.2343456428234",18/12/21 22:56:51
"1","78","331.023849918696","282.09646060530343",18/12/21 22:56:51
"1","78","331.023849918696","282.09646060530343",18/12/21 22:56:51
"1","78","330.88735372945905","281.6217721031544",18/12/21 22:56:51
"1","78","330.7364019556383","279.7430644774287",18/12/21 22:56:51
"1","78","330.7364019556383","279.7430644774287",18/12/21 22:56:51
"1","78","329.0675479885557","280.55065778383846",18/12/21 22:56:51
"1","78","329.0675479885557","280.55065778383846",18/12/21 22:56:51
"1","78","328.7047720454951","280.56145655529946",18/12/21 22:56:51
"1","78","328.7047720454951","280.56145655529946",18/12/21 22:56:52
"1","78","327.56891229728257","279.38381879084807",18/12/21 22:56:52
"1","78","327.56891229728257","279.38381879084807",18/12/21 22:56:52
"1","78","327.1611575095717","281.75597742674614",18/12/21 22:56:52
"1","78","327.0287776711082","283.8867246605796",18/12/21 22:56:52
"1","78","327.0287776711082","283.8867246605796",18/12/21 22:56:52
"1","78","329.6625684608201","284.24983255095594",18/12/21 22:56:52
"1","78","329.6625684608201","284.24983255095594",18/12/21 22:56:52
"1","78","329.6625684608201","284.24983255095594",18/12/21 22:56:52
