"floorId","partitionId","location_x","location_y","timeStamp"
"1","89","304.3972781160007","286.4052668282546",18/12/21 22:52:49
"1","89","306.4906391905048","286.16755621292583",18/12/21 22:52:50
"1","89","308.0425690273598","285.99132756276174",18/12/21 22:52:50
"1","89","309.4778176346435","285.82834859380006",18/12/21 22:52:50
"1","89","311.0395711442825","285.65100442117273",18/12/21 22:52:50
"1","89","312.691377308796","285.4634343624033",18/12/21 22:52:50
"1","89","315.15867992239345","285.21666666666664",18/12/21 22:52:50
"1","46","315.5951567930095","283.91112027507427",18/12/21 22:52:50
"1","46","315.5079338327347","281.561449064013",18/12/21 22:52:50
"1","46","315.48913593190855","281.0550584730449",18/12/21 22:52:50
"1","46","314.4617194453291","281.3344092116969",18/12/21 22:52:50
"1","46","314.91528021104006","283.13667896529137",18/12/21 22:52:50
"1","46","315.0302699322654","282.85671902750215",18/12/21 22:52:50
"1","46","316.4105981774839","284.48075270769544",18/12/21 22:52:50
"1","46","316.4744197045944","284.35992255106703",18/12/21 22:52:50
"1","46","316.29622947512956","284.4726285149748",18/12/21 22:52:50
"1","46","314.3792912612241","283.39274207611527",18/12/21 22:52:50
"1","46","314.90228254084815","283.76540062160626",18/12/21 22:52:50
"1","46","313.4513340570709","283.1239959741682",18/12/21 22:52:50
"1","46","312.496310508172","281.6743061711258",18/12/21 22:52:50
"1","46","313.648570519338","283.65820884447214",18/12/21 22:52:50
"1","46","313.51501926821766","283.6236020634996",18/12/21 22:52:50
"1","46","313.9341295219533","283.14922267978227",18/12/21 22:52:50
"1","46","314.070975495125","283.26381040767916",18/12/21 22:52:50
"1","46","314.0548414457176","283.2472440101718",18/12/21 22:52:50
"1","46","316.03776946900985","284.7211950923773",18/12/21 22:52:50
"1","46","314.9869480634337","284.0097087185883",18/12/21 22:52:50
"1","46","312.9301164708584","284.5341554469758",18/12/21 22:52:50
"1","46","314.6985596621846","284.47947132909894",18/12/21 22:52:50
"1","46","314.4320104473089","283.65103594209614",18/12/21 22:52:50
"1","46","313.51585657686377","283.3088504756133",18/12/21 22:52:50
"1","46","313.2066390839736","284.6754451102016",18/12/21 22:52:50
"1","46","312.9026699830093","284.4959982061953",18/12/21 22:52:50
"1","46","312.7113891603832","284.59258336164106",18/12/21 22:52:50
"1","46","315.19518416227476","284.81385761115484",18/12/21 22:52:50
"1","46","315.78620431416465","283.6526810829366",18/12/21 22:52:50
"1","46","316.3880249072073","283.3451438576612",18/12/21 22:52:50
"1","46","315.9230887286208","283.3811633555604",18/12/21 22:52:50
"1","46","316.0256862330654","283.2111326781111",18/12/21 22:52:50
"1","46","314.40027365123416","283.09668597331813",18/12/21 22:52:50
"1","46","314.5609617970816","283.1828467392586",18/12/21 22:52:50
"1","46","314.14933235876504","283.5897037651923",18/12/21 22:52:50
"1","46","313.6113918926264","283.689531206416",18/12/21 22:52:50
"1","46","312.28659617209183","284.8354943491362",18/12/21 22:52:50
"1","46","312.8065688959955","284.46118344177535",18/12/21 22:52:50
"1","46","312.4159898178954","282.7779015998035",18/12/21 22:52:50
"1","46","312.42286891104084","282.53883756604193",18/12/21 22:52:50
"1","46","311.9709705970322","284.5139078177088",18/12/21 22:52:50
"1","46","311.85406594698526","284.83860091498207",18/12/21 22:52:50
"1","46","313.36150861789963","283.5463387588607",18/12/21 22:52:50
"1","46","311.84309860920365","283.2447068555632",18/12/21 22:52:50
"1","46","313.3941975270691","283.16503199820954",18/12/21 22:52:51
"1","46","315.13290536150237","283.43005189014593",18/12/21 22:52:51
"1","46","315.2992028442294","282.14186645659794",18/12/21 22:52:51
"1","46","315.2992028442294","282.14186645659794",18/12/21 22:52:51
"1","46","314.3584484952898","282.3289056796728",18/12/21 22:52:51
"1","46","314.3584484952898","282.3289056796728",18/12/21 22:52:51
"1","46","313.1184175173747","283.4730933165903",18/12/21 22:52:51
"1","46","313.9772965096745","282.6053667788033",18/12/21 22:52:51
"1","46","313.9772965096745","282.6053667788033",18/12/21 22:52:51
"1","46","313.9820691668174","283.03021253212546",18/12/21 22:52:51
"1","46","313.9820691668174","283.03021253212546",18/12/21 22:52:51
"1","46","312.9070172613317","279.8145690757247",18/12/21 22:52:51
"1","46","312.9070172613317","279.8145690757247",18/12/21 22:52:51
"1","46","313.82942508829274","277.94835191052897",18/12/21 22:52:51
"1","46","312.99985566843065","279.37878989835536",18/12/21 22:52:51
"1","46","312.99985566843065","279.37878989835536",18/12/21 22:52:51
"1","46","313.9459680357147","278.40347776601953",18/12/21 22:52:51
"1","46","313.9459680357147","278.40347776601953",18/12/21 22:52:51
"1","46","314.5512065725043","280.3037693321129",18/12/21 22:52:51
"1","46","316.49821704553466","278.82449876934186",18/12/21 22:52:51
"1","46","316.49821704553466","278.82449876934186",18/12/21 22:52:51
"1","46","314.16427699224386","279.48910734861175",18/12/21 22:52:51
"1","46","314.16427699224386","279.48910734861175",18/12/21 22:52:51
"1","46","314.1623231483038","278.2303517726627",18/12/21 22:52:51
"1","46","312.6569435329643","278.35913400240975",18/12/21 22:52:51
"1","46","312.6569435329643","278.9363622538475",18/12/21 22:52:51
"1","46","313.39484980027396","278.9363622538475",18/12/21 22:52:51
"1","46","314.1939168592921","278.9785012250152",18/12/21 22:52:51
"1","46","312.9216714269122","279.4306524943151",18/12/21 22:52:51
"1","46","312.9216714269122","279.4306524943151",18/12/21 22:52:51
"1","46","312.64399307382166","278.60477763657764",18/12/21 22:52:51
"1","46","312.2461589590334","278.5710956231207",18/12/21 22:52:51
"1","46","312.2461589590334","278.5710956231207",18/12/21 22:52:51
"1","46","314.33163971636884","278.2496122702123",18/12/21 22:52:51
"1","46","314.33163971636884","278.2496122702123",18/12/21 22:52:51
"1","46","315.25814992851235","279.94678637744477",18/12/21 22:52:51
"1","46","315.148075653637","280.6383522710984",18/12/21 22:52:51
"1","46","315.148075653637","280.6383522710984",18/12/21 22:52:51
"1","46","314.5199202135652","279.70091870510987",18/12/21 22:52:51
"1","46","315.1717866347681","280.7116172762065",18/12/21 22:52:51
"1","46","314.61699775994396","282.6351854535654",18/12/21 22:52:51
"1","46","314.61699775994396","282.6351854535654",18/12/21 22:52:51
"1","46","314.48363251583845","282.6096813734056",18/12/21 22:52:51
"1","46","314.48363251583845","282.6096813734056",18/12/21 22:52:51
"1","46","314.6046399141954","282.75940303488085",18/12/21 22:52:51
"1","46","314.6046399141954","282.75940303488085",18/12/21 22:52:51
"1","46","315.99735906034937","283.5742015842337",18/12/21 22:52:51
"1","46","313.65473599750317","283.78996456380486",18/12/21 22:52:51
"1","46","313.65473599750317","283.78996456380486",18/12/21 22:52:51
"1","46","314.82447477474614","283.3157706048078",18/12/21 22:52:51
"1","46","315.35509763349575","282.58694950313725",18/12/21 22:52:52
"1","46","315.35509763349575","282.58694950313725",18/12/21 22:52:52
"1","46","314.99132905388734","282.73493452189973",18/12/21 22:52:52
"1","46","313.26800584676874","281.67681755073613",18/12/21 22:52:52
"1","46","313.26800584676874","281.67681755073613",18/12/21 22:52:52
"1","46","312.68935114831237","283.84979648297013",18/12/21 22:52:52
"1","46","312.68935114831237","283.84979648297013",18/12/21 22:52:52
"1","46","314.2522887648971","283.9414427823871",18/12/21 22:52:52
"1","46","313.23171015137063","283.65737544972717",18/12/21 22:52:52
"1","46","313.23171015137063","283.65737544972717",18/12/21 22:52:52
"1","46","314.85443876410494","284.4734465306129",18/12/21 22:52:52
"1","46","314.85443876410494","284.4734465306129",18/12/21 22:52:52
"1","46","316.1743914598086","285.13725144207353",18/12/21 22:52:52
"1","88","317.5622736075896","287.93245766456533",18/12/21 22:52:52
"1","88","317.5622736075896","287.93245766456533",18/12/21 22:52:52
"1","88","321.4352447793355","287.7007550761197",18/12/21 22:52:52
"1","88","323.3195208149507","287.5880272463897",18/12/21 22:52:52
"1","88","323.3195208149507","287.5880272463897",18/12/21 22:52:52
"1","88","326.2778986975272","287.41104069456776",18/12/21 22:52:52
"1","88","326.2778986975272","287.41104069456776",18/12/21 22:52:52
"1","88","328.1417849135113","287.2995326967902",18/12/21 22:52:52
"1","30","332.6345091043801","287.2549117326975",18/12/21 22:52:52
"1","30","332.6345091043801","287.2549117326975",18/12/21 22:52:52
"1","30","336.5522906521422","288.46136777089185",18/12/21 22:52:52
"1","6","337.98551364761295","289.31515114683884",18/12/21 22:52:52
"1","6","337.98551364761295","289.31515114683884",18/12/21 22:52:52
"1","6","339.80555466516597","293.2070452751983",18/12/21 22:52:52
"1","6","339.80555466516597","293.2070452751983",18/12/21 22:52:52
"1","6","338.7699484685074","295.5033849423383",18/12/21 22:52:52
"1","6","339.53088271599535","294.5980987057953",18/12/21 22:52:52
"1","6","339.53088271599535","294.5980987057953",18/12/21 22:52:52
"1","6","340.253502367691","295.50554395413735",18/12/21 22:52:52
"1","6","340.253502367691","295.50554395413735",18/12/21 22:52:52
"1","6","339.0087974383225","294.7814950102101",18/12/21 22:52:52
"1","6","336.52453875683744","295.6834760143499",18/12/21 22:52:52
"1","6","336.52453875683744","295.6834760143499",18/12/21 22:52:52
"1","6","336.18175737987275","293.3535952022783",18/12/21 22:52:52
"1","6","335.98009231617954","293.4676870132879",18/12/21 22:52:52
"1","6","335.98009231617954","293.4676870132879",18/12/21 22:52:52
"1","6","333.49988918195606","295.4467309042405",18/12/21 22:52:52
"1","6","333.49988918195606","295.4467309042405",18/12/21 22:52:52
"1","6","332.67995994933113","295.5264854899687",18/12/21 22:52:52
"1","6","332.67995994933113","295.5264854899687",18/12/21 22:52:52
"1","6","333.6304264053894","293.1961028327393",18/12/21 22:52:52
"1","6","333.6304264053894","293.1961028327393",18/12/21 22:52:52
"1","6","334.15503440974004","292.44924365655345",18/12/21 22:52:52
"1","6","335.09969319391865","292.07919940022646",18/12/21 22:52:52
"1","6","338.1323135443381","292.0273596471843",18/12/21 22:52:52
"1","6","338.1323135443381","292.0273596471843",18/12/21 22:52:52
"1","6","336.522860047184","291.4737653758956",18/12/21 22:52:52
"1","6","336.59067531746075","291.39670234471345",18/12/21 22:52:53
"1","6","336.59067531746075","291.39670234471345",18/12/21 22:52:53
"1","6","334.96679515289503","290.7787032900883",18/12/21 22:52:53
"1","6","334.96679515289503","290.7787032900883",18/12/21 22:52:53
"1","6","334.78721385401144","290.54586668682884",18/12/21 22:52:53
"1","6","336.54566144331204","290.1938732110378",18/12/21 22:52:53
"1","6","336.54566144331204","290.1938732110378",18/12/21 22:52:53
"1","6","334.3741650101578","289.9051402242551",18/12/21 22:52:53
"1","6","334.3741650101578","289.9051402242551",18/12/21 22:52:53
"1","6","335.4974610068417","291.63504034643745",18/12/21 22:52:53
"1","6","333.627226224252","290.52201146469287",18/12/21 22:52:53
"1","6","333.627226224252","290.52201146469287",18/12/21 22:52:53
"1","6","334.72715788731426","291.7912641568048",18/12/21 22:52:53
"1","6","334.72715788731426","291.47875111804103",18/12/21 22:52:53
"1","6","335.6659767150524","291.74100659588186",18/12/21 22:52:53
"1","6","335.1984372362428","290.76648125976516",18/12/21 22:52:53
"1","6","334.885651941258","291.1591401890043",18/12/21 22:52:53
"1","6","334.871256769155","291.0244714956144",18/12/21 22:52:53
"1","6","334.871256769155","291.0244714956144",18/12/21 22:52:53
"1","6","338.6371501959338","290.72846833311075",18/12/21 22:52:53
"1","6","338.6371501959338","290.72846833311075",18/12/21 22:52:53
"1","6","340.0296709635076","292.3358325716016",18/12/21 22:52:53
"1","6","341.08784573409736","292.5339132172687",18/12/21 22:52:53
"1","6","341.08784573409736","292.5339132172687",18/12/21 22:52:53
"1","6","341.40665932604367","294.1313862156918",18/12/21 22:52:53
"1","6","341.40665932604367","294.1313862156918",18/12/21 22:52:53
"1","6","340.0961367910177","293.72774424804703",18/12/21 22:52:53
"1","6","340.02576266039716","294.0925095336878",18/12/21 22:52:53
"1","6","340.02576266039716","294.0925095336878",18/12/21 22:52:53
"1","6","339.64763617405185","294.1689265388974",18/12/21 22:52:53
"1","6","339.2526070358606","294.10078022568155",18/12/21 22:52:53
"1","6","339.2526070358606","294.10078022568155",18/12/21 22:52:53
"1","6","338.4612977827019","293.2854476827684",18/12/21 22:52:53
"1","6","338.4612977827019","293.2854476827684",18/12/21 22:52:53
"1","6","339.9559662522338","292.2325816063898",18/12/21 22:52:53
"1","6","339.4907494129056","291.04381264072157",18/12/21 22:52:53
"1","6","339.4907494129056","291.04381264072157",18/12/21 22:52:53
"1","6","339.3317193203725","289.7098862668142",18/12/21 22:52:53
"1","6","339.9342548804135","289.6759586392416",18/12/21 22:52:53
"1","6","339.9342548804135","289.6759586392416",18/12/21 22:52:53
"1","6","337.5897579539046","289.96984044471344",18/12/21 22:52:53
"1","6","337.5897579539046","289.96984044471344",18/12/21 22:52:53
"1","6","336.14282781322754","289.3716850919835",18/12/21 22:52:53
"1","6","335.7547631047884","291.6828970495934",18/12/21 22:52:53
"1","6","335.7547631047884","291.6828970495934",18/12/21 22:52:53
"1","6","335.91024536604124","293.34306584206826",18/12/21 22:52:53
"1","6","335.91024536604124","293.34306584206826",18/12/21 22:52:53
"1","6","334.7324969420122","291.390489562584",18/12/21 22:52:53
"1","6","334.33320818621615","290.5200574587419",18/12/21 22:52:53
"1","6","334.33320818621615","290.5200574587419",18/12/21 22:52:54
"1","6","334.34668520539736","291.84240109391186",18/12/21 22:52:54
"1","6","334.34668520539736","291.84240109391186",18/12/21 22:52:54
"1","6","334.0061691577488","290.0958208308496",18/12/21 22:52:54
"1","6","334.0061691577488","290.0958208308496",18/12/21 22:52:54
"1","6","332.4807949611502","289.66330761258007",18/12/21 22:52:54
"1","6","332.4807949611502","289.66330761258007",18/12/21 22:52:54
"1","6","332.2926201392828","289.5882117044976",18/12/21 22:52:54
"1","6","332.2926201392828","289.5882117044976",18/12/21 22:52:54
"1","6","334.73958472838257","290.5133358541787",18/12/21 22:52:54
"1","6","334.73958472838257","290.5133358541787",18/12/21 22:52:54
"1","6","334.1391126965855","290.20434553053263",18/12/21 22:52:54
"1","6","335.63152222072176","292.1713550272029",18/12/21 22:52:54
"1","6","335.63152222072176","292.1713550272029",18/12/21 22:52:54
"1","6","334.4400666826534","293.8769813715893",18/12/21 22:52:54
"1","6","334.46126078272925","293.91273393774924",18/12/21 22:52:54
"1","6","334.46126078272925","293.91273393774924",18/12/21 22:52:54
"1","6","333.8734577559066","291.4194871306765",18/12/21 22:52:54
"1","6","333.8734577559066","291.4194871306765",18/12/21 22:52:54
"1","6","334.6842294281751","289.92850632136475",18/12/21 22:52:54
"1","6","334.30056720105335","289.2537213776685",18/12/21 22:52:54
"1","6","334.30056720105335","289.2537213776685",18/12/21 22:52:54
"1","6","334.30056720105335","289.2537213776685",18/12/21 22:52:54
"1","6","334.30056720105335","289.2537213776685",18/12/21 22:52:54
"1","30","337.50555275713083","288.8333333333333",18/12/21 22:52:54
"1","30","337.50555275713083","288.8333333333333",18/12/21 22:52:54
"1","30","336.6041801146531","287.12087831196993",18/12/21 22:52:54
"1","30","336.6041801146531","287.12087831196993",18/12/21 22:52:54
"1","30","336.8797781746138","284.2635350714856",18/12/21 22:52:54
"1","30","336.8797781746138","284.2635350714856",18/12/21 22:52:54
"1","30","337.5488987191425","287.70084777730125",18/12/21 22:52:54
"1","30","337.5488987191425","287.70084777730125",18/12/21 22:52:54
"1","30","336.0611866585296","286.5324735313712",18/12/21 22:52:54
"1","30","335.7835984928955","286.31348519224343",18/12/21 22:52:54
"1","30","335.7835984928955","286.31348519224343",18/12/21 22:52:54
"1","30","336.0968181633843","287.1713082582502",18/12/21 22:52:54
"1","30","336.0968181633843","287.1713082582502",18/12/21 22:52:54
"1","30","336.7666016596733","286.2333177807694",18/12/21 22:52:54
"1","30","338.82402690201985","287.47301605303073",18/12/21 22:52:54
"1","30","339.0709141010873","287.11739032356155",18/12/21 22:52:54
"1","30","339.0709141010873","287.11739032356155",18/12/21 22:52:54
"1","30","341.09230762788593","287.24328450425537",18/12/21 22:52:54
"1","30","340.01882008410087","287.65300434362007",18/12/21 22:52:54
"1","30","340.12409029714365","287.8015172448647",18/12/21 22:52:54
"1","30","338.0923829278812","287.28498683332924",18/12/21 22:52:54
"1","30","338.0923829278812","287.28498683332924",18/12/21 22:52:54
"1","30","339.95440691478746","287.3583804630433",18/12/21 22:52:54
"1","30","340.4335892060093","285.17465950141803",18/12/21 22:52:54
"1","30","340.4335892060093","285.17465950141803",18/12/21 22:52:54
"1","30","339.06016231927686","284.6290193695143",18/12/21 22:52:54
"1","30","338.61640779293816","284.89543265438346",18/12/21 22:52:55
"1","30","338.61640779293816","284.89543265438346",18/12/21 22:52:55
"1","30","337.4567823981378","284.52089788667126",18/12/21 22:52:55
"1","30","337.4567823981378","284.52089788667126",18/12/21 22:52:55
"1","30","337.6601927244905","284.49815445751585",18/12/21 22:52:55
"1","30","337.6601927244905","284.49815445751585",18/12/21 22:52:55
"1","30","340.20846858627505","287.59675119063985",18/12/21 22:52:55
"1","30","340.20846858627505","287.59675119063985",18/12/21 22:52:55
"1","30","340.8916510332232","288.43582572064065",18/12/21 22:52:55
"1","30","340.2621620735828","286.5283196132527",18/12/21 22:52:55
"1","30","340.2621620735828","286.5283196132527",18/12/21 22:52:55
"1","30","339.2116193481273","285.20000613015543",18/12/21 22:52:55
"1","30","339.77481205237535","284.87494557399395",18/12/21 22:52:55
"1","30","339.77481205237535","284.87494557399395",18/12/21 22:52:55
"1","30","338.46941884467014","283.7508775857757",18/12/21 22:52:55
"1","30","338.46941884467014","283.7508775857757",18/12/21 22:52:55
"1","30","337.79289218693464","285.8021849080086",18/12/21 22:52:55
"1","30","337.79289218693464","285.8021849080086",18/12/21 22:52:55
"1","30","337.2762661745435","286.1559352073891",18/12/21 22:52:55
"1","30","337.2762661745435","286.1559352073891",18/12/21 22:52:55
"1","30","339.03542654650994","286.62110905622075",18/12/21 22:52:55
"1","30","339.3853988590002","286.0154257144572",18/12/21 22:52:55
"1","30","339.3853988590002","286.0154257144572",18/12/21 22:52:55
"1","30","339.2472510031008","286.294162289584",18/12/21 22:52:55
"1","30","339.2472510031008","286.294162289584",18/12/21 22:52:55
"1","30","339.9582901804809","286.39844099077203",18/12/21 22:52:55
"1","30","340.0436963950995","284.00325383772014",18/12/21 22:52:55
"1","30","340.0436963950995","284.00325383772014",18/12/21 22:52:55
"1","30","337.76650720117965","284.92553973424293",18/12/21 22:52:55
"1","30","337.76650720117965","284.92553973424293",18/12/21 22:52:55
"1","30","337.07106177163445","284.77195731777044",18/12/21 22:52:55
"1","30","337.07106177163445","284.77195731777044",18/12/21 22:52:55
"1","30","337.13481986111765","281.6649586461538",18/12/21 22:52:55
"1","30","337.13481986111765","283.78642143291404",18/12/21 22:52:55
"1","30","338.5308830870817","284.6898211164021",18/12/21 22:52:55
"1","30","338.5308830870817","284.6898211164021",18/12/21 22:52:55
"1","30","338.46509892522784","285.2047902745519",18/12/21 22:52:55
"1","30","338.6283135643744","285.22904996674356",18/12/21 22:52:55
"1","30","338.6283135643744","285.22904996674356",18/12/21 22:52:55
"1","30","336.8108063321879","284.91354379930453",18/12/21 22:52:55
"1","30","336.8108063321879","284.91354379930453",18/12/21 22:52:55
"1","30","336.7796416950164","285.6317459094216",18/12/21 22:52:55
"1","30","336.7796416950164","285.6317459094216",18/12/21 22:52:55
"1","30","336.35795283654136","287.1902302916948",18/12/21 22:52:55
"1","30","336.35795283654136","287.1902302916948",18/12/21 22:52:55
"1","30","335.78690930472334","287.0091340666051",18/12/21 22:52:55
"1","30","335.78690930472334","287.0091340666051",18/12/21 22:52:55
"1","30","336.220863372917","287.64380432186425",18/12/21 22:52:55
"1","30","336.220863372917","287.64380432186425",18/12/21 22:52:55
"1","30","334.55877330756346","287.27137106030807",18/12/21 22:52:55
"1","30","334.55877330756346","287.27137106030807",18/12/21 22:52:56
"1","30","336.0983299487605","286.04861537880396",18/12/21 22:52:56
"1","30","334.8693113621269","284.15764657824343",18/12/21 22:52:56
"1","30","334.8693113621269","284.15764657824343",18/12/21 22:52:56
"1","30","337.41825687511215","284.8572154216234",18/12/21 22:52:56
"1","30","337.41825687511215","284.8572154216234",18/12/21 22:52:56
"1","30","336.7195407568002","283.69208357021836",18/12/21 22:52:56
"1","30","336.7800854692564","283.69208357021836",18/12/21 22:52:56
"1","30","338.9416257579826","287.59958925859536",18/12/21 22:52:56
"1","30","338.04113671054523","285.77442442726147",18/12/21 22:52:56
"1","30","338.04113671054523","285.60982503578686",18/12/21 22:52:56
"1","30","338.4415362923698","285.17612206780063",18/12/21 22:52:56
"1","30","338.4415362923698","285.17612206780063",18/12/21 22:52:56
"1","30","336.7957234395896","285.80968134755193",18/12/21 22:52:56
"1","30","336.51832897655953","285.1393807469697",18/12/21 22:52:56
"1","30","336.51832897655953","285.1393807469697",18/12/21 22:52:56
"1","30","337.5613077098643","285.960229625514",18/12/21 22:52:56
"1","30","337.5613077098643","285.960229625514",18/12/21 22:52:56
"1","30","337.92473694219194","286.21411131786436",18/12/21 22:52:56
"1","30","337.8607562871248","286.03465304514623",18/12/21 22:52:56
"1","30","337.8607562871248","286.03465304514623",18/12/21 22:52:56
"1","30","338.16815119118826","286.505625190625",18/12/21 22:52:56
"1","30","336.5201454160765","288.1546124887107",18/12/21 22:52:56
"1","30","336.5201454160765","288.1546124887107",18/12/21 22:52:56
"1","30","337.6501223995501","284.7034592692747",18/12/21 22:52:56
"1","30","337.6501223995501","284.7034592692747",18/12/21 22:52:56
"1","30","338.07448415667557","284.4381245117589",18/12/21 22:52:56
"1","30","338.07448415667557","284.4381245117589",18/12/21 22:52:56
"1","30","337.7197015910787","282.4206054895867",18/12/21 22:52:56
"1","30","337.7197015910787","282.4206054895867",18/12/21 22:52:56
"1","30","338.93821300733146","284.31064664577184",18/12/21 22:52:56
"1","30","337.93187925655343","285.23159478674495",18/12/21 22:52:56
"1","30","337.93187925655343","285.23159478674495",18/12/21 22:52:56
"1","30","337.4727290108316","287.69464849013946",18/12/21 22:52:56
"1","30","337.4727290108316","287.69464849013946",18/12/21 22:52:56
"1","30","336.57914511821366","286.9264003355872",18/12/21 22:52:56
"1","30","335.91994899880865","288.0146170212641",18/12/21 22:52:56
"1","30","335.91994899880865","288.0146170212641",18/12/21 22:52:56
"1","30","335.65486025545545","286.62468182273284",18/12/21 22:52:56
"1","30","335.5319562931001","286.69782956055786",18/12/21 22:52:56
"1","30","335.5319562931001","286.69782956055786",18/12/21 22:52:56
"1","30","333.1398169830416","287.1226744156302",18/12/21 22:52:56
"1","30","333.1398169830416","287.1226744156302",18/12/21 22:52:56
"1","30","332.4076158347951","288.29270427683866",18/12/21 22:52:56
"1","30","332.4076158347951","288.29270427683866",18/12/21 22:52:56
"1","30","333.9499475979367","288.49011075141283",18/12/21 22:52:56
"1","30","333.9499475979367","288.49011075141283",18/12/21 22:52:56
"1","30","336.932641796357","287.6541856705196",18/12/21 22:52:56
"1","30","336.93597778342325","287.6817560679851",18/12/21 22:52:56
"1","30","336.93597778342325","287.6817560679851",18/12/21 22:52:56
"1","30","335.16232340169876","286.939352935727",18/12/21 22:52:57
"1","30","335.16232340169876","286.939352935727",18/12/21 22:52:57
"1","30","334.79420385721716","286.42652066520776",18/12/21 22:52:57
"1","30","332.9911280848634","286.48473106969186",18/12/21 22:52:57
"1","30","332.9911280848634","286.48473106969186",18/12/21 22:52:57
"1","30","333.3849753588257","286.4607807205209",18/12/21 22:52:57
"1","30","334.9219129233158","288.31480989317123",18/12/21 22:52:57
"1","30","334.9219129233158","288.31480989317123",18/12/21 22:52:57
"1","30","333.1969503033094","288.23293374873407",18/12/21 22:52:57
"1","30","333.1969503033094","288.23293374873407",18/12/21 22:52:57
"1","30","333.2694085611325","286.5327894395522",18/12/21 22:52:57
"1","30","334.0517593255982","287.3404564289258",18/12/21 22:52:57
"1","30","334.0517593255982","287.3404564289258",18/12/21 22:52:57
"1","30","332.8989355830189","288.0604433700842",18/12/21 22:52:57
"1","30","332.8989355830189","288.0604433700842",18/12/21 22:52:57
"1","30","332.32475864756526","288.2739128839063",18/12/21 22:52:57
"1","30","334.0877822771939","287.6804322160667",18/12/21 22:52:57
"1","30","334.0877822771939","287.6804322160667",18/12/21 22:52:57
"1","30","334.4391102855445","285.8446171098868",18/12/21 22:52:57
"1","30","334.8564516058621","284.3923852554297",18/12/21 22:52:57
"1","30","334.8564516058621","284.3923852554297",18/12/21 22:52:57
"1","30","332.3816958774033","283.2727957641473",18/12/21 22:52:57
"1","30","332.3816958774033","283.2727957641473",18/12/21 22:52:57
"1","30","333.7680038655753","283.6959025485524",18/12/21 22:52:57
"1","30","333.38355425034285","284.0826919080011",18/12/21 22:52:57
"1","30","333.38355425034285","284.0826919080011",18/12/21 22:52:57
"1","30","333.38355425034285","284.0826919080011",18/12/21 22:52:57
"1","30","336.53638608420783","285.7062242890619",18/12/21 22:52:57
"1","30","338.21182865551043","286.5689836782244",18/12/21 22:52:57
"1","30","338.21182865551043","286.5689836782244",18/12/21 22:52:57
"1","30","341.03727286206856","288.02392970831585",18/12/21 22:52:57
"1","30","341.03727286206856","288.02392970831585",18/12/21 22:52:57
"1","26","342.5483820799427","288.10415972522605",18/12/21 22:52:57
"1","26","346.76332259959435","287.9024249892873",18/12/21 22:52:57
"1","26","346.76332259959435","287.9024249892873",18/12/21 22:52:57
"1","26","350.5789752078073","287.7198009005812",18/12/21 22:52:57
"1","26","350.5789752078073","287.7198009005812",18/12/21 22:52:57
"1","54","354.36042476075454","288.0859561926394",18/12/21 22:52:57
"1","54","354.36042476075454","288.0859561926394",18/12/21 22:52:57
"1","54","357.1447934909095","288.4806710614728",18/12/21 22:52:57
"1","54","358.9010755161373","288.7296433407957",18/12/21 22:52:57
"1","54","360.4229585222434","288.94538698301847",18/12/21 22:52:57
"1","54","360.4229585222434","288.94538698301847",18/12/21 22:52:57
"1","54","362.83619497806495","289.2874897730719",18/12/21 22:52:57
"1","54","364.3591249954371","291.0297244770733",18/12/21 22:52:57
"1","54","363.32044787140677","290.7909086682734",18/12/21 22:52:57
"1","54","363.32044787140677","290.7909086682734",18/12/21 22:52:57
"1","54","363.3653420839667","289.94342822891775",18/12/21 22:52:57
"1","54","363.3653420839667","289.94342822891775",18/12/21 22:52:57
"1","54","364.7479771515737","290.548796830307",18/12/21 22:52:57
"1","54","365.22501686625986","293.2682013224425",18/12/21 22:52:58
"1","54","365.22501686625986","293.2682013224425",18/12/21 22:52:58
"1","54","366.03056195298734","291.41767531492576",18/12/21 22:52:58
"1","54","366.01209685742486","291.41767531492576",18/12/21 22:52:58
"1","54","367.2404738544183","290.8115938401763",18/12/21 22:52:58
"1","54","367.2404738544183","290.8115938401763",18/12/21 22:52:58
"1","54","368.3240317870661","290.0508825854949",18/12/21 22:52:58
"1","54","368.3240317870661","290.0508825854949",18/12/21 22:52:58
"1","54","369.0358761829218","288.7227134482643",18/12/21 22:52:58
"1","54","371.13558513533826","290.58925021999994",18/12/21 22:52:58
"1","54","371.13558513533826","290.58925021999994",18/12/21 22:52:58
"1","54","369.2788791944369","290.72986938849033",18/12/21 22:52:58
"1","54","367.73873366350995","288.9627187621405",18/12/21 22:52:58
"1","54","367.73873366350995","288.9627187621405",18/12/21 22:52:58
"1","54","369.4034308090104","288.1770536686039",18/12/21 22:52:58
"1","54","369.4034308090104","288.1770536686039",18/12/21 22:52:58
"1","54","368.5767091453986","289.9097152621369",18/12/21 22:52:58
"1","54","369.43479808555395","292.0107574505305",18/12/21 22:52:58
"1","54","369.43479808555395","292.0107574505305",18/12/21 22:52:58
"1","54","366.9007825753753","292.0219803342826",18/12/21 22:52:58
"1","54","367.4128039542903","290.9047929101626",18/12/21 22:52:58
"1","54","367.4128039542903","290.9047929101626",18/12/21 22:52:58
"1","54","367.8449671800721","291.4284786896271",18/12/21 22:52:58
"1","54","367.5728743647323","291.363451734961",18/12/21 22:52:58
"1","54","367.6332143321993","293.66099038638004",18/12/21 22:52:58
"1","54","367.46256180081616","294.04738748600175",18/12/21 22:52:58
"1","54","367.46256180081616","294.04738748600175",18/12/21 22:52:58
"1","54","366.2185842403631","293.0761816190838",18/12/21 22:52:58
"1","54","366.2185842403631","293.0761816190838",18/12/21 22:52:58
"1","54","365.6883359339352","295.0259072674367",18/12/21 22:52:58
"1","54","363.4637759028843","295.0876025834302",18/12/21 22:52:58
"1","54","363.5032551345524","295.0104137385918",18/12/21 22:52:58
"1","54","363.5032551345524","295.0104137385918",18/12/21 22:52:58
"1","54","365.7982715639581","294.74274265294827",18/12/21 22:52:58
"1","54","366.07966023877907","294.4059440334238",18/12/21 22:52:58
"1","54","366.02437173555177","294.4394129474612",18/12/21 22:52:58
"1","54","366.4187452541485","295.04454107963454",18/12/21 22:52:58
"1","54","366.93822025002186","295.03793179180053",18/12/21 22:52:58
"1","54","366.93822025002186","295.03793179180053",18/12/21 22:52:58
"1","54","369.15634293571736","294.92350913947905",18/12/21 22:52:58
"1","54","369.15634293571736","294.92350913947905",18/12/21 22:52:58
"1","54","369.91322917137137","294.32392739833165",18/12/21 22:52:58
"1","54","369.91322917137137","294.32392739833165",18/12/21 22:52:58
"1","54","370.00176952372533","293.2531679121111",18/12/21 22:52:58
"1","54","370.00176952372533","293.2531679121111",18/12/21 22:52:58
"1","54","369.628665153573","294.81287365492074",18/12/21 22:52:58
"1","54","367.6630146902548","294.42378352391285",18/12/21 22:52:58
"1","54","367.6630146902548","294.42378352391285",18/12/21 22:52:58
"1","54","368.0015077446647","293.4725658857391",18/12/21 22:52:58
"1","54","368.0015077446647","293.4725658857391",18/12/21 22:52:59
"1","54","367.82585051101955","292.90018612440554",18/12/21 22:52:59
"1","54","369.37702447912744","290.9602441299528",18/12/21 22:52:59
"1","54","369.37702447912744","290.9602441299528",18/12/21 22:52:59
"1","54","369.2811834203746","292.1758939681491",18/12/21 22:52:59
"1","54","369.2811834203746","292.1758939681491",18/12/21 22:52:59
"1","54","368.30478107410676","292.40612360275594",18/12/21 22:52:59
"1","54","368.30478107410676","292.40612360275594",18/12/21 22:52:59
"1","54","366.7447174056024","296.2195372077272",18/12/21 22:52:59
"1","54","366.0955431238894","294.30503473132535",18/12/21 22:52:59
"1","54","365.6548997966974","295.3907670254933",18/12/21 22:52:59
"1","54","365.6548997966974","295.3907670254933",18/12/21 22:52:59
"1","54","368.0143896407633","295.18421219697757",18/12/21 22:52:59
"1","54","368.0143896407633","295.18421219697757",18/12/21 22:52:59
"1","54","366.9615188027756","293.5900519354061",18/12/21 22:52:59
"1","54","366.9615188027756","293.5900519354061",18/12/21 22:52:59
"1","54","366.6440608976525","294.1605591309803",18/12/21 22:52:59
"1","54","366.6440608976525","294.1605591309803",18/12/21 22:52:59
"1","54","365.78779259387164","294.49856980319856",18/12/21 22:52:59
"1","54","366.2547844905345","294.8658995793755",18/12/21 22:52:59
"1","54","366.2547844905345","294.8658995793755",18/12/21 22:52:59
"1","54","366.72692316197276","293.58545464155964",18/12/21 22:52:59
"1","54","366.72692316197276","293.58545464155964",18/12/21 22:52:59
"1","54","367.40321676799385","291.7476499236289",18/12/21 22:52:59
"1","54","367.40321676799385","291.7476499236289",18/12/21 22:52:59
"1","54","368.74870155546506","291.6581993505607",18/12/21 22:52:59
"1","54","368.74870155546506","291.6581993505607",18/12/21 22:52:59
"1","54","370.1944624022255","289.20998446527994",18/12/21 22:52:59
"1","54","370.1944624022255","289.20998446527994",18/12/21 22:52:59
"1","54","370.30628684816173","287.9593142155519",18/12/21 22:52:59
"1","54","370.30628684816173","287.9593142155519",18/12/21 22:52:59
"1","54","370.94705490028394","288.5314202667231",18/12/21 22:52:59
"1","54","369.87029609683816","289.03009794638905",18/12/21 22:52:59
"1","54","369.87029609683816","289.03009794638905",18/12/21 22:52:59
"1","54","367.744081498802","287.88634020357085",18/12/21 22:52:59
"1","54","368.60632415324176","287.67801060597736",18/12/21 22:52:59
"1","54","368.60632415324176","287.67801060597736",18/12/21 22:52:59
"1","54","368.78533164135985","287.2595535947018",18/12/21 22:52:59
"1","54","368.78533164135985","287.2595535947018",18/12/21 22:52:59
"1","54","367.5279544192878","286.9633055707356",18/12/21 22:52:59
"1","54","367.5279544192878","286.9633055707356",18/12/21 22:52:59
"1","54","367.0005622616934","283.80505119944445",18/12/21 22:52:59
"1","54","367.0005622616934","283.80505119944445",18/12/21 22:52:59
"1","54","364.9257062581295","284.48163651635355",18/12/21 22:52:59
"1","54","364.97323116704314","284.49854289874395",18/12/21 22:52:59
"1","54","364.97323116704314","284.49854289874395",18/12/21 22:52:59
"1","54","367.3058853123631","282.91553224316215",18/12/21 22:52:59
"1","54","367.3058853123631","282.91553224316215",18/12/21 22:52:59
"1","54","367.63861729281336","282.76204238773875",18/12/21 22:52:59
"1","54","367.4028993619229","281.64260963790696",18/12/21 22:52:59
"1","54","367.4028993619229","281.64260963790696",18/12/21 22:53:00
"1","54","367.17287734671834","281.2036185643752",18/12/21 22:53:00
"1","54","367.17287734671834","281.2036185643752",18/12/21 22:53:00
"1","54","367.1312755496329","280.27515812513104",18/12/21 22:53:00
"1","54","367.1312755496329","280.27515812513104",18/12/21 22:53:00
"1","54","367.1283270723776","278.67890921579567",18/12/21 22:53:00
"1","54","367.1283270723776","278.67890921579567",18/12/21 22:53:00
"1","54","367.8968884943994","277.71240850940364",18/12/21 22:53:00
"1","54","369.3726481626964","278.9748749391457",18/12/21 22:53:00
"1","54","369.3726481626964","278.9748749391457",18/12/21 22:53:00
"1","54","370.35522369278993","278.40956008473466",18/12/21 22:53:00
"1","54","368.20808676617014","278.04998677967654",18/12/21 22:53:00
"1","54","368.20808676617014","278.04998677967654",18/12/21 22:53:00
"1","54","368.00364214688466","279.6636814950288",18/12/21 22:53:00
"1","54","368.00364214688466","279.6636814950288",18/12/21 22:53:00
"1","54","367.68568990021186","278.1531624907168",18/12/21 22:53:00
"1","54","366.20222165756854","278.67591032318666",18/12/21 22:53:00
"1","54","367.86607923459775","277.7380682392761",18/12/21 22:53:00
"1","54","367.86607923459775","277.7380682392761",18/12/21 22:53:00
"1","54","366.5002014982216","278.39270901936504",18/12/21 22:53:00
"1","54","365.999003214293","278.03716431939955",18/12/21 22:53:00
"1","54","365.999003214293","278.03716431939955",18/12/21 22:53:00
"1","54","366.91189445506427","278.1745529703107",18/12/21 22:53:00
"1","54","366.91189445506427","278.1745529703107",18/12/21 22:53:00
"1","54","365.68505306986594","279.84809106909137",18/12/21 22:53:00
"1","54","365.68505306986594","279.84809106909137",18/12/21 22:53:00
"1","54","367.777097404979","279.3958708647094",18/12/21 22:53:00
"1","54","367.777097404979","279.3958708647094",18/12/21 22:53:00
"1","54","367.2704408424398","278.5571828486479",18/12/21 22:53:00
"1","54","368.46682007449505","278.35702606133805",18/12/21 22:53:00
"1","54","368.46682007449505","278.35702606133805",18/12/21 22:53:00
"1","54","369.6856103849399","279.2212807476024",18/12/21 22:53:00
"1","54","369.74669547719714","279.02485523423707",18/12/21 22:53:00
"1","54","369.74669547719714","279.02485523423707",18/12/21 22:53:00
"1","54","368.28286384014336","280.9270716750769",18/12/21 22:53:00
"1","54","368.28286384014336","280.9270716750769",18/12/21 22:53:00
"1","54","367.68366910450777","279.4830206863578",18/12/21 22:53:00
"1","54","368.57067287600586","279.62169229868584",18/12/21 22:53:00
"1","54","368.57067287600586","279.62169229868584",18/12/21 22:53:00
"1","54","366.4742154745049","280.21313824232857",18/12/21 22:53:00
"1","54","366.4742154745049","280.21313824232857",18/12/21 22:53:00
"1","54","366.58572488652624","280.33277793909235",18/12/21 22:53:00
"1","54","367.48842114678297","281.5500394656269",18/12/21 22:53:00
"1","54","368.1055679532979","282.34134693457554",18/12/21 22:53:00
"1","54","368.1213039971965","282.9454711282169",18/12/21 22:53:00
"1","54","367.83565205154457","281.29199383682015",18/12/21 22:53:00
"1","54","367.83565205154457","281.29199383682015",18/12/21 22:53:00
"1","54","366.46462029591413","282.15535527424214",18/12/21 22:53:00
"1","54","366.0456193402087","280.80871132377916",18/12/21 22:53:00
"1","54","366.0456193402087","280.80871132377916",18/12/21 22:53:00
"1","54","365.9678215983499","280.50764418311235",18/12/21 22:53:01
"1","54","367.2258911453384","280.84111772293204",18/12/21 22:53:01
"1","54","367.2258911453384","280.84111772293204",18/12/21 22:53:01
"1","54","367.4971410379511","278.9958370519547",18/12/21 22:53:01
"1","54","365.44712303159156","279.22407317262036",18/12/21 22:53:01
"1","54","365.44712303159156","279.22407317262036",18/12/21 22:53:01
"1","54","363.4480685067951","279.0315801158753",18/12/21 22:53:01
"1","54","363.4480685067951","279.0315801158753",18/12/21 22:53:01
"1","54","363.3617995811394","279.1952541860117",18/12/21 22:53:01
"1","54","361.61170164106943","280.533369821152",18/12/21 22:53:01
"1","54","361.61170164106943","280.533369821152",18/12/21 22:53:01
"1","54","363.58915969663934","281.89033462625616",18/12/21 22:53:01
"1","54","363.58915969663934","282.3648745007396",18/12/21 22:53:01
"1","54","363.4098166066762","282.3648745007396",18/12/21 22:53:01
"1","54","364.85385681422144","280.27206273335037",18/12/21 22:53:01
"1","54","364.85385681422144","280.27206273335037",18/12/21 22:53:01
"1","54","366.4131449627429","281.4585883830443",18/12/21 22:53:01
"1","54","366.4131449627429","281.4585883830443",18/12/21 22:53:01
"1","54","364.5940190022978","282.0015482901944",18/12/21 22:53:01
"1","54","362.9173302824655","281.04810986213465",18/12/21 22:53:01
"1","54","362.9173302824655","281.04810986213465",18/12/21 22:53:01
"1","54","363.6129944807627","280.4698126711387",18/12/21 22:53:01
"1","54","363.6129944807627","280.4698126711387",18/12/21 22:53:01
"1","54","363.6129944807627","280.4698126711387",18/12/21 22:53:01
"1","54","360.12993994205095","282.5727878987607",18/12/21 22:53:01
"1","54","360.12993994205095","282.5727878987607",18/12/21 22:53:01
"1","54","356.1289312459332","284.98849000159026",18/12/21 22:53:01
"1","54","356.1289312459332","284.98849000159026",18/12/21 22:53:01
"1","54","352.8711158123002","286.955471878259",18/12/21 22:53:01
"1","54","351.6839707431194","287.6722383383685",18/12/21 22:53:01
"1","54","351.6839707431194","287.6722383383685",18/12/21 22:53:01
"1","26","348.62742483383226","287.9662388766899",18/12/21 22:53:01
"1","26","348.62742483383226","287.9662388766899",18/12/21 22:53:01
"1","26","344.1399392281266","288.23072104940667",18/12/21 22:53:01
"1","26","344.1399392281266","288.23072104940667",18/12/21 22:53:01
"1","26","342.0781446608875","288.35223852149517",18/12/21 22:53:01
"1","88","338.95089437121675","287.90417734450017",18/12/21 22:53:01
"1","88","338.95089437121675","287.90417734450017",18/12/21 22:53:01
"1","88","335.4536004792842","287.172163874018",18/12/21 22:53:01
"1","88","333.7335218578498","286.81213673300965",18/12/21 22:53:01
"1","88","333.7335218578498","286.81213673300965",18/12/21 22:53:01
"1","88","329.46133810783095","286.2702629682438",18/12/21 22:53:01
"1","88","329.46133810783095","286.2702629682438",18/12/21 22:53:01
"1","88","324.94342757954274","285.9455339996377",18/12/21 22:53:01
"1","88","324.94342757954274","285.9455339996377",18/12/21 22:53:01
"1","88","321.14777134341426","285.6727177216207",18/12/21 22:53:01
"1","88","321.14777134341426","285.6727177216207",18/12/21 22:53:01
"1","88","317.2408280620285","285.3919025850165",18/12/21 22:53:01
"1","88","317.2408280620285","285.3919025850165",18/12/21 22:53:01
"1","89","314.09601996717845","287.4745316220517",18/12/21 22:53:01
"1","89","314.09601996717845","287.4745316220517",18/12/21 22:53:02
"1","24","312.6502026516349","289.2265708186012",18/12/21 22:53:02
"1","24","312.6502026516349","289.2265708186012",18/12/21 22:53:02
"1","24","315.2014874807246","291.90808365164463",18/12/21 22:53:02
"1","24","316.4459268476442","293.2160442894735",18/12/21 22:53:02
"1","24","316.4459268476442","293.2160442894735",18/12/21 22:53:02
"1","24","318.96796312946253","295.8668156098634",18/12/21 22:53:02
"1","24","318.96796312946253","295.8668156098634",18/12/21 22:53:02
"1","24","316.805730282413","295.56102518735787",18/12/21 22:53:02
"1","24","317.54516827447327","295.56102518735787",18/12/21 22:53:02
"1","24","317.65035657026345","294.64682956174437",18/12/21 22:53:02
"1","24","317.65035657026345","294.64682956174437",18/12/21 22:53:02
"1","24","316.65752900538985","295.6171056135889",18/12/21 22:53:02
"1","24","317.2642644671828","293.86679930994967",18/12/21 22:53:02
"1","24","317.2642644671828","293.86679930994967",18/12/21 22:53:02
"1","24","316.2959787566663","295.71005656324877",18/12/21 22:53:02
"1","24","316.23119218321875","294.8848980651502",18/12/21 22:53:02
"1","24","316.1577614802706","294.8615543405126",18/12/21 22:53:02
"1","24","316.1577614802706","294.8615543405126",18/12/21 22:53:02
"1","24","316.4923047002205","294.8526064935345",18/12/21 22:53:02
"1","24","316.4923047002205","294.8526064935345",18/12/21 22:53:02
"1","24","316.64602324631596","295.21030871070553",18/12/21 22:53:02
"1","24","316.64602324631596","295.21030871070553",18/12/21 22:53:02
"1","24","316.272287902233","295.2811946532228",18/12/21 22:53:02
"1","24","316.272287902233","295.2811946532228",18/12/21 22:53:02
"1","24","314.583092277043","294.8761885699226",18/12/21 22:53:02
"1","24","314.583092277043","294.8761885699226",18/12/21 22:53:02
"1","24","314.89413898384294","295.07894182021397",18/12/21 22:53:02
"1","24","316.716215103776","295.09562735212813",18/12/21 22:53:02
"1","24","316.716215103776","295.09562735212813",18/12/21 22:53:02
"1","24","315.6850881505944","294.4480377871868",18/12/21 22:53:02
"1","24","315.6850881505944","294.4480377871868",18/12/21 22:53:02
"1","24","315.0312345122537","296.0429996441425",18/12/21 22:53:02
"1","24","315.0312345122537","296.0429996441425",18/12/21 22:53:02
"1","24","317.8548878103486","295.43465439017774",18/12/21 22:53:02
"1","24","317.6701274179285","294.69138257169135",18/12/21 22:53:02
"1","24","317.6701274179285","294.69138257169135",18/12/21 22:53:02
"1","24","316.7220270760885","295.5273309394332",18/12/21 22:53:02
"1","24","316.7220270760885","295.5273309394332",18/12/21 22:53:02
"1","24","316.51943944783443","293.41661865504324",18/12/21 22:53:02
"1","24","315.0856714305623","292.5868307374048",18/12/21 22:53:02
"1","24","315.0856714305623","292.5868307374048",18/12/21 22:53:02
"1","24","315.4971384275528","293.12365992946013",18/12/21 22:53:02
"1","24","315.4971384275528","293.12365992946013",18/12/21 22:53:02
"1","24","315.02115280897283","293.71644350479716",18/12/21 22:53:02
"1","24","317.1530224493895","294.73197249440625",18/12/21 22:53:02
"1","24","317.1530224493895","294.73197249440625",18/12/21 22:53:02
"1","24","316.68356496107316","293.73070742520747",18/12/21 22:53:02
"1","24","316.5476365477441","293.9265546095044",18/12/21 22:53:02
"1","24","316.5476365477441","293.9265546095044",18/12/21 22:53:02
"1","24","316.96034482635554","296.2600947713594",18/12/21 22:53:03
"1","24","316.96034482635554","296.2600947713594",18/12/21 22:53:03
"1","24","316.0151463901729","293.78344442846867",18/12/21 22:53:03
"1","24","316.0151463901729","293.78344442846867",18/12/21 22:53:03
"1","24","315.5896093894391","294.78158797602424",18/12/21 22:53:03
"1","24","315.5896093894391","294.78158797602424",18/12/21 22:53:03
"1","24","314.78550802236236","293.3746345809302",18/12/21 22:53:03
"1","24","314.78550802236236","293.3746345809302",18/12/21 22:53:03
"1","24","315.12904942559373","291.4505668331966",18/12/21 22:53:03
"1","24","315.12904942559373","291.4505668331966",18/12/21 22:53:03
"1","24","314.920465049685","293.46837806233833",18/12/21 22:53:03
"1","24","316.9085723109694","294.8860454014495",18/12/21 22:53:03
"1","24","316.9085723109694","294.8860454014495",18/12/21 22:53:03
"1","24","315.79239506707466","291.629839684539",18/12/21 22:53:03
"1","24","315.79239506707466","291.629839684539",18/12/21 22:53:03
"1","24","316.5664460197318","293.6230828494056",18/12/21 22:53:03
"1","24","316.5664460197318","293.6230828494056",18/12/21 22:53:03
"1","24","317.73199935296407","294.61418975878104",18/12/21 22:53:03
"1","24","318.2707244603525","293.9515597335931",18/12/21 22:53:03
"1","24","318.2707244603525","293.9515597335931",18/12/21 22:53:03
"1","24","320.0785065786237","295.29286714491",18/12/21 22:53:03
"1","24","320.0785065786237","295.29286714491",18/12/21 22:53:03
"1","24","317.5293627298337","294.7496447546959",18/12/21 22:53:03
"1","24","317.5293627298337","294.7496447546959",18/12/21 22:53:03
"1","24","317.7479991305888","293.70993106349465",18/12/21 22:53:03
"1","24","321.10395955756263","292.3512314864716",18/12/21 22:53:03
"1","24","321.10395955756263","292.3512314864716",18/12/21 22:53:03
"1","24","319.61230116377027","291.90541520106916",18/12/21 22:53:03
"1","24","319.7288899427229","291.75831018040486",18/12/21 22:53:03
"1","24","319.7288899427229","291.75831018040486",18/12/21 22:53:03
"1","24","318.9271486843532","290.0308871270694",18/12/21 22:53:03
"1","24","318.9271486843532","290.0308871270694",18/12/21 22:53:03
"1","24","318.665602093215","289.7330672721148",18/12/21 22:53:03
"1","24","316.2248197513287","289.70915461576675",18/12/21 22:53:03
"1","24","316.2248197513287","289.70915461576675",18/12/21 22:53:03
"1","24","312.63541253009146","289.46991486299265",18/12/21 22:53:03
"1","24","312.63541253009146","289.46991486299265",18/12/21 22:53:03
"1","24","313.99348467574407","289.85548737644393",18/12/21 22:53:03
"1","24","313.99348467574407","289.85548737644393",18/12/21 22:53:03
"1","24","313.91703862796714","291.727792761466",18/12/21 22:53:03
"1","24","313.91703862796714","291.727792761466",18/12/21 22:53:03
"1","24","312.82742430942096","289.82688609979965",18/12/21 22:53:03
"1","24","312.36315691514125","291.543305594358",18/12/21 22:53:03
"1","24","312.36315691514125","291.543305594358",18/12/21 22:53:03
"1","24","312.1624072825138","290.40449624746367",18/12/21 22:53:03
"1","24","312.5639808194845","290.2986455337788",18/12/21 22:53:03
"1","24","312.5639808194845","290.2986455337788",18/12/21 22:53:03
"1","24","313.12246791657117","291.2662082644865",18/12/21 22:53:03
"1","24","313.12246791657117","291.2662082644865",18/12/21 22:53:04
"1","24","312.69569769606716","293.53798517958427",18/12/21 22:53:04
"1","24","312.69569769606716","293.53798517958427",18/12/21 22:53:04
"1","24","316.52539893310194","294.3520310656749",18/12/21 22:53:04
"1","24","316.52539893310194","294.3520310656749",18/12/21 22:53:04
"1","24","316.5616351001895","294.5584606361238",18/12/21 22:53:04
"1","24","316.5616351001895","294.5584606361238",18/12/21 22:53:04
"1","24","317.40959080280436","296.092198979787",18/12/21 22:53:04
"1","24","316.7055344192838","295.4188082255475",18/12/21 22:53:04
"1","24","316.7055344192838","295.4188082255475",18/12/21 22:53:04
"1","24","318.57863904501374","295.89302939384777",18/12/21 22:53:04
"1","24","318.57863904501374","295.89302939384777",18/12/21 22:53:04
"1","24","318.019605342112","295.408163346157",18/12/21 22:53:04
"1","24","318.019605342112","295.408163346157",18/12/21 22:53:04
"1","24","319.22625723661747","295.7506752764021",18/12/21 22:53:04
"1","24","319.22625723661747","295.7506752764021",18/12/21 22:53:04
"1","24","320.36456503020065","295.13861528988235",18/12/21 22:53:04
"1","24","321.1606910304474","295.2388578756436",18/12/21 22:53:04
"1","24","321.1606910304474","295.2388578756436",18/12/21 22:53:04
"1","24","320.16223447637555","294.53594818299234",18/12/21 22:53:04
"1","24","320.16223447637555","294.53594818299234",18/12/21 22:53:04
"1","24","320.3792932345874","293.92043035946205",18/12/21 22:53:04
"1","24","320.82444456420853","295.0784461334114",18/12/21 22:53:04
"1","24","320.82444456420853","295.0784461334114",18/12/21 22:53:04
"1","24","320.42306172874106","294.9227874964325",18/12/21 22:53:04
"1","24","320.51960233167625","294.05088672758694",18/12/21 22:53:04
"1","24","320.51960233167625","294.05088672758694",18/12/21 22:53:04
"1","24","320.5152536252976","292.74137774488486",18/12/21 22:53:04
"1","24","320.5152536252976","292.74137774488486",18/12/21 22:53:04
"1","24","321.0418585656618","290.7968578119699",18/12/21 22:53:04
"1","24","320.1695873035306","290.51628494797205",18/12/21 22:53:04
"1","24","320.1695873035306","290.51628494797205",18/12/21 22:53:04
"1","24","320.7633028463351","290.15418136816703",18/12/21 22:53:04
"1","24","320.7633028463351","290.15418136816703",18/12/21 22:53:04
"1","24","321.25587238953324","290.6498139742344",18/12/21 22:53:04
"1","24","321.0857945655497","289.36377926648555",18/12/21 22:53:04
"1","24","321.0857945655497","289.36377926648555",18/12/21 22:53:04
"1","24","321.27943803157746","290.99019697748236",18/12/21 22:53:04
"1","24","321.27943803157746","290.99019697748236",18/12/21 22:53:04
"1","24","320.90037467366096","290.97851134916016",18/12/21 22:53:04
"1","24","320.90037467366096","290.97851134916016",18/12/21 22:53:04
"1","24","321.21154051927925","291.5957892754229",18/12/21 22:53:04
"1","24","321.21154051927925","291.5957892754229",18/12/21 22:53:04
"1","24","320.23146748130574","292.6495673914232",18/12/21 22:53:04
"1","24","320.23146748130574","292.6495673914232",18/12/21 22:53:04
"1","24","318.4170403796354","291.7350913813634",18/12/21 22:53:04
"1","24","318.4170403796354","291.7350913813634",18/12/21 22:53:04
"1","24","317.292908389225","291.1685259148177",18/12/21 22:53:04
"1","24","314.4036609725235","289.7123376517189",18/12/21 22:53:04
"1","24","314.4036609725235","289.7123376517189",18/12/21 22:53:05
"1","88","314.20099792523104","288.2952639258627",18/12/21 22:53:05
"1","88","314.20099792523104","288.2952639258627",18/12/21 22:53:05
"1","88","318.1983971411176","287.30573552151844",18/12/21 22:53:05
"1","88","318.1983971411176","287.30573552151844",18/12/21 22:53:05
"1","88","322.3516153629064","287.1711410715767",18/12/21 22:53:05
"1","88","322.3516153629064","287.1711410715767",18/12/21 22:53:05
"1","88","325.9593157060125","287.05422536493563",18/12/21 22:53:05
"1","88","325.9593157060125","287.05422536493563",18/12/21 22:53:05
"1","88","329.09470177719015","286.95261607279895",18/12/21 22:53:05
"1","88","331.20514992586436","286.884222217111",18/12/21 22:53:05
"1","88","331.20514992586436","286.884222217111",18/12/21 22:53:05
"1","26","335.5548137609112","286.3861170435904",18/12/21 22:53:05
"1","26","335.5548137609112","286.3861170435904",18/12/21 22:53:05
"1","26","338.92554710073495","285.9358319940087",18/12/21 22:53:05
"1","26","340.9882254274331","285.6602856606233",18/12/21 22:53:05
"1","26","340.9882254274331","285.6602856606233",18/12/21 22:53:05
"1","26","344.5700340588542","286.24515864176334",18/12/21 22:53:05
"1","26","344.5700340588542","286.24515864176334",18/12/21 22:53:05
"1","26","346.7162987190475","286.6581551777919",18/12/21 22:53:05
"1","26","350.83751721881833","287.4511836407723",18/12/21 22:53:05
"1","26","350.83751721881833","287.4511836407723",18/12/21 22:53:05
"1","54","352.6317689694133","288.8126887293441",18/12/21 22:53:05
"1","54","352.6317689694133","288.8126887293441",18/12/21 22:53:05
"1","54","353.78135348020703","286.2278009929119",18/12/21 22:53:05
"1","54","354.925857588493","286.2278009929119",18/12/21 22:53:05
"1","54","354.5361397183161","285.6644614480078",18/12/21 22:53:05
"1","54","357.2542754559617","287.3410886562328",18/12/21 22:53:05
"1","54","357.2542754559617","287.3410886562328",18/12/21 22:53:05
"1","54","357.58606761821983","287.7923283621692",18/12/21 22:53:05
"1","54","357.58606761821983","287.7923283621692",18/12/21 22:53:05
"1","54","357.4246939928845","288.89589517044806",18/12/21 22:53:05
"1","54","358.1764774717253","288.7235043186905",18/12/21 22:53:05
"1","54","358.1764774717253","288.7235043186905",18/12/21 22:53:05
"1","54","360.8455999926648","288.6391926741314",18/12/21 22:53:05
"1","54","360.8455999926648","288.6391926741314",18/12/21 22:53:05
"1","54","361.7595720927211","288.2418028345893",18/12/21 22:53:05
"1","54","362.2400634303513","287.47926819988623",18/12/21 22:53:05
"1","54","362.65775919744067","285.2305870640715",18/12/21 22:53:05
"1","54","362.06448470982576","285.2305870640715",18/12/21 22:53:05
"1","54","362.4565705478655","284.9694299486705",18/12/21 22:53:05
"1","54","362.4565705478655","284.9694299486705",18/12/21 22:53:05
"1","54","362.81006044146983","285.6901811991148",18/12/21 22:53:05
"1","54","362.81006044146983","285.6901811991148",18/12/21 22:53:05
"1","54","365.0137492530113","285.0656992683547",18/12/21 22:53:05
"1","54","364.92064100445185","285.32902867862833",18/12/21 22:53:05
"1","54","364.92064100445185","285.32902867862833",18/12/21 22:53:05
"1","54","364.98799579211675","284.02857567316613",18/12/21 22:53:05
"1","54","364.98799579211675","284.02857567316613",18/12/21 22:53:05
"1","54","363.53145142619576","285.22965534285925",18/12/21 22:53:05
"1","54","363.11512467515837","284.44899166854134",18/12/21 22:53:06
"1","54","363.11512467515837","284.44899166854134",18/12/21 22:53:06
"1","54","364.1794525968902","287.4290128122124",18/12/21 22:53:06
"1","54","364.82164913637695","286.6307388462694",18/12/21 22:53:06
"1","54","364.82164913637695","286.6307388462694",18/12/21 22:53:06
"1","54","363.05408072034044","287.5130566136618",18/12/21 22:53:06
"1","54","363.05408072034044","287.5130566136618",18/12/21 22:53:06
"1","54","364.30987229691704","285.7788102738169",18/12/21 22:53:06
"1","54","364.47502766367825","284.87364168075976",18/12/21 22:53:06
"1","54","364.47502766367825","284.87364168075976",18/12/21 22:53:06
"1","54","364.1659079370417","285.35361698258885",18/12/21 22:53:06
"1","54","364.1659079370417","285.35361698258885",18/12/21 22:53:06
"1","54","365.9071160745847","284.39877587237186",18/12/21 22:53:06
"1","54","365.5001703392219","286.155375470407",18/12/21 22:53:06
"1","54","365.5001703392219","286.155375470407",18/12/21 22:53:06
"1","54","366.05558499913946","287.43214627175473",18/12/21 22:53:06
"1","54","366.00600972913304","286.940563952397",18/12/21 22:53:06
"1","54","366.00600972913304","286.940563952397",18/12/21 22:53:06
"1","54","367.0976420716072","287.0211443141989",18/12/21 22:53:06
"1","54","367.0976420716072","287.0211443141989",18/12/21 22:53:06
"1","54","368.55905937053416","287.49333628000454",18/12/21 22:53:06
"1","54","369.55242044390087","285.5113541921294",18/12/21 22:53:06
"1","54","369.55242044390087","285.5113541921294",18/12/21 22:53:06
"1","54","368.07228675288366","284.376056362812",18/12/21 22:53:06
"1","54","368.07228675288366","284.376056362812",18/12/21 22:53:06
"1","54","368.09473305144434","286.14290052338697",18/12/21 22:53:06
"1","54","368.09473305144434","286.14290052338697",18/12/21 22:53:06
"1","54","369.3568127865947","286.4157962500307",18/12/21 22:53:06
"1","54","369.3568127865947","286.4157962500307",18/12/21 22:53:06
"1","54","371.0174802597665","288.0583737010405",18/12/21 22:53:06
"1","54","370.50272242368015","285.07101371085594",18/12/21 22:53:06
"1","54","370.50272242368015","285.07101371085594",18/12/21 22:53:06
"1","54","370.07604161456504","284.1817435077327",18/12/21 22:53:06
"1","54","368.5652246805207","283.0715905913237",18/12/21 22:53:06
"1","54","368.5652246805207","283.0715905913237",18/12/21 22:53:06
"1","54","370.5836621086417","283.7903328090577",18/12/21 22:53:06
"1","54","370.5836621086417","283.7903328090577",18/12/21 22:53:06
"1","54","370.00772174011615","283.220610082734",18/12/21 22:53:06
"1","54","367.7804611827382","284.30945044891024",18/12/21 22:53:06
"1","54","367.7804611827382","284.30945044891024",18/12/21 22:53:06
"1","54","367.6521696510193","284.59647790072745",18/12/21 22:53:06
"1","54","366.7769781638961","285.3884709497605",18/12/21 22:53:06
"1","54","365.56401248320054","283.4552175982621",18/12/21 22:53:06
"1","54","366.1003745164752","282.31746596949796",18/12/21 22:53:06
"1","54","366.1549695450236","282.31746596949796",18/12/21 22:53:06
"1","54","363.78161894054745","284.33079485221265",18/12/21 22:53:06
"1","54","363.29847366319234","285.53956143125083",18/12/21 22:53:06
"1","54","363.29847366319234","285.53956143125083",18/12/21 22:53:06
"1","54","363.153522761061","285.5857687172108",18/12/21 22:53:06
"1","54","363.153522761061","285.5857687172108",18/12/21 22:53:06
"1","54","363.18527885550475","285.64181624155106",18/12/21 22:53:07
"1","54","363.10925126594304","286.99976624724076",18/12/21 22:53:07
"1","54","363.10925126594304","286.99976624724076",18/12/21 22:53:07
"1","54","364.0818646072458","286.5638705795349",18/12/21 22:53:07
"1","54","363.2164805264198","287.270178274415",18/12/21 22:53:07
"1","54","363.2164805264198","287.270178274415",18/12/21 22:53:07
"1","54","362.15165784023986","286.0495289712798",18/12/21 22:53:07
"1","54","362.15165784023986","286.0495289712798",18/12/21 22:53:07
"1","54","360.75553951644747","285.1931003901691",18/12/21 22:53:07
"1","54","360.9594967584998","285.54566316141756",18/12/21 22:53:07
"1","54","360.42819406843034","286.6458874669093",18/12/21 22:53:07
"1","54","360.42819406843034","286.6458874669093",18/12/21 22:53:07
"1","54","360.2962510074106","286.08142095171263",18/12/21 22:53:07
"1","54","360.2962510074106","286.08142095171263",18/12/21 22:53:07
"1","54","359.5905445535092","287.3863768319336",18/12/21 22:53:07
"1","54","359.5905445535092","287.3863768319336",18/12/21 22:53:07
"1","54","360.5417440508001","284.56750752055405",18/12/21 22:53:07
"1","54","360.2371691544625","286.203123607412",18/12/21 22:53:07
"1","54","360.2371691544625","286.203123607412",18/12/21 22:53:07
"1","54","359.91422356461106","285.3104556266728",18/12/21 22:53:07
"1","54","359.91422356461106","285.3104556266728",18/12/21 22:53:07
"1","54","359.5537168833112","285.3713788417262",18/12/21 22:53:07
"1","54","358.4169488887274","286.9038077191685",18/12/21 22:53:07
"1","54","358.4169488887274","286.9038077191685",18/12/21 22:53:07
"1","54","356.0974447411728","288.2841270115528",18/12/21 22:53:07
"1","54","356.0974447411728","288.2841270115528",18/12/21 22:53:07
"1","54","354.90378069630816","289.0904236525102",18/12/21 22:53:07
"1","54","354.90378069630816","289.0904236525102",18/12/21 22:53:07
"1","54","354.04768885034514","287.8348648760738",18/12/21 22:53:07
"1","54","354.04768885034514","287.8348648760738",18/12/21 22:53:07
"1","54","352.6609510350218","287.31281548854327",18/12/21 22:53:07
"1","54","352.6928258250643","286.713346771132",18/12/21 22:53:07
"1","54","352.6928258250643","286.713346771132",18/12/21 22:53:07
"1","54","353.16326230098673","284.95174187423146",18/12/21 22:53:07
"1","54","353.2069476515875","284.9764248903112",18/12/21 22:53:07
"1","54","353.2069476515875","284.9764248903112",18/12/21 22:53:07
"1","54","355.5853450457588","284.7789117112219",18/12/21 22:53:07
"1","54","355.5853450457588","284.7789117112219",18/12/21 22:53:07
"1","54","355.4113915782141","285.0391710025992",18/12/21 22:53:07
"1","54","355.4113915782141","285.0391710025992",18/12/21 22:53:07
"1","54","355.31496993380983","286.4933226700376",18/12/21 22:53:07
"1","54","355.31496993380983","286.4933226700376",18/12/21 22:53:07
"1","54","354.49578141340925","286.6029230853655",18/12/21 22:53:07
"1","54","354.49578141340925","286.6029230853655",18/12/21 22:53:07
"1","54","354.59597365670373","285.8814466268675",18/12/21 22:53:07
"1","54","354.59597365670373","285.8814466268675",18/12/21 22:53:07
"1","54","356.94785664806784","288.9788162873806",18/12/21 22:53:07
"1","54","357.0173224415703","286.57151466105927",18/12/21 22:53:07
"1","54","357.0173224415703","286.57151466105927",18/12/21 22:53:07
"1","54","357.2860743208764","287.96151904546105",18/12/21 22:53:07
"1","54","357.2860743208764","287.96151904546105",18/12/21 22:53:08
"1","54","356.5329674596561","287.1383161815311",18/12/21 22:53:08
"1","54","356.5329674596561","287.1383161815311",18/12/21 22:53:08
"1","54","358.9050237644789","288.2173170524476",18/12/21 22:53:08
"1","54","358.9050237644789","288.2173170524476",18/12/21 22:53:08
"1","54","359.6584310812309","286.0290750679632",18/12/21 22:53:08
"1","54","359.11921227543723","287.5464060683696",18/12/21 22:53:08
"1","54","359.11921227543723","287.5464060683696",18/12/21 22:53:08
"1","54","359.36877990607456","289.5597175975233",18/12/21 22:53:08
"1","54","359.36877990607456","289.6973033169995",18/12/21 22:53:08
"1","54","359.2208947261301","289.6973033169995",18/12/21 22:53:08
"1","54","359.8714719899201","288.784828971307",18/12/21 22:53:08
"1","54","359.8714719899201","288.784828971307",18/12/21 22:53:08
"1","54","361.76173587571316","287.43894314690993",18/12/21 22:53:08
"1","54","360.7263356586136","286.6114517687435",18/12/21 22:53:08
"1","54","360.7263356586136","286.6114517687435",18/12/21 22:53:08
"1","54","359.5447186273634","285.9754797713034",18/12/21 22:53:08
"1","54","359.5447186273634","285.9754797713034",18/12/21 22:53:08
"1","54","359.189057932388","286.49576989924833",18/12/21 22:53:08
"1","54","359.68387537539155","288.6170812716926",18/12/21 22:53:08
"1","54","359.68387537539155","288.6170812716926",18/12/21 22:53:08
"1","54","359.2665277657156","287.75568591827556",18/12/21 22:53:08
"1","54","357.50523133090303","288.2388158579982",18/12/21 22:53:08
"1","54","357.50523133090303","288.2388158579982",18/12/21 22:53:08
"1","54","358.1247883575883","289.49697272138644",18/12/21 22:53:08
"1","54","358.1247883575883","289.49697272138644",18/12/21 22:53:08
"1","54","358.38613879639416","288.8164967611969",18/12/21 22:53:08
"1","54","358.38613879639416","288.8164967611969",18/12/21 22:53:08
"1","54","359.46766010562396","291.778565451916",18/12/21 22:53:08
"1","54","359.46766010562396","291.778565451916",18/12/21 22:53:08
"1","54","361.7963134862075","293.4477117602533",18/12/21 22:53:08
"1","54","362.7797595861742","294.46414219589576",18/12/21 22:53:08
"1","54","362.7797595861742","294.46414219589576",18/12/21 22:53:08
"1","54","362.50824204705987","295.4108266658533",18/12/21 22:53:08
"1","54","362.50824204705987","295.4108266658533",18/12/21 22:53:08
"1","54","360.9926666746293","294.8711163768722",18/12/21 22:53:08
"1","54","360.94514330819","295.62803096554825",18/12/21 22:53:08
"1","54","360.94514330819","295.62803096554825",18/12/21 22:53:08
"1","54","360.6846369589874","295.24120152407914",18/12/21 22:53:08
"1","54","360.63907224875805","295.23258691717723",18/12/21 22:53:08
"1","54","360.63907224875805","295.23258691717723",18/12/21 22:53:08
"1","54","360.80760149503504","294.1305818902065",18/12/21 22:53:08
"1","54","360.80760149503504","294.1305818902065",18/12/21 22:53:08
"1","54","358.34740603671895","294.278590845082",18/12/21 22:53:08
"1","54","358.34740603671895","294.278590845082",18/12/21 22:53:08
"1","54","358.03963000573975","293.43880682172227",18/12/21 22:53:08
"1","54","358.03963000573975","293.43880682172227",18/12/21 22:53:08
"1","54","359.2137690564429","294.512047131885",18/12/21 22:53:08
"1","54","359.43246225902556","294.04294290379886",18/12/21 22:53:08
"1","54","359.43246225902556","294.04294290379886",18/12/21 22:53:09
"1","54","360.55624633077605","292.5462351012674",18/12/21 22:53:09
"1","54","358.6301342807216","292.644607395851",18/12/21 22:53:09
"1","54","358.6301342807216","292.644607395851",18/12/21 22:53:09
"1","54","360.0666329601223","292.6137344589913",18/12/21 22:53:09
"1","54","360.0666329601223","292.6137344589913",18/12/21 22:53:09
"1","54","362.9525609086874","295.5791922437254",18/12/21 22:53:09
"1","54","362.9525609086874","295.5791922437254",18/12/21 22:53:09
"1","54","362.66796713702115","295.06469742779893",18/12/21 22:53:09
"1","54","362.66796713702115","296.4755045983899",18/12/21 22:53:09
"1","54","362.326812842902","296.4755045983899",18/12/21 22:53:09
"1","54","361.5806482757503","296.02963979936084",18/12/21 22:53:09
"1","54","363.1993547018882","296.01930071083814",18/12/21 22:53:09
"1","54","362.52042053202416","296.01930071083814",18/12/21 22:53:09
"1","54","363.0166516555648","295.7934307796534",18/12/21 22:53:09
"1","54","363.0166516555648","295.743789973317",18/12/21 22:53:09
"1","54","361.5764634726805","294.9434787617389",18/12/21 22:53:09
"1","54","361.5764634726805","294.9434787617389",18/12/21 22:53:09
"1","54","359.98822975790364","295.75004496050195",18/12/21 22:53:09
"1","54","359.98822975790364","295.75004496050195",18/12/21 22:53:09
"1","54","358.9371487027008","294.4541224381709",18/12/21 22:53:09
"1","54","359.29899508751055","294.2702978768584",18/12/21 22:53:09
"1","54","359.29899508751055","294.2702978768584",18/12/21 22:53:09
"1","54","358.65167201724785","292.02183112150254",18/12/21 22:53:09
"1","54","357.213877040023","292.8795757744422",18/12/21 22:53:09
"1","54","357.213877040023","292.8795757744422",18/12/21 22:53:09
"1","54","356.1445720462816","293.0390045670399",18/12/21 22:53:09
"1","54","356.1445720462816","293.0390045670399",18/12/21 22:53:09
"1","54","353.9445830016186","291.43104558229766",18/12/21 22:53:09
"1","54","354.8932225693703","290.270209723903",18/12/21 22:53:09
"1","54","354.8932225693703","290.270209723903",18/12/21 22:53:09
"1","54","356.6672865580129","289.8562518285668",18/12/21 22:53:09
"1","54","356.7727617815011","289.74102572725616",18/12/21 22:53:09
"1","54","355.4717520963338","291.0757864824201",18/12/21 22:53:09
"1","54","355.4717520963338","291.0757864824201",18/12/21 22:53:09
"1","54","352.8361932339809","291.17806006388867",18/12/21 22:53:09
"1","54","352.8361932339809","291.17806006388867",18/12/21 22:53:09
"1","54","354.1628919580237","291.6230807174721",18/12/21 22:53:09
"1","54","354.06085699397744","291.61857541336445",18/12/21 22:53:09
"1","54","354.40679610906625","291.61857541336445",18/12/21 22:53:09
"1","54","354.60504871367516","290.7288034812684",18/12/21 22:53:09
"1","54","354.60504871367516","291.0958871497706",18/12/21 22:53:09
"1","54","354.5093566037297","291.29352341324375",18/12/21 22:53:09
"1","54","354.5093566037297","291.65514067183693",18/12/21 22:53:09
"1","54","354.76999655750944","291.65514067183693",18/12/21 22:53:09
"1","54","354.6193911215356","289.7334285521162",18/12/21 22:53:09
"1","54","354.27215375371435","291.7501968319323",18/12/21 22:53:09
"1","54","353.7520464119893","292.9838048685732",18/12/21 22:53:09
"1","54","353.7520464119893","292.9838048685732",18/12/21 22:53:09
"1","54","353.9146169656283","294.9131660179582",18/12/21 22:53:09
"1","54","352.93721366381675","295.3914937541869",18/12/21 22:53:10
"1","54","352.93721366381675","295.3914937541869",18/12/21 22:53:10
"1","54","353.2870665250886","295.5176511018848",18/12/21 22:53:10
"1","54","353.2870665250886","295.5176511018848",18/12/21 22:53:10
"1","54","355.3393991657018","296.0241295792213",18/12/21 22:53:10
"1","54","356.1216307073629","296.3413861145867",18/12/21 22:53:10
"1","54","356.1216307073629","295.0543909382672",18/12/21 22:53:10
"1","54","357.94142059472597","295.0543909382672",18/12/21 22:53:10
"1","54","358.093196312901","295.50857517557716",18/12/21 22:53:10
"1","54","358.093196312901","295.50857517557716",18/12/21 22:53:10
"1","54","356.45078652361053","294.93222138365934",18/12/21 22:53:10
"1","54","356.45078652361053","294.05206474394555",18/12/21 22:53:10
"1","54","355.137273690305","294.05206474394555",18/12/21 22:53:10
"1","54","355.5934164010878","295.73151070472727",18/12/21 22:53:10
"1","54","354.23433244638295","295.73151070472727",18/12/21 22:53:10
"1","54","353.7568879973971","296.2536294221851",18/12/21 22:53:10
"1","54","353.7568879973971","294.36654114381093",18/12/21 22:53:10
"1","54","355.13071338532285","294.36654114381093",18/12/21 22:53:10
"1","54","353.83734099126065","294.40137422084064",18/12/21 22:53:10
"1","54","353.83734099126065","294.40137422084064",18/12/21 22:53:10
"1","54","352.1863335784398","295.7297200855836",18/12/21 22:53:10
"1","54","352.2683371702065","295.38530104400206",18/12/21 22:53:10
"1","54","352.2683371702065","295.38530104400206",18/12/21 22:53:10
"1","54","352.88095868591523","295.79125765977324",18/12/21 22:53:10
"1","54","352.88095868591523","295.79125765977324",18/12/21 22:53:10
"1","54","352.5286629464707","295.4477545391099",18/12/21 22:53:10
"1","54","352.5286629464707","295.4477545391099",18/12/21 22:53:10
"1","54","352.9162314004389","292.39153216022237",18/12/21 22:53:10
"1","54","352.9162314004389","292.39153216022237",18/12/21 22:53:10
"1","54","353.035691841029","291.0824802476014",18/12/21 22:53:10
"1","54","352.03340695650445","290.9522489190695",18/12/21 22:53:10
"1","54","352.03340695650445","290.9522489190695",18/12/21 22:53:10
"1","54","354.2665663382168","290.5422104583567",18/12/21 22:53:10
"1","54","354.2665663382168","290.5422104583567",18/12/21 22:53:10
"1","54","352.5224300402943","289.85627930077703",18/12/21 22:53:10
"1","54","352.97896071062115","289.02841293164323",18/12/21 22:53:10
"1","54","352.97896071062115","289.02841293164323",18/12/21 22:53:10
"1","54","352.3357442028233","290.0904596493457",18/12/21 22:53:10
"1","54","352.3357442028233","290.0904596493457",18/12/21 22:53:10
"1","54","352.1378365442243","288.10347674208776",18/12/21 22:53:10
"1","54","352.1378365442243","288.10347674208776",18/12/21 22:53:10
"1","54","353.3467990877887","288.4788251729711",18/12/21 22:53:10
"1","54","353.63489931515494","288.5475828970954",18/12/21 22:53:10
"1","54","355.49899767282886","289.19737730231526",18/12/21 22:53:10
"1","54","355.49899767282886","289.19737730231526",18/12/21 22:53:10
"1","54","357.7558363165986","288.5334711803498",18/12/21 22:53:10
"1","54","357.7558363165986","288.5334711803498",18/12/21 22:53:10
"1","54","357.53045243245356","288.9130701436058",18/12/21 22:53:10
"1","54","357.53045243245356","288.9130701436058",18/12/21 22:53:10
"1","54","357.6705219868452","289.2281772322124",18/12/21 22:53:10
"1","54","357.6705219868452","289.2281772322124",18/12/21 22:53:11
"1","54","357.7321022773066","289.26460050273033",18/12/21 22:53:11
"1","54","357.5505695882734","288.9274513922515",18/12/21 22:53:11
"1","54","357.5505695882734","288.9274513922515",18/12/21 22:53:11
"1","54","356.3104650424961","291.97131265461934",18/12/21 22:53:11
"1","54","356.3104650424961","291.97131265461934",18/12/21 22:53:11
"1","54","355.779722849518","291.33806270235647",18/12/21 22:53:11
"1","54","355.779722849518","293.23009621214015",18/12/21 22:53:11
"1","54","356.7797545728139","292.90130851064697",18/12/21 22:53:11
"1","54","356.7038223805167","293.30955113248876",18/12/21 22:53:11
"1","54","356.52188298787115","293.02360219599103",18/12/21 22:53:11
"1","54","356.52188298787115","293.02360219599103",18/12/21 22:53:11
"1","54","356.52188298787115","293.02360219599103",18/12/21 22:53:11
"1","54","354.91401671711935","291.13855892672666",18/12/21 22:53:11
"1","54","354.91401671711935","291.13855892672666",18/12/21 22:53:11
"1","54","353.7073105507003","289.72383098674413",18/12/21 22:53:11
"1","54","353.7073105507003","289.72383098674413",18/12/21 22:53:11
"1","54","351.5607498514403","287.2072287843013",18/12/21 22:53:11
"1","54","351.5607498514403","287.2072287843013",18/12/21 22:53:11
"1","26","347.88721432276947","287.45641627392587",18/12/21 22:53:11
"1","26","345.89463491801047","287.6506430544002",18/12/21 22:53:11
"1","26","344.25231418648826","287.8107283525961",18/12/21 22:53:11
"1","26","344.25231418648826","287.8107283525961",18/12/21 22:53:11
"1","26","342.97379645867045","287.93535193420104",18/12/21 22:53:11
"1","88","338.468329732942","287.7135166502737",18/12/21 22:53:11
"1","88","338.468329732942","287.7135166502737",18/12/21 22:53:11
"1","88","334.6592519837226","287.1982504964909",18/12/21 22:53:11
"1","88","333.10929109864946","286.98858232053175",18/12/21 22:53:11
"1","88","333.10929109864946","286.98858232053175",18/12/21 22:53:11
"1","30","328.3357242492159","286.7655695296434",18/12/21 22:53:11
"1","30","328.3357242492159","286.7655695296434",18/12/21 22:53:11
"1","88","328.1872599006013","287.48444222029264",18/12/21 22:53:11
"1","88","328.1872599006013","287.48444222029264",18/12/21 22:53:11
"1","88","328.46450456365034","287.69618417978677",18/12/21 22:53:11
"1","88","328.46450456365034","287.69618417978677",18/12/21 22:53:11
"1","88","327.8008810485499","288.2931844403302",18/12/21 22:53:11
"1","88","328.2747909171446","288.07048547697326",18/12/21 22:53:11
"1","88","328.2747909171446","288.07048547697326",18/12/21 22:53:11
"1","88","326.61376527095086","287.0671672017837",18/12/21 22:53:11
"1","88","326.61376527095086","287.0671672017837",18/12/21 22:53:11
"1","88","327.1976190394815","286.60365437918796",18/12/21 22:53:11
"1","88","328.22790759926914","286.5490939237458",18/12/21 22:53:11
"1","88","328.22790759926914","286.5490939237458",18/12/21 22:53:11
"1","88","326.9221419023926","285.9344109631192",18/12/21 22:53:11
"1","88","325.332938689597","286.2577094944586",18/12/21 22:53:11
"1","88","325.332938689597","286.2577094944586",18/12/21 22:53:11
"1","88","326.3736106191787","286.71003657959056",18/12/21 22:53:11
"1","88","326.3736106191787","286.71003657959056",18/12/21 22:53:11
"1","88","329.0336503880804","285.6037811891893",18/12/21 22:53:11
"1","88","329.0336503880804","285.6037811891893",18/12/21 22:53:11
"1","88","327.8872946109549","286.6314925871653",18/12/21 22:53:12
"1","88","327.8872946109549","286.6314925871653",18/12/21 22:53:12
"1","88","328.695086110718","286.4469394441737",18/12/21 22:53:12
"1","88","329.75706585341413","286.0964921165409",18/12/21 22:53:12
"1","88","329.75706585341413","286.0964921165409",18/12/21 22:53:12
"1","88","327.82814742782836","285.8505622359337",18/12/21 22:53:12
"1","88","327.82814742782836","285.8505622359337",18/12/21 22:53:12
"1","88","328.72036953944183","286.7030885164902",18/12/21 22:53:12
"1","88","329.7318215986071","288.1868320608794",18/12/21 22:53:12
"1","88","329.7318215986071","288.1868320608794",18/12/21 22:53:12
"1","88","328.7336504626411","288.45259178987624",18/12/21 22:53:12
"1","88","329.99620534512815","286.3605054253474",18/12/21 22:53:12
"1","88","329.99620534512815","286.3605054253474",18/12/21 22:53:12
"1","88","330.6425743666156","287.8640625701765",18/12/21 22:53:12
"1","88","330.6425743666156","287.8640625701765",18/12/21 22:53:12
"1","88","330.6281629093275","285.9616126293433",18/12/21 22:53:12
"1","88","330.6281629093275","285.9616126293433",18/12/21 22:53:12
