"floorId","partitionId","location_x","location_y","timeStamp"
"3","96","322.74453696124834","287.7141588446029",18/12/21 22:49:26
"3","96","324.6119483534498","287.4054920385074",18/12/21 22:49:26
"3","96","326.3036173799971","287.12587391173815",18/12/21 22:49:26
"3","96","328.6408825523544","286.73954437623115",18/12/21 22:49:26
"3","96","328.6408825523544","286.73954437623115",18/12/21 22:49:26
"3","96","330.4717375480383","286.4369200234497",18/12/21 22:49:26
"3","93","331.5246141780989","284.31638835435433",18/12/21 22:49:26
"3","93","330.90342059727624","282.00262381905384",18/12/21 22:49:26
"3","93","330.5651432103964","280.74263941963346",18/12/21 22:49:26
"3","93","330.5","280.5",18/12/21 22:49:26
"2","93","333.0401754704026","282.2730265644579",18/12/21 22:49:26
"2","93","334.29695066030354","283.15024777346866",18/12/21 22:49:26
"2","93","335.82735350892256","284.21845937402145",18/12/21 22:49:26
"2","93","337.53074727066075","285.4074175481648",18/12/21 22:49:26
"2","93","339.352388047612","286.67891139812406",18/12/21 22:49:26
"2","93","341.0221953556459","287.84442643799684",18/12/21 22:49:26
"2","90","340.14282423441176","287.98499138024636",18/12/21 22:49:26
"2","90","338.42716270212424","287.89790980071166",18/12/21 22:49:26
"2","90","336.5140303972602","287.8008052262772",18/12/21 22:49:26
"2","90","335.2218714960283","287.73521930736985",18/12/21 22:49:26
"2","90","332.80247037265497","287.61241812112974",18/12/21 22:49:26
"2","90","331.48500840855826","287.4552986101803",18/12/21 22:49:26
"2","90","331.48500840855826","286.9685596368734",18/12/21 22:49:26
"2","90","327.3717091048441","286.5590610116233",18/12/21 22:49:26
"2","90","325.0730441522207","286.0582100389829",18/12/21 22:49:26
"2","90","323.6407986761375","285.74614127100637",18/12/21 22:49:26
"2","90","322.1654393164296","285.42467851521826",18/12/21 22:49:26
"2","90","321.21076502783774","285.21666666666664",18/12/21 22:49:26
"2","14","321.1585193783419","284.6311549629909",18/12/21 22:49:26
"2","14","320.8122606781556","280.75066877102944",18/12/21 22:49:26
"2","14","320.8122606781556","280.75066877102944",18/12/21 22:49:26
"2","14","318.65753227297955","279.0380406548041",18/12/21 22:49:26
"2","14","318.65753227297955","279.0380406548041",18/12/21 22:49:26
"2","14","318.29974659533457","280.6397738126774",18/12/21 22:49:26
"2","14","317.7890751940644","278.7400338036551",18/12/21 22:49:26
"2","14","318.163949852775","278.28831812921294",18/12/21 22:49:26
"2","14","318.16929241485576","278.1971511960535",18/12/21 22:49:26
"2","14","317.8284654186748","277.7223120044984",18/12/21 22:49:26
"2","14","318.1823375275692","279.434664694089",18/12/21 22:49:26
"2","14","318.1823375275692","279.434664694089",18/12/21 22:49:26
"2","14","318.2357647625672","279.4561865957764",18/12/21 22:49:26
"2","14","317.4190353627656","281.40255339576015",18/12/21 22:49:27
"2","14","317.20625217465107","281.5402608350521",18/12/21 22:49:27
"2","14","317.20625217465107","281.5402608350521",18/12/21 22:49:27
"2","14","317.25731985198854","279.33173576244684",18/12/21 22:49:27
"2","14","317.90487891235836","278.7402907614445",18/12/21 22:49:27
"2","14","318.7734251745832","278.19696441781355",18/12/21 22:49:27
"2","14","318.7734251745832","277.66072404132876",18/12/21 22:49:27
"2","14","318.7679451901172","277.94036991778864",18/12/21 22:49:27
"2","14","318.7111357442004","278.21651527839293",18/12/21 22:49:27
"2","14","318.68740482031063","278.22668300772835",18/12/21 22:49:27
"2","14","320.6067515828735","278.1284832776116",18/12/21 22:49:27
"2","14","320.59368476148325","278.1901461219154",18/12/21 22:49:27
"2","14","320.59368476148325","278.950875208673",18/12/21 22:49:27
"2","14","319.46376671599484","278.950875208673",18/12/21 22:49:27
"2","14","320.14840599214546","279.97311887928583",18/12/21 22:49:27
"2","14","320.29166289883455","280.001655072551",18/12/21 22:49:27
"2","14","320.29166289883455","280.001655072551",18/12/21 22:49:27
"2","14","319.3916069749054","278.4223481364247",18/12/21 22:49:27
"2","14","319.3916069749054","278.4223481364247",18/12/21 22:49:27
"2","14","320.8789721313389","279.88606820964657",18/12/21 22:49:27
"2","14","320.8946717643779","280.2143882607192",18/12/21 22:49:27
"2","14","320.8228364679938","279.8751727882679",18/12/21 22:49:27
"2","14","320.8228364679938","279.8751727882679",18/12/21 22:49:27
"2","14","320.6614852040548","278.24241755388687",18/12/21 22:49:27
"2","14","321.439405995315","277.52973318225526",18/12/21 22:49:27
"2","14","321.439405995315","277.5849600745815",18/12/21 22:49:27
"2","14","321.42436771264875","277.8837105043492",18/12/21 22:49:27
"2","14","321.0239887235375","278.22227579146215",18/12/21 22:49:27
"2","14","320.23454415351813","278.47781655587977",18/12/21 22:49:27
"2","14","320.3350103342915","278.46009172958725",18/12/21 22:49:27
"2","14","320.3350103342915","280.0452173607603",18/12/21 22:49:27
"2","14","320.8947030148608","280.3428543446556",18/12/21 22:49:27
"2","14","318.9555376951282","281.1612147562553",18/12/21 22:49:27
"2","14","319.86464039890046","280.34308586926556",18/12/21 22:49:27
"2","14","319.86464039890046","280.34308586926556",18/12/21 22:49:27
"2","14","321.053909034394","280.91328254260924",18/12/21 22:49:27
"2","14","319.7873424361275","282.9741524259057",18/12/21 22:49:27
"2","14","320.47015676632435","280.6879578138944",18/12/21 22:49:27
"2","14","320.47015676632435","282.28027953321293",18/12/21 22:49:27
"2","14","318.9469700697002","282.28027953321293",18/12/21 22:49:27
"2","14","318.9469700697002","282.28027953321293",18/12/21 22:49:27
"2","14","318.9469700697002","282.28027953321293",18/12/21 22:49:27
"2","90","320.83890098309314","285.24014455884907",18/12/21 22:49:27
"2","90","322.0925180613986","285.32696951020193",18/12/21 22:49:27
"2","90","323.80901293197303","285.4458531679107",18/12/21 22:49:27
"2","90","323.80901293197303","285.4458531679107",18/12/21 22:49:27
"2","90","327.05714810469215","285.6708175395991",18/12/21 22:49:27
"2","90","327.05714810469215","285.6708175395991",18/12/21 22:49:27
"2","90","329.2955228446929","285.9335827245339",18/12/21 22:49:27
"2","93","332.1950840947442","286.0074075266395",18/12/21 22:49:28
"2","93","333.68931268641427","285.9416835529271",18/12/21 22:49:28
"2","93","333.68931268641427","285.9416835529271",18/12/21 22:49:28
"2","93","337.47475217898887","285.7751801630931",18/12/21 22:49:28
"2","93","339.2527987577031","285.69697239270886",18/12/21 22:49:28
"2","93","341.2890752235174","285.6074063238647",18/12/21 22:49:28
"2","93","339.9866478158678","284.98210909835495",18/12/21 22:49:28
"2","93","338.695571770926","284.3721208496057",18/12/21 22:49:28
"2","93","337.5455844281224","283.82879207507784",18/12/21 22:49:28
"2","93","335.82065244487256","283.01382207869665",18/12/21 22:49:28
"2","93","334.43219905305034","282.3578264413632",18/12/21 22:49:28
"2","93","332.73946116450014","281.5580670280633",18/12/21 22:49:28
"2","93","330.9806282090945","280.7270800087366",18/12/21 22:49:28
"2","95","330.5","280.5",18/12/21 22:49:28
"3","95","333.0436929920407","282.0798937969918",18/12/21 22:49:28
"3","95","334.64817852512397","283.0764435964422",18/12/21 22:49:28
"3","95","336.35827522413325","284.1385887434685",18/12/21 22:49:28
"3","95","337.97850235723666","285.1449156883151",18/12/21 22:49:28
"3","95","339.81747473391374","286.2871058267644",18/12/21 22:49:28
"3","95","339.81747473391374","286.2871058267644",18/12/21 22:49:28
"3","95","341.1754294983504","287.1305347765795",18/12/21 22:49:28
"3","95","337.6984297132828","284.9709618997587",18/12/21 22:49:28
"3","95","335.7416936991275","283.7556284846069",18/12/21 22:49:28
"3","95","334.4771077223562","282.9701911119698",18/12/21 22:49:28
"3","95","333.0918561814518","282.10980806904905",18/12/21 22:49:28
"3","95","331.86217732814686","281.3460515942278",18/12/21 22:49:28
"3","88","330.5","280.5",18/12/21 22:49:28
"1","88","331.09464210717937","283.0935834617799",18/12/21 22:49:28
"1","88","331.60454146599494","285.3175540286629",18/12/21 22:49:28
"1","88","331.6118508247887","287.1698903858768",18/12/21 22:49:28
"1","88","331.6118508247887","287.1698903858768",18/12/21 22:49:28
"1","88","327.9980272542548","287.33144568551677",18/12/21 22:49:28
"1","88","325.54561963797096","287.44108010445154",18/12/21 22:49:28
"1","88","323.5137925503812","287.53191255034864",18/12/21 22:49:28
"1","88","321.848109800002","287.60637658285896",18/12/21 22:49:28
"1","88","319.7122398611062","287.70186024475765",18/12/21 22:49:28
"1","88","319.7122398611062","287.70186024475765",18/12/21 22:49:28
"1","89","316.5735895084297","287.8515469173137",18/12/21 22:49:28
"1","89","314.1944745780939","288.0229093897815",18/12/21 22:49:28
"1","89","312.73021662534336","288.128376704502",18/12/21 22:49:28
"1","89","310.95412409104705","288.2563047857089",18/12/21 22:49:28
"1","89","309.63710447587266","288.35116684330313",18/12/21 22:49:28
"1","89","309.63710447587266","288.35116684330313",18/12/21 22:49:28
"1","89","306.8216290831015","288.5539594105413",18/12/21 22:49:28
"1","89","304.4040022244293","288.72809581342125",18/12/21 22:49:28
"1","89","302.94293463332446","288.8333333333333",18/12/21 22:49:28
"1","17","305.0500174275615","290.87661391616086",18/12/21 22:49:28
"1","17","306.08060130037177","291.8759918343175",18/12/21 22:49:28
"1","17","306.08060130037177","291.8759918343175",18/12/21 22:49:28
"1","17","305.19102537594347","293.12308958205784",18/12/21 22:49:28
"1","17","305.40060293127823","294.5722728874823",18/12/21 22:49:29
"1","17","305.47222356728133","293.9749616954755",18/12/21 22:49:29
"1","17","304.5773697319017","293.97670247972775",18/12/21 22:49:29
"1","17","305.79108804424766","293.7194829835132",18/12/21 22:49:29
"1","17","307.8575517470359","293.1814374341747",18/12/21 22:49:29
"1","17","308.1762407821455","292.53367197845427",18/12/21 22:49:29
"1","17","307.94640963701926","292.63727509784627",18/12/21 22:49:29
"1","17","308.3600016494222","292.5579645798582",18/12/21 22:49:29
"1","17","308.3600016494222","292.5579645798582",18/12/21 22:49:29
"1","17","308.50822492997656","290.7995542486116",18/12/21 22:49:29
"1","17","309.0843864890256","292.66121442969194",18/12/21 22:49:29
"1","17","310.36413198142606","292.7215102512301",18/12/21 22:49:29
"1","17","310.18844194633624","293.4472578564727",18/12/21 22:49:29
"1","17","311.07598427217874","292.0834427529402",18/12/21 22:49:29
"1","17","311.07598427217874","292.0834427529402",18/12/21 22:49:29
"1","17","308.6140911480993","291.9960971038925",18/12/21 22:49:29
"1","17","308.42471660514127","292.5771700967718",18/12/21 22:49:29
"1","17","308.42471660514127","292.5771700967718",18/12/21 22:49:29
"1","17","309.6174424996003","291.55977321024193",18/12/21 22:49:29
"1","17","310.8193564555745","290.6619993890756",18/12/21 22:49:29
"1","17","310.02011687073815","291.3540333447182",18/12/21 22:49:29
"1","17","309.57033892381185","290.8706387317393",18/12/21 22:49:29
"1","17","309.57033892381185","290.3165711032646",18/12/21 22:49:29
"1","17","308.6373384916141","290.3165711032646",18/12/21 22:49:29
"1","17","308.67047193037064","290.33395109928034",18/12/21 22:49:29
"1","17","308.6301655350526","290.0385002509347",18/12/21 22:49:29
"1","17","308.8733501818116","289.8547141051948",18/12/21 22:49:29
"1","17","308.8597936129114","289.3747591716435",18/12/21 22:49:29
"1","17","308.9139485890776","290.1373668444353",18/12/21 22:49:29
"1","17","309.2061935413422","290.24359571512565",18/12/21 22:49:29
"1","17","308.60127693119574","292.63809899065603",18/12/21 22:49:29
"1","17","308.27310704402254","293.1211737221629",18/12/21 22:49:29
"1","17","308.2742454279336","293.11929969626834",18/12/21 22:49:29
"1","17","308.43739981460845","293.3831685829425",18/12/21 22:49:29
"1","17","308.43739981460845","293.64102399433267",18/12/21 22:49:29
"1","17","308.3259229407988","293.64102399433267",18/12/21 22:49:29
"1","17","306.1705913474253","292.6864861822732",18/12/21 22:49:29
"1","17","307.31795541569073","292.7680025237628",18/12/21 22:49:29
"1","17","308.51262929697594","293.0346065775574",18/12/21 22:49:29
"1","17","308.4389282463129","293.6311463635985",18/12/21 22:49:29
"1","17","308.4389282463129","293.6311463635985",18/12/21 22:49:29
"1","17","308.1673006283326","293.3659160208217",18/12/21 22:49:29
"1","17","308.1673006283326","293.47438545508794",18/12/21 22:49:29
"1","17","308.0124793077459","294.57129497729625",18/12/21 22:49:29
"1","17","307.3715944868728","294.88346100551945",18/12/21 22:49:29
"1","17","307.3715944868728","294.88346100551945",18/12/21 22:49:29
"1","17","309.4449886477202","294.9789837432543",18/12/21 22:49:29
"1","17","309.40709391952","294.6174683094431",18/12/21 22:49:29
"1","17","307.1738381322652","292.973875979611",18/12/21 22:49:29
"1","17","306.122047607156","293.0020602048327",18/12/21 22:49:29
"1","17","306.12241643842776","291.74095303892307",18/12/21 22:49:30
"1","17","305.9732248904744","291.3259758513362",18/12/21 22:49:30
"1","17","306.0119656348801","291.1588582258064",18/12/21 22:49:30
"1","17","306.0119656348801","291.1588582258064",18/12/21 22:49:30
"1","17","303.3458206826998","290.96170754233754",18/12/21 22:49:30
"1","17","303.5389192832986","289.5554329324603",18/12/21 22:49:30
"1","17","304.5166456370468","290.4319951481411",18/12/21 22:49:30
"1","17","303.88802045285684","290.8168919222656",18/12/21 22:49:30
"1","17","304.53122850634225","290.82543306052503",18/12/21 22:49:30
"1","17","304.53122850634225","290.82543306052503",18/12/21 22:49:30
"1","17","306.3798023215616","289.3468196065032",18/12/21 22:49:30
"1","17","307.07988397417546","290.6520143938144",18/12/21 22:49:30
"1","17","306.9167051880689","291.1848322521382",18/12/21 22:49:30
"1","17","306.9167051880689","291.1848322521382",18/12/21 22:49:30
"1","17","307.5812207392364","293.1848692111237",18/12/21 22:49:30
"1","17","306.7260421396566","291.01439704072305",18/12/21 22:49:30
"1","17","306.04490536899993","289.96687303521986",18/12/21 22:49:30
"1","17","305.8910528008802","289.91692580424",18/12/21 22:49:30
"1","17","305.8910528008802","291.79127881904844",18/12/21 22:49:30
"1","17","304.57348778498584","291.79127881904844",18/12/21 22:49:30
"1","17","304.59186104823954","292.6410867437635",18/12/21 22:49:30
"1","17","305.2228115174954","294.6850142570899",18/12/21 22:49:30
"1","17","304.28130226019863","294.98011066418576",18/12/21 22:49:30
"1","17","305.1892191142015","294.58444575691675",18/12/21 22:49:30
"1","17","304.5504304439706","293.4266590371721",18/12/21 22:49:30
"1","17","303.28740139805615","293.52495834201306",18/12/21 22:49:30
"1","17","303.2071411887274","293.267906322898",18/12/21 22:49:30
"1","17","303.58437186883486","295.57633942220673",18/12/21 22:49:30
"1","17","303.58437186883486","295.57633942220673",18/12/21 22:49:30
"1","17","303.7873009580209","296.40468308443735",18/12/21 22:49:30
"1","17","303.0836882266099","295.908530864728",18/12/21 22:49:30
"1","17","303.0836882266099","295.908530864728",18/12/21 22:49:30
"1","17","302.5724554949646","295.6359802727241",18/12/21 22:49:30
"1","17","302.469501674165","294.42237843880645",18/12/21 22:49:30
"1","17","303.24684169822456","293.8252114761944",18/12/21 22:49:30
"1","17","304.1616423759909","295.9032453900866",18/12/21 22:49:30
"1","17","303.7471368850477","295.8692125442961",18/12/21 22:49:30
"1","17","304.0935126328947","296.110103856599",18/12/21 22:49:30
"1","17","304.55925890544495","296.1869798773683",18/12/21 22:49:30
"1","17","304.55925890544495","295.54201300843414",18/12/21 22:49:30
"1","17","306.22748305176646","295.54201300843414",18/12/21 22:49:30
"1","17","306.32832026544645","294.9156808761888",18/12/21 22:49:30
"1","17","306.32832026544645","293.0818069613231",18/12/21 22:49:30
"1","17","306.41828598853186","293.64694328632083",18/12/21 22:49:30
"1","17","305.7498994620478","294.1235595525024",18/12/21 22:49:30
"1","17","305.7498994620478","294.1235595525024",18/12/21 22:49:30
"1","17","305.49838529039033","294.2256042116108",18/12/21 22:49:30
"1","17","305.49838529039033","294.2256042116108",18/12/21 22:49:30
"1","17","304.451276743861","296.38687658109103",18/12/21 22:49:30
"1","17","304.10177778530687","293.91411705133464",18/12/21 22:49:30
"1","17","304.31769424968934","294.1132420588407",18/12/21 22:49:31
"1","17","302.87380819177037","294.65200085091146",18/12/21 22:49:31
"1","17","304.6355633671567","294.58485080441665",18/12/21 22:49:31
"1","17","303.6376442252839","295.4175449734683",18/12/21 22:49:31
"1","17","303.8532163872746","295.10758630455626",18/12/21 22:49:31
"1","17","303.8532163872746","295.10758630455626",18/12/21 22:49:31
"1","17","303.7412546837471","295.0263631423772",18/12/21 22:49:31
"1","17","303.8152953317561","295.0882948921141",18/12/21 22:49:31
"1","17","305.31631348595073","295.1387838579196",18/12/21 22:49:31
"1","17","303.8286030447717","295.59001332689724",18/12/21 22:49:31
"1","17","302.81488173004135","296.01379447617296",18/12/21 22:49:31
"1","17","303.8299000198","295.5475112167045",18/12/21 22:49:31
"1","17","303.616478697553","295.9704651702725",18/12/21 22:49:31
"1","17","303.616478697553","295.9704651702725",18/12/21 22:49:31
"1","17","302.25636729189006","296.2124959747986",18/12/21 22:49:31
"1","17","302.25636729189006","296.2124959747986",18/12/21 22:49:31
"1","17","302.25636729189006","296.2124959747986",18/12/21 22:49:31
"1","17","302.25636729189006","296.2124959747986",18/12/21 22:49:31
"1","17","302.64036973624127","293.0745133593844",18/12/21 22:49:31
"1","17","302.64036973624127","293.0745133593844",18/12/21 22:49:31
"1","17","303.0660254427745","289.5961495445137",18/12/21 22:49:31
"1","17","303.0660254427745","288.56736353279155",18/12/21 22:49:31
"1","88","306.55755790664716","288.23846638106045",18/12/21 22:49:31
"1","88","308.32565298090657","287.9289536898857",18/12/21 22:49:31
"1","88","308.32565298090657","287.9289536898857",18/12/21 22:49:31
"1","88","311.80332871143173","287.3201715095277",18/12/21 22:49:31
"1","88","313.5573301413203","287.0131259717664",18/12/21 22:49:31
"1","88","315.6903328162733","286.639734626573",18/12/21 22:49:31
"1","88","315.6903328162733","286.639734626573",18/12/21 22:49:31
"1","88","319.1116630343673","286.3246020197725",18/12/21 22:49:31
"1","88","319.1116630343673","286.3246020197725",18/12/21 22:49:31
"1","88","323.13074749464556","286.14066211447766",18/12/21 22:49:31
"1","88","323.13074749464556","286.14066211447766",18/12/21 22:49:31
"1","88","327.13981550758473","285.9571806281071",18/12/21 22:49:31
"1","88","328.8208905415093","285.8802435083253",18/12/21 22:49:31
"1","88","330.47846820571175","285.8043817836998",18/12/21 22:49:31
"1","26","332.5322919288078","285.82801635678936",18/12/21 22:49:31
"1","26","334.81861141310674","286.2535323028049",18/12/21 22:49:31
"1","26","336.12924860332345","286.497460164903",18/12/21 22:49:31
"1","26","336.12924860332345","286.497460164903",18/12/21 22:49:31
"1","26","337.88117984841176","286.82351900585996",18/12/21 22:49:31
"1","26","342.28855691442385","287.01661666263783",18/12/21 22:49:31
"1","26","342.28855691442385","287.01661666263783",18/12/21 22:49:31
"1","26","346.0538763663983","285.30822987975716",18/12/21 22:49:31
"1","42","345.2814399366044","283.6658474720225",18/12/21 22:49:31
"1","42","345.2814399366044","283.6658474720225",18/12/21 22:49:31
"1","42","344.3846903833597","282.2383847898901",18/12/21 22:49:31
"1","42","344.9440286699705","281.1456925931976",18/12/21 22:49:31
"1","42","344.9440286699705","281.1456925931976",18/12/21 22:49:31
"1","42","344.4422000818939","281.62378927040345",18/12/21 22:49:31
"1","42","344.26290852696627","283.62080159272386",18/12/21 22:49:32
"1","42","344.26290852696627","283.62080159272386",18/12/21 22:49:32
"1","42","343.6852711049647","284.2352296914285",18/12/21 22:49:32
"1","42","341.9739047725217","282.9167714975112",18/12/21 22:49:32
"1","42","341.9762728426451","282.9192260346693",18/12/21 22:49:32
"1","42","342.0127162336916","282.1362699007319",18/12/21 22:49:32
"1","42","342.489088976581","281.8346102330715",18/12/21 22:49:32
"1","42","342.489088976581","281.8346102330715",18/12/21 22:49:32
"1","42","343.8387844169421","282.7370774933241",18/12/21 22:49:32
"1","42","343.8387844169421","282.7370774933241",18/12/21 22:49:32
"1","42","342.17551341869233","283.4469943629503",18/12/21 22:49:32
"1","42","342.17551341869233","283.4469943629503",18/12/21 22:49:32
"1","42","341.91642048322905","283.9264280058786",18/12/21 22:49:32
"1","42","344.2270177445839","283.9607157079831",18/12/21 22:49:32
"1","42","344.2270177445839","283.9607157079831",18/12/21 22:49:32
"1","42","343.10747168342215","283.51161902779194",18/12/21 22:49:32
"1","42","343.10747168342215","283.51161902779194",18/12/21 22:49:32
"1","42","341.8924529344876","284.32252396580304",18/12/21 22:49:32
"1","42","345.06903931708507","284.1638768652791",18/12/21 22:49:32
"1","42","344.9005593184277","284.2720242885386",18/12/21 22:49:32
"1","42","344.9005593184277","284.2720242885386",18/12/21 22:49:32
"1","42","344.67588661259435","282.79814050896147",18/12/21 22:49:32
"1","42","345.11318525124375","283.9005733339474",18/12/21 22:49:32
"1","42","345.11318525124375","283.9005733339474",18/12/21 22:49:32
"1","42","345.0794320161775","283.9248432585476",18/12/21 22:49:32
"1","42","344.2050763751401","284.21049474812196",18/12/21 22:49:32
"1","42","344.2050763751401","284.21049474812196",18/12/21 22:49:32
"1","42","344.80216680994215","283.3295370042701",18/12/21 22:49:32
"1","42","343.0649636435362","283.461358830748",18/12/21 22:49:32
"1","42","343.9520451566256","282.605717378443",18/12/21 22:49:32
"1","42","343.9856967211431","281.08033355216264",18/12/21 22:49:32
"1","42","343.9856967211431","281.08033355216264",18/12/21 22:49:32
"1","42","343.06515390408276","279.14163706847086",18/12/21 22:49:32
"1","42","343.06515390408276","279.14163706847086",18/12/21 22:49:32
"1","42","342.79866083014053","278.5861226977808",18/12/21 22:49:32
"1","42","341.6941247314238","279.74828945393426",18/12/21 22:49:32
"1","42","341.7514708054905","279.8685475183758",18/12/21 22:49:32
"1","42","341.7514708054905","279.8685475183758",18/12/21 22:49:32
"1","42","343.4604829117413","281.13253970031656",18/12/21 22:49:32
"1","42","343.07472225535605","281.0350934629284",18/12/21 22:49:32
"1","42","343.07472225535605","281.0350934629284",18/12/21 22:49:32
"1","42","343.2724222604542","283.37689952073225",18/12/21 22:49:32
"1","42","343.2724222604542","283.37689952073225",18/12/21 22:49:32
"1","42","344.843946219264","281.1840845887785",18/12/21 22:49:32
"1","42","344.8872367459546","281.20421585857366",18/12/21 22:49:32
"1","42","344.8872367459546","281.20421585857366",18/12/21 22:49:32
"1","42","342.34397076250923","280.8375949298225",18/12/21 22:49:32
"1","42","342.34397076250923","280.8375949298225",18/12/21 22:49:32
"1","42","341.7952964183488","279.0875713093434",18/12/21 22:49:32
"1","42","342.63797466272604","277.63880353427476",18/12/21 22:49:32
"1","42","342.63797466272604","277.63880353427476",18/12/21 22:49:33
"1","42","342.16598381269307","277.69534516419833",18/12/21 22:49:33
"1","42","342.16598381269307","277.69534516419833",18/12/21 22:49:33
"1","42","342.3161380070698","277.71701973331636",18/12/21 22:49:33
"1","42","343.48542334501406","279.515822224614",18/12/21 22:49:33
"1","42","343.48542334501406","279.4597334081729",18/12/21 22:49:33
"1","42","342.6987692212891","281.3910777044932",18/12/21 22:49:33
"1","42","343.26905398415823","281.19245970672927",18/12/21 22:49:33
"1","42","343.26905398415823","281.19245970672927",18/12/21 22:49:33
"1","42","342.36925219284007","280.3709324870315",18/12/21 22:49:33
"1","42","342.69730422891206","279.5841696494744",18/12/21 22:49:33
"1","42","342.69730422891206","279.5841696494744",18/12/21 22:49:33
"1","42","345.38764415368877","277.95736147488424",18/12/21 22:49:33
"1","42","345.38764415368877","277.95736147488424",18/12/21 22:49:33
"1","42","343.9132393926636","279.6694936805515",18/12/21 22:49:33
"1","42","343.9132393926636","280.1645530614474",18/12/21 22:49:33
"1","42","341.7578485985179","281.72182532281926",18/12/21 22:49:33
"1","42","341.7578485985179","281.72182532281926",18/12/21 22:49:33
"1","42","342.89939519733724","282.03693965242724",18/12/21 22:49:33
"1","42","342.89939519733724","282.03693965242724",18/12/21 22:49:33
"1","42","343.3505048847579","281.8664613586859",18/12/21 22:49:33
"1","42","344.687314399489","282.29744190177337",18/12/21 22:49:33
"1","42","343.6190836755813","283.2649290381964",18/12/21 22:49:33
"1","42","343.6416154211892","282.7925543343003",18/12/21 22:49:33
"1","42","342.7484460287515","279.7225978636578",18/12/21 22:49:33
"1","42","343.3635889154508","279.6823438798172",18/12/21 22:49:33
"1","42","344.03661685720414","281.05714964557137",18/12/21 22:49:33
"1","42","344.03661685720414","281.05714964557137",18/12/21 22:49:33
"1","42","344.1099992173821","281.5632977469118",18/12/21 22:49:33
"1","42","344.1099992173821","281.5632977469118",18/12/21 22:49:33
"1","42","345.7299155893958","281.6341110434076",18/12/21 22:49:33
"1","42","345.7299155893958","281.6341110434076",18/12/21 22:49:33
"1","42","346.3200016457027","280.58938195260345",18/12/21 22:49:33
"1","42","346.13470780909296","280.06387201348963",18/12/21 22:49:33
"1","42","346.13470780909296","280.06387201348963",18/12/21 22:49:33
"1","42","344.9042037257028","279.41944690950777",18/12/21 22:49:33
"1","42","344.07052250050214","279.41944690950777",18/12/21 22:49:33
"1","42","345.9416998632283","279.4108712768567",18/12/21 22:49:33
"1","42","345.9416998632283","279.4108712768567",18/12/21 22:49:33
"1","42","346.3034757645641","279.1080018765605",18/12/21 22:49:33
"1","42","346.3034757645641","279.1080018765605",18/12/21 22:49:33
"1","42","346.22652455946155","277.77006975877566",18/12/21 22:49:33
"1","42","346.02403699414754","277.76413429090786",18/12/21 22:49:33
"1","42","346.02403699414754","277.76413429090786",18/12/21 22:49:33
"1","42","346.454103645517","277.96268416867684",18/12/21 22:49:33
"1","42","346.454103645517","277.96268416867684",18/12/21 22:49:33
"1","42","344.84064264333693","277.938965202837",18/12/21 22:49:33
"1","42","344.84064264333693","277.938965202837",18/12/21 22:49:33
"1","42","344.02498205217574","280.3017484243052",18/12/21 22:49:33
"1","42","344.02498205217574","280.3017484243052",18/12/21 22:49:34
"1","42","343.65162072934714","280.4134080252317",18/12/21 22:49:34
"1","42","343.6734067215333","280.77914363041697",18/12/21 22:49:34
"1","42","343.6734067215333","280.77914363041697",18/12/21 22:49:34
"1","42","342.39736098216144","280.69468533377045",18/12/21 22:49:34
"1","42","341.8702075390235","281.34086560781907",18/12/21 22:49:34
"1","42","341.8702075390235","281.34086560781907",18/12/21 22:49:34
"1","42","343.04805820534114","280.9668475375892",18/12/21 22:49:34
"1","42","343.04805820534114","280.9668475375892",18/12/21 22:49:34
"1","42","341.7587485623575","280.0593828508061",18/12/21 22:49:34
"1","42","341.7587485623575","280.0593828508061",18/12/21 22:49:34
"1","42","342.22100694026244","278.8950536569799",18/12/21 22:49:34
"1","42","342.22100694026244","278.8950536569799",18/12/21 22:49:34
"1","42","342.12468277167864","279.09886234975846",18/12/21 22:49:34
"1","42","342.12468277167864","279.09886234975846",18/12/21 22:49:34
"1","42","342.58624188230004","279.4739457811138",18/12/21 22:49:34
"1","42","342.58624188230004","279.4739457811138",18/12/21 22:49:34
"1","42","342.792751027185","279.5233486294407",18/12/21 22:49:34
"1","42","343.84063894553407","277.7698204015396",18/12/21 22:49:34
"1","42","343.84063894553407","277.7698204015396",18/12/21 22:49:34
"1","42","342.80653197647","277.63029905377067",18/12/21 22:49:34
"1","42","342.80653197647","277.63029905377067",18/12/21 22:49:34
"1","42","342.7254064199449","279.2871128082153",18/12/21 22:49:34
"1","42","343.52474286636095","281.4192089508197",18/12/21 22:49:34
"1","42","343.52474286636095","281.4192089508197",18/12/21 22:49:34
"1","42","344.7418397679702","282.4782930396959",18/12/21 22:49:34
"1","42","345.29846141857234","280.45238811351885",18/12/21 22:49:34
"1","42","345.29846141857234","280.45238811351885",18/12/21 22:49:34
"1","42","346.172507106191","280.88715957632087",18/12/21 22:49:34
"1","42","344.45129086199717","280.51743747091507",18/12/21 22:49:34
"1","42","345.40475415492773","281.4611046771049",18/12/21 22:49:34
"1","42","345.40475415492773","281.4611046771049",18/12/21 22:49:34
"1","42","346.3092694119651","281.1794151275821",18/12/21 22:49:34
"1","42","344.70463424195054","283.3660949245115",18/12/21 22:49:34
"1","42","343.8867970508839","283.3660949245115",18/12/21 22:49:34
"1","42","342.4437241952328","281.85127016088273",18/12/21 22:49:34
"1","42","342.4437241952328","281.85127016088273",18/12/21 22:49:34
"1","42","344.8133208895206","280.34450127795554",18/12/21 22:49:34
"1","42","344.8133208895206","280.34450127795554",18/12/21 22:49:34
"1","42","342.2562530102779","280.09780218004704",18/12/21 22:49:34
"1","42","342.2562530102779","280.09780218004704",18/12/21 22:49:34
"1","42","343.1057632242587","280.4206781749535",18/12/21 22:49:34
"1","42","343.3726964609784","280.0023835996441",18/12/21 22:49:34
"1","42","343.2307771526691","278.8328040701247",18/12/21 22:49:34
"1","42","343.2307771526691","278.8328040701247",18/12/21 22:49:34
"1","42","341.83487949526517","278.76530145956326",18/12/21 22:49:34
"1","42","341.83487949526517","278.76530145956326",18/12/21 22:49:34
"1","42","341.78005425406724","279.91869843813623",18/12/21 22:49:34
"1","42","342.2195682264104","281.1979071259816",18/12/21 22:49:34
"1","42","342.2195682264104","281.1979071259816",18/12/21 22:49:34
"1","42","342.1958623353901","280.57554255307025",18/12/21 22:49:35
"1","42","342.2149192090263","280.4316280303075",18/12/21 22:49:35
"1","42","342.2149192090263","280.4316280303075",18/12/21 22:49:35
"1","42","341.7727016389486","280.26042385036106",18/12/21 22:49:35
"1","42","341.7727016389486","280.26042385036106",18/12/21 22:49:35
"1","42","343.8485460788376","280.94405854962343",18/12/21 22:49:35
"1","42","342.37277961789675","282.07814456770143",18/12/21 22:49:35
"1","42","342.37277961789675","282.07814456770143",18/12/21 22:49:35
"1","42","344.71183571115023","281.22617038666954",18/12/21 22:49:35
"1","42","344.71183571115023","281.22617038666954",18/12/21 22:49:35
"1","42","344.91713015155426","283.2130721314959",18/12/21 22:49:35
"1","42","345.0592815166934","284.58885607804825",18/12/21 22:49:35
"1","42","345.0592815166934","284.58885607804825",18/12/21 22:49:35
"1","26","342.9550078916162","286.90528416562415",18/12/21 22:49:35
"1","26","342.9550078916162","286.90528416562415",18/12/21 22:49:35
"1","26","341.863993504853","288.19087247770835",18/12/21 22:49:35
"1","88","340.66942503453464","288.20022040974993",18/12/21 22:49:35
"1","88","336.59544075103645","288.21444667864415",18/12/21 22:49:35
"1","88","336.59544075103645","288.21444667864415",18/12/21 22:49:35
"1","88","333.7503169421346","288.2309100510312",18/12/21 22:49:35
"1","88","333.7503169421346","288.2309100510312",18/12/21 22:49:35
"1","88","331.5097464696705","288.1613351950493",18/12/21 22:49:35
"1","88","327.6649067393536","287.5676673467793",18/12/21 22:49:35
"1","88","327.6649067393536","287.5676673467793",18/12/21 22:49:35
"1","88","323.09156500761003","286.86151412955167",18/12/21 22:49:35
"1","88","323.09156500761003","286.86151412955167",18/12/21 22:49:35
"1","88","319.5355188957652","286.31243786327155",18/12/21 22:49:35
"1","88","319.5355188957652","286.31243786327155",18/12/21 22:49:35
"1","88","317.7890095066595","286.04276564186836",18/12/21 22:49:35
"1","89","314.16004030223274","285.6352321970369",18/12/21 22:49:35
"1","89","314.16004030223274","285.6352321970369",18/12/21 22:49:35
"1","89","311.3985361449777","285.36191128535273",18/12/21 22:49:35
"1","89","311.3985361449777","285.36191128535273",18/12/21 22:49:35
"1","8","309.0792696845277","283.30152534751716",18/12/21 22:49:35
"1","8","308.11709185207735","281.13817604737335",18/12/21 22:49:35
"1","8","307.3533593276571","279.42100883931784",18/12/21 22:49:35
"1","8","307.3533593276571","279.42100883931784",18/12/21 22:49:35
"1","8","307.0628183199031","278.76775986122925",18/12/21 22:49:35
"1","8","307.5996191184357","279.748863734663",18/12/21 22:49:35
"1","8","309.45431478159554","278.6693201216462",18/12/21 22:49:35
"1","8","309.45431478159554","278.6693201216462",18/12/21 22:49:35
"1","8","308.5364726645172","280.2320625060226",18/12/21 22:49:35
"1","8","308.8639440683703","280.12837104133587",18/12/21 22:49:35
"1","8","308.8639440683703","280.12837104133587",18/12/21 22:49:35
"1","8","307.15357602777397","282.35336308100807",18/12/21 22:49:35
"1","8","307.7774378076865","280.106920367354",18/12/21 22:49:35
"1","8","307.7774378076865","280.106920367354",18/12/21 22:49:35
"1","8","307.94860525721197","279.42125326308866",18/12/21 22:49:35
"1","8","307.94860525721197","279.42125326308866",18/12/21 22:49:35
"1","8","308.01149374434635","278.94580793563944",18/12/21 22:49:35
"1","8","307.8183902639668","279.80668358029124",18/12/21 22:49:36
"1","8","307.8183902639668","279.80668358029124",18/12/21 22:49:36
"1","8","307.8183902639668","279.80668358029124",18/12/21 22:49:36
"1","8","308.924978788716","281.8674585719432",18/12/21 22:49:36
"1","8","308.924978788716","281.8674585719432",18/12/21 22:49:36
"1","88","310.8723114173293","285.27145355663964",18/12/21 22:49:36
"1","88","310.8723114173293","285.27145355663964",18/12/21 22:49:36
"1","88","314.030516046471","286.4336112065859",18/12/21 22:49:36
"1","88","315.48403850820887","286.9684790972509",18/12/21 22:49:36
"1","88","315.48403850820887","286.9684790972509",18/12/21 22:49:36
"1","88","319.4325864211223","288.09723825870554",18/12/21 22:49:36
"1","88","321.63379059531894","288.6235667837059",18/12/21 22:49:36
"1","88","321.63379059531894","288.6235667837059",18/12/21 22:49:36
"1","7","323.7289765983778","291.2597403847092",18/12/21 22:49:36
"1","7","323.7289765983778","291.2597403847092",18/12/21 22:49:36
"1","7","325.4467013559484","294.6819333225837",18/12/21 22:49:36
"1","7","325.4467013559484","294.6819333225837",18/12/21 22:49:36
"1","7","326.647779444568","295.5079990378951",18/12/21 22:49:36
"1","7","326.647779444568","295.5079990378951",18/12/21 22:49:36
"1","7","327.47688027327","294.55384382760144",18/12/21 22:49:36
"1","7","327.47688027327","294.55384382760144",18/12/21 22:49:36
"1","7","327.39434647696135","295.1435978279907",18/12/21 22:49:36
"1","7","327.39434647696135","295.1435978279907",18/12/21 22:49:36
"1","7","326.9222935586854","293.05981701249164",18/12/21 22:49:36
"1","7","326.9222935586854","293.05981701249164",18/12/21 22:49:36
"1","7","326.6081145342766","293.19549131037604",18/12/21 22:49:36
"1","7","326.6081145342766","293.19549131037604",18/12/21 22:49:36
"1","7","324.8717759388682","291.4843721910055",18/12/21 22:49:36
"1","7","324.7343367685929","291.4606126908157",18/12/21 22:49:36
"1","7","324.58914923127105","290.9584302443878",18/12/21 22:49:36
"1","7","324.58914923127105","290.9584302443878",18/12/21 22:49:36
"1","7","323.9153364996912","291.37014036035094",18/12/21 22:49:36
"1","7","323.9153364996912","291.37014036035094",18/12/21 22:49:36
"1","7","323.8420355554993","291.44428701534395",18/12/21 22:49:36
"1","7","324.36731896107835","291.88225336001227",18/12/21 22:49:36
"1","7","324.36731896107835","291.88225336001227",18/12/21 22:49:36
"1","7","323.105106462748","291.2260652991391",18/12/21 22:49:36
"1","7","323.105106462748","291.2260652991391",18/12/21 22:49:36
"1","7","322.3619222218473","292.54296384160074",18/12/21 22:49:36
"1","7","322.3658327926146","292.2436730029817",18/12/21 22:49:36
"1","7","323.56412555597296","293.3173594918192",18/12/21 22:49:36
"1","7","323.56412555597296","293.3173594918192",18/12/21 22:49:36
"1","7","321.8853475982358","294.7433682928814",18/12/21 22:49:36
"1","7","322.8852284021675","294.77448571439885",18/12/21 22:49:36
"1","7","322.8852284021675","294.77448571439885",18/12/21 22:49:36
"1","7","323.1029205133593","296.21240211717446",18/12/21 22:49:36
"1","7","322.93826876727445","296.29547057150904",18/12/21 22:49:36
"1","7","322.93826876727445","296.29547057150904",18/12/21 22:49:36
"1","7","324.21744205688145","295.28525712462476",18/12/21 22:49:36
"1","7","324.21744205688145","295.28525712462476",18/12/21 22:49:36
"1","7","323.50247289716503","296.3497429892689",18/12/21 22:49:37
"1","7","323.50247289716503","296.3497429892689",18/12/21 22:49:37
"1","7","324.8833157556774","296.0855416017056",18/12/21 22:49:37
"1","7","324.77983815036885","296.4974767980496",18/12/21 22:49:37
"1","7","324.77983815036885","296.4974767980496",18/12/21 22:49:37
"1","7","323.9733731521818","295.37339565715257",18/12/21 22:49:37
"1","7","323.8225140236413","295.93119675477857",18/12/21 22:49:37
"1","7","323.8225140236413","295.93119675477857",18/12/21 22:49:37
"1","7","325.10955693457953","296.1574801235029",18/12/21 22:49:37
"1","7","324.95120770323274","296.2061299599986",18/12/21 22:49:37
"1","7","324.95120770323274","296.2061299599986",18/12/21 22:49:37
"1","7","326.03340133047254","295.36454444905166",18/12/21 22:49:37
"1","7","326.03340133047254","295.36454444905166",18/12/21 22:49:37
"1","7","327.21977440219473","295.62641432874193",18/12/21 22:49:37
"1","7","327.0384589696107","295.1345751519891",18/12/21 22:49:37
"1","7","327.0384589696107","295.1345751519891",18/12/21 22:49:37
"1","7","327.6263092314532","295.8818889238229",18/12/21 22:49:37
"1","7","327.6263092314532","295.8818889238229",18/12/21 22:49:37
"1","7","328.7322812048643","293.89603697562785",18/12/21 22:49:37
"1","7","328.7322812048643","293.89603697562785",18/12/21 22:49:37
"1","7","326.9509730302262","293.5217088845564",18/12/21 22:49:37
"1","7","326.9509730302262","293.5217088845564",18/12/21 22:49:37
"1","7","326.8395772472719","294.54574329393523",18/12/21 22:49:37
"1","7","325.96532648352127","294.8611463901772",18/12/21 22:49:37
"1","7","325.96532648352127","294.8611463901772",18/12/21 22:49:37
"1","7","325.9186151247557","294.69295268205394",18/12/21 22:49:37
"1","7","326.4077942930775","295.36727543616314",18/12/21 22:49:37
"1","7","326.4077942930775","295.36727543616314",18/12/21 22:49:37
"1","7","327.1450434109053","294.284687507157",18/12/21 22:49:37
"1","7","327.1450434109053","294.284687507157",18/12/21 22:49:37
"1","7","327.7639087891975","295.5461763862763",18/12/21 22:49:37
"1","7","327.0272423318648","295.77244614413746",18/12/21 22:49:37
"1","7","327.0272423318648","295.77244614413746",18/12/21 22:49:37
"1","7","326.92560323206607","295.187833104358",18/12/21 22:49:37
"1","7","326.92560323206607","295.187833104358",18/12/21 22:49:37
"1","7","326.8697480876211","295.10210495415197",18/12/21 22:49:37
"1","7","328.30089309332647","294.3815655151527",18/12/21 22:49:37
"1","7","327.95182632786","294.18503652198524",18/12/21 22:49:37
"1","7","327.95182632786","294.18503652198524",18/12/21 22:49:37
"1","7","328.34707746581535","293.6942045829457",18/12/21 22:49:37
"1","7","329.0802927372676","291.79973845677443",18/12/21 22:49:37
"1","7","329.0802927372676","291.79973845677443",18/12/21 22:49:37
"1","7","327.8971606177555","293.0306789605765",18/12/21 22:49:37
"1","7","329.987073947839","293.1959188216658",18/12/21 22:49:37
"1","7","329.987073947839","293.1959188216658",18/12/21 22:49:37
"1","7","331.4806141994401","294.39340992874435",18/12/21 22:49:37
"1","7","331.4806141994401","294.39340992874435",18/12/21 22:49:37
"1","7","331.3357496710125","295.85414925023485",18/12/21 22:49:37
"1","7","331.0911518516038","295.88453216874666",18/12/21 22:49:37
"1","7","331.0008282039285","296.2147196183426",18/12/21 22:49:37
"1","7","331.0008282039285","296.2147196183426",18/12/21 22:49:38
"1","7","331.1485603307419","295.8869596053362",18/12/21 22:49:38
"1","7","331.1485603307419","295.8869596053362",18/12/21 22:49:38
"1","7","330.354763402651","295.2680946363589",18/12/21 22:49:38
"1","7","330.354763402651","295.2680946363589",18/12/21 22:49:38
"1","7","330.354763402651","295.2680946363589",18/12/21 22:49:38
"1","7","328.90319967795256","294.06745144331103",18/12/21 22:49:38
"1","7","328.90319967795256","294.06745144331103",18/12/21 22:49:38
"1","7","325.9012546233894","291.58442928290697",18/12/21 22:49:38
"1","7","325.9012546233894","291.58442928290697",18/12/21 22:49:38
"1","7","324.6862415974488","290.5794461090797",18/12/21 22:49:38
"1","7","323.2806072191268","289.41679281351253",18/12/21 22:49:38
"1","88","319.65973574129595","287.14775295886693",18/12/21 22:49:38
"1","88","319.65973574129595","287.14775295886693",18/12/21 22:49:38
"1","88","316.9166666666667","285.88921319440755",18/12/21 22:49:38
"1","89","315.6230309849421","285.88921319440755",18/12/21 22:49:38
"1","89","315.6230309849421","285.88921319440755",18/12/21 22:49:38
"1","89","312.4726445752634","286.6864411538421",18/12/21 22:49:38
"1","89","312.4726445752634","286.6864411538421",18/12/21 22:49:38
"1","89","308.4632992619348","287.7010348471724",18/12/21 22:49:38
"1","89","308.4632992619348","287.7010348471724",18/12/21 22:49:38
"1","89","304.4401851677504","288.71911282961463",18/12/21 22:49:38
"1","89","304.4401851677504","288.71911282961463",18/12/21 22:49:38
"1","17","305.19273889364564","290.4351778188849",18/12/21 22:49:38
"1","17","305.9727025756115","293.036994294935",18/12/21 22:49:38
"1","17","307.1482151163663","293.036994294935",18/12/21 22:49:38
"1","17","307.9843367395758","294.1494777861541",18/12/21 22:49:38
"1","17","308.6569994139404","295.0444745182294",18/12/21 22:49:38
"1","17","308.23054795785316","294.0848451101557",18/12/21 22:49:38
"1","17","308.23054795785316","294.4411204157127",18/12/21 22:49:38
"1","17","306.7650126841213","293.19218051264755",18/12/21 22:49:38
"1","17","306.7650126841213","293.19218051264755",18/12/21 22:49:38
"1","17","306.1743710155711","291.2659946266171",18/12/21 22:49:38
"1","17","307.20911543120747","289.99505423851537",18/12/21 22:49:38
"1","17","307.20911543120747","289.99505423851537",18/12/21 22:49:38
"1","17","306.93334543465164","290.588014607935",18/12/21 22:49:38
"1","17","305.94124443725303","290.0103737807632",18/12/21 22:49:38
"1","17","305.94124443725303","290.0103737807632",18/12/21 22:49:38
"1","17","304.0928650254159","289.2797648219907",18/12/21 22:49:38
"1","17","304.0928650254159","289.2797648219907",18/12/21 22:49:38
"1","17","302.7345537935166","290.616694289839",18/12/21 22:49:38
"1","17","306.6733598969533","291.57258554078385",18/12/21 22:49:38
"1","17","306.6733598969533","291.57258554078385",18/12/21 22:49:38
"1","17","309.7039664650748","291.7848913074733",18/12/21 22:49:38
"1","17","310.12922979093577","290.2219845486891",18/12/21 22:49:38
"1","17","310.12922979093577","290.2219845486891",18/12/21 22:49:38
"1","17","308.88282886214614","290.0883005781997",18/12/21 22:49:38
"1","17","308.88282886214614","290.0883005781997",18/12/21 22:49:38
"1","17","308.37648344330904","290.1097318094994",18/12/21 22:49:38
"1","17","309.0839029534328","289.2775724254858",18/12/21 22:49:39
"1","17","308.61706624956014","291.5475936295696",18/12/21 22:49:39
"1","17","308.61706624956014","291.5475936295696",18/12/21 22:49:39
"1","17","307.3196050430208","293.4588534524772",18/12/21 22:49:39
"1","17","307.12937392021274","292.84055266897826",18/12/21 22:49:39
"1","17","308.6882523499236","291.64280688342717",18/12/21 22:49:39
"1","17","308.6882523499236","291.64280688342717",18/12/21 22:49:39
"1","17","309.9888424947484","292.6462185561613",18/12/21 22:49:39
"1","17","309.9888424947484","292.6462185561613",18/12/21 22:49:39
"1","17","310.83469069201846","294.9276123969194",18/12/21 22:49:39
"1","17","310.8562912034087","294.4857789014319",18/12/21 22:49:39
"1","17","310.8562912034087","294.4857789014319",18/12/21 22:49:39
"1","17","309.6423569564447","295.6554696439716",18/12/21 22:49:39
"1","17","310.04887897892496","295.4593206215039",18/12/21 22:49:39
"1","17","310.3208419105758","296.001075652051",18/12/21 22:49:39
"1","17","310.2798269072616","295.4808804739002",18/12/21 22:49:39
"1","17","309.99213457084886","293.4911408142439",18/12/21 22:49:39
"1","17","309.99213457084886","293.4911408142439",18/12/21 22:49:39
"1","17","307.74018616902663","292.6031565527141",18/12/21 22:49:39
"1","17","307.74018616902663","292.0599517484719",18/12/21 22:49:39
"1","17","306.9401621542346","292.1283593739028",18/12/21 22:49:39
"1","17","306.8413126763296","292.1283593739028",18/12/21 22:49:39
"1","17","307.0102294291151","293.2411798762052",18/12/21 22:49:39
"1","17","307.0102294291151","293.2411798762052",18/12/21 22:49:39
"1","17","307.6131514219513","291.9783578570543",18/12/21 22:49:39
"1","17","307.6131514219513","291.9783578570543",18/12/21 22:49:39
"1","17","308.9209362827423","290.9890128275785",18/12/21 22:49:39
"1","17","308.9209362827423","290.9890128275785",18/12/21 22:49:39
"1","17","307.98672813593","292.3102723747591",18/12/21 22:49:39
"1","17","306.96622712194454","292.29403870666295",18/12/21 22:49:39
"1","17","306.96622712194454","292.29403870666295",18/12/21 22:49:39
"1","17","306.73163025344195","295.6880022498645",18/12/21 22:49:39
"1","17","306.73163025344195","295.6880022498645",18/12/21 22:49:39
"1","17","306.96703276731455","296.01114108888095",18/12/21 22:49:39
"1","17","308.61463987958416","294.17469699764183",18/12/21 22:49:39
"1","17","308.7853289971693","293.55166124613265",18/12/21 22:49:39
"1","17","308.7853289971693","293.55166124613265",18/12/21 22:49:39
"1","17","306.64566969198836","291.7543292812701",18/12/21 22:49:39
"1","17","306.64566969198836","291.7543292812701",18/12/21 22:49:39
"1","17","304.26054298725006","291.36044726698645",18/12/21 22:49:39
"1","17","304.26054298725006","291.36044726698645",18/12/21 22:49:39
"1","17","305.33903438227526","293.4760387570319",18/12/21 22:49:39
"1","17","304.91353419969477","292.0835259333217",18/12/21 22:49:39
"1","17","304.91353419969477","292.0835259333217",18/12/21 22:49:39
"1","17","305.1043631789606","289.76734897575574",18/12/21 22:49:39
"1","17","306.54780106069495","289.55700115182674",18/12/21 22:49:39
"1","17","307.7148375406651","290.85428317731953",18/12/21 22:49:39
"1","17","307.39169774036765","291.38334499395927",18/12/21 22:49:39
"1","17","307.39169774036765","291.38334499395927",18/12/21 22:49:39
"1","17","306.9949587495604","293.41752567198114",18/12/21 22:49:39
"1","17","306.9949587495604","293.41752567198114",18/12/21 22:49:40
"1","17","305.5215527669118","291.61232870967797",18/12/21 22:49:40
"1","17","307.30149212617465","291.945208686547",18/12/21 22:49:40
"1","17","307.30149212617465","291.945208686547",18/12/21 22:49:40
"1","17","307.08339677075617","292.6230866710073",18/12/21 22:49:40
"1","17","306.7878048733616","291.11526402324415",18/12/21 22:49:40
"1","17","306.7878048733616","291.11526402324415",18/12/21 22:49:40
"1","17","305.0564863495639","293.05370434478175",18/12/21 22:49:40
"1","17","305.37706406562324","293.13767264732684",18/12/21 22:49:40
"1","17","304.2092359717078","293.9971867895032",18/12/21 22:49:40
"1","17","305.1966075369391","293.1921342099865",18/12/21 22:49:40
"1","17","305.1966075369391","293.1921342099865",18/12/21 22:49:40
"1","17","303.98295064083084","293.1814487313306",18/12/21 22:49:40
"1","17","304.68229271312657","295.08443025510263",18/12/21 22:49:40
"1","17","304.68229271312657","295.08443025510263",18/12/21 22:49:40
"1","17","303.3932593573551","293.3066447693903",18/12/21 22:49:40
"1","17","303.3932593573551","293.3066447693903",18/12/21 22:49:40
"1","17","302.92886448718355","291.8810931068378",18/12/21 22:49:40
"1","17","302.9107681688826","292.1647890497532",18/12/21 22:49:40
"1","17","302.9107681688826","292.1647890497532",18/12/21 22:49:40
"1","17","302.3759678849069","290.727718375777",18/12/21 22:49:40
"1","17","305.73886687646365","289.72946691632194",18/12/21 22:49:40
"1","17","306.4567651761244","289.9011808611328",18/12/21 22:49:40
"1","17","305.9087065774254","289.25054312130214",18/12/21 22:49:40
"1","17","305.9087065774254","289.25054312130214",18/12/21 22:49:40
"1","17","303.75848044742537","290.7438315541845",18/12/21 22:49:40
"1","17","304.7245904812719","291.92154257864433",18/12/21 22:49:40
"1","17","303.2254764850626","290.68191834040044",18/12/21 22:49:40
"1","17","304.60076932285665","289.83258953617207",18/12/21 22:49:40
"1","17","304.60076932285665","289.83258953617207",18/12/21 22:49:40
"1","17","305.3307381743186","290.43400193870457",18/12/21 22:49:40
"1","17","305.84943309410676","291.4514112015139",18/12/21 22:49:40
"1","17","305.84943309410676","291.4514112015139",18/12/21 22:49:40
"1","17","305.35240678084483","293.6880826176367",18/12/21 22:49:40
"1","17","305.35240678084483","293.6880826176367",18/12/21 22:49:40
"1","17","305.15597092850635","294.56481458896275",18/12/21 22:49:40
"1","17","305.12257038349964","294.6470439222703",18/12/21 22:49:40
"1","17","304.33184393093643","295.54770074788473",18/12/21 22:49:40
"1","17","304.33184393093643","295.54770074788473",18/12/21 22:49:40
"1","17","304.4713236148169","294.89593480550246",18/12/21 22:49:40
"1","17","306.1133751066448","294.48321544045893",18/12/21 22:49:40
"1","17","304.3784972943992","294.0027601873421",18/12/21 22:49:40
"1","17","304.3784972943992","294.0027601873421",18/12/21 22:49:40
"1","17","303.91315698452985","295.5186345542414",18/12/21 22:49:40
"1","17","303.91315698452985","295.5186345542414",18/12/21 22:49:40
"1","17","304.8047624711436","295.0042794387631",18/12/21 22:49:40
"1","17","304.8047624711436","295.0042794387631",18/12/21 22:49:40
"1","17","303.25812197610395","293.4953930317705",18/12/21 22:49:40
"1","17","304.98070429416657","295.05395091166736",18/12/21 22:49:40
"1","17","304.98070429416657","295.05395091166736",18/12/21 22:49:40
"1","17","302.7880633457231","295.61914745586313",18/12/21 22:49:41
"1","17","303.03651705217163","296.50033882620187",18/12/21 22:49:41
"1","17","304.72071625994124","296.0443700279526",18/12/21 22:49:41
"1","17","307.00541915091713","295.48724056046734",18/12/21 22:49:41
"1","17","307.08371433310134","295.9860740360394",18/12/21 22:49:41
"1","17","307.08371433310134","295.9860740360394",18/12/21 22:49:41
"1","17","307.09294051663653","295.1607628714498",18/12/21 22:49:41
"1","17","307.09294051663653","295.1607628714498",18/12/21 22:49:41
"1","17","307.67474729605203","295.46350390376426",18/12/21 22:49:41
"1","17","307.67474729605203","295.46350390376426",18/12/21 22:49:41
"1","17","309.32557180230197","294.80380822161885",18/12/21 22:49:41
"1","17","309.54127941051365","294.40949663931457",18/12/21 22:49:41
"1","17","309.54127941051365","294.40949663931457",18/12/21 22:49:41
"1","17","308.6598619627552","294.75473769311856",18/12/21 22:49:41
"1","17","308.6598619627552","294.75473769311856",18/12/21 22:49:41
"1","17","309.3438792304228","295.4911694053849",18/12/21 22:49:41
"1","17","309.3438792304228","295.4911694053849",18/12/21 22:49:41
"1","17","309.42646482572076","294.63636235863794",18/12/21 22:49:41
"1","17","309.42646482572076","294.63636235863794",18/12/21 22:49:41
"1","17","309.16117346067404","294.2866579879032",18/12/21 22:49:41
"1","17","309.16117346067404","294.2866579879032",18/12/21 22:49:41
"1","17","310.01399163531187","294.83677247292286",18/12/21 22:49:41
"1","17","310.01399163531187","294.83677247292286",18/12/21 22:49:41
"1","17","308.04925482249956","294.04420719878544",18/12/21 22:49:41
"1","17","307.01371922055694","294.04420719878544",18/12/21 22:49:41
"1","17","307.20696138697394","294.64292131708004",18/12/21 22:49:41
"1","17","307.3195914662128","293.29958036736997",18/12/21 22:49:41
"1","17","307.3195914662128","293.29958036736997",18/12/21 22:49:41
"1","17","308.63601578812575","295.1742007070084",18/12/21 22:49:41
"1","17","307.87874446879334","294.19173849647785",18/12/21 22:49:41
"1","17","307.87874446879334","294.19173849647785",18/12/21 22:49:41
"1","17","307.71834697328285","294.0332132883417",18/12/21 22:49:41
"1","17","307.7350966083233","294.1135923758703",18/12/21 22:49:41
"1","17","307.7350966083233","294.1135923758703",18/12/21 22:49:41
"1","17","306.59692829281533","295.13844964598945",18/12/21 22:49:41
"1","17","306.59692829281533","295.13844964598945",18/12/21 22:49:41
