floorId	partitionId	location_x	location_y	timeStamp
2	33	349.0786814122128	293.5806687492591	18/12/03 04:11:01
2	33	349.0023710481561	293.37686462365036	18/12/03 04:11:01
2	33	348.8997696291788	293.1028442760954	18/12/03 04:11:01
2	33	348.83819566068155	292.9383970353442	18/12/03 04:11:01
2	33	348.7815097855231	292.78700455591064	18/12/03 04:11:01
2	33	348.68190561558674	292.52098904135	18/12/03 04:11:01
2	33	348.6019301298676	292.3073963775147	18/12/03 04:11:01
2	33	348.54915829150906	292.1664572206076	18/12/03 04:11:01
2	33	348.44916822466956	291.8994110808902	18/12/03 04:11:01
2	33	348.3858284996744	291.7302479871414	18/12/03 04:11:01
2	33	348.3257727428269	291.56985547475637	18/12/03 04:11:02
2	33	348.25040459103536	291.36856774058685	18/12/03 04:11:02
2	33	348.1891556873304	291.20498865905085	18/12/03 04:11:02
2	33	348.11646124231333	291.01084166491125	18/12/03 04:11:02
2	33	348.0312106619185	290.7831606649611	18/12/03 04:11:02
2	33	347.9667191896343	290.61092156899343	18/12/03 04:11:02
2	33	347.8887184284731	290.40260285473005	18/12/03 04:11:02
2	33	347.7906674431709	290.1407354718181	18/12/03 04:11:02
2	33	347.73115820567534	289.98180256325	18/12/03 04:11:02
2	33	347.6364079890345	289.7287506312823	18/12/03 04:11:02
2	33	347.57460542393335	289.56369287148107	18/12/03 04:11:03
2	33	347.5170975264807	289.4101049951709	18/12/03 04:11:03
2	33	347.43776296944793	289.1982240766812	18/12/03 04:11:03
2	33	347.38051002232515	289.0453171030202	18/12/03 04:11:03
2	33	347.3244547336851	288.8956087478283	18/12/03 04:11:03
2	56	347.1962199147035	288.78129467254445	18/12/03 04:11:03
2	56	346.94540619598234	288.65689152481053	18/12/03 04:11:03
2	56	346.6826610157724	288.52657039390635	18/12/03 04:11:03
2	56	346.5002652593953	288.4361024309005	18/12/03 04:11:03
2	56	346.2790844463781	288.3263971504319	18/12/03 04:11:03
2	56	346.0879061744656	288.2315730757142	18/12/03 04:11:04
2	56	345.918869854001	288.14773136859236	18/12/03 04:11:04
2	56	345.75692249960196	288.0674057757295	18/12/03 04:11:04
2	56	345.51046921174554	287.94516539376383	18/12/03 04:11:04
2	56	345.28553141922055	287.8335966583011	18/12/03 04:11:04
2	56	345.1334768344009	287.7581778611341	18/12/03 04:11:04
2	56	344.8983109695524	287.641536020425	18/12/03 04:11:04
2	56	344.7638448719051	287.57484108086544	18/12/03 04:11:04
2	56	344.55227489688576	287.46990275854165	18/12/03 04:11:04
2	56	344.38862398054107	287.3887322020561	18/12/03 04:11:04
2	56	344.2387734438851	287.3144066087645	18/12/03 04:11:05
2	56	344.02388872108446	287.2078241775776	18/12/03 04:11:05
2	56	343.842844487897	287.1180265676126	18/12/03 04:11:05
2	56	343.60502802301744	287.0000700341151	18/12/03 04:11:05
2	56	343.3432200101305	286.87021373649645	18/12/03 04:11:05
2	56	343.14515949182	286.77197608009845	18/12/03 04:11:05
2	56	342.92125040043214	286.6609175785264	18/12/03 04:11:05
2	56	342.7646036505141	286.5832210758333	18/12/03 04:11:05
2	56	342.5004967282225	286.45222452333644	18/12/03 04:11:05
2	56	342.2849287416944	286.345303194585	18/12/03 04:11:05
2	56	342.0973431079684	286.2522610618653	18/12/03 04:11:06
2	56	341.94928065374864	286.1788223542058	18/12/03 04:11:06
2	56	341.7481192921544	286.079046685186	18/12/03 04:11:06
2	56	341.5498086743288	285.9806849798839	18/12/03 04:11:06
2	56	341.3206799378228	285.86703754383865	18/12/03 04:11:06
2	56	341.16916369663227	285.79188576413134	18/12/03 04:11:06
2	56	340.92661882052914	285.6715839472778	18/12/03 04:11:06
2	56	340.75796323752024	285.58793108524065	18/12/03 04:11:06
2	56	340.75796323752024	285.58793108524065	18/12/03 04:11:06
2	56	340.50828187099705	285.4640895821348	18/12/03 04:11:06
2	56	340.29698971695177	285.35928905850824	18/12/03 04:11:07
2	56	340.15072574413006	285.286742394347	18/12/03 04:11:07
2	56	339.88819861840295	285.1565294180692	18/12/03 04:11:07
2	56	339.72545234325594	285.07580756197024	18/12/03 04:11:07
2	56	339.56702819663633	284.99722947374994	18/12/03 04:11:07
2	56	339.42465381361956	284.92661203904873	18/12/03 04:11:07
2	56	339.23437037204957	284.83223179855133	18/12/03 04:11:07
2	56	338.9988033951852	284.71539100701284	18/12/03 04:11:07
2	56	338.81111062031766	284.6222957324821	18/12/03 04:11:07
2	56	338.5977974161442	284.5164927716724	18/12/03 04:11:07
2	56	338.39039562847523	284.4136218626838	18/12/03 04:11:08
2	56	338.1746043538173	284.30658978342655	18/12/03 04:11:08
2	56	337.9691116943883	284.20466579856827	18/12/03 04:11:08
2	56	337.81177887857626	284.1266290084411	18/12/03 04:11:08
2	56	337.5499309818291	283.9967529285004	18/12/03 04:11:08
2	56	337.31978557268485	283.882601224678	18/12/03 04:11:08
2	56	337.06001302948397	283.7537545163169	18/12/03 04:11:08
2	56	336.8266116012319	283.6379878329465	18/12/03 04:11:08
2	56	336.6174493638329	283.53424374409775	18/12/03 04:11:08
2	56	336.47757553652673	283.46486658047525	18/12/03 04:11:08
2	56	336.2647629697408	283.3593119348981	18/12/03 04:11:09
2	56	336.0016464936563	283.22880664191626	18/12/03 04:11:09
2	56	335.7656109891677	283.1117334615294	18/12/03 04:11:09
2	56	335.56565780495407	283.0125570462901	18/12/03 04:11:09
2	56	335.33982069031924	282.9005422486987	18/12/03 04:11:09
2	56	335.1532781380729	282.80801748249337	18/12/03 04:11:09
2	56	335.01050453080416	282.7372020332902	18/12/03 04:11:09
2	56	334.8272037652752	282.6462851873932	18/12/03 04:11:09
2	56	334.6298755057529	282.54841073002063	18/12/03 04:11:09
2	56	334.48458835478937	282.4763485677222	18/12/03 04:11:09
2	56	334.48458835478937	282.4763485677222	18/12/03 04:11:10
2	56	334.2682987257301	282.3690693055895	18/12/03 04:11:10
2	56	334.0735562571783	282.2724773958294	18/12/03 04:11:10
2	56	333.8471273622383	282.16016907628426	18/12/03 04:11:10
2	56	333.6071297974484	282.04113072120316	18/12/03 04:11:10
2	56	333.4302060508017	281.95337686505866	18/12/03 04:11:10
2	56	333.1657452058303	281.82220476755714	18/12/03 04:11:10
2	56	333.1657452058303	281.82220476755714	18/12/03 04:11:10
2	56	333.1657452058303	281.82220476755714	18/12/03 04:11:10
2	56	333.1657452058303	281.82220476755714	18/12/03 04:11:10
2	56	332.980718420145	281.73043181880576	18/12/03 04:11:11
2	56	332.71445735639753	281.59836681606964	18/12/03 04:11:11
2	56	332.4573109956984	281.4708226894469	18/12/03 04:11:11
2	56	332.2625241525555	281.3742087699704	18/12/03 04:11:11
2	56	332.0146942620672	281.2512855956062	18/12/03 04:11:11
2	56	331.8091376417894	281.1493298862834	18/12/03 04:11:11
2	56	331.6456730986865	281.0682517705863	18/12/03 04:11:11
2	56	331.471932007051	280.9820765055315	18/12/03 04:11:11
2	56	331.288051169287	280.8908719448622	18/12/03 04:11:11
2	56	331.10238563361844	280.7987821772824	18/12/03 04:11:11
2	56	330.9504542469096	280.72342448615404	18/12/03 04:11:12
2	56	330.79843466361285	280.64802304967867	18/12/03 04:11:12
2	56	330.53280607053694	280.51627175124383	18/12/03 04:11:12
3	12	330.6610366438731	280.5937325812444	18/12/03 04:11:12
3	12	330.8370090632688	280.69615864217735	18/12/03 04:11:12
3	12	331.07612449672814	280.8353375660202	18/12/03 04:11:12
3	12	331.23129277954223	280.9256544238832	18/12/03 04:11:12
3	12	331.4852805682696	281.07348991318173	18/12/03 04:11:12
3	12	331.627914179757	281.15651087198574	18/12/03 04:11:12
3	12	331.8366408553567	281.27800179236243	18/12/03 04:11:12
3	12	332.0245478827138	281.3873744809911	18/12/03 04:11:13
3	12	332.21504883761946	281.4982569845218	18/12/03 04:11:13
3	12	332.44232440384036	281.63054442521417	18/12/03 04:11:13
3	12	332.6090411699231	281.72758316401183	18/12/03 04:11:13
3	12	332.7575003805643	281.8139949563109	18/12/03 04:11:13
3	12	332.9979253138555	281.95393608431067	18/12/03 04:11:13
3	12	333.1462672039723	282.0402795893223	18/12/03 04:11:13
3	12	333.3849174208084	282.1791877303552	18/12/03 04:11:13
3	12	333.6437827268646	282.32986221504194	18/12/03 04:11:13
3	12	333.8294754559114	282.437946054802	18/12/03 04:11:13
3	12	334.0017039576857	282.53819294052255	18/12/03 04:11:14
3	12	334.1692090565066	282.63569053427796	18/12/03 04:11:14
3	12	334.41236166737315	282.7772193273817	18/12/03 04:11:14
3	12	334.5556320367155	282.8606109158507	18/12/03 04:11:14
3	12	334.75549654389727	282.976943544914	18/12/03 04:11:14
3	12	334.95991394290104	283.0959262186649	18/12/03 04:11:14
3	12	335.1637707838079	283.214582615389	18/12/03 04:11:14
3	12	335.3070017126389	283.29795124721386	18/12/03 04:11:14
3	12	335.48945997822983	283.4041524433633	18/12/03 04:11:14
3	12	335.71793726543905	283.5371393547318	18/12/03 04:11:14
3	12	335.96118272137994	283.6787221890045	18/12/03 04:11:15
3	12	336.1079583258194	283.76415402574014	18/12/03 04:11:15
3	12	336.25012745094847	283.8469046267903	18/12/03 04:11:15
3	12	336.40850140921845	283.93908737199354	18/12/03 04:11:15
3	12	336.5872431312609	284.0431253262141	18/12/03 04:11:15
3	12	336.73584176462583	284.12961827055085	18/12/03 04:11:15
3	12	336.92594036142015	284.2402665785379	18/12/03 04:11:15
3	12	337.1585270563478	284.37564540135946	18/12/03 04:11:15
3	12	337.323865540202	284.4718819006925	18/12/03 04:11:15
3	12	337.57070661070327	284.61555758927335	18/12/03 04:11:15
3	12	337.7521023664188	284.7211403436146	18/12/03 04:11:16
3	12	337.8957160158816	284.8047317408415	18/12/03 04:11:16
3	12	338.1152350463703	284.9325044319824	18/12/03 04:11:16
3	12	338.32572062992097	285.05501913786816	18/12/03 04:11:16
3	12	338.53173102771353	285.1749290284611	18/12/03 04:11:16
3	12	338.6688579442976	285.25474477437075	18/12/03 04:11:16
3	12	338.80315396809715	285.332912777993	18/12/03 04:11:16
3	12	339.06044980882575	285.4826737436645	18/12/03 04:11:16
3	12	339.2598078031337	285.5987115531268	18/12/03 04:11:16
3	12	339.44493600563817	285.7064668059968	18/12/03 04:11:16
3	12	339.6316239676332	285.8151299285271	18/12/03 04:11:17
3	12	339.8089643265894	285.91835220889743	18/12/03 04:11:17
3	12	339.97034004909193	286.01228215339046	18/12/03 04:11:17
3	12	340.17202790620206	286.129676076897	18/12/03 04:11:17
3	12	340.3793190024414	286.2503314075856	18/12/03 04:11:17
3	12	340.6234867167481	286.3924510492278	18/12/03 04:11:17
3	12	340.7612966055483	286.47266432421645	18/12/03 04:11:17
3	12	340.94217608584336	286.57794657659355	18/12/03 04:11:17
3	12	341.1517219623758	286.69991431899126	18/12/03 04:11:17
3	12	341.29876607210326	286.78550244123505	18/12/03 04:11:17
3	30	341.1807012141688	286.7167819089246	18/12/03 04:11:18
3	30	340.98783045491547	286.6045200430748	18/12/03 04:11:18
3	30	340.8504891155494	286.52457949078354	18/12/03 04:11:18
3	30	340.68981328095083	286.43105692127205	18/12/03 04:11:18
3	30	340.55145521566885	286.3505245760682	18/12/03 04:11:18
3	30	340.3844380478836	286.2533109862161	18/12/03 04:11:18
3	30	340.16976710063057	286.1283601581297	18/12/03 04:11:18
3	30	339.9939295920298	286.0260126230325	18/12/03 04:11:18
3	30	339.8374904567755	285.9349560560155	18/12/03 04:11:18
3	30	339.6107665704661	285.8029897247357	18/12/03 04:11:18
3	30	339.4628096977334	285.71687032196786	18/12/03 04:11:19
3	30	339.21554830503555	285.5729499817134	18/12/03 04:11:19
3	30	339.0181848972327	285.4580731362227	18/12/03 04:11:19
3	30	338.8172442757567	285.3411141467977	18/12/03 04:11:19
3	30	338.60451744198576	285.2172949044828	18/12/03 04:11:19
3	30	338.44097118886936	285.1221015864357	18/12/03 04:11:19
3	30	338.2036985267257	284.9839952613996	18/12/03 04:11:19
3	30	337.9780200421441	284.8526374140029	18/12/03 04:11:19
3	30	337.7337469208039	284.71045641940964	18/12/03 04:11:19
3	30	337.52189354470903	284.5871455796584	18/12/03 04:11:19
3	30	337.3322947479805	284.47678818403233	18/12/03 04:11:20
3	30	337.1504400925729	284.3709383236981	18/12/03 04:11:20
3	30	337.1504400925729	284.3709383236981	18/12/03 04:11:20
3	30	337.0096397573811	284.2889844370535	18/12/03 04:11:20
3	30	336.7557594510838	284.14121150870614	18/12/03 04:11:20
3	30	336.51562006853425	284.00143658764813	18/12/03 04:11:20
3	30	336.3669964126917	283.9149290787915	18/12/03 04:11:20
3	30	336.1134939426982	283.7673760728865	18/12/03 04:11:20
3	30	335.92578089364986	283.65811629078115	18/12/03 04:11:20
3	30	335.68140594485016	283.51587602675454	18/12/03 04:11:20
3	30	335.45886052295555	283.38634180189365	18/12/03 04:11:21
3	30	335.27699624481085	283.2804863405734	18/12/03 04:11:21
3	30	335.06806278210377	283.1588750582165	18/12/03 04:11:21
3	30	334.85299630036445	283.0336940063283	18/12/03 04:11:21
3	30	334.59594724661105	282.8840766848587	18/12/03 04:11:21
3	30	334.4445326779507	282.7959447043529	18/12/03 04:11:21
3	30	334.19071868625565	282.64821037491504	18/12/03 04:11:21
3	30	334.030471702658	282.55493742133143	18/12/03 04:11:21
3	30	333.8890479166773	282.472620650499	18/12/03 04:11:21
3	30	333.7582779158916	282.39650499490546	18/12/03 04:11:21
3	30	333.5477118719031	282.27394345642097	18/12/03 04:11:22
3	30	333.310003348697	282.1355834351984	18/12/03 04:11:22
3	30	333.08171258861546	282.00270509333757	18/12/03 04:11:22
3	30	332.9240371970471	281.91092895410014	18/12/03 04:11:22
3	30	332.73048222706825	281.79826883828764	18/12/03 04:11:22
3	30	332.5584428710218	281.69813204625063	18/12/03 04:11:22
3	30	332.40357431524944	281.6079896467507	18/12/03 04:11:22
3	30	332.22190967106536	281.50225038386816	18/12/03 04:11:22
3	30	332.0840869378821	281.4220296327104	18/12/03 04:11:22
3	30	331.9464983283131	281.34194515495085	18/12/03 04:11:22
3	30	331.7331602449855	281.2177701302665	18/12/03 04:11:23
3	30	331.5644733644513	281.11958467163885	18/12/03 04:11:23
3	30	331.40703783565993	281.02794814632216	18/12/03 04:11:23
3	30	331.17858226122826	280.89497387303794	18/12/03 04:11:23
3	30	330.9837561438436	280.7815738763845	18/12/03 04:11:23
3	30	330.7733420710467	280.6591007938671	18/12/03 04:11:23
3	30	330.5495096301262	280.5288174499702	18/12/03 04:11:23
1	30	330.5293369886226	280.6407980292156	18/12/03 04:11:23
1	30	330.5681488042894	280.82706892519803	18/12/03 04:11:23
1	30	330.6168547932503	281.06082527098044	18/12/03 04:11:23
1	30	330.6497313121065	281.2186106906758	18/12/03 04:11:24
1	30	330.68424171928586	281.3842376873927	18/12/03 04:11:24
1	30	330.7333626258871	281.6199853618286	18/12/03 04:11:24
1	30	330.7861631893635	281.87339294140617	18/12/03 04:11:24
1	30	330.82158668350826	282.043402148134	18/12/03 04:11:24
1	30	330.87809465852274	282.3146028367715	18/12/03 04:11:24
1	30	330.91344336185375	282.4842530973472	18/12/03 04:11:24
1	30	330.96161954577514	282.7154667313882	18/12/03 04:11:24
1	30	331.0126458924896	282.9603592507905	18/12/03 04:11:24
1	30	331.05241780837684	283.1512379891327	18/12/03 04:11:24
1	30	331.09766356923154	283.36838754189176	18/12/03 04:11:25
1	30	331.15314591893906	283.6346659113439	18/12/03 04:11:25
1	30	331.20467682483445	283.88197997916103	18/12/03 04:11:25
1	30	331.2610383564219	284.15247783676887	18/12/03 04:11:25
1	30	331.30400586866	284.3586933117528	18/12/03 04:11:25
1	30	331.34856723179274	284.57255821073596	18/12/03 04:11:25
1	30	331.39979609822404	284.8184226900544	18/12/03 04:11:25
1	30	331.44326434094387	285.0270413382442	18/12/03 04:11:25
1	30	331.4985021863941	285.2921462499156	18/12/03 04:11:25
1	30	331.5540157057741	285.5585742130602	18/12/03 04:11:25
1	30	331.58919012046675	285.72738800411565	18/12/03 04:11:26
1	30	331.62365082885145	285.8927764796799	18/12/03 04:11:26
1	30	331.6726017015004	286.1277081042586	18/12/03 04:11:26
1	30	331.72163326867206	286.36302700886483	18/12/03 04:11:26
1	30	331.78093572314066	286.6476393398791	18/12/03 04:11:26
1	30	331.83380996547754	286.90140052897266	18/12/03 04:11:26
1	30	331.86664160568415	287.05897056100525	18/12/03 04:11:26
1	30	331.8981322017306	287.2101044731868	18/12/03 04:11:26
1	30	331.93984650400404	287.41030537402725	18/12/03 04:11:26
1	30	331.9888170241834	287.64533129368135	18/12/03 04:11:26
1	15	332.0172175799723	287.8182315718696	18/12/03 04:11:27
1	15	331.81105870021116	287.79825957580505	18/12/03 04:11:27
1	15	331.5305413077898	287.7710839709319	18/12/03 04:11:27
1	15	331.332953592554	287.7519423211729	18/12/03 04:11:27
1	15	331.1370250011721	287.7329614018909	18/12/03 04:11:27
1	15	330.8549041204679	287.7056304563324	18/12/03 04:11:27
1	15	330.68233055321247	287.6889120951827	18/12/03 04:11:27
1	15	330.4529920389937	287.66669453216167	18/12/03 04:11:27
1	15	330.18536102071323	287.64076731694763	18/12/03 04:11:27
1	15	329.9013152200067	287.6132498914531	18/12/03 04:11:27
1	15	329.7022120994541	287.5939614341976	18/12/03 04:11:28
1	15	329.4389112055051	287.56845370722584	18/12/03 04:11:28
1	15	329.24498910319096	287.5496671700234	18/12/03 04:11:28
1	15	329.0375464214159	287.5295708034306	18/12/03 04:11:28
1	15	328.7787996710696	287.5045042669534	18/12/03 04:11:28
1	15	328.6027713609564	287.48745122164723	18/12/03 04:11:28
1	15	328.39444601197005	287.4672693451502	18/12/03 04:11:28
1	15	328.17436384407154	287.4459485065997	18/12/03 04:11:28
1	15	328.0073746839272	287.4297711444938	18/12/03 04:11:28
1	15	327.7673444159783	287.4065177994407	18/12/03 04:11:28
1	15	327.5210127101485	287.3826539917545	18/12/03 04:11:29
1	15	327.26704090038186	287.35805003585875	18/12/03 04:11:29
1	15	327.0279402294339	287.33488674711396	18/12/03 04:11:29
1	15	326.73555005261176	287.3065609458311	18/12/03 04:11:29
1	15	326.46898085923635	287.28073659673106	18/12/03 04:11:29
1	15	326.202578991629	287.2549284576026	18/12/03 04:11:29
1	15	326.04159491997564	287.2393328487729	18/12/03 04:11:29
1	15	325.8089140447638	287.21679148878195	18/12/03 04:11:29
1	15	325.5284957279987	287.1896254820334	18/12/03 04:11:29
1	15	325.3768260897437	287.1749322249598	18/12/03 04:11:29
1	15	325.10942474744695	287.1490272600017	18/12/03 04:11:30
1	15	324.9447868240132	287.13307767799625	18/12/03 04:11:30
1	15	324.72357436549896	287.1116473405982	18/12/03 04:11:30
1	15	324.55401033589123	287.09522053358444	18/12/03 04:11:30
1	15	324.31786407504904	287.07234345840016	18/12/03 04:11:30
1	15	324.06471840063534	287.0478195357876	18/12/03 04:11:30
1	15	323.7998392608323	287.0221589135342	18/12/03 04:11:30
1	15	323.54613376938715	286.99758075768386	18/12/03 04:11:30
1	15	323.3788648171739	286.9813762902401	18/12/03 04:11:30
1	15	323.21988937792827	286.96597527112976	18/12/03 04:11:30
1	15	322.9313509320815	286.93802261291	18/12/03 04:11:31
1	15	322.7310618610671	286.9186192646637	18/12/03 04:11:31
1	15	322.4550599429533	286.89188110413056	18/12/03 04:11:31
1	15	322.2559529556312	286.8725922722751	18/12/03 04:11:31
1	15	322.2559529556312	286.8725922722751	18/12/03 04:11:31
1	15	322.0203591414627	286.8497687163125	18/12/03 04:11:31
1	15	321.7747551709827	286.8259754092401	18/12/03 04:11:31
1	15	321.5179228009169	286.80109433164523	18/12/03 04:11:31
1	15	321.3573674782115	286.78554025860734	18/12/03 04:11:31
1	15	321.16981542118685	286.76737083049863	18/12/03 04:11:31
1	15	320.8810481166066	286.7393960011955	18/12/03 04:11:32
1	15	320.69699180666106	286.7215652295976	18/12/03 04:11:32
1	15	320.4729389826406	286.69985972690586	18/12/03 04:11:32
1	15	320.2130631062155	286.6746838043977	18/12/03 04:11:32
1	15	319.9561112396158	286.6497911503706	18/12/03 04:11:32
1	15	319.8048007120156	286.6351326827593	18/12/03 04:11:32
1	15	319.51978164729303	286.60752097063926	18/12/03 04:11:32
1	15	319.2290947290967	286.57936017546535	18/12/03 04:11:32
1	15	318.95744436271934	286.55304357899126	18/12/03 04:11:32
1	15	318.6984759406121	286.5279555676809	18/12/03 04:11:32
1	15	318.47263526105183	286.5060768634087	18/12/03 04:11:33
1	15	318.3093378387627	286.49025714475727	18/12/03 04:11:33
1	15	318.021786818506	286.46240014508993	18/12/03 04:11:33
1	15	317.8417197753773	286.44495584057637	18/12/03 04:11:33
1	15	317.60270568938665	286.4218009398983	18/12/03 04:11:33
1	15	317.4087510527742	286.40301125087973	18/12/03 04:11:33
1	15	317.11579062278474	286.37463020534045	18/12/03 04:11:33
1	15	316.8490358583393	286.34878787872384	18/12/03 04:11:33
1	15	316.63840231867914	286.3283823922853	18/12/03 04:11:33
1	15	316.38075730946406	286.3034225888751	18/12/03 04:11:33
1	15	316.14821870766224	286.2808950118654	18/12/03 04:11:34
1	15	315.91328426259184	286.25813533341835	18/12/03 04:11:34
1	15	315.75135918059595	286.2424485625932	18/12/03 04:11:34
1	15	315.55491447405603	286.22341764376756	18/12/03 04:11:34
1	15	315.2855320360047	286.19732075675086	18/12/03 04:11:34
1	15	315.06859470758013	286.1763045799334	18/12/03 04:11:34
1	15	314.82946299325573	286.1531382838081	18/12/03 04:11:34
1	15	314.54127077140697	286.1252191666337	18/12/03 04:11:34
1	15	314.3552390900834	286.107197027536	18/12/03 04:11:34
1	15	314.145247071543	286.08685368955935	18/12/03 04:11:34
1	15	313.96675203816073	286.0695616761938	18/12/03 04:11:35
1	15	313.758232542782	286.0493609914311	18/12/03 04:11:35
1	15	313.48151717302744	286.02255371404317	18/12/03 04:11:35
1	15	313.3062812377236	286.00557743140956	18/12/03 04:11:35
1	15	313.1071893344433	285.9862900608466	18/12/03 04:11:35
1	15	312.816271132872	285.9581068596979	18/12/03 04:11:35
1	15	312.5617981404013	285.93345435086565	18/12/03 04:11:35
1	15	312.3181626529499	285.90985174397235	18/12/03 04:11:35
1	15	312.08732434068537	285.8874888854361	18/12/03 04:11:35
1	15	311.8363329569256	285.863173663436	18/12/03 04:11:35
1	15	311.62521792283763	285.84272153139653	18/12/03 04:11:36
1	15	311.38762178704263	285.81970399708246	18/12/03 04:11:36
1	15	311.15475599108714	285.7971447225764	18/12/03 04:11:36
1	15	310.96185072005744	285.7784566926535	18/12/03 04:11:36
1	15	310.700954967617	285.7531819679022	18/12/03 04:11:36
1	15	310.520015993677	285.73565319359165	18/12/03 04:11:36
1	15	310.2845893711631	285.7128458346082	18/12/03 04:11:36
1	15	310.088621647212	285.69386112429123	18/12/03 04:11:36
1	15	309.80926656900493	285.66679812060676	18/12/03 04:11:36
1	15	309.52805744608526	285.6395555031518	18/12/03 04:11:36
1	15	309.27379952028684	285.6149238292733	18/12/03 04:11:37
1	15	309.05528580238223	285.5937549370136	18/12/03 04:11:37
1	15	308.77840488658853	285.5669316220684	18/12/03 04:11:37
1	15	308.54200825761995	285.54403029204127	18/12/03 04:11:37
1	15	308.28569140392784	285.51919915598177	18/12/03 04:11:37
1	15	307.9975330029106	285.49128331525856	18/12/03 04:11:37
1	15	307.9975330029106	285.49128331525856	18/12/03 04:11:37
1	15	307.74807917063987	285.4671170462035	18/12/03 04:11:37
1	15	307.52395016959355	285.4454041637313	18/12/03 04:11:37
1	15	307.3096667084204	285.4246450848684	18/12/03 04:11:37
1	15	307.0952112369412	285.40386934221124	18/12/03 04:11:38
1	15	306.8880210004914	285.38379743169355	18/12/03 04:11:38
1	15	306.7034102068032	285.36591294352945	18/12/03 04:11:38
1	15	306.4499049820602	285.34135418886035	18/12/03 04:11:38
1	15	306.2463988367798	285.3216391810112	18/12/03 04:11:38
1	15	305.98866586682516	285.2966708562531	18/12/03 04:11:38
1	15	305.81895427248185	285.2802297536517	18/12/03 04:11:38
1	15	305.62068969223407	285.2610225314305	18/12/03 04:11:38
1	15	305.39360921080754	285.23902371922003	18/12/03 04:11:38
1	15	305.21782595506784	285.22199441397777	18/12/03 04:11:38
1	37	304.9918080692842	285.1836295730685	18/12/03 04:11:39
1	37	304.7735616437393	285.1414701110804	18/12/03 04:11:39
1	37	304.6218239068481	285.1121583762621	18/12/03 04:11:39
1	37	304.4125139093067	285.07172519682723	18/12/03 04:11:39
1	37	304.18769756464013	285.0282965994809	18/12/03 04:11:39
1	37	303.9492366950129	284.9822322392349	18/12/03 04:11:39
1	37	303.6728976726167	284.9288508173791	18/12/03 04:11:39
1	37	303.44310542510317	284.884461006641	18/12/03 04:11:39
1	37	303.2132167134479	284.84005256157104	18/12/03 04:11:39
1	37	302.97353214891626	284.79375181569503	18/12/03 04:11:39
1	37	302.7071496103649	284.74229372431824	18/12/03 04:11:40
1	37	302.54004371993744	284.7100132669505	18/12/03 04:11:40
1	37	302.33438129852993	284.67028470316734	18/12/03 04:11:40
