floorId	partitionId	location_x	location_y	timeStamp
1	17	308.48952471411667	292.96777240934625	18/12/03 04:17:13
1	17	308.34364724112726	292.86758207074075	18/12/03 04:17:13
1	17	308.12064753051555	292.71442328578746	18/12/03 04:17:13
1	17	307.8878416235352	292.5545294915523	18/12/03 04:17:13
1	17	307.6510728261715	292.39191393828713	18/12/03 04:17:13
1	17	307.4945207122657	292.2843921326224	18/12/03 04:17:13
1	17	307.31123081596456	292.1585065082209	18/12/03 04:17:13
1	17	307.07054677825505	291.9932019225238	18/12/03 04:17:13
1	17	306.8994056105061	291.87566018564877	18/12/03 04:17:14
1	17	306.6872177057924	291.7299270742533	18/12/03 04:17:14
1	17	306.46962842113055	291.58048423252825	18/12/03 04:17:14
1	17	306.31171483196596	291.47202734988156	18/12/03 04:17:14
1	17	306.08039234734815	291.3131523873121	18/12/03 04:17:14
1	17	305.9285670005372	291.20887698005305	18/12/03 04:17:14
1	17	305.7788259084996	291.10603306312083	18/12/03 04:17:14
1	17	305.61836980711576	290.9958299536241	18/12/03 04:17:14
1	17	305.3875642135746	290.8373099978348	18/12/03 04:17:14
1	17	305.16099898487056	290.68170237374505	18/12/03 04:17:14
1	17	305.16099898487056	290.68170237374505	18/12/03 04:17:15
1	17	304.7569924485455	290.40422600372193	18/12/03 04:17:15
1	17	304.7569924485455	290.40422600372193	18/12/03 04:17:15
1	17	304.37032785498286	290.1386602809142	18/12/03 04:17:15
1	17	304.2411585055024	290.04994527511724	18/12/03 04:17:15
1	17	304.10224587868254	289.9545384735566	18/12/03 04:17:15
1	17	304.10224587868254	289.9545384735566	18/12/03 04:17:15
1	17	303.6958196563406	289.67540023514226	18/12/03 04:17:15
1	17	303.6958196563406	289.67540023514226	18/12/03 04:17:15
1	17	303.3386329140687	289.4300802421354	18/12/03 04:17:15
1	17	303.1868555316304	289.32583777736323	18/12/03 04:17:16
1	17	303.1868555316304	289.32583777736323	18/12/03 04:17:16
1	17	302.77813838253184	289.0451261039095	18/12/03 04:17:16
1	17	302.77813838253184	289.0451261039095	18/12/03 04:17:16
1	30	302.6301963789174	288.82246422860095	18/12/03 04:17:16
1	30	302.80726781802684	288.8104675936509	18/12/03 04:17:16
1	30	302.96275477856165	288.7999333126036	18/12/03 04:17:16
1	30	302.96275477856165	288.7999333126036	18/12/03 04:17:16
1	30	303.4228319733496	288.7687629658641	18/12/03 04:17:16
1	30	303.4228319733496	288.7687629658641	18/12/03 04:17:16
1	30	303.94029212969014	288.73370490891244	18/12/03 04:17:17
1	30	304.22703736242386	288.7142778466032	18/12/03 04:17:17
1	30	304.22703736242386	288.7142778466032	18/12/03 04:17:17
1	30	304.724806962725	288.68055382982175	18/12/03 04:17:17
1	30	304.724806962725	288.68055382982175	18/12/03 04:17:17
1	30	305.18419069154766	288.6494304655774	18/12/03 04:17:17
1	30	305.3750995122732	288.6364963445102	18/12/03 04:17:17
1	30	305.60331363638	288.6210347796688	18/12/03 04:17:17
1	30	305.60331363638	288.6210347796688	18/12/03 04:17:17
1	30	305.7977808586565	288.6078595759932	18/12/03 04:17:17
1	30	306.3338352194628	288.57154175696877	18/12/03 04:17:18
1	30	306.3338352194628	288.57154175696877	18/12/03 04:17:18
1	30	306.79698189657995	288.5401634520222	18/12/03 04:17:18
1	30	306.79698189657995	288.5247107956568	18/12/03 04:17:18
1	30	307.02506453075944	288.5247107956568	18/12/03 04:17:18
1	30	307.49070757880895	288.4931633609459	18/12/03 04:17:18
1	30	307.49070757880895	288.4931633609459	18/12/03 04:17:18
1	30	307.9308233191322	288.4633454078137	18/12/03 04:17:18
1	30	307.9308233191322	288.4633454078137	18/12/03 04:17:18
1	30	308.33780964343117	288.43577198102713	18/12/03 04:17:18
1	30	308.33780964343117	288.43577198102713	18/12/03 04:17:19
1	30	308.673107260095	288.41305548238137	18/12/03 04:17:19
1	30	308.673107260095	288.41305548238137	18/12/03 04:17:19
1	30	309.06298716753935	288.38664101967925	18/12/03 04:17:19
1	30	309.06298716753935	288.38664101967925	18/12/03 04:17:19
1	30	309.5144497572985	288.3560543146173	18/12/03 04:17:19
1	30	309.5144497572985	288.3560543146173	18/12/03 04:17:19
1	30	309.93987989742715	288.3272313146263	18/12/03 04:17:19
1	30	310.16709566000463	288.31183738903195	18/12/03 04:17:19
1	30	310.4477340861382	288.2928240644201	18/12/03 04:17:19
1	30	310.4477340861382	288.2928240644201	18/12/03 04:17:20
1	30	310.7130499960807	288.27484884416987	18/12/03 04:17:20
1	30	310.7130499960807	288.27484884416987	18/12/03 04:17:20
1	30	311.1586441727287	288.2446597255859	18/12/03 04:17:20
1	30	311.4008562468336	288.22824979607867	18/12/03 04:17:20
1	30	311.6351527644784	288.212376147531	18/12/03 04:17:20
1	30	311.6351527644784	288.212376147531	18/12/03 04:17:20
1	30	311.6351527644784	288.212376147531	18/12/03 04:17:20
1	30	311.8078525097004	288.20067569595165	18/12/03 04:17:20
1	30	312.0554146677188	288.1839032969011	18/12/03 04:17:20
1	30	312.31746127218264	288.166149572927	18/12/03 04:17:21
1	30	312.6142946620711	288.14603903540956	18/12/03 04:17:21
1	30	312.6142946620711	288.14603903540956	18/12/03 04:17:21
1	30	312.83034833232927	288.1314013444034	18/12/03 04:17:21
1	30	313.03677638112083	288.11741579169507	18/12/03 04:17:21
1	30	313.3082769778117	288.0990215573476	18/12/03 04:17:21
1	30	313.4705361417234	288.0880284578024	18/12/03 04:17:21
1	30	313.68601525884645	288.073429692917	18/12/03 04:17:21
1	30	313.9789214396309	288.05358522481333	18/12/03 04:17:21
1	30	314.2354722437668	288.0362038427066	18/12/03 04:17:21
1	30	314.4790261333928	288.0197030048572	18/12/03 04:17:22
1	30	314.77027126229103	287.99997107344046	18/12/03 04:17:22
1	30	314.9290804435832	287.9892117110935	18/12/03 04:17:22
1	30	315.14683502673836	287.9744587828068	18/12/03 04:17:22
1	30	315.32490246290223	287.9623946688035	18/12/03 04:17:22
1	30	315.5866285019741	287.94466266321604	18/12/03 04:17:22
1	30	315.82634670904105	287.92842169383374	18/12/03 04:17:22
1	30	315.9884016526688	287.9174424302646	18/12/03 04:17:22
1	30	316.16944986563016	287.90517636787655	18/12/03 04:17:22
1	30	316.3595575004612	287.8922965273571	18/12/03 04:17:22
1	30	316.5582218526551	287.8788369670641	18/12/03 04:17:23
1	30	316.7123253990223	287.86839641267784	18/12/03 04:17:23
1	30	316.89626841836366	287.85593422642273	18/12/03 04:17:23
1	30	317.10736565885713	287.8416323347913	18/12/03 04:17:23
1	30	317.3581369407301	287.824642516785	18/12/03 04:17:23
1	30	317.6057903318605	287.807863936668	18/12/03 04:17:23
1	30	317.8395780474027	287.792024759592	18/12/03 04:17:23
1	30	318.09226126581694	287.7749054073997	18/12/03 04:17:23
1	30	318.39116335145013	287.7546547152204	18/12/03 04:17:23
1	30	318.5458597380215	287.7441739957598	18/12/03 04:17:23
1	30	318.72409459271194	287.73209853910885	18/12/03 04:17:24
1	30	318.88289193970496	287.72133997853865	18/12/03 04:17:24
1	30	319.0684065542482	287.70877131630965	18/12/03 04:17:24
1	30	319.3661451454579	287.68859945117293	18/12/03 04:17:24
1	30	319.57041786649296	287.6747599224673	18/12/03 04:17:24
1	30	319.8341817006713	287.65688985574405	18/12/03 04:17:24
1	30	320.0657689469643	287.64119976101824	18/12/03 04:17:24
1	30	320.23401977440403	287.62980072474795	18/12/03 04:17:24
1	30	320.4306807457392	287.6164768940167	18/12/03 04:17:24
1	30	320.598395943833	287.60511414677063	18/12/03 04:17:24
1	30	320.8594203994489	287.58742967364043	18/12/03 04:17:25
1	30	321.13630586426797	287.5686706131103	18/12/03 04:17:25
1	30	321.36805230687827	287.5529697327936	18/12/03 04:17:25
1	30	321.5801464143494	287.5386003031714	18/12/03 04:17:25
1	30	321.87560233617506	287.5185830894649	18/12/03 04:17:25
1	30	322.08481917525665	287.5044085955065	18/12/03 04:17:25
1	30	322.2559038646297	287.49281756437085	18/12/03 04:17:25
1	30	322.4594291817136	287.4790286724726	18/12/03 04:17:25
1	30	322.75181502601265	287.45921945729793	18/12/03 04:17:25
1	30	323.008766242047	287.4418109471834	18/12/03 04:17:25
1	30	323.26521012478133	287.42443680902875	18/12/03 04:17:26
1	30	323.5256174664348	287.40679414552613	18/12/03 04:17:26
1	30	323.8092302357018	287.38757930841194	18/12/03 04:17:26
1	30	324.03028738184804	287.3726026306442	18/12/03 04:17:26
1	30	324.2390574887191	287.3584584029065	18/12/03 04:17:26
1	30	324.2390574887191	287.3584584029065	18/12/03 04:17:26
1	30	324.51387214643756	287.33983964008314	18/12/03 04:17:26
1	30	324.66514500863525	287.32959086526796	18/12/03 04:17:26
1	30	324.66514500863525	287.32959086526796	18/12/03 04:17:26
1	30	324.89714671898105	287.31387269049736	18/12/03 04:17:26
1	30	325.19510769241595	287.29368575890845	18/12/03 04:17:27
1	30	325.61082418902475	287.2655208607317	18/12/03 04:17:27
1	30	325.61082418902475	287.2655208607317	18/12/03 04:17:27
1	30	326.05390463506603	287.2355020480345	18/12/03 04:17:27
1	30	326.05390463506603	287.2355020480345	18/12/03 04:17:27
1	30	326.43311390655646	287.2098105236271	18/12/03 04:17:27
1	30	326.7005847515085	287.19168930598295	18/12/03 04:17:27
1	30	326.7005847515085	287.19168930598295	18/12/03 04:17:27
1	30	327.1852401052972	287.15885378273185	18/12/03 04:17:27
1	30	327.1852401052972	287.15885378273185	18/12/03 04:17:27
1	30	327.6364432508437	287.12828465508113	18/12/03 04:17:28
1	30	327.6364432508437	287.12828465508113	18/12/03 04:17:28
1	30	328.11414722368465	287.0959200896539	18/12/03 04:17:28
1	30	328.11414722368465	287.0959200896539	18/12/03 04:17:28
1	30	328.59780276469985	287.06315230397195	18/12/03 04:17:28
1	30	328.59780276469985	287.06315230397195	18/12/03 04:17:28
1	30	329.03674966213777	287.03341354024195	18/12/03 04:17:28
1	30	329.22830578069795	287.0204355645821	18/12/03 04:17:28
1	30	329.22830578069795	287.0204355645821	18/12/03 04:17:28
1	30	329.6179654823258	286.99403602087995	18/12/03 04:17:28
1	30	329.6179654823258	286.99403602087995	18/12/03 04:17:29
1	30	330.0274895946967	286.96629065830734	18/12/03 04:17:29
1	30	330.0274895946967	286.96629065830734	18/12/03 04:17:29
1	30	330.0274895946967	286.96629065830734	18/12/03 04:17:29
1	30	330.5283847270152	286.9323548859383	18/12/03 04:17:29
1	30	330.8008853908932	286.91389289678506	18/12/03 04:17:29
1	30	330.8008853908932	286.91389289678506	18/12/03 04:17:29
1	30	330.9796526058925	286.901781372588	18/12/03 04:17:29
1	30	331.35741503039674	286.87618787243116	18/12/03 04:17:29
1	30	331.35741503039674	286.87618787243116	18/12/03 04:17:29
1	30	331.7424739456676	286.8501000331726	18/12/03 04:17:30
1	30	331.7424739456676	286.8501000331726	18/12/03 04:17:30
1	30	331.99280662114217	286.69730966988345	18/12/03 04:17:30
1	30	331.99280662114217	286.69730966988345	18/12/03 04:17:30
1	30	331.8666853333565	286.17372365056735	18/12/03 04:17:30
1	30	331.8666853333565	286.17372365056735	18/12/03 04:17:30
1	30	331.7312929913382	285.6116493279227	18/12/03 04:17:30
1	30	331.6956186940665	285.4635493233295	18/12/03 04:17:30
1	30	331.64375191874774	285.24822708153584	18/12/03 04:17:30
1	30	331.601966610393	285.0747575297142	18/12/03 04:17:30
1	30	331.5586650288466	284.8949932479658	18/12/03 04:17:31
1	30	331.5586650288466	284.73161986410133	18/12/03 04:17:31
1	30	331.51931168325916	284.73161986410133	18/12/03 04:17:31
1	30	331.4239493999607	284.33572826497675	18/12/03 04:17:31
1	30	331.3766730206781	284.13946281549676	18/12/03 04:17:31
1	30	331.3766730206781	284.13946281549676	18/12/03 04:17:31
1	30	331.2972645482389	283.80980263905576	18/12/03 04:17:31
1	30	331.2972645482389	283.5572700789645	18/12/03 04:17:31
1	30	331.1800249611475	283.3230885419421	18/12/03 04:17:31
1	30	331.1800249611475	283.3230885419421	18/12/03 04:17:31
1	30	331.1115178691022	283.0386848837756	18/12/03 04:17:32
1	30	331.013216426203	282.6305915152073	18/12/03 04:17:32
1	30	331.013216426203	282.6305915152073	18/12/03 04:17:32
1	30	330.9113241192354	282.20759085972156	18/12/03 04:17:32
1	30	330.9113241192354	282.20759085972156	18/12/03 04:17:32
1	30	330.7763374879639	281.64720082431023	18/12/03 04:17:32
1	30	330.7095503996765	281.3699376730053	18/12/03 04:17:32
1	30	330.7095503996765	281.3699376730053	18/12/03 04:17:32
1	30	330.5804821638946	280.83411755112365	18/12/03 04:17:32
1	30	330.5804821638946	280.83411755112365	18/12/03 04:17:32
1	30	330.51483559127445	280.5615891917691	18/12/03 04:17:33
3	12	330.952852226212	280.6445481845216	18/12/03 04:17:33
3	12	330.952852226212	280.6445481845216	18/12/03 04:17:33
3	12	331.29790252896663	280.7546865297585	18/12/03 04:17:33
3	12	331.29790252896663	280.7546865297585	18/12/03 04:17:33
3	12	331.63982569431636	280.8638267082459	18/12/03 04:17:33
3	12	331.79057076472253	280.91194378704455	18/12/03 04:17:33
3	12	331.79057076472253	280.91194378704455	18/12/03 04:17:33
3	12	332.15164879644027	281.02719810387106	18/12/03 04:17:33
3	12	332.15164879644027	281.02719810387106	18/12/03 04:17:33
3	12	332.56829002098704	281.1601879162627	18/12/03 04:17:34
3	12	332.56829002098704	281.1601879162627	18/12/03 04:17:34
3	12	332.91957559017004	281.2723165276174	18/12/03 04:17:34
3	12	332.91957559017004	281.2723165276174	18/12/03 04:17:34
3	12	333.3380014402632	281.40587598363203	18/12/03 04:17:34
3	12	333.3380014402632	281.40587598363203	18/12/03 04:17:34
3	12	333.63336233906404	281.50015371757945	18/12/03 04:17:34
3	12	333.77940648951386	281.54677028604397	18/12/03 04:17:34
3	12	333.77940648951386	281.54677028604397	18/12/03 04:17:34
3	12	334.11913757214387	281.65521076259967	18/12/03 04:17:34
3	12	334.11913757214387	281.65521076259967	18/12/03 04:17:35
3	12	334.58934893388266	281.8052998970825	18/12/03 04:17:35
3	12	334.8316736917978	281.8826487579112	18/12/03 04:17:35
3	12	334.8316736917978	281.8826487579112	18/12/03 04:17:35
3	12	335.31646962660756	282.0373932157808	18/12/03 04:17:35
3	12	335.31646962660756	282.0373932157808	18/12/03 04:17:35
3	12	335.68965239404423	282.156511304211	18/12/03 04:17:35
3	12	335.9522042197599	282.2403165447582	18/12/03 04:17:35
3	12	336.2362051494944	282.33096823292357	18/12/03 04:17:35
3	12	336.2362051494944	282.33096823292357	18/12/03 04:17:35
3	12	336.6049748785427	282.4486777013882	18/12/03 04:17:36
3	12	336.6049748785427	282.4486777013882	18/12/03 04:17:36
3	12	337.04278972684494	282.58842602946436	18/12/03 04:17:36
3	12	337.3270592301682	282.6791634449872	18/12/03 04:17:36
3	12	337.3270592301682	282.6791634449872	18/12/03 04:17:36
3	12	337.6626518687689	282.78628295073486	18/12/03 04:17:36
3	12	337.6626518687689	282.78628295073486	18/12/03 04:17:36
3	12	338.13254561760596	282.9362707047548	18/12/03 04:17:36
3	12	338.13254561760596	282.9362707047548	18/12/03 04:17:36
3	12	338.3004982618707	282.9898803557819	18/12/03 04:17:36
3	12	338.6553808909023	283.10315713079933	18/12/03 04:17:37
3	12	338.6553808909023	283.10315713079933	18/12/03 04:17:37
3	12	339.066260449656	283.2343078480469	18/12/03 04:17:37
3	12	339.3286866242927	283.3180729813929	18/12/03 04:17:37
3	12	339.5969132391614	283.40368958649157	18/12/03 04:17:37
3	12	339.5969132391614	283.40368958649157	18/12/03 04:17:37
3	12	339.9421767177653	283.5138959764022	18/12/03 04:17:37
3	12	339.9421767177653	283.5138959764022	18/12/03 04:17:37
3	12	340.4059481383972	283.66192951362495	18/12/03 04:17:37
3	12	340.62536328969196	283.731965741649	18/12/03 04:17:37
3	12	340.86896636757064	283.80972263586983	18/12/03 04:17:38
3	12	340.86896636757064	283.80972263586983	18/12/03 04:17:38
3	12	341.2383374590843	283.92762405625075	18/12/03 04:17:38
3	12	341.2383374590843	283.92762405625075	18/12/03 04:17:38
3	12	341.3824448614705	283.9736224243394	18/12/03 04:17:38
3	12	341.57702424248413	284.03573119767174	18/12/03 04:17:38
3	12	342.0579306657657	284.1892341427529	18/12/03 04:17:38
3	12	342.0579306657657	284.1892341427529	18/12/03 04:17:38
3	12	342.5033478402749	284.3314090956478	18/12/03 04:17:38
3	12	342.5033478402749	284.3314090956478	18/12/03 04:17:38
3	12	342.74816279937824	284.4095528163448	18/12/03 04:17:39
3	12	342.93914164506134	284.4705123166578	18/12/03 04:17:39
3	12	343.43938959658635	284.63018898162295	18/12/03 04:17:39
3	12	343.43938959658635	284.63018898162295	18/12/03 04:17:39
3	12	343.7652736768638	284.73420956370694	18/12/03 04:17:39
3	12	343.7652736768638	284.73420956370694	18/12/03 04:17:39
3	12	344.1578956201149	284.85953254064145	18/12/03 04:17:39
3	12	344.39404960635653	284.9349117217582	18/12/03 04:17:39
3	12	344.39404960635653	284.9349117217582	18/12/03 04:17:39
3	12	344.83144179829105	285.0745251400182	18/12/03 04:17:39
3	12	344.83144179829105	285.0745251400182	18/12/03 04:17:40
3	12	344.83144179829105	285.0745251400182	18/12/03 04:17:40
3	12	345.2132217467684	285.19638740599567	18/12/03 04:17:40
3	12	345.27675425235594	285.21666666666664	18/12/03 04:17:40
3	18	345.09490833268615	284.815083517847	18/12/03 04:17:40
3	18	345.09490833268615	284.815083517847	18/12/03 04:17:40
3	18	344.90917972429213	284.4049259541237	18/12/03 04:17:40
3	18	344.8348504067104	284.24077928831844	18/12/03 04:17:40
3	18	344.8348504067104	284.24077928831844	18/12/03 04:17:40
3	18	344.64103029958284	283.8127526981909	18/12/03 04:17:40
3	18	344.64103029958284	283.8127526981909	18/12/03 04:17:41
3	18	344.456240749126	283.40466892223264	18/12/03 04:17:41
3	18	344.34324107257754	283.1551237798047	18/12/03 04:17:41
3	18	344.22172584149854	282.88677313869675	18/12/03 04:17:41
3	18	344.22172584149854	282.88677313869675	18/12/03 04:17:41
3	18	344.05203694322086	282.51203719623595	18/12/03 04:17:41
3	18	344.05203694322086	282.51203719623595	18/12/03 04:17:41
3	18	343.95689747634674	282.30193401243224	18/12/03 04:17:41
3	18	343.8675371132522	282.10459323043204	18/12/03 04:17:41
3	18	343.71410478540093	281.7657578171265	18/12/03 04:17:41
3	18	343.71410478540093	281.7657578171265	18/12/03 04:17:42
