floorId	partitionId	location_x	location_y	timeStamp
2	33	350.6257854961846	292.13604402991723	18/12/03 04:19:48
2	33	350.86252193412514	292.0909282878051	18/12/03 04:19:48
2	33	351.04456552694313	292.05623556429293	18/12/03 04:19:48
2	33	351.2638474468591	292.0144461944991	18/12/03 04:19:48
2	33	351.5343609193076	291.96289343748793	18/12/03 04:19:49
2	33	351.8022518347712	291.9118404709004	18/12/03 04:19:49
2	33	352.0698052665992	291.8608518198226	18/12/03 04:19:49
2	33	352.3517220619832	291.8071258892128	18/12/03 04:19:49
2	33	352.5891537824972	291.7618776445187	18/12/03 04:19:49
2	33	352.8583405683649	291.71057771909597	18/12/03 04:19:49
2	33	353.10661317360405	291.6632634867416	18/12/03 04:19:49
2	33	353.37871910528196	291.61140724886144	18/12/03 04:19:49
2	33	353.6226745110508	291.5649157612423	18/12/03 04:19:49
2	33	353.7753330725188	291.53582305227735	18/12/03 04:19:49
2	33	354.0418516064283	291.485031625539	18/12/03 04:19:50
2	33	354.21519223876055	291.4519974575255	18/12/03 04:19:50
2	33	354.47193706416147	291.40306864271287	18/12/03 04:19:50
2	33	354.68267048238596	291.3629083926317	18/12/03 04:19:50
2	33	354.9277706551197	291.3161987425209	18/12/03 04:19:50
2	33	355.1713200684369	291.2697846263909	18/12/03 04:19:50
2	33	355.4342928037993	291.2196689356492	18/12/03 04:19:50
2	33	355.7159791957537	291.1659869138766	18/12/03 04:19:50
2	33	355.9080290940655	291.1293872515675	18/12/03 04:19:50
2	33	355.9080290940655	291.1293872515675	18/12/03 04:19:50
2	33	356.07415117209865	291.0977287502533	18/12/03 04:19:51
2	33	356.32547878497127	291.0498323137493	18/12/03 04:19:51
2	59	356.57090910284455	290.98230416905545	18/12/03 04:19:51
2	59	356.77998196302946	290.8972151627439	18/12/03 04:19:51
2	59	356.77998196302946	290.8972151627439	18/12/03 04:19:51
2	59	357.04001586081154	290.79138590326943	18/12/03 04:19:51
2	59	357.24724260899853	290.70704823233115	18/12/03 04:19:51
2	59	357.47880807640695	290.6128051273178	18/12/03 04:19:51
2	59	357.6517795786743	290.5424087438029	18/12/03 04:19:51
2	59	357.85568589547427	290.4594224305062	18/12/03 04:19:51
2	59	358.1140800655825	290.3542605115859	18/12/03 04:19:52
2	59	358.3666156312064	290.25148294247316	18/12/03 04:19:52
2	59	358.52604944690756	290.1865961611929	18/12/03 04:19:52
2	59	358.7136950373031	290.11022767983485	18/12/03 04:19:52
2	59	358.88755657081754	290.03946906913114	18/12/03 04:19:52
2	59	359.1332542436922	289.9394744030637	18/12/03 04:19:52
2	59	359.3533748137746	289.849889171578	18/12/03 04:19:52
2	59	359.5899863681981	289.7535923971908	18/12/03 04:19:52
2	59	359.8125347955664	289.66301907014963	18/12/03 04:19:52
2	59	359.9687727577455	289.5994329454934	18/12/03 04:19:52
2	59	360.13214229271546	289.5329443951389	18/12/03 04:19:53
2	59	360.3737275903648	289.43462339403777	18/12/03 04:19:53
2	59	360.54854332288613	289.3634764409866	18/12/03 04:19:53
2	59	360.76371503602047	289.27590530793395	18/12/03 04:19:53
2	59	361.0160526713064	289.17320829301536	18/12/03 04:19:53
2	59	361.2176201528955	289.0911738448428	18/12/03 04:19:53
2	59	361.4597280833628	288.99264014130335	18/12/03 04:19:53
2	59	361.6162034799355	288.9289573849915	18/12/03 04:19:53
2	59	361.83485681457927	288.83996929272996	18/12/03 04:19:53
2	31	361.74486592660463	288.6187448996513	18/12/03 04:19:53
2	31	361.63180971325204	288.39050940394674	18/12/03 04:19:54
2	31	361.5353520097463	288.1957826293511	18/12/03 04:19:54
2	31	361.41374886571754	287.9502927705135	18/12/03 04:19:54
2	31	361.33886935882873	287.7991276035043	18/12/03 04:19:54
2	31	361.2128889020549	287.5448009181483	18/12/03 04:19:54
2	31	361.1258906015991	287.36917058664187	18/12/03 04:19:54
2	31	361.01893314151033	287.15324712521715	18/12/03 04:19:54
2	31	360.90948524257146	286.9322960184414	18/12/03 04:19:54
2	31	360.79352520698257	286.6981983477365	18/12/03 04:19:54
2	31	360.7036968734391	286.51685480520456	18/12/03 04:19:54
2	31	360.57913619796653	286.26539434435296	18/12/03 04:19:55
2	31	360.4507769515071	286.0062654086211	18/12/03 04:19:55
2	31	360.38245148026954	285.8683313903595	18/12/03 04:19:55
2	31	360.29569908584705	285.6931974887594	18/12/03 04:19:55
2	31	360.2042917323997	285.50866625419536	18/12/03 04:19:55
2	31	360.0800690154738	285.2578880569198	18/12/03 04:19:55
2	76	360.0730282558863	285.104438712538	18/12/03 04:19:55
2	76	360.09282884258414	284.938334363316	18/12/03 04:19:55
2	76	360.1114965023107	284.78173397981743	18/12/03 04:19:55
2	76	360.1367926407255	284.5695282167586	18/12/03 04:19:55
2	76	360.16173027441977	284.36032989960097	18/12/03 04:19:56
2	76	360.1796782816137	284.20976658042883	18/12/03 04:19:56
2	76	360.2058765762714	283.989992754973	18/12/03 04:19:56
2	76	360.2251582755115	283.8282412799765	18/12/03 04:19:56
2	76	360.2487623463245	283.63023003509676	18/12/03 04:19:56
2	76	360.26973509927876	283.4542925472824	18/12/03 04:19:56
2	76	360.3044332017886	283.163215023945	18/12/03 04:19:56
2	76	360.3298635512259	282.9498833834113	18/12/03 04:19:56
2	76	360.36194257336786	282.68077695854197	18/12/03 04:19:56
2	76	360.3864264597874	282.47538506373553	18/12/03 04:19:56
2	76	360.40819918645695	282.2927367084404	18/12/03 04:19:57
2	76	360.43411851576343	282.07530308425436	18/12/03 04:19:57
2	76	360.4557670901792	281.8936962248317	18/12/03 04:19:57
2	76	360.4892573677705	281.6127509756099	18/12/03 04:19:57
2	76	360.5128191356729	281.41509460392416	18/12/03 04:19:57
2	76	360.5408142608914	281.1802474184959	18/12/03 04:19:57
2	76	360.5657734142279	280.97086857607286	18/12/03 04:19:57
