"floorId","partitionId","location_x","location_y","timeStamp"
"5","9","319.2769114246776","282.8534983559025",18/12/21 22:52:20
"5","9","320.14277597893823","283.96737750306875",18/12/21 22:52:20
"5","9","321.10185610808406","285.2011725014438",18/12/21 22:52:20
"5","104","323.3916950910044","285.86477041630457",18/12/21 22:52:20
"5","104","325.26089240681597","286.39661544001984",18/12/21 22:52:20
"5","104","327.22359136456225","286.9550646015388",18/12/21 22:52:20
"5","104","329.31482710995886","287.5500864941964",18/12/21 22:52:20
"5","104","330.85861362341495","287.98934197991485",18/12/21 22:52:20
"5","103","332.2077468881686","288.27041185540236",18/12/21 22:52:20
"5","103","334.0396254288436","287.7611511479354",18/12/21 22:52:20
"5","103","335.3250328110311","287.4038089670532",18/12/21 22:52:20
"5","103","337.52322297789505","286.7927139328204",18/12/21 22:52:20
"5","103","339.7571684524317","286.17167895285604",18/12/21 22:52:20
"5","103","341.21001514236735","285.6927865065426",18/12/21 22:52:20
"5","103","339.57929061734285","284.9021242902086",18/12/21 22:52:20
"5","103","337.8687072438743","284.0727422452734",18/12/21 22:52:20
"5","103","335.66430137312375","283.00392871808293",18/12/21 22:52:20
"5","103","333.46114021676794","281.9357186948117",18/12/21 22:52:20
"5","103","332.05124615820466","281.25212686551544",18/12/21 22:52:20
"2","90","330.55371996292683","280.7312483603774",18/12/21 22:52:20
"2","90","331.0853902669041","283.01992987386853",18/12/21 22:52:20
"2","90","331.3877939490796","284.3216872069926",18/12/21 22:52:20
"2","90","331.93336034490306","286.67018723635766",18/12/21 22:52:20
"2","90","330.17337122595774","287.1939734111251",18/12/21 22:52:20
"2","90","328.73055422247126","287.294729727246",18/12/21 22:52:20
"2","90","326.84030815055405","287.42673138116896",18/12/21 22:52:20
"2","90","325.2819402557032","287.53555696879846",18/12/21 22:52:20
"2","90","323.2018822615784","287.6808137687249",18/12/21 22:52:20
"2","90","321.14221682687935","287.82464649397025",18/12/21 22:52:20
"2","90","319.0350943988449","287.9717932859414",18/12/21 22:52:20
"2","90","317.1815708860461","288.101230491451",18/12/21 22:52:20
"2","91","315.2915153560803","288.4413970055089",18/12/21 22:52:20
"2","91","314.00583640329745","288.6958724254031",18/12/21 22:52:20
"2","25","314.17293188883747","290.2457374742346",18/12/21 22:52:20
"2","25","314.82732290786663","291.3184862166586",18/12/21 22:52:20
"2","25","315.7222037375739","292.7854719434983",18/12/21 22:52:20
"2","25","316.2957699791776","293.7257239434265",18/12/21 22:52:20
"2","25","316.6795747187551","293.6191673046239",18/12/21 22:52:20
"2","25","316.51007536317627","295.1401425907552",18/12/21 22:52:20
"2","25","315.98104957136826","294.2472911068568",18/12/21 22:52:20
"2","25","315.84868593066756","294.54996785007495",18/12/21 22:52:20
"2","25","315.84868593066756","294.54996785007495",18/12/21 22:52:20
"2","25","316.4008606516238","293.2448663031925",18/12/21 22:52:20
"2","25","317.1388838602411","293.8732331845415",18/12/21 22:52:20
"2","25","317.47106794454936","294.2537826663502",18/12/21 22:52:20
"2","25","318.0093883152932","294.2537826663502",18/12/21 22:52:20
"2","25","317.79190958100264","294.8617260669417",18/12/21 22:52:21
"2","25","317.41117741850803","294.62262914185476",18/12/21 22:52:21
"2","25","317.41117741850803","294.62262914185476",18/12/21 22:52:21
"2","25","318.5100608050013","291.79857080765714",18/12/21 22:52:21
"2","25","318.5100608050013","291.79857080765714",18/12/21 22:52:21
"2","25","316.9895299329776","292.8066547189927",18/12/21 22:52:21
"2","25","317.64788761332767","291.434014107769",18/12/21 22:52:21
"2","25","317.64788761332767","291.434014107769",18/12/21 22:52:21
"2","25","317.2802992831142","291.28412698283955",18/12/21 22:52:21
"2","25","319.36144828725963","291.6055902036819",18/12/21 22:52:21
"2","25","320.62764383888526","292.2358167267914",18/12/21 22:52:21
"2","25","320.64177793328713","292.23752685404173",18/12/21 22:52:21
"2","25","320.64177793328713","292.5006164028072",18/12/21 22:52:21
"2","25","320.8509141536948","294.1968563599849",18/12/21 22:52:21
"2","25","319.8384035732371","293.04333877423016",18/12/21 22:52:21
"2","25","319.8384035732371","293.04333877423016",18/12/21 22:52:21
"2","25","320.2523969829038","292.81423750991814",18/12/21 22:52:21
"2","25","320.6452205813532","294.1664239816803",18/12/21 22:52:21
"2","25","320.3626826293178","293.8225588267205",18/12/21 22:52:21
"2","25","320.3626826293178","293.8225588267205",18/12/21 22:52:21
"2","25","320.19585319516574","294.04068289371867",18/12/21 22:52:21
"2","25","320.19585319516574","294.04068289371867",18/12/21 22:52:21
"2","25","317.76758336400985","295.09754676424916",18/12/21 22:52:21
"2","25","317.60869018111407","294.3804537964359",18/12/21 22:52:21
"2","25","316.5578266888781","294.1125332256901",18/12/21 22:52:21
"2","25","317.4345538845046","294.6193802622075",18/12/21 22:52:21
"2","25","318.1844470429614","293.3450122018963",18/12/21 22:52:21
"2","25","316.6319088877324","293.00891100921484",18/12/21 22:52:21
"2","25","315.4719187957081","292.9501018560159",18/12/21 22:52:21
"2","25","315.9298182960208","291.0318320032633",18/12/21 22:52:21
"2","25","314.8539467696906","292.0957683139247",18/12/21 22:52:21
"2","25","314.7299460391564","294.09752813952423",18/12/21 22:52:21
"2","25","314.7299460391564","294.09752813952423",18/12/21 22:52:21
"2","25","315.875071320648","294.23940227577964",18/12/21 22:52:21
"2","25","315.875071320648","294.23940227577964",18/12/21 22:52:21
"2","25","315.3949371437879","295.1338866017697",18/12/21 22:52:21
"2","25","315.3949371437879","295.1338866017697",18/12/21 22:52:21
"2","25","313.9754240361929","295.86638726569475",18/12/21 22:52:21
"2","25","313.9754240361929","295.86638726569475",18/12/21 22:52:21
"2","25","313.0746492054277","295.79105159924615",18/12/21 22:52:21
"2","25","313.0746492054277","295.79105159924615",18/12/21 22:52:21
"2","25","312.442178657394","295.18115743410544",18/12/21 22:52:21
"2","25","312.442178657394","295.18115743410544",18/12/21 22:52:21
"2","25","312.69702041073054","294.73295921565114",18/12/21 22:52:21
"2","25","312.69702041073054","294.73295921565114",18/12/21 22:52:21
"2","25","312.4380930777428","294.9588821906696",18/12/21 22:52:21
"2","25","312.4380930777428","294.9588821906696",18/12/21 22:52:21
"2","25","313.82832497845146","293.7293909932268",18/12/21 22:52:21
"2","25","316.216102766797","292.4724781246222",18/12/21 22:52:21
"2","25","316.216102766797","292.4724781246222",18/12/21 22:52:21
"2","25","316.2226391621795","292.51656972053155",18/12/21 22:52:22
"2","25","315.3572646676467","294.7409518394473",18/12/21 22:52:22
"2","25","313.22729302575397","294.3986058959141",18/12/21 22:52:22
"2","25","312.7954640755947","294.49901462423827",18/12/21 22:52:22
"2","25","314.51484408854066","294.31024452798613",18/12/21 22:52:22
"2","25","314.51484408854066","293.90560435957053",18/12/21 22:52:22
"2","25","311.9604823694704","292.7438780692929",18/12/21 22:52:22
"2","25","311.9604823694704","292.7438780692929",18/12/21 22:52:22
"2","25","313.0707669842305","293.37812515231525",18/12/21 22:52:22
"2","25","313.0707669842305","293.37812515231525",18/12/21 22:52:22
"2","25","312.8140192348232","293.88565531658656",18/12/21 22:52:22
"2","25","313.0116875313125","293.6841334173154",18/12/21 22:52:22
"2","25","313.03489269444566","293.24421214964053",18/12/21 22:52:22
"2","25","313.03489269444566","293.24421214964053",18/12/21 22:52:22
"2","25","312.66210111790497","294.07374443679873",18/12/21 22:52:22
"2","25","314.03759927671956","294.22003464451797",18/12/21 22:52:22
"2","25","314.03759927671956","294.22003464451797",18/12/21 22:52:22
"2","25","312.6383882893347","294.8484112971413",18/12/21 22:52:22
"2","25","312.6383882893347","294.8484112971413",18/12/21 22:52:22
"2","25","314.6358775540299","293.40577458221713",18/12/21 22:52:22
"2","25","313.1156999830384","293.65758673164237",18/12/21 22:52:22
"2","25","313.1156999830384","293.65758673164237",18/12/21 22:52:22
"2","25","313.4636089532343","294.73265089811895",18/12/21 22:52:22
"2","25","311.83725550163524","293.0181796399621",18/12/21 22:52:22
"2","25","313.3254160660869","293.75763924432437",18/12/21 22:52:22
"2","25","313.3254160660869","293.75763924432437",18/12/21 22:52:22
"2","25","314.6600493466666","294.0082677662756",18/12/21 22:52:22
"2","25","315.3120419685197","293.801370412215",18/12/21 22:52:22
"2","25","315.3120419685197","293.801370412215",18/12/21 22:52:22
"2","25","316.1413134364635","292.37535050570165",18/12/21 22:52:22
"2","25","316.1413134364635","292.37535050570165",18/12/21 22:52:22
"2","25","315.6889210652647","293.0988108682657",18/12/21 22:52:22
"2","25","313.8798904558767","294.61252696340307",18/12/21 22:52:22
"2","25","313.72434194871687","294.5124378599641",18/12/21 22:52:22
"2","25","313.72434194871687","294.3479051105221",18/12/21 22:52:22
"2","25","312.97482539870555","294.4399643864748",18/12/21 22:52:22
"2","25","312.66529748933374","294.0088586374211",18/12/21 22:52:22
"2","25","313.4799118592306","292.76296255354987",18/12/21 22:52:22
"2","25","315.3385219081197","293.7853141523199",18/12/21 22:52:22
"2","25","317.2466300194107","294.91424024351517",18/12/21 22:52:22
"2","25","318.27381909244053","293.0551717572196",18/12/21 22:52:22
"2","25","319.1578121434961","293.9880515497181",18/12/21 22:52:22
"2","25","318.70508510478527","294.0309070672119",18/12/21 22:52:22
"2","25","318.70508510478527","294.0309070672119",18/12/21 22:52:22
"2","25","320.7216518248619","293.5047587996126",18/12/21 22:52:22
"2","25","318.9546242859484","294.3992593306625",18/12/21 22:52:22
"2","25","318.9546242859484","294.3992593306625",18/12/21 22:52:22
"2","25","319.2278275072795","296.41504709246476",18/12/21 22:52:22
"2","25","321.3331206390268","296.264073738639",18/12/21 22:52:22
"2","25","321.25239736020177","296.28002450311453",18/12/21 22:52:23
"2","25","321.18305174766823","296.47387062169986",18/12/21 22:52:23
"2","25","321.18305174766823","296.47387062169986",18/12/21 22:52:23
"2","25","319.8009781219178","295.86631897128404",18/12/21 22:52:23
"2","25","318.81968829874694","295.05472517690293",18/12/21 22:52:23
"2","25","318.81968829874694","295.05472517690293",18/12/21 22:52:23
"2","25","317.4264281317367","295.60238964064206",18/12/21 22:52:23
"2","25","318.6675965159323","294.8031879499586",18/12/21 22:52:23
"2","25","318.1126016405568","294.4890390457518",18/12/21 22:52:23
"2","25","318.1126016405568","294.4890390457518",18/12/21 22:52:23
"2","25","317.490349018412","293.73597700801207",18/12/21 22:52:23
"2","25","318.02247778393814","293.77950764220077",18/12/21 22:52:23
"2","25","318.02247778393814","293.77950764220077",18/12/21 22:52:23
"2","25","318.9349713736996","292.959386689788",18/12/21 22:52:23
"2","25","316.7996125306464","292.38029618413776",18/12/21 22:52:23
"2","25","316.7996125306464","293.09721461049435",18/12/21 22:52:23
"2","25","316.21387740952764","293.09721461049435",18/12/21 22:52:23
"2","25","317.8387588257638","291.8536173067557",18/12/21 22:52:23
"2","25","317.57694385172545","291.4117732952773",18/12/21 22:52:23
"2","25","317.0421845807133","292.63758855466756",18/12/21 22:52:23
"2","25","316.20772193194546","292.06818636291746",18/12/21 22:52:23
"2","25","316.20772193194546","292.06818636291746",18/12/21 22:52:23
"2","25","317.4376654673583","294.10980637960813",18/12/21 22:52:23
"2","25","316.24450084495","295.0261126035178",18/12/21 22:52:23
"2","25","317.215691540982","294.4449546302979",18/12/21 22:52:23
"2","25","316.7788627540753","292.72503606936107",18/12/21 22:52:23
"2","25","316.7780055534467","293.2604767790299",18/12/21 22:52:23
"2","25","316.3174755689061","293.11747807415946",18/12/21 22:52:23
"2","25","316.3174755689061","293.11747807415946",18/12/21 22:52:23
"2","25","316.49164576293083","292.7086722860437",18/12/21 22:52:23
"2","25","316.49164576293083","292.7086722860437",18/12/21 22:52:23
"2","25","315.0485767540273","291.3247778710574",18/12/21 22:52:23
"2","25","315.0485767540273","291.3247778710574",18/12/21 22:52:23
"2","25","312.59698530566993","288.9737165619468",18/12/21 22:52:23
"2","90","314.21813001158074","288.6509701469903",18/12/21 22:52:23
"2","90","315.71246377391253","288.49679377285463",18/12/21 22:52:23
"2","90","317.15282621202533","288.33128304781746",18/12/21 22:52:23
"2","90","318.5761457002247","288.0825614068408",18/12/21 22:52:23
"2","90","320.9138714889628","287.6740494745943",18/12/21 22:52:23
"2","90","323.10148188869266","287.291769843809",18/12/21 22:52:23
"2","90","324.3463194171766","287.07423749397407",18/12/21 22:52:23
"2","90","324.3463194171766","287.07423749397407",18/12/21 22:52:23
"2","90","328.1384711261033","286.41156814693244",18/12/21 22:52:23
"2","90","328.1384711261033","286.41156814693244",18/12/21 22:52:23
"2","90","331.5266796064196","285.8194869029234",18/12/21 22:52:23
"2","90","332.85722292942626","285.88570668229954",18/12/21 22:52:23
"2","93","335.13791505808854","286.3058227794823",18/12/21 22:52:23
"2","93","337.1627285458844","286.6788046165857",18/12/21 22:52:23
"2","93","339.27197963272664","287.0673403261829",18/12/21 22:52:23
"2","93","339.27197963272664","287.0673403261829",18/12/21 22:52:23
"2","93","339.4608781791739","286.2557838276932",18/12/21 22:52:24
"2","93","339.4608781791739","286.2557838276932",18/12/21 22:52:24
"2","93","336.4440327890494","284.31799273624796",18/12/21 22:52:24
"2","93","334.6810720859375","283.18560141243626",18/12/21 22:52:24
"2","93","334.6810720859375","283.18560141243626",18/12/21 22:52:24
"2","93","330.8987265310666","280.7561114740427",18/12/21 22:52:24
"2","95","330.5","280.5",18/12/21 22:52:24
"3","95","333.39835858088077","281.8981417253608",18/12/21 22:52:24
"3","95","334.8262336562019","282.5869356291167",18/12/21 22:52:24
"3","95","336.1074416025688","283.2049786485332",18/12/21 22:52:24
"3","95","338.30443721896586","284.26478928134526",18/12/21 22:52:24
"3","95","338.30443721896586","284.26478928134526",18/12/21 22:52:24
"3","95","339.91118917307625","285.03987175877427",18/12/21 22:52:24
"3","95","341.22847879490547","285.67532024910724",18/12/21 22:52:24
"3","95","338.479636373415","284.3493037543643",18/12/21 22:52:24
"3","95","338.479636373415","284.3493037543643",18/12/21 22:52:24
"3","95","334.6856755284597","282.51913167120364",18/12/21 22:52:24
"3","95","332.59249221017245","281.5093991434785",18/12/21 22:52:24
"3","95","332.59249221017245","281.5093991434785",18/12/21 22:52:24
"3","95","330.7567493235149","280.5",18/12/21 22:52:24
"1","88","331.22589379632507","283.0731013112805",18/12/21 22:52:24
"1","88","331.59349581823034","284.37615314804003",18/12/21 22:52:24
"1","88","331.59349581823034","284.37615314804003",18/12/21 22:52:24
"1","88","332.00897887159596","285.8489305637475",18/12/21 22:52:24
"1","88","330.4847183214396","285.8166631693437",18/12/21 22:52:24
"1","88","326.85664713948125","285.60689052917616",18/12/21 22:52:24
"1","88","324.65786309482155","285.4797583117874",18/12/21 22:52:24
"1","88","322.7739884240571","285.3708339429944",18/12/21 22:52:24
"1","88","321.2896358239189","285.2850096721204",18/12/21 22:52:24
"1","88","321.2896358239189","285.2850096721204",18/12/21 22:52:24
"1","55","318.7400094668914","281.93687560061585",18/12/21 22:52:24
"1","55","318.1494176745786","280.52053014475507",18/12/21 22:52:24
"1","55","318.1494176745786","280.52053014475507",18/12/21 22:52:24
"1","55","316.88680436089476","279.4529895451725",18/12/21 22:52:24
"1","55","316.8518135470429","279.46015137068974",18/12/21 22:52:24
"1","55","316.8518135470429","279.46015137068974",18/12/21 22:52:24
"1","55","318.35034352131015","281.0442483719271",18/12/21 22:52:24
"1","55","318.2840013555058","281.8760149874478",18/12/21 22:52:24
"1","55","318.2840013555058","281.8760149874478",18/12/21 22:52:24
"1","55","318.67548510265686","281.6629572516951",18/12/21 22:52:24
"1","55","318.06795612724454","281.6629572516951",18/12/21 22:52:24
"1","55","318.24821034891096","281.06888986601683",18/12/21 22:52:24
"1","55","318.7834897860126","282.4835285402178",18/12/21 22:52:24
"1","55","318.7834897860126","282.4835285402178",18/12/21 22:52:24
"1","55","319.5725684913562","284.45778044151103",18/12/21 22:52:24
"1","55","319.5725684913562","284.45778044151103",18/12/21 22:52:24
"1","55","319.47093088851267","283.6457494096307",18/12/21 22:52:24
"1","55","318.02640345455194","282.14623642654936",18/12/21 22:52:24
"1","55","317.89607896802084","281.27242393266187",18/12/21 22:52:24
"1","55","317.89607896802084","281.27242393266187",18/12/21 22:52:24
"1","55","317.7194135754016","282.42597186656616",18/12/21 22:52:25
"1","55","317.7194135754016","282.42597186656616",18/12/21 22:52:25
"1","55","317.89992365927475","282.7433038360285",18/12/21 22:52:25
"1","55","318.03710635119853","284.03790603803776",18/12/21 22:52:25
"1","55","318.0591125928348","283.9369514752848",18/12/21 22:52:25
"1","55","317.4356322809492","283.6562394699682",18/12/21 22:52:25
"1","55","317.0572339716881","284.70191232858446",18/12/21 22:52:25
"1","55","317.0572339716881","284.70191232858446",18/12/21 22:52:25
"1","55","319.84719194158265","284.5083950383387",18/12/21 22:52:25
"1","55","320.22420130273304","284.6186594875111",18/12/21 22:52:25
"1","55","320.22420130273304","284.6186594875111",18/12/21 22:52:25
"1","55","320.06527105020393","281.0376548875279",18/12/21 22:52:25
"1","55","320.06527105020393","281.0376548875279",18/12/21 22:52:25
"1","55","318.68339372962066","282.27978460119317",18/12/21 22:52:25
"1","55","318.63550319057043","282.26820932630875",18/12/21 22:52:25
"1","55","318.264215725343","282.9431295894147",18/12/21 22:52:25
"1","55","318.264215725343","282.9431295894147",18/12/21 22:52:25
"1","55","318.5535480542552","281.84354875306866",18/12/21 22:52:25
"1","55","316.83655918369135","281.2215206573296",18/12/21 22:52:25
"1","55","317.3789685479482","281.2030355025824",18/12/21 22:52:25
"1","55","317.3789685479482","281.2030355025824",18/12/21 22:52:25
"1","55","317.7927110077519","281.4686566816012",18/12/21 22:52:25
"1","55","317.7927110077519","281.4686566816012",18/12/21 22:52:25
"1","55","318.45870417420167","280.8214889978087",18/12/21 22:52:25
"1","55","317.64778703908627","281.8305652066716",18/12/21 22:52:25
"1","55","317.64778703908627","281.8305652066716",18/12/21 22:52:25
"1","55","319.1136799125481","284.49049253302354",18/12/21 22:52:25
"1","55","317.4299383322865","283.7237013330504",18/12/21 22:52:25
"1","55","317.4322746848573","283.7343795831076",18/12/21 22:52:25
"1","55","317.4322746848573","283.7343795831076",18/12/21 22:52:25
"1","55","319.5251634413772","284.58500933838496",18/12/21 22:52:25
"1","55","319.5251634413772","284.58500933838496",18/12/21 22:52:25
"1","55","320.90622874809605","284.5923156593352",18/12/21 22:52:25
"1","55","320.77555624127075","284.70926766573285",18/12/21 22:52:25
"1","55","320.77555624127075","284.2643098315151",18/12/21 22:52:25
"1","55","319.783642480893","284.7408596696794",18/12/21 22:52:25
"1","55","319.81404121380257","284.7214334931784",18/12/21 22:52:25
"1","55","319.43457587058367","283.9863260173569",18/12/21 22:52:25
"1","55","318.2239440110896","282.94274507157377",18/12/21 22:52:25
"1","55","318.2239440110896","282.94274507157377",18/12/21 22:52:25
"1","55","317.14924810025195","284.8036643207858",18/12/21 22:52:25
"1","55","317.19392898576126","284.752604038779",18/12/21 22:52:25
"1","55","317.2128913583166","284.8577454406499",18/12/21 22:52:25
"1","55","317.7783578562096","282.8797707850298",18/12/21 22:52:25
"1","55","318.0710908665094","281.8978141340303",18/12/21 22:52:25
"1","55","319.84136046212836","283.1783725093671",18/12/21 22:52:25
"1","55","319.84136046212836","283.1783725093671",18/12/21 22:52:25
"1","55","321.0605034270414","282.54636243314275",18/12/21 22:52:25
"1","55","320.9617264010078","282.57418787025006",18/12/21 22:52:25
"1","55","319.7402001936299","283.5174927022823",18/12/21 22:52:25
"1","55","319.26318854898363","282.3145721202141",18/12/21 22:52:26
"1","55","319.26318854898363","282.3145721202141",18/12/21 22:52:26
"1","55","319.8879775780012","282.8801895538945",18/12/21 22:52:26
"1","55","320.2459030976656","281.66242380935",18/12/21 22:52:26
"1","55","320.8537437783","283.82778997140247",18/12/21 22:52:26
"1","55","321.0751833610809","284.2750689854726",18/12/21 22:52:26
"1","55","321.0751833610809","284.2750689854726",18/12/21 22:52:26
"1","55","320.12647862640335","282.3169174783779",18/12/21 22:52:26
"1","55","320.3695392270664","282.8093335735049",18/12/21 22:52:26
"1","55","320.3326797676415","282.819999611709",18/12/21 22:52:26
"1","55","320.3408825282108","282.7024438558381",18/12/21 22:52:26
"1","55","320.4759622842417","283.3242062482991",18/12/21 22:52:26
"1","55","321.04855596281703","282.79252627870386",18/12/21 22:52:26
"1","55","321.40623275642275","282.3230156228942",18/12/21 22:52:26
"1","55","319.703020780167","283.08817963755865",18/12/21 22:52:26
"1","55","320.6994284378116","283.1153614097982",18/12/21 22:52:26
"1","55","320.5887958211862","282.67049572197277",18/12/21 22:52:26
"1","55","320.71348957150207","282.50340737587453",18/12/21 22:52:26
"1","55","318.45865806917175","281.8882112604371",18/12/21 22:52:26
"1","55","318.45865806917175","281.8882112604371",18/12/21 22:52:26
"1","55","318.8342582016781","280.5111808135193",18/12/21 22:52:26
"1","55","318.8522033647725","280.13058509093736",18/12/21 22:52:26
"1","55","318.8522033647725","280.13058509093736",18/12/21 22:52:26
"1","55","318.51754569302267","284.20999415861627",18/12/21 22:52:26
"1","55","318.42423991220403","282.94201005369666",18/12/21 22:52:26
"1","55","318.3623355931661","282.981453320859",18/12/21 22:52:26
"1","55","320.47932947225263","282.86282731350514",18/12/21 22:52:26
"1","55","320.47932947225263","282.86282731350514",18/12/21 22:52:26
"1","55","319.9055934750565","281.3197830040019",18/12/21 22:52:26
"1","55","319.9055934750565","281.3197830040019",18/12/21 22:52:26
"1","55","320.6833127360745","281.13762969621627",18/12/21 22:52:26
"1","55","320.3590471511795","281.17794319830665",18/12/21 22:52:26
"1","55","320.5915176507833","281.56465076232155",18/12/21 22:52:26
"1","55","320.0024721830752","279.71009857139404",18/12/21 22:52:26
"1","55","320.2658357087386","281.2053558505302",18/12/21 22:52:26
"1","55","320.2658357087386","281.2053558505302",18/12/21 22:52:26
"1","55","321.2489977430289","282.55387034294324",18/12/21 22:52:26
"1","55","320.9656377397216","282.54509767272367",18/12/21 22:52:26
"1","55","320.52612314017426","280.0871302807357",18/12/21 22:52:26
"1","55","320.52612314017426","280.0871302807357",18/12/21 22:52:26
"1","55","320.4815006325739","279.04781117213616",18/12/21 22:52:26
"1","55","320.4815006325739","279.04781117213616",18/12/21 22:52:26
"1","55","320.3889662521207","278.6798226930682",18/12/21 22:52:26
"1","55","320.63664782003195","279.4951890247486",18/12/21 22:52:26
"1","55","320.0646139393319","278.1224469278812",18/12/21 22:52:26
"1","55","319.9404321364421","278.3954339822593",18/12/21 22:52:26
"1","55","319.9404321364421","278.3954339822593",18/12/21 22:52:26
"1","55","320.711400796308","279.1529768086837",18/12/21 22:52:26
"1","55","320.8764422061694","279.05164118240447",18/12/21 22:52:26
"1","55","320.8764422061694","279.05164118240447",18/12/21 22:52:26
"1","55","320.45874109179437","278.53619816233663",18/12/21 22:52:27
"1","55","320.45874109179437","278.53619816233663",18/12/21 22:52:27
"1","55","320.6103474253436","277.9373169990657",18/12/21 22:52:27
"1","55","320.6103474253436","277.9373169990657",18/12/21 22:52:27
"1","55","320.93574276758727","278.8017459811867",18/12/21 22:52:27
"1","55","320.93574276758727","278.8017459811867",18/12/21 22:52:27
"1","55","320.41003072152154","278.869874961894",18/12/21 22:52:27
"1","55","320.94234632349435","278.2383328704832",18/12/21 22:52:27
"1","55","319.13127665654133","278.2383328704832",18/12/21 22:52:27
"1","55","321.06556694673304","279.1779200662056",18/12/21 22:52:27
"1","55","321.06556694673304","279.1779200662056",18/12/21 22:52:27
"1","55","321.0575153190463","279.1902205677762",18/12/21 22:52:27
"1","55","319.7852453660483","278.2504427375497",18/12/21 22:52:27
"1","55","319.7852453660483","278.2504427375497",18/12/21 22:52:27
"1","55","319.8308614846254","278.3929847642712",18/12/21 22:52:27
"1","55","320.0649545714147","280.143768843619",18/12/21 22:52:27
"1","55","318.1305424266667","280.234477389598",18/12/21 22:52:27
"1","55","317.69146331278586","282.3292081590739",18/12/21 22:52:27
"1","55","318.5900586037069","281.69635639840885",18/12/21 22:52:27
"1","55","318.5900586037069","281.69635639840885",18/12/21 22:52:27
"1","55","317.01166653383206","283.3840363912213",18/12/21 22:52:27
"1","55","317.01166653383206","282.5294190211735",18/12/21 22:52:27
"1","55","317.10455396529045","282.57197693107565",18/12/21 22:52:27
"1","55","318.90816722825315","282.71377171429066",18/12/21 22:52:27
"1","55","319.9462681551834","282.6688449790266",18/12/21 22:52:27
"1","55","320.3167957158666","283.011810619579",18/12/21 22:52:27
"1","55","319.01180291456313","283.8765514188959",18/12/21 22:52:27
"1","55","319.0437333281425","283.96063850510006",18/12/21 22:52:27
"1","55","320.08664683709264","284.32223304389845",18/12/21 22:52:27
"1","55","320.08664683709264","284.32223304389845",18/12/21 22:52:27
"1","55","320.0564859528254","283.7994096437781",18/12/21 22:52:27
"1","55","321.2099061297002","284.1584172864713",18/12/21 22:52:27
"1","55","320.87487550445013","284.25636927768477",18/12/21 22:52:27
"1","55","321.01574220213956","282.06689998385434",18/12/21 22:52:27
"1","55","321.01574220213956","282.06689998385434",18/12/21 22:52:27
"1","55","317.2936465360302","283.6060740280194",18/12/21 22:52:27
"1","55","317.2936465360302","283.6060740280194",18/12/21 22:52:27
"1","55","317.34284262504843","284.4265284718316",18/12/21 22:52:27
"1","55","318.8164266682953","284.72274165718756",18/12/21 22:52:27
"1","55","319.2044259602769","283.60796048963965",18/12/21 22:52:27
"1","55","319.2044259602769","283.60796048963965",18/12/21 22:52:27
"1","55","317.60101873163785","283.12356001854357",18/12/21 22:52:27
"1","55","318.15072749711453","281.36774427352674",18/12/21 22:52:27
"1","55","317.3289383254178","281.2662683851287",18/12/21 22:52:27
"1","55","317.3289383254178","281.2662683851287",18/12/21 22:52:27
"1","55","318.85584520566994","282.04515877202806",18/12/21 22:52:27
"1","55","318.8150378930713","283.48550359873843",18/12/21 22:52:27
"1","55","319.8886065534763","282.0402495212447",18/12/21 22:52:27
"1","55","320.87435101390344","283.7397482085129",18/12/21 22:52:27
"1","55","321.2464703863538","283.6491234126844",18/12/21 22:52:27
"1","55","321.2464703863538","283.6491234126844",18/12/21 22:52:28
"1","55","321.26312704456086","283.6691524089294",18/12/21 22:52:28
"1","55","320.5524406501349","283.7952360544156",18/12/21 22:52:28
"1","55","320.6534624012431","283.90103244518474",18/12/21 22:52:28
"1","55","319.77328264704886","281.93844591970674",18/12/21 22:52:28
"1","55","319.32983779636515","282.1813226242932",18/12/21 22:52:28
"1","55","320.4855330267067","282.727418580244",18/12/21 22:52:28
"1","55","320.4855330267067","282.727418580244",18/12/21 22:52:28
"1","55","319.1760209000681","281.62808329496573",18/12/21 22:52:28
"1","55","319.1760209000681","281.62808329496573",18/12/21 22:52:28
"1","55","320.33775558333946","280.39429289799335",18/12/21 22:52:28
"1","55","319.9364580566583","280.4761205102311",18/12/21 22:52:28
"1","55","319.9364580566583","280.4761205102311",18/12/21 22:52:28
"1","55","320.00345659054915","278.4310705067008",18/12/21 22:52:28
"1","55","319.95679257708684","279.2497686791919",18/12/21 22:52:28
"1","55","319.60753403252585","278.6071158882463",18/12/21 22:52:28
"1","55","319.60753403252585","278.7973345989038",18/12/21 22:52:28
"1","55","319.38203484347497","278.7973345989038",18/12/21 22:52:28
"1","55","319.9180947778794","279.05701319190166",18/12/21 22:52:28
"1","55","319.94659199354396","279.22195101016166",18/12/21 22:52:28
"1","55","319.56851752722883","278.65453081856725",18/12/21 22:52:28
"1","55","320.9418331839509","279.4432532038641",18/12/21 22:52:28
"1","55","321.48975830093116","279.30668468697485",18/12/21 22:52:28
"1","55","321.4506432744433","279.874106142639",18/12/21 22:52:28
"1","55","320.051322697214","280.951726332987",18/12/21 22:52:28
"1","55","320.6604059152181","282.0072615017003",18/12/21 22:52:28
"1","55","319.4571820618262","283.4977975913488",18/12/21 22:52:28
"1","55","319.4571820618262","283.4977975913488",18/12/21 22:52:28
"1","55","319.4464819465893","283.4027574088585",18/12/21 22:52:28
"1","55","319.4464819465893","283.4027574088585",18/12/21 22:52:28
"1","55","319.0497411641316","282.6167958131808",18/12/21 22:52:28
"1","55","320.10837373996384","282.37093899769644",18/12/21 22:52:28
"1","55","320.5355793029272","284.31334853415046",18/12/21 22:52:28
"1","55","320.83085049323427","284.2686971786919",18/12/21 22:52:28
"1","55","320.67141717525766","284.31863019447337",18/12/21 22:52:28
"1","55","319.6607536288629","283.8580270020022",18/12/21 22:52:28
"1","55","319.6607536288629","283.8580270020022",18/12/21 22:52:28
"1","55","321.22157890941475","280.8275632374413",18/12/21 22:52:28
"1","55","321.22157890941475","280.8275632374413",18/12/21 22:52:28
"1","55","319.67603663356874","280.24983647666613",18/12/21 22:52:28
"1","55","319.6398727316531","278.64399854866747",18/12/21 22:52:28
"1","55","320.1668764868911","278.9426646806776",18/12/21 22:52:28
"1","55","319.1801459385999","278.2410160225724",18/12/21 22:52:28
"1","55","319.1801459385999","278.2410160225724",18/12/21 22:52:28
"1","55","319.13021984934284","282.19015213452434",18/12/21 22:52:28
"1","55","317.75612571127164","282.57415565863965",18/12/21 22:52:28
"1","55","316.9995073942844","282.9564484277175",18/12/21 22:52:28
"1","55","316.9995073942844","282.9564484277175",18/12/21 22:52:28
"1","55","317.1196143269386","282.9534749573104",18/12/21 22:52:28
"1","55","317.7824832115295","282.19729838349406",18/12/21 22:52:29
"1","55","317.7824832115295","282.19729838349406",18/12/21 22:52:29
"1","55","319.70778471011135","281.5572529581829",18/12/21 22:52:29
"1","55","319.72184831548196","280.3271688873888",18/12/21 22:52:29
"1","55","319.72184831548196","280.3271688873888",18/12/21 22:52:29
"1","55","320.6551501227263","283.10421914929714",18/12/21 22:52:29
"1","55","321.32095887720124","282.49568920781803",18/12/21 22:52:29
"1","55","320.3928433902979","280.5045459242819",18/12/21 22:52:29
"1","55","320.3928433902979","280.5045459242819",18/12/21 22:52:29
"1","55","318.30017817066226","280.99097822393776",18/12/21 22:52:29
"1","55","318.30017817066226","280.99097822393776",18/12/21 22:52:29
"1","55","317.9173837438346","277.9410981838546",18/12/21 22:52:29
"1","55","317.9173837438346","277.9410981838546",18/12/21 22:52:29
"1","55","319.80066184930394","279.2361426289014",18/12/21 22:52:29
"1","55","319.6729992082","279.2556994140787",18/12/21 22:52:29
"1","55","319.09444877057825","281.38441628507405",18/12/21 22:52:29
"1","55","318.8058354156052","283.7900542624956",18/12/21 22:52:29
"1","55","320.1334985692332","284.2712821113727",18/12/21 22:52:29
"1","55","320.83841451344597","282.3161587275033",18/12/21 22:52:29
"1","55","321.0473875772279","284.3561215213678",18/12/21 22:52:29
"1","55","319.7041919728571","283.2564098575774",18/12/21 22:52:29
"1","55","319.53043356583714","283.3085344235643",18/12/21 22:52:29
"1","55","319.5153265192723","283.18763211396026",18/12/21 22:52:29
"1","55","319.31138889561373","283.2524820944781",18/12/21 22:52:29
"1","55","320.0230062944132","281.2356522634356",18/12/21 22:52:29
"1","55","320.75647417322097","279.5589020440195",18/12/21 22:52:29
"1","55","320.75647417322097","279.5589020440195",18/12/21 22:52:29
"1","55","320.70562190749206","278.40912131931117",18/12/21 22:52:29
"1","55","320.70562190749206","278.40912131931117",18/12/21 22:52:29
"1","55","320.80106027974904","278.4680005259416",18/12/21 22:52:29
"1","55","320.80106027974904","278.4680005259416",18/12/21 22:52:29
"1","55","321.1161715504881","278.43957030980124",18/12/21 22:52:29
"1","55","321.12941737330755","277.9254789560069",18/12/21 22:52:29
"1","55","320.1670662793566","279.8411192452771",18/12/21 22:52:29
"1","55","321.29557572200065","277.85303485051185",18/12/21 22:52:29
"1","55","321.29557572200065","278.0759417580877",18/12/21 22:52:29
"1","55","319.9153844765915","279.50968782571147",18/12/21 22:52:29
"1","55","319.9153844765915","279.50968782571147",18/12/21 22:52:29
"1","55","320.2369219256804","280.47863210501026",18/12/21 22:52:29
"1","55","319.65848123851634","279.0261121711966",18/12/21 22:52:29
"1","55","321.00829253038387","279.71516924016896",18/12/21 22:52:29
"1","55","321.29929699766575","280.36799955527187",18/12/21 22:52:29
"1","55","321.28923539271784","280.37005979610086",18/12/21 22:52:29
"1","55","318.9924772608096","281.2845696902851",18/12/21 22:52:29
"1","55","318.9924772608096","281.2845696902851",18/12/21 22:52:29
"1","55","317.7198211604241","280.1104138380102",18/12/21 22:52:29
"1","55","320.64050359048196","280.8305649005136",18/12/21 22:52:29
"1","55","320.64050359048196","280.8305649005136",18/12/21 22:52:29
"1","55","319.9103854808327","282.76790290631646",18/12/21 22:52:29
"1","55","320.34173492547063","281.5842778371978",18/12/21 22:52:29
"1","55","319.8962964630301","281.0562018023172",18/12/21 22:52:30
"1","55","319.8962964630301","281.0562018023172",18/12/21 22:52:30
"1","55","318.45201312910734","281.13616242878305",18/12/21 22:52:30
"1","55","318.45201312910734","281.13616242878305",18/12/21 22:52:30
"1","55","318.941177880744","280.03962451918034",18/12/21 22:52:30
"1","55","318.941177880744","280.03962451918034",18/12/21 22:52:30
"1","55","318.18839741173946","279.20276396211807",18/12/21 22:52:30
"1","55","318.5550640981431","279.8231631171273",18/12/21 22:52:30
"1","55","318.5550640981431","280.15608412237106",18/12/21 22:52:30
"1","55","319.35811158091155","279.4300918173682",18/12/21 22:52:30
"1","55","319.35811158091155","279.6690383132762",18/12/21 22:52:30
"1","55","319.70706858478303","279.6690383132762",18/12/21 22:52:30
"1","55","318.4785894922289","281.459844156948",18/12/21 22:52:30
"1","55","318.62274392505753","280.83054101131967",18/12/21 22:52:30
"1","55","317.6734142498147","279.849067590575",18/12/21 22:52:30
"1","55","317.6734142498147","279.849067590575",18/12/21 22:52:30
"1","55","317.64877369445935","279.20242520215913",18/12/21 22:52:30
"1","55","317.824940300595","277.6010324359996",18/12/21 22:52:30
"1","55","319.4801085122619","279.15471454824007",18/12/21 22:52:30
"1","55","319.4801085122619","279.15945841497705",18/12/21 22:52:30
"1","55","319.95729808708177","278.97624532668357",18/12/21 22:52:30
"1","55","319.95729808708177","278.97624532668357",18/12/21 22:52:30
"1","55","319.00033131481496","280.91264580939446",18/12/21 22:52:30
"1","55","317.5247411468793","281.87562333590097",18/12/21 22:52:30
"1","55","318.0214847055786","283.37653699430984",18/12/21 22:52:30
"1","55","318.29801203811246","284.00386345532627",18/12/21 22:52:30
"1","55","318.29801203811246","284.00386345532627",18/12/21 22:52:30
"1","55","318.29801203811246","284.00386345532627",18/12/21 22:52:30
"1","55","319.87941127217624","284.7563110802159",18/12/21 22:52:30
"1","55","319.87941127217624","284.7563110802159",18/12/21 22:52:30
"1","88","319.8532874116353","285.92223083250025",18/12/21 22:52:30
"1","89","316.5684287257336","287.9275700235449",18/12/21 22:52:30
"1","89","316.5684287257336","287.9275700235449",18/12/21 22:52:30
"1","89","315.0800187594991","287.58608859189957",18/12/21 22:52:30
"1","89","312.0127030120335","286.8823635453637",18/12/21 22:52:30
"1","89","309.59350836288314","286.32733497732033",18/12/21 22:52:30
"1","89","307.28693869008356","285.79814561959927",18/12/21 22:52:30
"1","89","305.47242403282723","285.3818469673745",18/12/21 22:52:30
"1","15","304.6658404973725","284.32434586487864",18/12/21 22:52:30
"1","15","304.6658404973725","284.32434586487864",18/12/21 22:52:30
"1","15","304.5350238095349","282.9766471558059",18/12/21 22:52:30
"1","15","304.3159775179907","280.71999007924353",18/12/21 22:52:30
"1","15","304.0813835757124","278.50431662749605",18/12/21 22:52:30
"1","15","304.09895216154223","278.4288974713764",18/12/21 22:52:30
"1","15","304.09895216154223","278.4288974713764",18/12/21 22:52:30
"1","15","302.95019234854755","279.808375357491",18/12/21 22:52:30
"1","15","303.3800325435164","280.19779934979647",18/12/21 22:52:30
"1","15","302.73231668021754","279.90441284612933",18/12/21 22:52:30
"1","15","303.10229976194563","279.99938495856964",18/12/21 22:52:30
"1","15","303.10229976194563","279.99938495856964",18/12/21 22:52:30
"1","15","303.79549471360514","280.2749220939761",18/12/21 22:52:31
"1","15","303.6305751093222","280.83106703525164",18/12/21 22:52:31
"1","15","303.61636291409303","280.85938718464007",18/12/21 22:52:31
"1","15","303.61636291409303","280.85938718464007",18/12/21 22:52:31
"1","15","302.7656067620799","281.3714128625763",18/12/21 22:52:31
"1","15","302.7656067620799","281.3714128625763",18/12/21 22:52:31
"1","15","303.5202032150121","281.23319622100786",18/12/21 22:52:31
"1","15","303.5016202835595","281.09245420270173",18/12/21 22:52:31
"1","15","305.02143342036373","279.5169073104225",18/12/21 22:52:31
"1","15","304.3888117742321","279.5169073104225",18/12/21 22:52:31
"1","15","303.7327737291611","278.2136983655421",18/12/21 22:52:31
"1","15","303.7327737291611","278.2136983655421",18/12/21 22:52:31
"1","15","303.70859086590383","278.07068746143864",18/12/21 22:52:31
"1","15","303.69065714324427","280.0203912504955",18/12/21 22:52:31
"1","15","303.45599151096576","280.07348484245887",18/12/21 22:52:31
"1","15","305.04804406421283","280.28048833361527",18/12/21 22:52:31
"1","15","305.1122478347935","280.33683047318414",18/12/21 22:52:31
"1","15","305.1774382883571","279.6310991496185",18/12/21 22:52:31
"1","15","303.4386015649305","279.5874619964875",18/12/21 22:52:31
"1","15","303.4386015649305","279.5874619964875",18/12/21 22:52:31
"1","15","304.48703650351973","277.6673798793776",18/12/21 22:52:31
"1","15","304.48703650351973","279.3397485867371",18/12/21 22:52:31
"1","15","305.8213743277303","278.2491775158965",18/12/21 22:52:31
"1","15","305.5473884470638","278.2491775158965",18/12/21 22:52:31
"1","15","306.28007424494086","278.1120523837085",18/12/21 22:52:31
"1","15","304.79256164871487","278.3336713752241",18/12/21 22:52:31
"1","15","303.4757108417636","278.10400559986795",18/12/21 22:52:31
"1","15","303.92177359674474","278.3237440047398",18/12/21 22:52:31
"1","15","304.19234413579863","278.6541707422978",18/12/21 22:52:31
"1","15","303.9419958660904","279.0257298341721",18/12/21 22:52:31
"1","15","303.6740031317006","279.2879587206163",18/12/21 22:52:31
"1","15","303.6740031317006","279.2879587206163",18/12/21 22:52:31
"1","15","303.6655289785604","280.39124819954844",18/12/21 22:52:31
"1","15","303.72822511671154","279.620083495622",18/12/21 22:52:31
"1","15","304.3621852143308","280.90363795582937",18/12/21 22:52:31
"1","15","303.37654143745","280.8380179131805",18/12/21 22:52:31
"1","15","303.5020187252267","281.2485752575942",18/12/21 22:52:31
"1","15","303.5020187252267","281.2485752575942",18/12/21 22:52:31
"1","15","303.3940506565024","281.7815484530032",18/12/21 22:52:31
"1","15","303.7607909138341","281.7370810075828",18/12/21 22:52:31
"1","15","304.69027580922204","283.5428140945851",18/12/21 22:52:31
"1","15","304.71742417592526","283.4153416415611",18/12/21 22:52:31
"1","15","306.4302062687842","283.4402716325828",18/12/21 22:52:31
"1","15","306.06858107049175","282.92131494578985",18/12/21 22:52:31
"1","15","306.0565466130445","282.69822529169454",18/12/21 22:52:31
"1","15","306.43046914952174","284.10715480279913",18/12/21 22:52:31
"1","15","306.43046914952174","284.10715480279913",18/12/21 22:52:31
"1","15","304.5791992482703","283.1130667755389",18/12/21 22:52:31
"1","15","304.5791992482703","283.1130667755389",18/12/21 22:52:31
"1","15","302.7951986755664","283.9134352567522",18/12/21 22:52:31
"1","15","304.11236189177464","282.1815582647437",18/12/21 22:52:32
"1","15","304.05561523199","281.942809338838",18/12/21 22:52:32
"1","15","305.7597813174367","281.507284351444",18/12/21 22:52:32
"1","15","304.2785672171575","282.03141613940494",18/12/21 22:52:32
"1","15","304.2785672171575","282.03141613940494",18/12/21 22:52:32
"1","15","305.4094234429616","283.34256482885075",18/12/21 22:52:32
"1","15","306.2571284407901","282.75746006415295",18/12/21 22:52:32
"1","15","306.2571284407901","282.75746006415295",18/12/21 22:52:32
"1","15","305.52744681462764","282.46339499264457",18/12/21 22:52:32
"1","15","305.40513161574273","282.46339499264457",18/12/21 22:52:32
"1","15","303.859261296092","282.7303866203509",18/12/21 22:52:32
"1","15","303.8835907933765","282.7056193888739",18/12/21 22:52:32
"1","15","305.44104524922454","284.4366232448016",18/12/21 22:52:32
"1","15","303.7983876962214","283.55097303373543",18/12/21 22:52:32
"1","15","303.7983876962214","283.55097303373543",18/12/21 22:52:32
"1","15","302.91104231115975","282.97076016475694",18/12/21 22:52:32
"1","15","302.5257140620247","283.75774597542056",18/12/21 22:52:32
"1","15","302.4616397086485","283.8709207630845",18/12/21 22:52:32
"1","15","302.4616397086485","283.8709207630845",18/12/21 22:52:32
"1","15","303.3380147821139","284.0273694250827",18/12/21 22:52:32
"1","15","303.3380147821139","284.0273694250827",18/12/21 22:52:32
"1","15","302.5311589109564","283.1937628811505",18/12/21 22:52:32
"1","15","303.3749136871688","283.041060319576",18/12/21 22:52:32
"1","15","303.3749136871688","283.041060319576",18/12/21 22:52:32
"1","15","304.2621167737358","282.5099895531456",18/12/21 22:52:32
"1","15","303.5420118123278","282.47225740374705",18/12/21 22:52:32
"1","15","303.5420118123278","282.47225740374705",18/12/21 22:52:32
"1","15","306.2040702051947","283.2594704400793",18/12/21 22:52:32
"1","15","306.3255846510602","283.33660621134",18/12/21 22:52:32
"1","15","306.3255846510602","283.8646258811789",18/12/21 22:52:32
"1","15","306.1987539998657","283.8646258811789",18/12/21 22:52:32
"1","15","304.65812506968354","283.62648538381035",18/12/21 22:52:32
"1","15","304.65812506968354","283.62648538381035",18/12/21 22:52:32
"1","15","303.2958926667982","282.39124380132006",18/12/21 22:52:32
"1","15","303.2958926667982","282.39124380132006",18/12/21 22:52:32
"1","15","303.37575621879114","282.1875193794646",18/12/21 22:52:32
"1","15","305.9530279530266","282.0349293760425",18/12/21 22:52:32
"1","15","305.9530279530266","282.0349293760425",18/12/21 22:52:32
"1","15","305.56943487130025","282.9017993221669",18/12/21 22:52:32
"1","15","303.95330536252413","283.9860392520192",18/12/21 22:52:32
"1","15","304.4226641689143","281.6350458866861",18/12/21 22:52:32
"1","15","304.4226641689143","281.6350458866861",18/12/21 22:52:32
"1","15","303.9072640085795","283.6469787341526",18/12/21 22:52:32
"1","15","304.35023947289903","283.1909029871051",18/12/21 22:52:32
"1","15","304.35023947289903","283.1909029871051",18/12/21 22:52:32
"1","15","305.45758009594584","281.62497804778826",18/12/21 22:52:32
"1","15","305.4499509745132","282.27364790147817",18/12/21 22:52:32
"1","15","305.4499509745132","282.27364790147817",18/12/21 22:52:32
"1","15","305.8645454745835","280.21367066770875",18/12/21 22:52:32
"1","15","305.8645454745835","280.21367066770875",18/12/21 22:52:32
"1","15","305.7734376870125","280.1338497265531",18/12/21 22:52:33
"1","15","304.84493357766934","281.81993014388433",18/12/21 22:52:33
"1","15","304.84493357766934","281.81993014388433",18/12/21 22:52:33
"1","15","304.96170587056616","279.80049165650274",18/12/21 22:52:33
"1","15","303.06790054090123","277.9239725650398",18/12/21 22:52:33
"1","15","303.06790054090123","277.9239725650398",18/12/21 22:52:33
"1","15","303.63442649777573","278.0482590678554",18/12/21 22:52:33
"1","15","302.5493019637961","280.2052710766912",18/12/21 22:52:33
"1","15","302.2951590413963","279.6591848974685",18/12/21 22:52:33
"1","15","303.08386986227333","278.87412926630054",18/12/21 22:52:33
"1","15","303.08386986227333","278.87412926630054",18/12/21 22:52:33
"1","15","303.725887082045","279.0555391171542",18/12/21 22:52:33
"1","15","303.725887082045","279.0555391171542",18/12/21 22:52:33
"1","15","305.03442690837716","282.5117968227138",18/12/21 22:52:33
"1","15","305.03442690837716","282.5117968227138",18/12/21 22:52:33
"1","15","306.2456116761079","283.2534266877869",18/12/21 22:52:33
"1","15","306.2456116761079","283.2534266877869",18/12/21 22:52:33
"1","15","305.65912440661964","282.9051863235663",18/12/21 22:52:33
"1","15","304.70918849884293","281.758053774048",18/12/21 22:52:33
"1","15","304.8956154984188","281.232216941646",18/12/21 22:52:33
"1","15","304.8956154984188","281.232216941646",18/12/21 22:52:33
"1","15","305.34607685926625","279.41176917649796",18/12/21 22:52:33
"1","15","305.34607685926625","279.41176917649796",18/12/21 22:52:33
"1","15","304.76450471259625","279.5196474256898",18/12/21 22:52:33
"1","15","304.76450471259625","279.5196474256898",18/12/21 22:52:33
"1","15","304.12275171801645","279.3796775012905",18/12/21 22:52:33
"1","15","303.5543881366407","280.7092974212132",18/12/21 22:52:33
"1","15","304.56757762449314","280.43595913340954",18/12/21 22:52:33
"1","15","304.56757762449314","280.43595913340954",18/12/21 22:52:33
"1","15","303.71022216008265","280.774089613469",18/12/21 22:52:33
"1","15","302.69305412784826","282.40683466977447",18/12/21 22:52:33
"1","15","302.69305412784826","282.40683466977447",18/12/21 22:52:33
"1","15","302.8050292910615","283.4690861390127",18/12/21 22:52:33
"1","15","302.8050292910615","283.4690861390127",18/12/21 22:52:33
"1","15","304.12661264024564","282.8276993343133",18/12/21 22:52:33
"1","15","306.2542602265018","283.5641884305012",18/12/21 22:52:33
"1","15","305.57335255193414","284.7008546071933",18/12/21 22:52:33
"1","15","305.57335255193414","284.7008546071933",18/12/21 22:52:33
"1","15","304.7241510002076","284.22002465974805",18/12/21 22:52:33
"1","15","304.8402713304281","283.3903565639132",18/12/21 22:52:33
"1","15","304.8402713304281","283.3903565639132",18/12/21 22:52:33
"1","15","306.4494848624123","283.7347113936081",18/12/21 22:52:33
"1","15","306.4494848624123","283.7347113936081",18/12/21 22:52:33
"1","15","306.3444815314786","283.54154166694923",18/12/21 22:52:33
"1","15","304.04116745217186","283.8157446293927",18/12/21 22:52:33
"1","15","304.04116745217186","283.8157446293927",18/12/21 22:52:33
"1","15","305.4093474727427","281.9051894068875",18/12/21 22:52:33
"1","15","303.97604757818755","282.8159000197903",18/12/21 22:52:33
"1","15","303.97604757818755","282.8159000197903",18/12/21 22:52:33
"1","15","302.43684312022185","280.1514405654506",18/12/21 22:52:33
"1","15","302.43684312022185","280.1514405654506",18/12/21 22:52:34
"1","15","302.8272097849544","279.7639165695314",18/12/21 22:52:34
"1","15","302.8272097849544","279.7639165695314",18/12/21 22:52:34
"1","15","304.8273009193841","277.65774368397354",18/12/21 22:52:34
"1","15","304.8273009193841","277.65774368397354",18/12/21 22:52:34
"1","15","302.73467357104016","277.93560930662255",18/12/21 22:52:34
"1","15","302.73467357104016","277.93560930662255",18/12/21 22:52:34
"1","15","302.5070616260797","280.40273649486187",18/12/21 22:52:34
"1","15","302.5070616260797","280.4500983297054",18/12/21 22:52:34
"1","15","304.6723627548102","280.54492898783093",18/12/21 22:52:34
"1","15","304.42244953783404","282.7160525225992",18/12/21 22:52:34
"1","15","304.42244953783404","282.7160525225992",18/12/21 22:52:34
"1","15","304.74860039578243","283.015058841148",18/12/21 22:52:34
"1","15","304.6915570920573","283.015058841148",18/12/21 22:52:34
"1","15","304.3701864563081","283.50386889749575",18/12/21 22:52:34
"1","15","304.01934088938776","283.2436765676676",18/12/21 22:52:34
"1","15","306.17324381079106","282.8771164981963",18/12/21 22:52:34
"1","15","306.17324381079106","282.8771164981963",18/12/21 22:52:34
"1","15","306.1771953460348","282.6856737228569",18/12/21 22:52:34
"1","15","306.1771953460348","282.6856737228569",18/12/21 22:52:34
"1","15","306.491323319191","281.69735442228455",18/12/21 22:52:34
"1","15","306.491323319191","281.69735442228455",18/12/21 22:52:34
"1","15","304.93775722655425","281.7632819996465",18/12/21 22:52:34
"1","15","304.93775722655425","281.7632819996465",18/12/21 22:52:34
"1","15","304.431231682197","283.3097647381207",18/12/21 22:52:34
"1","15","304.431231682197","283.3097647381207",18/12/21 22:52:34
"1","15","305.7149582562769","282.44905594898984",18/12/21 22:52:34
"1","15","305.47227746610804","284.82538031227006",18/12/21 22:52:34
"1","15","306.1163892964214","283.3569069956695",18/12/21 22:52:34
"1","15","306.1163892964214","283.3569069956695",18/12/21 22:52:34
"1","15","306.3114312827441","281.74202181118653",18/12/21 22:52:34
"1","15","303.8446691269001","281.6778579700354",18/12/21 22:52:34
"1","15","302.98848332322893","283.7975059104619",18/12/21 22:52:34
"1","15","302.98848332322893","283.7975059104619",18/12/21 22:52:34
"1","15","303.39560029269364","284.02800488336067",18/12/21 22:52:34
"1","15","303.39560029269364","284.02800488336067",18/12/21 22:52:34
"1","15","303.29546471646694","283.13405050728954",18/12/21 22:52:34
"1","15","303.29546471646694","283.13405050728954",18/12/21 22:52:34
"1","15","304.15251762879683","283.5196655356912",18/12/21 22:52:34
"1","15","305.7177822281306","283.58805103927557",18/12/21 22:52:34
"1","15","304.4813244890112","284.51332545097813",18/12/21 22:52:34
"1","15","304.4813244890112","284.51332545097813",18/12/21 22:52:34
"1","15","303.6565035566071","283.1246552698866",18/12/21 22:52:34
"1","15","303.6565035566071","283.1246552698866",18/12/21 22:52:34
"1","15","304.542352819805","283.5780549431825",18/12/21 22:52:34
"1","15","303.31260891415565","283.2233218681059",18/12/21 22:52:34
"1","15","303.31260891415565","283.2233218681059",18/12/21 22:52:34
"1","15","303.7485642636117","283.6192716126688",18/12/21 22:52:34
"1","15","305.7188590179406","283.5911898431096",18/12/21 22:52:34
"1","15","305.7188590179406","283.5911898431096",18/12/21 22:52:35
"1","15","305.9443781592819","283.5380679884108",18/12/21 22:52:35
"1","15","304.8795747031551","284.23815161813206",18/12/21 22:52:35
"1","15","304.8795747031551","284.23815161813206",18/12/21 22:52:35
"1","15","305.197664014151","283.5564123800916",18/12/21 22:52:35
"1","15","305.197664014151","283.5564123800916",18/12/21 22:52:35
"1","15","304.4679433156846","283.05335159727014",18/12/21 22:52:35
"1","15","305.77645967659174","283.3388209426446",18/12/21 22:52:35
"1","15","305.77645967659174","283.3388209426446",18/12/21 22:52:35
"1","15","305.0692422995209","284.7124796105304",18/12/21 22:52:35
"1","15","305.0692422995209","284.7124796105304",18/12/21 22:52:35
"1","15","305.00729473077706","284.6644410049956",18/12/21 22:52:35
"1","15","305.00729473077706","284.6644410049956",18/12/21 22:52:35
"1","15","305.1873310070584","284.8541224262591",18/12/21 22:52:35
"1","15","304.7546722809102","283.6501115282482",18/12/21 22:52:35
"1","15","305.37100584989787","283.2682357207771",18/12/21 22:52:35
"1","15","304.429013040225","282.22037768049864",18/12/21 22:52:35
"1","15","304.429013040225","282.22037768049864",18/12/21 22:52:35
"1","15","304.3678988659956","281.4930879276242",18/12/21 22:52:35
"1","15","306.4226350202169","282.62734077840634",18/12/21 22:52:35
"1","15","305.7264072490662","282.72059535073606",18/12/21 22:52:35
"1","15","305.7264072490662","282.72059535073606",18/12/21 22:52:35
"1","15","304.85269480132837","279.089542444252",18/12/21 22:52:35
"1","15","304.85269480132837","279.089542444252",18/12/21 22:52:35
"1","15","303.6361537320115","278.5574708064017",18/12/21 22:52:35
"1","15","303.6361537320115","278.5574708064017",18/12/21 22:52:35
"1","15","304.88567424683555","278.5417325847193",18/12/21 22:52:35
"1","15","304.88567424683555","278.5417325847193",18/12/21 22:52:35
"1","15","305.0458196743293","281.85827279507373",18/12/21 22:52:35
"1","15","305.0458196743293","281.85827279507373",18/12/21 22:52:35
"1","15","302.2468479860161","283.1293784554325",18/12/21 22:52:35
"1","15","302.2468479860161","283.1293784554325",18/12/21 22:52:35
"1","15","302.33269831795974","283.1425869627864",18/12/21 22:52:35
"1","15","303.8750404996809","284.439750991669",18/12/21 22:52:35
"1","15","303.5246447242945","282.721126778177",18/12/21 22:52:35
"1","15","303.5246447242945","282.721126778177",18/12/21 22:52:35
"1","15","304.23007820549213","280.58776633606334",18/12/21 22:52:35
"1","15","305.6442551522614","281.3821502395881",18/12/21 22:52:35
"1","15","305.6442551522614","281.3821502395881",18/12/21 22:52:35
"1","15","305.0917404915115","281.07546639173523",18/12/21 22:52:35
"1","15","305.0917404915115","281.07546639173523",18/12/21 22:52:35
"1","15","306.3389406564584","279.08122098765773",18/12/21 22:52:35
"1","15","306.31577024069577","279.13082806923927",18/12/21 22:52:35
"1","15","306.31577024069577","279.13082806923927",18/12/21 22:52:35
"1","15","305.6952785010231","280.4831713281809",18/12/21 22:52:35
"1","15","303.3524545835376","280.08778851049715",18/12/21 22:52:35
"1","15","303.5548728779442","280.28082483452573",18/12/21 22:52:35
"1","15","303.5548728779442","280.28082483452573",18/12/21 22:52:35
"1","15","304.2934520719742","281.72579812260386",18/12/21 22:52:35
"1","15","305.33901730514174","283.7713659440133",18/12/21 22:52:35
"1","88","306.35515443659887","285.2291526393297",18/12/21 22:52:36
"1","88","307.78121578642833","285.2933428632562",18/12/21 22:52:36
"1","88","310.1128665877244","285.3982957021166",18/12/21 22:52:36
"1","88","310.1128665877244","285.3982957021166",18/12/21 22:52:36
"1","88","312.1188987394085","285.4885917143014",18/12/21 22:52:36
"1","88","313.63505864974223","285.55683747677466",18/12/21 22:52:36
"1","88","316.6241510642342","285.69138323909146",18/12/21 22:52:36
"1","88","316.6241510642342","285.69138323909146",18/12/21 22:52:36
"1","88","320.3655936449036","285.9949158032189",18/12/21 22:52:36
"1","88","320.3655936449036","285.9949158032189",18/12/21 22:52:36
"1","88","324.2655660259033","286.32325517639896",18/12/21 22:52:36
"1","88","325.9976046341224","286.46907581700583",18/12/21 22:52:36
"1","88","325.9976046341224","286.46907581700583",18/12/21 22:52:36
"1","88","329.9274939331146","286.7999339008694",18/12/21 22:52:36
"1","88","329.9274939331146","286.7999339008694",18/12/21 22:52:36
"1","30","332.72913142487096","286.1688637239054",18/12/21 22:52:36
"1","30","332.72913142487096","286.1688637239054",18/12/21 22:52:36
"1","30","333.800622280054","284.9398319942208",18/12/21 22:52:36
"1","30","336.15008872011776","282.2449244374277",18/12/21 22:52:36
"1","30","336.15008872011776","282.2449244374277",18/12/21 22:52:36
"1","30","338.6223194319558","279.4092026267822",18/12/21 22:52:36
"1","30","338.6223194319558","279.4092026267822",18/12/21 22:52:36
"1","30","339.94393571556253","276.49345698628684",18/12/21 22:52:36
"1","30","340.3763868957144","276.70142852221045",18/12/21 22:52:36
"1","30","340.3763868957144","276.70142852221045",18/12/21 22:52:36
"1","30","339.9447643058673","277.5290734071734",18/12/21 22:52:36
"1","30","338.66882134947144","278.00405959976143",18/12/21 22:52:36
"1","30","339.54897501809785","279.2545554892421",18/12/21 22:52:36
"1","30","339.54897501809785","279.2545554892421",18/12/21 22:52:36
"1","30","340.8380102400566","279.5341615988333",18/12/21 22:52:36
"1","30","340.8380102400566","279.5341615988333",18/12/21 22:52:36
"1","30","340.02497171664726","278.77031002388617",18/12/21 22:52:36
"1","30","340.02497171664726","278.77031002388617",18/12/21 22:52:36
"1","30","338.82382772946124","279.12098984384323",18/12/21 22:52:36
"1","30","339.3181427653796","281.2497527955414",18/12/21 22:52:36
"1","30","339.3181427653796","281.2497527955414",18/12/21 22:52:36
"1","30","341.0220009500836","282.04082638189584",18/12/21 22:52:36
"1","30","339.3882362077259","283.92390465361973",18/12/21 22:52:36
"1","30","340.23945772401163","284.88505028776154",18/12/21 22:52:36
"1","30","340.23945772401163","284.99365676198903",18/12/21 22:52:36
"1","30","339.4580707265239","284.99365676198903",18/12/21 22:52:36
"1","30","339.7565879056614","284.76994796067567",18/12/21 22:52:36
"1","30","339.5278921558922","284.15943175391783",18/12/21 22:52:36
"1","30","339.41968643481994","284.2333016045508",18/12/21 22:52:36
"1","30","339.41968643481994","284.2333016045508",18/12/21 22:52:36
"1","30","337.5453211395856","283.2794904971089",18/12/21 22:52:36
"1","30","337.5453211395856","283.2794904971089",18/12/21 22:52:36
"1","30","335.80092921095013","284.38635373669223",18/12/21 22:52:36
"1","30","335.80092921095013","284.38635373669223",18/12/21 22:52:36
"1","30","335.7730002077906","284.16901505127726",18/12/21 22:52:36
"1","30","337.33183135631174","284.46700464750415",18/12/21 22:52:37
"1","30","337.6865729367481","284.8542888399614",18/12/21 22:52:37
"1","30","337.6865729367481","284.8542888399614",18/12/21 22:52:37
"1","30","336.4180108578601","284.8390227033786",18/12/21 22:52:37
"1","30","338.0921034961174","283.5802679891539",18/12/21 22:52:37
"1","30","337.7524451260267","284.0364760081664",18/12/21 22:52:37
"1","30","337.7524451260267","284.0364760081664",18/12/21 22:52:37
"1","30","336.64022541560433","282.4753089357593",18/12/21 22:52:37
"1","30","336.64022541560433","282.4753089357593",18/12/21 22:52:37
"1","30","336.8282320522933","283.82717881578014",18/12/21 22:52:37
"1","30","335.60708795036567","283.3185586906574",18/12/21 22:52:37
"1","30","335.60708795036567","282.8196265126267",18/12/21 22:52:37
"1","30","335.92528248659573","283.67102199501693",18/12/21 22:52:37
"1","30","335.92528248659573","283.67102199501693",18/12/21 22:52:37
"1","30","335.7831771953116","285.91614215688793",18/12/21 22:52:37
"1","30","337.46711892937674","284.33402516836696",18/12/21 22:52:37
"1","30","337.54549762284176","281.88335118689844",18/12/21 22:52:37
"1","30","338.18995189522497","283.16860584795546",18/12/21 22:52:37
"1","30","338.3867010045303","282.8183390549147",18/12/21 22:52:37
"1","30","338.3867010045303","282.8183390549147",18/12/21 22:52:37
"1","30","337.9205503990194","282.00508453858237",18/12/21 22:52:37
"1","30","337.9205503990194","282.00508453858237",18/12/21 22:52:37
"1","30","336.7346970900005","281.0588268084328",18/12/21 22:52:37
"1","30","335.3181922009162","281.0921849019345",18/12/21 22:52:37
"1","30","335.3181922009162","281.0921849019345",18/12/21 22:52:37
"1","30","335.3181922009162","281.0921849019345",18/12/21 22:52:37
"1","30","336.582976259715","282.18256305991673",18/12/21 22:52:37
"1","30","336.582976259715","282.18256305991673",18/12/21 22:52:37
"1","30","337.8519350464763","283.2765402766901",18/12/21 22:52:37
"1","30","337.8519350464763","283.2765402766901",18/12/21 22:52:37
"1","30","339.7449529351929","284.90852270417776",18/12/21 22:52:37
"1","30","341.300815561509","286.2498414951238",18/12/21 22:52:37
"1","26","344.94838198790535","285.8654257913214",18/12/21 22:52:37
"1","26","346.2932924218863","285.72099881696704",18/12/21 22:52:37
"1","26","347.73148225635225","285.5665547728947",18/12/21 22:52:37
"1","26","349.74079253987867","285.35077935956116",18/12/21 22:52:37
"1","26","349.74079253987867","285.35077935956116",18/12/21 22:52:37
"1","77","349.3694136398972","283.05105098058095",18/12/21 22:52:37
"1","77","349.3694136398972","283.05105098058095",18/12/21 22:52:37
"1","77","349.39466578813114","282.8930493968026",18/12/21 22:52:37
"1","77","349.39466578813114","282.8930493968026",18/12/21 22:52:37
"1","77","350.5221594940665","281.4583159698584",18/12/21 22:52:37
"1","77","350.2042268729077","283.5403050226355",18/12/21 22:52:37
"1","77","350.14338525382334","284.09591418989515",18/12/21 22:52:37
"1","77","350.14338525382334","284.09591418989515",18/12/21 22:52:37
"1","77","349.9220477241603","284.69829446102705",18/12/21 22:52:37
"1","77","348.3911409343481","282.9928023438748",18/12/21 22:52:37
"1","77","348.3911409343481","282.9928023438748",18/12/21 22:52:37
"1","77","350.5453639118611","280.46182341222834",18/12/21 22:52:37
"1","77","350.5453639118611","280.46182341222834",18/12/21 22:52:37
"1","77","350.27729663781474","281.68189857719494",18/12/21 22:52:38
"1","77","349.19574311364545","281.73999288778646",18/12/21 22:52:38
"1","77","349.1676924155738","281.7564976604425",18/12/21 22:52:38
"1","77","349.1676924155738","281.7564976604425",18/12/21 22:52:38
"1","77","349.1676924155738","281.7564976604425",18/12/21 22:52:38
"1","77","349.7947034978224","284.12496733422853",18/12/21 22:52:38
"1","77","349.7947034978224","284.12496733422853",18/12/21 22:52:38
"1","26","347.01477261730656","285.9207804607486",18/12/21 22:52:38
"1","26","345.3101568511162","286.31187437733956",18/12/21 22:52:38
"1","26","345.3101568511162","286.31187437733956",18/12/21 22:52:38
"1","26","342.7106533659695","286.90828444191976",18/12/21 22:52:38
"1","26","342.7106533659695","286.90828444191976",18/12/21 22:52:38
"1","30","339.2069004765638","288.32920972362643",18/12/21 22:52:38
"1","30","339.2069004765638","288.32920972362643",18/12/21 22:52:38
"1","6","338.6851764556723","289.490883854328",18/12/21 22:52:38
"1","6","338.46179099186503","291.4639892162685",18/12/21 22:52:38
"1","6","338.46179099186503","291.4639892162685",18/12/21 22:52:38
"1","6","338.48649145032135","291.89570770779517",18/12/21 22:52:38
"1","6","338.48649145032135","291.89570770779517",18/12/21 22:52:38
"1","6","338.4694564870676","294.19985844629133",18/12/21 22:52:38
"1","6","338.9126004060323","295.10101180104357",18/12/21 22:52:38
"1","6","338.29840829510147","295.32153414630244",18/12/21 22:52:38
"1","6","338.29840829510147","295.32153414630244",18/12/21 22:52:38
"1","6","337.5185415456587","293.8877673861931",18/12/21 22:52:38
"1","6","337.5185415456587","293.8877673861931",18/12/21 22:52:38
"1","6","335.73152267197526","295.7597880432062",18/12/21 22:52:38
"1","6","335.73152267197526","295.7597880432062",18/12/21 22:52:38
"1","6","334.48000701128456","295.91203895647124",18/12/21 22:52:38
"1","6","334.48000701128456","295.91203895647124",18/12/21 22:52:38
"1","6","334.43277696003645","295.99070991108624",18/12/21 22:52:38
"1","6","332.58639909877326","295.2580009072082",18/12/21 22:52:38
"1","6","334.5489759068394","294.6034305782691",18/12/21 22:52:38
"1","6","335.0600492487997","294.9390295346962",18/12/21 22:52:38
"1","6","333.2478204257369","295.3299064114415",18/12/21 22:52:38
"1","6","333.2478204257369","295.3299064114415",18/12/21 22:52:38
"1","6","334.6597696354138","294.154072845108",18/12/21 22:52:38
"1","6","334.6597696354138","294.154072845108",18/12/21 22:52:38
"1","6","334.69362608895915","294.08113208735034",18/12/21 22:52:38
"1","6","336.35039058871683","292.24854344699276",18/12/21 22:52:38
"1","6","334.4962364579915","292.7632633453274",18/12/21 22:52:38
"1","6","334.4962364579915","292.7632633453274",18/12/21 22:52:38
"1","6","333.5358148345971","292.3392103130486",18/12/21 22:52:38
"1","6","332.0539836081663","292.96739930537257",18/12/21 22:52:38
"1","6","332.0539836081663","292.96739930537257",18/12/21 22:52:38
"1","6","333.48407022313904","293.6912908340179",18/12/21 22:52:38
"1","6","332.109961879568","293.0840960036136",18/12/21 22:52:38
"1","6","332.2259379127879","292.0737892607872",18/12/21 22:52:38
"1","6","332.2259379127879","292.0737892607872",18/12/21 22:52:38
"1","6","334.16227318545344","295.783788219856",18/12/21 22:52:38
"1","6","334.16227318545344","295.783788219856",18/12/21 22:52:39
"1","6","334.5853436203432","296.4231389208168",18/12/21 22:52:39
"1","6","332.9268189378924","295.52864777734806",18/12/21 22:52:39
"1","6","332.9495198500094","295.5521621146405",18/12/21 22:52:39
"1","6","333.0571653012802","295.06262948730347",18/12/21 22:52:39
"1","6","332.0757255039759","293.9083011282968",18/12/21 22:52:39
"1","6","332.0757255039759","293.9083011282968",18/12/21 22:52:39
"1","6","334.08378541075757","295.8628221001956",18/12/21 22:52:39
"1","6","334.08378541075757","295.8628221001956",18/12/21 22:52:39
"1","6","333.9475356760102","295.7830972442706",18/12/21 22:52:39
"1","6","333.4417714992357","294.8056611243576",18/12/21 22:52:39
"1","6","333.4417714992357","294.8056611243576",18/12/21 22:52:39
"1","6","335.2826670270604","295.1463410594957",18/12/21 22:52:39
"1","6","335.2826670270604","295.1463410594957",18/12/21 22:52:39
"1","6","335.2826670270604","295.1463410594957",18/12/21 22:52:39
"1","6","336.7583507932446","291.26225699959934",18/12/21 22:52:39
"1","6","336.7583507932446","291.26225699959934",18/12/21 22:52:39
"1","26","339.16490895796727","288.4351573096038",18/12/21 22:52:39
"1","26","340.5469476114342","288.064272548204",18/12/21 22:52:39
"1","26","340.5469476114342","288.064272548204",18/12/21 22:52:39
"1","30","344.09554548629137","288.28058991626403",18/12/21 22:52:39
"1","30","344.09554548629137","288.28058991626403",18/12/21 22:52:39
"1","26","345.3281700582466","288.4666164052076",18/12/21 22:52:39
"1","26","346.6091798203072","288.4537671450168",18/12/21 22:52:39
"1","26","348.4027082525517","288.52710266666185",18/12/21 22:52:39
"1","26","348.4027082525517","288.52710266666185",18/12/21 22:52:39
"1","26","348.03146598435507","288.24465866755486",18/12/21 22:52:39
"1","26","348.03146598435507","288.24465866755486",18/12/21 22:52:39
"1","26","344.9210515496539","287.4304213455321",18/12/21 22:52:39
"1","26","344.9210515496539","287.4304213455321",18/12/21 22:52:39
"1","26","345.12165537253","286.4298374559096",18/12/21 22:52:39
"1","26","346.97241525352854","288.0211917066909",18/12/21 22:52:39
"1","26","346.97241525352854","288.0211917066909",18/12/21 22:52:39
"1","26","347.1407749248058","285.8335930176033",18/12/21 22:52:39
"1","26","347.80800535574497","286.02035095278427",18/12/21 22:52:39
"1","26","347.80800535574497","286.02035095278427",18/12/21 22:52:39
"1","26","346.4825020569137","285.57894646324746",18/12/21 22:52:39
"1","26","346.4825020569137","285.57894646324746",18/12/21 22:52:39
"1","26","346.1492518383458","288.087355421623",18/12/21 22:52:39
"1","26","346.1492518383458","288.087355421623",18/12/21 22:52:39
"1","26","346.93407707174754","286.2484942032712",18/12/21 22:52:39
"1","26","346.93407707174754","286.2484942032712",18/12/21 22:52:39
"1","26","347.0410918672231","286.1564761445226",18/12/21 22:52:39
"1","26","347.05027830797553","286.1564761445226",18/12/21 22:52:39
"1","26","347.825184156983","286.5803626721628",18/12/21 22:52:39
"1","26","347.825184156983","286.5803626721628",18/12/21 22:52:39
"1","26","348.78491569984106","287.99579217705696",18/12/21 22:52:39
"1","26","349.21006025265166","288.268898376911",18/12/21 22:52:39
"1","26","350.090316657427","287.17215382160936",18/12/21 22:52:39
"1","26","350.090316657427","287.17215382160936",18/12/21 22:52:39
"1","26","350.2421280438368","288.17912500444004",18/12/21 22:52:40
"1","26","350.2421280438368","288.17912500444004",18/12/21 22:52:40
"1","26","351.47620349586225","288.37937564886323",18/12/21 22:52:40
"1","26","351.479107945623","286.199350522714",18/12/21 22:52:40
"1","26","351.479107945623","286.199350522714",18/12/21 22:52:40
"1","26","350.30651933346786","287.11305405916676",18/12/21 22:52:40
"1","26","350.30651933346786","287.11305405916676",18/12/21 22:52:40
"1","26","347.6325626235431","286.7659833883138",18/12/21 22:52:40
"1","26","347.6325626235431","286.7659833883138",18/12/21 22:52:40
"1","26","346.8368592155253","286.4559439875727",18/12/21 22:52:40
"1","26","346.8368592155253","286.4559439875727",18/12/21 22:52:40
"1","26","345.12232797795957","287.4477254094282",18/12/21 22:52:40
"1","26","345.12232797795957","287.4477254094282",18/12/21 22:52:40
"1","26","345.0200976255831","287.0620921485058",18/12/21 22:52:40
"1","26","345.35645447009995","286.8721321422134",18/12/21 22:52:40
"1","26","345.35645447009995","286.8721321422134",18/12/21 22:52:40
"1","26","346.11794453914837","287.4884910930621",18/12/21 22:52:40
"1","26","348.2158415240844","286.5670171145546",18/12/21 22:52:40
"1","26","349.6234641692555","287.82975905372206",18/12/21 22:52:40
"1","26","349.6234641692555","287.82975905372206",18/12/21 22:52:40
"1","26","349.96203441344875","286.6652039995459",18/12/21 22:52:40
"1","26","349.96203441344875","286.5280874952261",18/12/21 22:52:40
"1","26","349.99505988227895","286.5280874952261",18/12/21 22:52:40
"1","26","347.05835006123857","285.6756463057898",18/12/21 22:52:40
"1","26","346.5314000530019","286.04851368110474",18/12/21 22:52:40
"1","26","346.5314000530019","286.04851368110474",18/12/21 22:52:40
"1","26","346.16574482502466","286.27654527146257",18/12/21 22:52:40
"1","26","346.16574482502466","286.941023766407",18/12/21 22:52:40
"1","26","347.1269556926275","287.67446762098047",18/12/21 22:52:40
"1","26","347.6686791448874","288.5506573943556",18/12/21 22:52:40
"1","26","347.51645563558935","288.6159228971434",18/12/21 22:52:40
"1","26","347.51645563558935","287.2295404967755",18/12/21 22:52:40
"1","26","346.898164008445","287.2295404967755",18/12/21 22:52:40
"1","26","345.19546815233747","287.95763208627886",18/12/21 22:52:40
"1","26","345.19546815233747","287.95763208627886",18/12/21 22:52:40
"1","26","346.9522500000575","288.4015927408408",18/12/21 22:52:40
"1","26","347.0163572076416","288.54423336026656",18/12/21 22:52:40
"1","26","347.4186001559766","288.1965398169315",18/12/21 22:52:40
"1","26","347.4186001559766","288.1965398169315",18/12/21 22:52:40
"1","26","348.1645014419909","288.658037150671",18/12/21 22:52:40
"1","26","348.1645014419909","288.658037150671",18/12/21 22:52:40
"1","26","346.5620757319002","287.8397805933098",18/12/21 22:52:40
"1","26","346.5372946600384","286.69937298842825",18/12/21 22:52:40
"1","26","346.5372946600384","286.69937298842825",18/12/21 22:52:40
"1","26","346.9668386170579","287.40932166626783",18/12/21 22:52:40
"1","26","346.0310736242072","287.7764001800209",18/12/21 22:52:40
"1","26","346.0310736242072","287.7764001800209",18/12/21 22:52:40
"1","26","347.68582359135837","287.95804159331743",18/12/21 22:52:40
"1","26","347.68582359135837","287.95804159331743",18/12/21 22:52:40
"1","26","347.899527290974","286.5600222185669",18/12/21 22:52:40
"1","26","349.8913037550735","286.7432997620873",18/12/21 22:52:41
"1","26","349.8913037550735","286.7432997620873",18/12/21 22:52:41
"1","26","349.70020856250414","286.08618674276767",18/12/21 22:52:41
"1","26","349.70020856250414","286.08618674276767",18/12/21 22:52:41
"1","26","349.1674170683858","285.7731969021857",18/12/21 22:52:41
"1","26","349.1674170683858","285.7731969021857",18/12/21 22:52:41
"1","26","349.25861514075297","285.91454695912535",18/12/21 22:52:41
"1","26","345.6661670459482","287.2291612749933",18/12/21 22:52:41
"1","26","345.4093171802802","287.59171280008235",18/12/21 22:52:41
"1","26","345.4093171802802","287.59171280008235",18/12/21 22:52:41
"1","26","347.0014933183745","285.7879728060445",18/12/21 22:52:41
"1","26","347.0014933183745","285.7879728060445",18/12/21 22:52:41
"1","26","348.9800133053248","285.70110013965376",18/12/21 22:52:41
"1","26","348.61131355779787","286.51738443424415",18/12/21 22:52:41
"1","26","348.61131355779787","286.51738443424415",18/12/21 22:52:41
"1","26","347.0138230700782","285.6924335486036",18/12/21 22:52:41
"1","26","347.11478245716626","285.9649039395193",18/12/21 22:52:41
"1","26","347.6674056171805","286.39366837417714",18/12/21 22:52:41
"1","26","348.1363694038562","285.9540736775156",18/12/21 22:52:41
"1","26","348.1363694038562","285.9540736775156",18/12/21 22:52:41
"1","26","349.65814438758457","285.8409404783947",18/12/21 22:52:41
"1","26","350.5760175914794","286.5282028063769",18/12/21 22:52:41
"1","26","350.5760175914794","286.5282028063769",18/12/21 22:52:41
"1","26","351.4068126715645","288.49744600546603",18/12/21 22:52:41
"1","26","351.4068126715645","288.49744600546603",18/12/21 22:52:41
"1","26","351.1983904810542","288.5343726504317",18/12/21 22:52:41
"1","26","349.3988043645256","288.3561885366726",18/12/21 22:52:41
"1","26","349.3988043645256","288.3561885366726",18/12/21 22:52:41
"1","26","348.9200195008171","288.0185391298306",18/12/21 22:52:41
"1","26","348.9200195008171","288.0185391298306",18/12/21 22:52:41
"1","26","348.6235997559841","286.78933046042505",18/12/21 22:52:41
"1","26","347.5283048176097","286.64429066557125",18/12/21 22:52:41
"1","26","347.5283048176097","286.64429066557125",18/12/21 22:52:41
"1","26","347.0157033633027","286.11739468993164",18/12/21 22:52:41
"1","26","346.92536057688034","287.12658704075125",18/12/21 22:52:41
"1","26","345.96781399593294","288.30501419265744",18/12/21 22:52:41
"1","26","345.96781399593294","288.30501419265744",18/12/21 22:52:41
"1","26","344.81513884503744","288.4592064701149",18/12/21 22:52:41
"1","26","342.44558715397426","288.43943183782665",18/12/21 22:52:41
"1","26","342.2608755258781","287.7788924945873",18/12/21 22:52:41
"1","26","342.2608755258781","287.7788924945873",18/12/21 22:52:41
"1","26","343.88867925632854","287.6540487108772",18/12/21 22:52:41
"1","26","343.88867925632854","287.6540487108772",18/12/21 22:52:41
"1","26","344.22324347577415","287.9503988627674",18/12/21 22:52:41
"1","26","344.22324347577415","287.9503988627674",18/12/21 22:52:41
"1","26","345.0811218504138","287.79025315139296",18/12/21 22:52:41
"1","26","345.0811218504138","287.79025315139296",18/12/21 22:52:41
"1","26","344.3063461567249","288.10593787083144",18/12/21 22:52:41
"1","26","343.6286073398283","286.85837244287126",18/12/21 22:52:41
"1","26","344.0958507487393","288.5370369044942",18/12/21 22:52:41
"1","26","344.0958507487393","288.5370369044942",18/12/21 22:52:42
"1","26","343.6625889644445","288.67998928046677",18/12/21 22:52:42
"1","26","343.73113544036573","286.7817323488277",18/12/21 22:52:42
"1","26","343.57336960670494","285.4976856724822",18/12/21 22:52:42
"1","26","343.2183224952758","287.4511701135964",18/12/21 22:52:42
"1","26","342.79553031086857","286.4566024929911",18/12/21 22:52:42
"1","26","342.79553031086857","286.4566024929911",18/12/21 22:52:42
"1","26","342.64192658772987","287.1880039845129",18/12/21 22:52:42
"1","26","342.64192658772987","287.1880039845129",18/12/21 22:52:42
"1","26","342.4522971796113","286.6109395458823",18/12/21 22:52:42
"1","26","343.98875332636646","287.8384907034093",18/12/21 22:52:42
"1","26","343.98875332636646","287.8384907034093",18/12/21 22:52:42
"1","26","344.16922942494557","286.98919449132467",18/12/21 22:52:42
"1","26","344.16922942494557","286.98919449132467",18/12/21 22:52:42
"1","26","342.06600265618255","285.80095061324795",18/12/21 22:52:42
"1","26","342.06600265618255","285.80095061324795",18/12/21 22:52:42
"1","26","342.3209088112334","285.51516213853915",18/12/21 22:52:42
"1","26","342.3209088112334","285.51516213853915",18/12/21 22:52:42
"1","26","342.6249411054539","287.85995513988695",18/12/21 22:52:42
"1","26","343.2095190307995","288.5556841455905",18/12/21 22:52:42
"1","26","343.2095190307995","288.5556841455905",18/12/21 22:52:42
"1","26","343.9450059046556","288.60667835939836",18/12/21 22:52:42
"1","26","343.81975110859713","288.47785466286234",18/12/21 22:52:42
"1","26","343.81975110859713","288.47785466286234",18/12/21 22:52:42
"1","26","343.48285869198867","287.41036413397507",18/12/21 22:52:42
"1","26","343.48285869198867","287.41036413397507",18/12/21 22:52:42
"1","26","343.89430318111323","287.12797247234187",18/12/21 22:52:42
"1","26","342.95483831956295","285.87197777228334",18/12/21 22:52:42
"1","26","343.34233947121743","285.87197777228334",18/12/21 22:52:42
"1","26","342.107533864569","286.78778523554746",18/12/21 22:52:42
"1","26","342.107533864569","286.78778523554746",18/12/21 22:52:42
"1","26","342.99157680967977","286.329962167515",18/12/21 22:52:42
"1","26","342.89057337829473","287.10155524248313",18/12/21 22:52:42
"1","26","342.89057337829473","287.10155524248313",18/12/21 22:52:42
"1","26","344.3886280536377","287.0503161394448",18/12/21 22:52:42
"1","26","341.66914873498314","287.15179253238614",18/12/21 22:52:42
"1","26","341.66914873498314","287.15179253238614",18/12/21 22:52:42
"1","26","342.09340975862096","288.39929957240963",18/12/21 22:52:42
"1","26","342.09340975862096","288.39929957240963",18/12/21 22:52:42
"1","26","343.0100431736437","287.6866831503448",18/12/21 22:52:42
"1","26","341.9628975541384","285.49675988154246",18/12/21 22:52:42
"1","26","343.1598144402035","285.75098338190475",18/12/21 22:52:42
"1","26","343.1598144402035","285.75098338190475",18/12/21 22:52:42
"1","26","341.9251329935332","286.92695443384684",18/12/21 22:52:42
"1","26","344.53979344828537","287.4229216167499",18/12/21 22:52:42
"1","26","344.53979344828537","287.4229216167499",18/12/21 22:52:42
"1","26","345.78993673997263","287.587465084896",18/12/21 22:52:42
"1","26","345.78993673997263","287.587465084896",18/12/21 22:52:42
"1","26","345.1559700068291","286.95733250883995",18/12/21 22:52:42
"1","26","345.1559700068291","286.95733250883995",18/12/21 22:52:42
"1","26","345.55214496037433","288.4923921733129",18/12/21 22:52:43
"1","26","345.55214496037433","288.4923921733129",18/12/21 22:52:43
"1","26","345.9252637690696","288.2972807222778",18/12/21 22:52:43
"1","26","345.9252637690696","288.2972807222778",18/12/21 22:52:43
"1","26","344.79306376233893","286.298224712792",18/12/21 22:52:43
"1","26","344.0452975641454","286.42010448838005",18/12/21 22:52:43
"1","26","344.0452975641454","286.42010448838005",18/12/21 22:52:43
"1","26","343.35934763511904","287.15219870694835",18/12/21 22:52:43
"1","26","343.35934763511904","287.15219870694835",18/12/21 22:52:43
"1","26","343.29445534016304","287.1260174463764",18/12/21 22:52:43
"1","26","345.2499109308712","285.66467868692285",18/12/21 22:52:43
"1","26","345.2499109308712","285.66467868692285",18/12/21 22:52:43
"1","26","346.26137122260326","286.59300669934595",18/12/21 22:52:43
"1","26","346.26137122260326","286.59300669934595",18/12/21 22:52:43
"1","26","346.26016458121177","286.7464320335772",18/12/21 22:52:43
"1","26","346.78404577223534","287.6259016907894",18/12/21 22:52:43
"1","26","344.51200151474177","287.92371803541295",18/12/21 22:52:43
"1","26","344.51200151474177","287.92371803541295",18/12/21 22:52:43
"1","26","345.6132932210941","287.38562339500527",18/12/21 22:52:43
"1","26","344.2135916350768","286.7906815377113",18/12/21 22:52:43
"1","26","344.8927490462952","286.3320703637587",18/12/21 22:52:43
"1","26","344.1115069510981","286.3320703637587",18/12/21 22:52:43
"1","26","343.37775807838807","285.9991192230005",18/12/21 22:52:43
"1","26","343.3535265261676","285.9069030145823",18/12/21 22:52:43
"1","26","343.3535265261676","285.9069030145823",18/12/21 22:52:43
"1","26","343.4499977645792","287.9937683431698",18/12/21 22:52:43
"1","26","343.4499977645792","287.9937683431698",18/12/21 22:52:43
"1","26","343.40392216232385","288.055903712384",18/12/21 22:52:43
"1","26","342.92494254401004","287.34197096844844",18/12/21 22:52:43
"1","26","342.92494254401004","287.34197096844844",18/12/21 22:52:43
"1","26","345.0400937469733","287.2035528493007",18/12/21 22:52:43
"1","26","346.6705678417129","288.5707514895484",18/12/21 22:52:43
"1","26","346.6705678417129","288.5707514895484",18/12/21 22:52:43
"1","26","346.43030163227354","288.21704868182223",18/12/21 22:52:43
"1","26","347.22987362930087","285.72654161589975",18/12/21 22:52:43
"1","26","347.22987362930087","285.72654161589975",18/12/21 22:52:43
"1","26","347.2523526479697","286.3570419281034",18/12/21 22:52:43
"1","26","347.2523526479697","286.3570419281034",18/12/21 22:52:43
"1","26","348.19537317914154","288.39915344295684",18/12/21 22:52:43
"1","26","348.19537317914154","288.39915344295684",18/12/21 22:52:43
"1","26","349.0942736046794","287.9229829967898",18/12/21 22:52:43
"1","26","351.34919415809617","286.9496060882191",18/12/21 22:52:43
"1","26","350.941782223843","288.0981809245332",18/12/21 22:52:43
"1","26","350.941782223843","286.5442098176197",18/12/21 22:52:43
"1","26","349.2471178162067","287.3682137241401",18/12/21 22:52:43
"1","26","349.7540318626731","286.2284612992114",18/12/21 22:52:43
"1","26","350.1524518242331","285.9576698431081",18/12/21 22:52:43
"1","26","350.1524518242331","285.9576698431081",18/12/21 22:52:43
"1","26","350.4753633383535","287.47518213947666",18/12/21 22:52:43
"1","26","350.97211987185796","288.03015908155004",18/12/21 22:52:43
"1","26","351.4907760987419","287.8152179805741",18/12/21 22:52:44
"1","26","351.4907760987419","287.8152179805741",18/12/21 22:52:44
"1","26","350.4366567384136","286.03806673296305",18/12/21 22:52:44
"1","26","347.4527829204797","285.94810575126434",18/12/21 22:52:44
"1","26","347.4527829204797","285.94810575126434",18/12/21 22:52:44
"1","26","347.33736110691433","286.9729359202399",18/12/21 22:52:44
"1","26","347.33736110691433","287.127036931399",18/12/21 22:52:44
"1","26","346.83243933198764","287.7217471862726",18/12/21 22:52:44
"1","26","346.83243933198764","287.7217471862726",18/12/21 22:52:44
"1","26","347.62776753595585","287.30396891457724",18/12/21 22:52:44
"1","26","345.60937287638603","288.6083562120366",18/12/21 22:52:44
"1","26","347.7952771581676","288.23543732595164",18/12/21 22:52:44
"1","26","345.7795042100315","287.8325606521084",18/12/21 22:52:44
"1","26","345.7795042100315","287.8325606521084",18/12/21 22:52:44
"1","26","346.17326021366796","287.4304405787479",18/12/21 22:52:44
"1","26","345.4699788423921","286.1412178037801",18/12/21 22:52:44
"1","26","345.4699788423921","286.1412178037801",18/12/21 22:52:44
"1","26","343.5855751310479","287.2914559196342",18/12/21 22:52:44
"1","26","343.4910825308088","287.29451151729154",18/12/21 22:52:44
"1","26","343.4910825308088","287.29451151729154",18/12/21 22:52:44
"1","26","344.1561008222459","287.91399054404513",18/12/21 22:52:44
"1","26","344.17273800361033","288.2253765107596",18/12/21 22:52:44
"1","26","344.17273800361033","288.2253765107596",18/12/21 22:52:44
"1","26","344.05358562304286","288.54334687460454",18/12/21 22:52:44
"1","26","344.34354681018556","288.29197275981886",18/12/21 22:52:44
"1","26","344.34354681018556","288.29197275981886",18/12/21 22:52:44
"1","26","344.15169804341105","286.9043825566135",18/12/21 22:52:44
"1","26","344.15169804341105","286.9043825566135",18/12/21 22:52:44
"1","26","344.1498552215178","286.9061527686726",18/12/21 22:52:44
"1","26","343.8571731111642","287.63904872252806",18/12/21 22:52:44
"1","26","343.8571731111642","287.63904872252806",18/12/21 22:52:44
"1","26","342.9107435988318","286.8496789401674",18/12/21 22:52:44
"1","26","342.9107435988318","286.8496789401674",18/12/21 22:52:44
"1","26","342.40604355379696","286.7700546531117",18/12/21 22:52:44
"1","26","342.8535539548093","287.282212212461",18/12/21 22:52:44
"1","26","342.8535539548093","287.282212212461",18/12/21 22:52:44
"1","26","342.59947505667947","287.2740875130311",18/12/21 22:52:44
"1","26","343.4649470179885","288.6245493114016",18/12/21 22:52:44
"1","26","343.4649470179885","288.6245493114016",18/12/21 22:52:44
"1","26","342.6797944097419","288.0583254991973",18/12/21 22:52:44
"1","26","342.02710876800495","288.2880350169274",18/12/21 22:52:44
"1","26","341.890832606013","288.16242491410884",18/12/21 22:52:44
"1","26","341.890832606013","288.16242491410884",18/12/21 22:52:44
"1","26","343.11768911341915","286.79809151995556",18/12/21 22:52:44
"1","26","343.11768911341915","286.79809151995556",18/12/21 22:52:44
"1","26","343.6983535999163","287.6480524996844",18/12/21 22:52:44
"1","26","343.6983535999163","287.6480524996844",18/12/21 22:52:44
"1","26","345.18952216263386","287.08236242304287",18/12/21 22:52:44
"1","26","344.49302808910136","287.6697773525747",18/12/21 22:52:44
"1","26","344.49302808910136","287.6697773525747",18/12/21 22:52:45
"1","26","344.33512532664446","287.6881583018258",18/12/21 22:52:45
"1","26","345.8444738663145","287.2412625390308",18/12/21 22:52:45
"1","26","345.8444738663145","287.2412625390308",18/12/21 22:52:45
"1","26","349.2497287492511","285.9761898215907",18/12/21 22:52:45
"1","26","349.2497287492511","285.9761898215907",18/12/21 22:52:45
"1","26","349.2497287492511","285.9761898215907",18/12/21 22:52:45
