"floorId","partitionId","location_x","location_y","timeStamp"
"2","90","321.7265624380601","287.01682355225256",18/12/21 22:47:24
"2","90","323.0609144016967","286.48018048221076",18/12/21 22:47:24
"2","90","324.6750365724139","285.83102081465535",18/12/21 22:47:24
"2","90","325.9273466244314","285.3273729546654",18/12/21 22:47:24
"2","34","325.3578335081135","284.14656163462627",18/12/21 22:47:24
"2","34","325.1933022576243","282.352429167236",18/12/21 22:47:24
"2","34","325.03661331249396","280.6438131875751",18/12/21 22:47:24
"2","34","324.9590869119058","279.7984258708097",18/12/21 22:47:24
"2","34","325.21017449360784","278.0032306385454",18/12/21 22:47:24
"2","34","325.3891124107446","279.32151563715234",18/12/21 22:47:24
"2","34","325.4289681907279","278.0474480308063",18/12/21 22:47:24
"2","34","326.2751684629108","279.14882342032536",18/12/21 22:47:24
"2","34","325.60365259053276","278.57913217886266",18/12/21 22:47:24
"2","34","325.03000723862084","278.187638129211",18/12/21 22:47:24
"2","34","324.44525359903656","280.24634816030624",18/12/21 22:47:24
"2","34","323.1573581956846","280.01012048226977",18/12/21 22:47:24
"2","34","323.7588902597394","278.5297048571012",18/12/21 22:47:24
"2","34","322.51672432776564","278.36353407222737",18/12/21 22:47:24
"2","34","322.710605197113","278.27960759880153",18/12/21 22:47:24
"2","34","324.59150512875107","278.1553735812974",18/12/21 22:47:24
"2","34","323.97168654569515","279.18750719416585",18/12/21 22:47:24
"2","34","323.2656987830856","278.58160003514115",18/12/21 22:47:24
"2","34","323.3109635653721","278.197418064386",18/12/21 22:47:24
"2","34","322.37133110151177","279.1399228872534",18/12/21 22:47:24
"2","34","323.6546330892377","278.12132858131645",18/12/21 22:47:24
"2","34","324.8996073174884","277.9862602752938",18/12/21 22:47:24
"2","34","325.95975116982686","278.2435589470151",18/12/21 22:47:24
"2","34","325.9455087976569","279.157206212553",18/12/21 22:47:24
"2","34","326.0719861100273","280.2512526654355",18/12/21 22:47:24
"2","34","325.73761987323843","280.2464808903907",18/12/21 22:47:24
"2","34","326.0749755846413","281.63998697218506",18/12/21 22:47:24
"2","34","325.5773005116386","280.8192054693937",18/12/21 22:47:24
"2","34","325.90736711227885","279.8922396845355",18/12/21 22:47:24
"2","34","325.0173073495802","278.35376545572603",18/12/21 22:47:24
"2","34","325.0331666549821","279.8554422330753",18/12/21 22:47:24
"2","34","325.78203629469806","281.1813424041724",18/12/21 22:47:24
"2","34","325.8309269730665","281.1973234641735",18/12/21 22:47:24
"2","34","324.70587644413877","282.39156231667175",18/12/21 22:47:24
"2","34","325.5748953875369","282.63230994356627",18/12/21 22:47:24
"2","34","323.31004536954146","281.81016835279684",18/12/21 22:47:24
"2","34","323.16058839258454","282.0780681985107",18/12/21 22:47:24
"2","34","323.0824757873549","281.97496406751964",18/12/21 22:47:24
"2","34","322.97656912594545","283.403627358421",18/12/21 22:47:24
"2","34","323.8823205560872","281.7823120465863",18/12/21 22:47:24
"2","34","323.71444679701364","280.6817944667976",18/12/21 22:47:24
"2","34","323.3183502614479","281.27081144253077",18/12/21 22:47:24
"2","34","323.05459320085","281.40323769902767",18/12/21 22:47:24
"2","34","322.99130315840085","281.42640624840016",18/12/21 22:47:24
"2","34","324.3556352982374","280.2191585026751",18/12/21 22:47:25
"2","34","325.347492552749","280.41781781751763",18/12/21 22:47:25
"2","34","325.0206285126168","280.64906951455424",18/12/21 22:47:25
"2","34","325.88048288570207","279.77601696186304",18/12/21 22:47:25
"2","34","326.3623124183614","280.06522834082847",18/12/21 22:47:25
"2","34","323.98593043864474","280.47168387727754",18/12/21 22:47:25
"2","34","324.33858093154663","278.38310075294027",18/12/21 22:47:25
"2","34","323.7173996265633","279.4233290974095",18/12/21 22:47:25
"2","34","322.6983255394233","279.20138206089047",18/12/21 22:47:25
"2","34","324.4981018629451","280.66548122753477",18/12/21 22:47:25
"2","34","325.9184358645436","278.9863957567537",18/12/21 22:47:25
"2","34","325.6600039473282","278.6860758986343",18/12/21 22:47:25
"2","34","325.7502208040759","279.58850098268437",18/12/21 22:47:25
"2","34","324.15870968314897","280.48969307104824",18/12/21 22:47:25
"2","34","324.34970055820696","280.8639511243545",18/12/21 22:47:25
"2","34","323.16283976122605","281.67745067175275",18/12/21 22:47:25
"2","34","323.11364670670736","281.88365597740363",18/12/21 22:47:25
"2","34","323.43173688248316","282.51326065728955",18/12/21 22:47:25
"2","34","323.3986481371045","282.87422449898366",18/12/21 22:47:25
"2","34","325.0903009346009","282.7226866210433",18/12/21 22:47:25
"2","34","324.1093374346756","282.3884727018984",18/12/21 22:47:25
"2","34","324.7913414704898","280.4634380396038",18/12/21 22:47:25
"2","34","324.35411963414856","280.7758525800199",18/12/21 22:47:25
"2","34","324.22929208060265","282.31640535021575",18/12/21 22:47:25
"2","34","324.5707051348749","281.9810483684139",18/12/21 22:47:25
"2","34","323.90757850168063","280.3870389466764",18/12/21 22:47:25
"2","34","324.2431261038567","280.46051897425843",18/12/21 22:47:25
"2","34","324.7653002212377","282.1554707170091",18/12/21 22:47:25
"2","34","322.60166574303804","282.6731665845588",18/12/21 22:47:25
"2","34","323.3500856500849","282.47670867259944",18/12/21 22:47:25
"2","34","322.00889533360265","280.58096096768475",18/12/21 22:47:25
"2","34","322.36696774553656","280.862169973915",18/12/21 22:47:25
"2","34","324.0794555252547","281.96636278286155",18/12/21 22:47:25
"2","34","321.8564123520132","281.7176394550506",18/12/21 22:47:25
"2","34","322.6293820012028","283.5688076183684",18/12/21 22:47:25
"2","34","322.54558305666507","282.9424700550728",18/12/21 22:47:25
"2","34","322.0455777115141","284.13857818729156",18/12/21 22:47:25
"2","34","322.0605575801194","284.21305381919336",18/12/21 22:47:25
"2","34","322.16200577756774","283.7605246457536",18/12/21 22:47:25
"2","34","322.90875330533856","283.60506836994944",18/12/21 22:47:25
"2","34","324.420831272149","283.9949317279462",18/12/21 22:47:25
"2","34","326.20629864178227","283.3056076835434",18/12/21 22:47:25
"2","34","326.1464416974343","283.9723256845255",18/12/21 22:47:25
"2","34","326.18996483577644","284.436148972818",18/12/21 22:47:25
"2","34","326.18996483577644","284.436148972818",18/12/21 22:47:25
"2","34","326.18996483577644","284.436148972818",18/12/21 22:47:25
"2","90","325.501828290394","285.2449364206293",18/12/21 22:47:25
"2","90","326.9675723135186","285.3413091726798",18/12/21 22:47:25
"2","90","329.24466447701536","285.4910281106435",18/12/21 22:47:25
"2","90","329.24466447701536","285.4910281106435",18/12/21 22:47:25
"2","90","330.9940895831795","285.60605290987684",18/12/21 22:47:26
"2","93","333.2717273783499","285.7323090808894",18/12/21 22:47:26
"2","93","334.94928524822825","285.81098955773706",18/12/21 22:47:26
"2","93","337.4372138032377","285.92767787507375",18/12/21 22:47:26
"2","93","339.3420466746809","286.01701795766127",18/12/21 22:47:26
"2","93","340.68644211093095","286.08007251804054",18/12/21 22:47:26
"2","93","342.91106916490696","285.77332021129524",18/12/21 22:47:26
"2","93","344.4139212774464","285.4583348874784",18/12/21 22:47:26
"2","32","345.1995996569573","284.16011038428326",18/12/21 22:47:26
"2","32","344.47708772170944","282.08213483396105",18/12/21 22:47:26
"2","32","343.8222603525724","280.1988230208743",18/12/21 22:47:26
"2","32","343.0725624352845","278.0426594113177",18/12/21 22:47:26
"2","32","345.31257945535344","279.08601716191913",18/12/21 22:47:26
"2","32","345.87043258790936","279.0476104511314",18/12/21 22:47:26
"2","32","345.4810460663503","279.28173553162964",18/12/21 22:47:26
"2","32","345.3159785359373","278.7506541658623",18/12/21 22:47:26
"2","32","344.7699776713465","279.83221433718194",18/12/21 22:47:26
"2","32","345.06485594577106","281.5646706013188",18/12/21 22:47:26
"2","32","344.14355203626116","281.4735394651903",18/12/21 22:47:26
"2","32","341.9121843458307","282.33884398812205",18/12/21 22:47:26
"2","32","342.4845728873657","280.81035434278743",18/12/21 22:47:26
"2","32","343.5218062770768","281.65381367560667",18/12/21 22:47:26
"2","32","343.86268115453663","282.70790413019097",18/12/21 22:47:26
"2","32","343.9100124536011","282.11722834446664",18/12/21 22:47:26
"2","32","342.79610627329976","282.66429650705777",18/12/21 22:47:26
"2","32","341.701288901698","284.08668981099044",18/12/21 22:47:26
"2","32","341.75348898528625","283.8901170876232",18/12/21 22:47:26
"2","32","342.7046276837165","284.6869680548096",18/12/21 22:47:26
"2","32","343.42634439960614","284.27906469629136",18/12/21 22:47:26
"2","32","343.49797723450405","284.28327127994356",18/12/21 22:47:26
"2","32","343.40935856465825","284.2863821824626",18/12/21 22:47:26
"2","32","345.2670177991085","284.1632327016886",18/12/21 22:47:26
"2","32","345.7738799277502","284.0366799915052",18/12/21 22:47:26
"2","32","345.7509269815476","284.05167657651174",18/12/21 22:47:26
"2","32","345.64441657014436","282.0834533448911",18/12/21 22:47:26
"2","32","345.5012070844412","282.18861209334875",18/12/21 22:47:26
"2","32","343.77849648267784","280.73629434136177",18/12/21 22:47:26
"2","32","342.8147270787825","281.4815069871815",18/12/21 22:47:26
"2","32","343.369700259055","280.84858666950316",18/12/21 22:47:26
"2","32","342.7190104790971","279.84029275439735",18/12/21 22:47:26
"2","32","342.3927828606585","282.1589383868414",18/12/21 22:47:26
"2","32","342.16373846776975","282.84382232369",18/12/21 22:47:26
"2","32","342.20414528352535","283.53379569364307",18/12/21 22:47:26
"2","32","343.52639936716025","282.44170209443126",18/12/21 22:47:26
"2","32","342.82618260461925","284.29976877374725",18/12/21 22:47:26
"2","32","343.0449505834636","284.5724565994606",18/12/21 22:47:26
"2","32","343.1375227846279","284.6982996848952",18/12/21 22:47:26
"2","32","345.05310828905033","283.78256600334174",18/12/21 22:47:26
"2","32","345.39408289487545","282.1367384200319",18/12/21 22:47:26
"2","32","344.8340228202107","282.6684461823794",18/12/21 22:47:27
"2","32","345.00083121293204","284.43223351975746",18/12/21 22:47:27
"2","32","344.77877893606524","284.45544227609463",18/12/21 22:47:27
"2","32","345.78907585504703","284.8323080482052",18/12/21 22:47:27
"2","32","346.418240344031","284.6614590460108",18/12/21 22:47:27
"2","32","344.70673876567025","283.59936533082896",18/12/21 22:47:27
"2","32","344.4214603178481","282.86738061323655",18/12/21 22:47:27
"2","32","344.2369947252063","282.5179680212234",18/12/21 22:47:27
"2","32","344.5922358351152","282.9052804721336",18/12/21 22:47:27
"2","32","346.40692185460415","283.20923534132334",18/12/21 22:47:27
"2","32","346.4995866902075","283.2779840702493",18/12/21 22:47:27
"2","32","346.0096339595073","282.4139903808315",18/12/21 22:47:27
"2","32","345.95961731677403","283.3607599610663",18/12/21 22:47:27
"2","32","346.0411171351792","283.35242882680745",18/12/21 22:47:27
"2","32","345.7851364202318","283.902988136994",18/12/21 22:47:27
"2","32","345.89115132074386","284.2721910209107",18/12/21 22:47:27
"2","32","346.4519851003036","283.27495290337947",18/12/21 22:47:27
"2","32","344.5555594957391","281.91322472305995",18/12/21 22:47:27
"2","32","344.2160709505411","281.8161203285378",18/12/21 22:47:27
"2","32","342.7452294939568","280.0604580238563",18/12/21 22:47:27
"2","32","343.95225559864565","280.11381697454397",18/12/21 22:47:27
"2","32","346.2239846932566","279.5763129517326",18/12/21 22:47:27
"2","32","346.01294229363344","279.11165902437847",18/12/21 22:47:27
"2","32","345.91499453669456","279.2484520947044",18/12/21 22:47:27
"2","32","344.8251155709444","278.8885417912819",18/12/21 22:47:27
"2","32","346.0086862650683","280.2363843590746",18/12/21 22:47:27
"2","32","345.9845149200221","280.1722616652795",18/12/21 22:47:27
"2","32","345.0006927393222","281.34603407503135",18/12/21 22:47:27
"2","32","345.16214084827783","281.72445947000335",18/12/21 22:47:27
"2","32","345.8920661971932","282.0381845531943",18/12/21 22:47:27
"2","32","345.7464091205819","283.28508385815013",18/12/21 22:47:27
"2","32","346.1605208640189","282.3366141652967",18/12/21 22:47:27
"2","32","345.47960189668356","282.2728404678104",18/12/21 22:47:27
"2","32","344.9521387444936","282.8016235394898",18/12/21 22:47:27
"2","32","344.2645507783468","283.5234496326737",18/12/21 22:47:27
"2","32","345.45626713314044","282.9843431612947",18/12/21 22:47:27
"2","32","346.23008030769074","284.4140280927638",18/12/21 22:47:27
"2","32","346.204417013065","284.423293428562",18/12/21 22:47:27
"2","32","344.78323608115835","284.4471044026984",18/12/21 22:47:27
"2","32","345.076870409968","284.4850166539838",18/12/21 22:47:27
"2","32","343.62809298023376","284.13787733310255",18/12/21 22:47:27
"2","32","343.8054383666465","281.6737805011203",18/12/21 22:47:27
"2","32","343.36416673987287","283.60561439796294",18/12/21 22:47:27
"2","32","342.0905711774107","282.775501452323",18/12/21 22:47:27
"2","32","342.03911296055526","282.5391385959664",18/12/21 22:47:27
"2","32","344.42201023052877","282.96372141218416",18/12/21 22:47:27
"2","32","345.8022699539952","281.33659497927977",18/12/21 22:47:27
"2","32","346.3464865232591","281.2539780692925",18/12/21 22:47:27
"2","32","345.15332524694344","281.3790466443899",18/12/21 22:47:27
"2","32","343.74427004908176","280.85487043160043",18/12/21 22:47:27
"2","32","343.7056432571849","280.8252490664459",18/12/21 22:47:28
"2","32","344.2180436436175","282.44520710466196",18/12/21 22:47:28
"2","32","343.07812288204093","283.85848000613635",18/12/21 22:47:28
"2","32","345.1764107114118","283.3915007178684",18/12/21 22:47:28
"2","32","344.9429211002066","283.4717123133764",18/12/21 22:47:28
"2","32","344.6566690806898","283.3284084706614",18/12/21 22:47:28
"2","32","344.35943212866715","283.6545000900952",18/12/21 22:47:28
"2","32","344.6003445268059","283.67053084541607",18/12/21 22:47:28
"2","32","344.8734191119659","282.4237326499483",18/12/21 22:47:28
"2","32","345.3638441398892","282.8225863190016",18/12/21 22:47:28
"2","32","345.4320807976823","283.72964815749197",18/12/21 22:47:28
"2","32","345.1496872682547","284.16523712095176",18/12/21 22:47:28
"2","32","343.9165568487715","282.08819477087496",18/12/21 22:47:28
"2","32","344.47274382759684","281.86125371139195",18/12/21 22:47:28
"2","32","344.0597566502064","284.05546747310564",18/12/21 22:47:28
"2","32","344.6012435042174","282.5738948409681",18/12/21 22:47:28
"2","32","344.63408936710147","282.69136502601555",18/12/21 22:47:28
"2","32","344.9525609406158","282.13103934373544",18/12/21 22:47:28
"2","32","343.2973507719611","280.721567820355",18/12/21 22:47:28
"2","32","344.60440411089246","280.3849505216871",18/12/21 22:47:28
"2","32","344.9204801797829","279.02556599510973",18/12/21 22:47:28
"2","32","343.9939361944383","277.845241894554",18/12/21 22:47:28
"2","32","343.9310141827477","278.17506848287934",18/12/21 22:47:28
"2","32","345.2697962736716","279.1705052461274",18/12/21 22:47:28
"2","32","343.5931356805779","278.62946938407623",18/12/21 22:47:28
"2","32","343.8962562350467","278.90778702248116",18/12/21 22:47:28
"2","32","343.9536672205865","278.9000564773151",18/12/21 22:47:28
"2","32","344.11257767662477","278.85576526580456",18/12/21 22:47:28
"2","32","344.1383357018474","281.27640764852754",18/12/21 22:47:28
"2","32","343.8867879898162","281.6790353327973",18/12/21 22:47:28
"2","32","345.64785835231737","283.31323354415355",18/12/21 22:47:28
"2","32","343.74149368643117","282.3268629480095",18/12/21 22:47:28
"2","32","345.63253499356875","282.2060233334328",18/12/21 22:47:28
"2","32","345.78137682474375","282.45418379608753",18/12/21 22:47:28
"2","32","344.7801345727244","284.39749754293774",18/12/21 22:47:28
"2","32","345.836973326948","283.8633379971692",18/12/21 22:47:28
"2","32","344.48585850655775","284.4878600767619",18/12/21 22:47:28
"2","32","344.59646978564854","284.45550425135934",18/12/21 22:47:28
"2","32","343.8733623422471","284.3189295740932",18/12/21 22:47:28
"2","32","343.94391281815746","284.081294804945",18/12/21 22:47:28
"2","32","344.6195677200406","283.88424389341253",18/12/21 22:47:28
"2","32","344.41267513810004","283.56804248346026",18/12/21 22:47:28
"2","32","346.1013466019231","283.45349645930406",18/12/21 22:47:28
"2","32","345.6563970554553","281.82329339559743",18/12/21 22:47:28
"2","32","346.26235407451816","282.26965058210135",18/12/21 22:47:28
"2","32","344.8128413602778","282.55429375957544",18/12/21 22:47:28
"2","32","344.2465062279001","281.5508186672579",18/12/21 22:47:28
"2","32","346.0802980495522","280.26527910696404",18/12/21 22:47:28
"2","32","345.1916154759158","278.54961913940116",18/12/21 22:47:28
"2","32","345.5339295522272","277.91849793845023",18/12/21 22:47:28
"2","32","345.5339295522272","277.91849793845023",18/12/21 22:47:29
"2","32","345.5339295522272","277.91849793845023",18/12/21 22:47:29
"2","32","345.3886514226065","280.4121098830638",18/12/21 22:47:29
"2","32","345.2714818453699","282.4232553879312",18/12/21 22:47:29
"2","32","345.1456512530113","284.5830620217472",18/12/21 22:47:29
"2","93","345.4713632897148","285.8700488967816",18/12/21 22:47:29
"2","93","346.20820297568906","287.1976924326635",18/12/21 22:47:29
"2","93","346.8493344710293","288.3528881986372",18/12/21 22:47:29
"2","33","347.5389501962915","290.14514724857275",18/12/21 22:47:29
"2","33","348.23743739575343","292.3114620126383",18/12/21 22:47:29
"2","33","348.31095895453564","292.5394845710898",18/12/21 22:47:29
"2","33","349.65513395394294","290.6523319105772",18/12/21 22:47:29
"2","33","349.690990676299","291.0746172283895",18/12/21 22:47:29
"2","33","350.3993878402964","291.567039387775",18/12/21 22:47:29
"2","33","350.77308159579695","292.0102599811744",18/12/21 22:47:29
"2","33","348.64954862779985","292.11662841575344",18/12/21 22:47:29
"2","33","349.7785055907411","291.4496849190297",18/12/21 22:47:29
"2","33","351.2495443440189","290.35064918211486",18/12/21 22:47:29
"2","33","351.53287729746506","289.71184065143314",18/12/21 22:47:29
"2","33","351.2679213180203","290.5624512806236",18/12/21 22:47:29
"2","33","352.871633511146","290.96476406378713",18/12/21 22:47:29
"2","33","352.8283704908987","290.11361346810156",18/12/21 22:47:29
"2","33","352.4295756526461","290.4083592537559",18/12/21 22:47:29
"2","33","351.6244341269379","292.59602799209125",18/12/21 22:47:29
"2","33","350.03148292740116","293.1747584582415",18/12/21 22:47:29
"2","33","349.82468468214574","295.2544147317426",18/12/21 22:47:29
"2","33","350.2750005362577","292.8609213503886",18/12/21 22:47:29
"2","33","351.448741546213","293.1522029159678",18/12/21 22:47:29
"2","33","352.5570202897272","294.72572862003307",18/12/21 22:47:29
"2","33","354.1334581555702","295.6756065651102",18/12/21 22:47:29
"2","33","353.90766124914114","295.70780985439876",18/12/21 22:47:29
"2","33","353.9089240941899","295.7074774603287",18/12/21 22:47:29
"2","33","355.54701544313934","294.39777430341286",18/12/21 22:47:29
"2","33","355.32792815396516","294.2937670390604",18/12/21 22:47:29
"2","33","353.23564060178035","294.32920589721687",18/12/21 22:47:29
"2","33","351.7698503293874","292.9370793014281",18/12/21 22:47:29
"2","33","351.6668762554438","294.5848638138171",18/12/21 22:47:29
"2","33","351.6762715204767","294.5166032356333",18/12/21 22:47:29
"2","33","351.90102028233434","295.64786971756115",18/12/21 22:47:29
"2","33","352.6970433783596","295.9792611241833",18/12/21 22:47:29
"2","33","353.294441798427","295.62166285049534",18/12/21 22:47:29
"2","33","353.03725706289856","295.4821302853893",18/12/21 22:47:29
"2","33","354.5454210698864","294.18217507711677",18/12/21 22:47:29
"2","33","353.6111147097639","295.5861695513946",18/12/21 22:47:29
"2","33","353.7218072074212","294.2056916990673",18/12/21 22:47:29
"2","33","352.46774052996864","292.65124364879466",18/12/21 22:47:29
"2","33","353.70694442136454","293.2164371696859",18/12/21 22:47:29
"2","33","353.3965818181034","293.244283381981",18/12/21 22:47:29
"2","33","352.5326061570969","295.30937992955853",18/12/21 22:47:29
"2","33","352.55333612407856","295.32727297800983",18/12/21 22:47:29
"2","33","351.4645844954918","294.3879393609479",18/12/21 22:47:30
"2","33","353.7974291475693","294.89423550695307",18/12/21 22:47:30
"2","33","356.1896526625137","294.6029516062835",18/12/21 22:47:30
"2","33","356.46750636784884","294.6472902303375",18/12/21 22:47:30
"2","33","354.119733242929","294.9644897760142",18/12/21 22:47:30
"2","33","353.99632569333795","294.4829464453089",18/12/21 22:47:30
"2","33","353.89157901040994","294.7975542472084",18/12/21 22:47:30
"2","33","353.34555889646276","293.21782835061725",18/12/21 22:47:30
"2","33","352.8848827162993","293.2912860280628",18/12/21 22:47:30
"2","33","352.9183633936489","293.3194103617836",18/12/21 22:47:30
"2","33","354.80488443729155","293.302388081828",18/12/21 22:47:30
"2","33","353.7058460916127","292.4493750799343",18/12/21 22:47:30
"2","33","352.3510403163661","292.64444515168645",18/12/21 22:47:30
"2","33","352.2460521496831","292.29487196449327",18/12/21 22:47:30
"2","33","354.26228912299666","293.08262158631265",18/12/21 22:47:30
"2","33","352.4604503889704","292.20125433662963",18/12/21 22:47:30
"2","33","351.01327686359264","290.656127513411",18/12/21 22:47:30
"2","33","351.34404594204506","290.5277238702579",18/12/21 22:47:30
"2","33","349.3835251777952","290.4227662648247",18/12/21 22:47:30
"2","33","349.585855324936","291.2332618773531",18/12/21 22:47:30
"2","33","351.86684285600205","291.5722204734561",18/12/21 22:47:30
"2","33","352.0421132720077","290.317203159145",18/12/21 22:47:30
"2","33","352.6106912393198","290.04890755899027",18/12/21 22:47:30
"2","33","350.69803449778226","291.3897363087985",18/12/21 22:47:30
"2","33","351.89571218068323","292.0583679517433",18/12/21 22:47:30
"2","33","350.167747345496","293.8578131207464",18/12/21 22:47:30
"2","33","350.8340046613407","294.24383244009755",18/12/21 22:47:30
"2","33","349.55891257023166","295.5005262136077",18/12/21 22:47:30
"2","33","349.4110886406477","294.2116150811071",18/12/21 22:47:30
"2","33","350.38728439792897","292.74184774608153",18/12/21 22:47:30
"2","33","349.88750791131827","292.7780731386822",18/12/21 22:47:30
"2","33","349.89130601520884","292.78164306031624",18/12/21 22:47:30
"2","33","348.5047492446726","294.60493795680514",18/12/21 22:47:30
"2","33","348.2962892237863","294.95789082121837",18/12/21 22:47:30
"2","33","347.8923738127151","296.0663320683266",18/12/21 22:47:30
"2","33","347.3191362812036","296.2700724034443",18/12/21 22:47:30
"2","33","349.0560027480979","295.71980547396396",18/12/21 22:47:30
"2","33","348.29009511385885","295.9423892444282",18/12/21 22:47:30
"2","33","348.6914133293191","295.71256898769724",18/12/21 22:47:30
"2","33","349.32508192954896","295.6913153186368",18/12/21 22:47:30
"2","33","349.24673216353443","294.02067680674946",18/12/21 22:47:30
"2","33","346.9104192548728","294.0446723416393",18/12/21 22:47:30
"2","33","347.6026629743782","295.32716676494323",18/12/21 22:47:30
"2","33","349.6433319192767","293.9642552532516",18/12/21 22:47:30
"2","33","350.606866299483","293.63631286726854",18/12/21 22:47:30
"2","33","351.94365849649563","294.7361713890206",18/12/21 22:47:30
"2","33","350.8967874389393","295.30367932968375",18/12/21 22:47:30
"2","33","351.3311062967961","294.67253436666226",18/12/21 22:47:30
"2","33","351.6280199070454","294.6324486967318",18/12/21 22:47:30
"2","33","351.5257582764566","294.514196315935",18/12/21 22:47:31
"2","33","349.9027761924324","294.6223193871651",18/12/21 22:47:31
"2","33","349.4496947649042","294.5113987007274",18/12/21 22:47:31
"2","33","351.31018156056274","295.89749862202615",18/12/21 22:47:31
"2","33","351.7672782268057","295.77057919463",18/12/21 22:47:31
"2","33","351.78593214170996","295.9914629724916",18/12/21 22:47:31
"2","33","352.5190297060778","295.37763483795146",18/12/21 22:47:31
"2","33","352.27233105120894","293.98316020779146",18/12/21 22:47:31
"2","33","351.92683176154367","294.0633906738308",18/12/21 22:47:31
"2","33","352.05699078171807","293.5330449687682",18/12/21 22:47:31
"2","33","353.70997251436535","291.7099561996792",18/12/21 22:47:31
"2","33","353.45254044352714","292.621556022598",18/12/21 22:47:31
"2","33","353.51395123801365","292.6702377036564",18/12/21 22:47:31
"2","33","353.94882551820115","293.1912572295083",18/12/21 22:47:31
"2","33","354.3974335538187","294.08986517777083",18/12/21 22:47:31
"2","33","356.48451255136894","295.12073665749335",18/12/21 22:47:31
"2","33","356.48555356974","295.11410527873954",18/12/21 22:47:31
"2","33","356.3617011690374","295.03245895526095",18/12/21 22:47:31
"2","33","355.11660587359887","293.8965187821717",18/12/21 22:47:31
"2","33","352.87978199351716","294.5001323385196",18/12/21 22:47:31
"2","33","352.06197132153426","295.8697357096318",18/12/21 22:47:31
"2","33","352.9247442002279","293.6153944096581",18/12/21 22:47:31
"2","33","352.32446449823925","293.6157809603295",18/12/21 22:47:31
"2","33","352.547323778949","293.30074185872417",18/12/21 22:47:31
"2","33","351.5316472175246","293.4637919704556",18/12/21 22:47:31
"2","33","349.5921093736951","294.7755283571207",18/12/21 22:47:31
"2","33","349.3846147898005","294.9660983561857",18/12/21 22:47:31
"2","33","349.73240123048197","293.6184432528568",18/12/21 22:47:31
"2","33","349.98541049916014","294.0463369201039",18/12/21 22:47:31
"2","33","349.63696066791084","292.65122817212006",18/12/21 22:47:31
"2","33","349.0238914383639","292.18666797775137",18/12/21 22:47:31
"2","33","348.2122058663123","292.2668975923342",18/12/21 22:47:31
"2","33","348.38228510268596","291.74840700307215",18/12/21 22:47:31
"2","33","348.0398258401959","291.42775937769966",18/12/21 22:47:31
"2","33","348.88805090595935","290.3357885118704",18/12/21 22:47:31
"2","33","348.0702681987617","292.16444885791117",18/12/21 22:47:31
"2","33","348.13389201234975","291.92267709446634",18/12/21 22:47:31
"2","33","347.6222961922005","291.30791095333024",18/12/21 22:47:31
"2","33","347.4958886114441","291.0452766250664",18/12/21 22:47:31
"2","33","349.42195964348116","291.2760510029303",18/12/21 22:47:31
"2","33","351.4268721237926","289.915907491821",18/12/21 22:47:31
"2","33","351.20859778022077","292.17269528102673",18/12/21 22:47:31
"2","33","349.5227706525593","290.68410449603755",18/12/21 22:47:31
"2","33","351.40828254155383","291.702303548802",18/12/21 22:47:31
"2","33","351.2337543375619","292.99903025422566",18/12/21 22:47:31
"2","33","351.3237559018337","293.18463373627054",18/12/21 22:47:31
"2","33","352.7193280653865","292.54085050394235",18/12/21 22:47:31
"2","33","354.011486748964","291.49352921284105",18/12/21 22:47:31
"2","33","353.98908362997565","291.48314877123494",18/12/21 22:47:31
"2","33","355.88150993274945","292.70714448223254",18/12/21 22:47:31
"2","33","355.8357523418282","292.1012362394861",18/12/21 22:47:32
"2","33","355.5893430113816","292.10726542708926",18/12/21 22:47:32
"2","33","353.88604963082037","290.557903021088",18/12/21 22:47:32
"2","33","352.6310498688256","290.6127595042246",18/12/21 22:47:32
"2","33","352.1529477884716","290.4575888998344",18/12/21 22:47:32
"2","33","351.02117280997766","291.5568451764784",18/12/21 22:47:32
"2","33","349.8852158928848","293.6170975195746",18/12/21 22:47:32
"2","33","349.30426955074523","294.6195281454187",18/12/21 22:47:32
"2","33","347.6099965399705","294.2234352516177",18/12/21 22:47:32
"2","33","347.11665158037624","295.66084505585286",18/12/21 22:47:32
"2","33","347.4926922569433","295.5778032840779",18/12/21 22:47:32
"2","33","346.8868606039726","295.88541772873936",18/12/21 22:47:32
"2","33","347.25741285573713","296.1430936620887",18/12/21 22:47:32
"2","33","348.0394302537594","296.4530532551972",18/12/21 22:47:32
"2","33","348.40909317607077","296.42733123630853",18/12/21 22:47:32
"2","33","348.6861612204856","293.9815885547219",18/12/21 22:47:32
"2","33","350.2597448411796","294.95734869140574",18/12/21 22:47:32
"2","33","350.8064705126538","295.72428360528374",18/12/21 22:47:32
"2","33","350.4582601381243","296.4046986405915",18/12/21 22:47:32
"2","33","350.91205612545247","294.14144057832056",18/12/21 22:47:32
"2","33","352.53728894574647","295.67575900450646",18/12/21 22:47:32
"2","33","351.5271695364049","294.5016179769187",18/12/21 22:47:32
"2","33","353.7695771495551","293.8347952813196",18/12/21 22:47:32
"2","33","353.6043315271825","294.1415255092681",18/12/21 22:47:32
"2","33","352.24305987734346","295.37507012525015",18/12/21 22:47:32
"2","33","353.8213075421148","294.667011357666",18/12/21 22:47:32
"2","33","354.39830988319926","292.33012163415395",18/12/21 22:47:32
"2","33","354.229615287569","292.2910346333536",18/12/21 22:47:32
"2","33","355.1168867676267","294.5441567030108",18/12/21 22:47:32
"2","33","353.149731666112","293.24385497206237",18/12/21 22:47:32
"2","33","353.38297560705803","294.1589822589641",18/12/21 22:47:32
"2","33","353.66991896881217","294.96199608812225",18/12/21 22:47:32
"2","33","352.79320871566483","296.04969697479544",18/12/21 22:47:32
"2","33","351.0308892569921","294.6216945089114",18/12/21 22:47:32
"2","33","353.06015936848155","293.634688182896",18/12/21 22:47:32
"2","33","354.42988244677275","295.1333323361674",18/12/21 22:47:32
"2","33","354.42988244677275","295.1333323361674",18/12/21 22:47:32
"2","33","354.42988244677275","295.1333323361674",18/12/21 22:47:32
"2","33","355.1637765833937","293.9799739520073",18/12/21 22:47:32
"2","92","356.49362779681707","291.910761982126",18/12/21 22:47:32
"2","92","358.2655252417225","291.0978369664844",18/12/21 22:47:32
"2","92","359.5154677506593","290.5243785326738",18/12/21 22:47:32
"2","92","360.7690462924532","289.94925193117336",18/12/21 22:47:32
"2","92","362.4061576933369","289.19816511461016",18/12/21 22:47:32
"2","92","362.4136831646747","287.717657051256",18/12/21 22:47:32
"2","92","361.09697898745793","285.8526727337112",18/12/21 22:47:32
"2","31","360.72399038108307","284.7284363278818",18/12/21 22:47:32
"2","31","361.09530342260183","282.3443541787841",18/12/21 22:47:32
"2","31","361.25859988727984","281.2958798648811",18/12/21 22:47:32
"2","31","360.9122561292408","281.0306154160347",18/12/21 22:47:32
"2","31","359.9773061712849","282.991268760221",18/12/21 22:47:33
"2","31","359.440400583651","282.7011977615416",18/12/21 22:47:33
"2","31","359.49116858657555","282.6993135215897",18/12/21 22:47:33
"2","31","358.679663331178","281.80378630014644",18/12/21 22:47:33
"2","31","359.14072757311357","281.1580638412212",18/12/21 22:47:33
"2","31","359.2092467141821","281.3823933927226",18/12/21 22:47:33
"2","31","358.3154419777084","281.3069459200533",18/12/21 22:47:33
"2","31","360.26054741898815","282.3121066560384",18/12/21 22:47:33
"2","31","361.18938030827485","281.8013569710237",18/12/21 22:47:33
"2","31","360.0154241030281","279.98648874530494",18/12/21 22:47:33
"2","31","360.311887521527","280.1602348312688",18/12/21 22:47:33
"2","31","358.65458279759895","279.5179238670283",18/12/21 22:47:33
"2","31","358.3261170873915","279.5435831229073",18/12/21 22:47:33
"2","31","358.44912113246977","277.68866402186666",18/12/21 22:47:33
"2","31","357.65286872965163","278.84149345083733",18/12/21 22:47:33
"2","31","356.9541119874719","279.0376795028583",18/12/21 22:47:33
"2","31","357.08515211713467","278.704488079207",18/12/21 22:47:33
"2","31","357.3404934640415","278.36392732649085",18/12/21 22:47:33
"2","31","358.6984601821826","278.4533783011058",18/12/21 22:47:33
"2","31","357.75942459458736","279.4851226482678",18/12/21 22:47:33
"2","31","358.4413767492046","279.8065863926349",18/12/21 22:47:33
"2","31","357.90735760596186","278.02319937487545",18/12/21 22:47:33
"2","31","356.9003678096259","280.24903543544036",18/12/21 22:47:33
"2","31","359.10592731099246","280.4254745026384",18/12/21 22:47:33
"2","31","359.48075410717126","282.12491441031074",18/12/21 22:47:33
"2","31","358.4049489412524","281.21160455698885",18/12/21 22:47:33
"2","31","359.5630455493675","280.80595046013303",18/12/21 22:47:33
"2","31","358.43331388042765","279.55315714172116",18/12/21 22:47:33
"2","31","357.6171419314919","279.51978185476133",18/12/21 22:47:33
"2","31","357.89251694694184","279.68973024954835",18/12/21 22:47:33
"2","31","359.08719729974393","280.0715597060716",18/12/21 22:47:33
"2","31","357.9616001810336","278.5298364714664",18/12/21 22:47:33
"2","31","357.9719110706505","278.5782260201335",18/12/21 22:47:33
"2","31","359.3066180275329","277.72754583402167",18/12/21 22:47:33
"2","31","359.6074995292164","278.07660019820713",18/12/21 22:47:33
"2","31","358.09057329521477","279.8980702779973",18/12/21 22:47:33
"2","31","357.8469294735847","282.10587739017683",18/12/21 22:47:33
"2","31","357.16811000122595","283.1450378998423",18/12/21 22:47:33
"2","31","357.01329276031714","282.95912070637036",18/12/21 22:47:33
"2","31","357.8755842827229","283.2743791865368",18/12/21 22:47:33
"2","31","358.6779936535231","283.30620610763",18/12/21 22:47:33
"2","31","358.74291272572873","283.82095881979774",18/12/21 22:47:33
"2","31","359.0370873588291","284.16689767184357",18/12/21 22:47:33
"2","31","359.1491486491151","284.4134272448206",18/12/21 22:47:33
"2","31","359.06111363047023","284.4093958947301",18/12/21 22:47:33
"2","31","360.1761905109021","283.1980267618211",18/12/21 22:47:33
"2","31","358.9166380299896","283.4975467637236",18/12/21 22:47:33
"2","31","358.52509720531054","281.7175069192751",18/12/21 22:47:33
"2","31","360.0677693541791","282.9784540480105",18/12/21 22:47:33
"2","31","359.9680610543447","283.0928009655921",18/12/21 22:47:33
"2","31","360.1028166458953","283.1642714948391",18/12/21 22:47:34
"2","31","360.732849193334","284.21108688221926",18/12/21 22:47:34
"2","31","359.2872909385147","283.5141541770996",18/12/21 22:47:34
"2","31","359.7102499374162","282.7665849206008",18/12/21 22:47:34
"2","31","360.00908698282615","282.993048600272",18/12/21 22:47:34
"2","31","361.3208842969313","282.3673425684827",18/12/21 22:47:34
"2","31","361.21778144145793","282.28541611395775",18/12/21 22:47:34
"2","31","360.9472968514363","281.25123425915075",18/12/21 22:47:34
"2","31","359.8817458760755","282.66478223368676",18/12/21 22:47:34
"2","31","358.91700292026263","282.3829352579622",18/12/21 22:47:34
"2","31","358.8486009156329","282.4130736903679",18/12/21 22:47:34
"2","31","359.3223388379833","282.6267020381425",18/12/21 22:47:34
"2","31","359.2832862197273","282.67613967036965",18/12/21 22:47:34
"2","31","359.177588416763","281.0147223338604",18/12/21 22:47:34
"2","31","358.4645014954986","279.47284881292256",18/12/21 22:47:34
"2","31","357.4361209383679","281.14580665376127",18/12/21 22:47:34
"2","31","359.78162611874154","280.9213312736229",18/12/21 22:47:34
"2","31","360.00149774117955","281.61907916596067",18/12/21 22:47:34
"2","31","360.80604289855927","280.62922876180505",18/12/21 22:47:34
"2","31","360.619314789548","280.06781099145155",18/12/21 22:47:34
"2","31","360.9170704569626","280.50473825594895",18/12/21 22:47:34
"2","31","360.6324582008625","281.7825035242394",18/12/21 22:47:34
"2","31","360.5892216499287","281.7045759932174",18/12/21 22:47:34
"2","31","360.46394950689887","283.68846380110466",18/12/21 22:47:34
"2","31","360.047851964418","283.61004044693016",18/12/21 22:47:34
"2","31","360.16400328376693","282.6265776301268",18/12/21 22:47:34
"2","31","358.91892293992873","284.25071941333096",18/12/21 22:47:34
"2","31","358.89414974075277","283.127940003781",18/12/21 22:47:34
"2","31","358.01890398665387","282.0236350773356",18/12/21 22:47:34
"2","31","357.1405043486856","283.0230822236104",18/12/21 22:47:34
"2","31","357.5374060471647","281.8033267063026",18/12/21 22:47:34
"2","31","357.20220679250224","281.8579639580874",18/12/21 22:47:34
"2","31","356.9881502446315","280.4091579417514",18/12/21 22:47:34
"2","31","357.15810580259597","279.393700964155",18/12/21 22:47:34
"2","31","357.31377781369036","281.75268584972366",18/12/21 22:47:34
"2","31","357.332225247148","281.7180841590797",18/12/21 22:47:34
"2","31","357.5466810733267","280.3326314342247",18/12/21 22:47:34
"2","31","357.50573794264335","280.63252146924793",18/12/21 22:47:34
"2","31","358.50545778704594","280.1533606774221",18/12/21 22:47:34
"2","31","358.4864834593052","280.1406837031391",18/12/21 22:47:34
"2","31","357.7014518630993","279.86083321855443",18/12/21 22:47:34
"2","31","357.5485244217656","280.11163676979015",18/12/21 22:47:34
"2","31","357.3689752427667","280.26089621848797",18/12/21 22:47:34
"2","31","358.0003299818308","279.96849887108766",18/12/21 22:47:34
"2","31","357.97293765286355","280.1754014441344",18/12/21 22:47:34
"2","31","358.92786583699905","279.6949793836808",18/12/21 22:47:34
"2","31","357.9966007444791","279.23390018464573",18/12/21 22:47:34
"2","31","358.04669604223324","279.4599873180183",18/12/21 22:47:34
"2","31","357.6381752852739","278.8391333721253",18/12/21 22:47:34
"2","31","357.69948865526544","281.1876623939541",18/12/21 22:47:34
"2","31","357.2793251613052","279.42552904370257",18/12/21 22:47:35
"2","31","357.82370112907284","278.2922254669389",18/12/21 22:47:35
"2","31","357.88310678671905","278.2236928377495",18/12/21 22:47:35
"2","31","359.51212978215494","278.65629269014363",18/12/21 22:47:35
"2","31","360.5926271234079","278.4874832970695",18/12/21 22:47:35
"2","31","361.14727755017896","280.1541708798255",18/12/21 22:47:35
"2","31","360.141783440093","279.9889952162282",18/12/21 22:47:35
"2","31","360.57145247697116","279.7730587773107",18/12/21 22:47:35
"2","31","360.57145247697116","279.7730587773107",18/12/21 22:47:35
"2","31","360.57145247697116","279.7730587773107",18/12/21 22:47:35
"2","31","360.5867094997564","281.2026576537344",18/12/21 22:47:35
"2","31","360.6118115946607","283.55475000990356",18/12/21 22:47:35
"2","92","360.5417652319708","285.24599796060716",18/12/21 22:47:35
"2","92","358.46482756093843","285.93997574762034",18/12/21 22:47:35
"2","92","356.88436900670405","286.46806243275824",18/12/21 22:47:35
"2","93","354.47670003676575","286.1659068819693",18/12/21 22:47:35
"2","93","352.55159235481494","285.7109868618259",18/12/21 22:47:35
"2","93","351.1165599592933","285.37187597862817",18/12/21 22:47:35
"2","93","348.7344302357486","284.80895759646216",18/12/21 22:47:35
"2","93","346.4057009900538","284.25865822085194",18/12/21 22:47:35
"2","93","344.4491085579623","283.7962980749938",18/12/21 22:47:35
"2","93","342.36388212721806","283.3035405743243",18/12/21 22:47:35
"2","93","340.84484362232257","282.9445783023825",18/12/21 22:47:35
"2","93","338.5137690648353","282.39372470879385",18/12/21 22:47:35
"2","93","337.2673871884571","282.0991936165208",18/12/21 22:47:35
"2","93","335.2452462093999","281.6213437676265",18/12/21 22:47:35
"2","93","333.77211855557175","281.273230637002",18/12/21 22:47:35
"2","93","331.41867622589893","280.71709134045307",18/12/21 22:47:35
"3","95","331.46982456494896","281.02212402657324",18/12/21 22:47:35
"3","95","333.6219923304548","282.1807856445599",18/12/21 22:47:35
"3","95","334.90182773284266","282.8698100700041",18/12/21 22:47:35
"3","95","336.4586640859692","283.7079633760639",18/12/21 22:47:35
"3","95","338.2748096349317","284.6857208603953",18/12/21 22:47:35
"3","95","339.9379433016236","285.5811014046366",18/12/21 22:47:35
"3","95","341.1510861111112","286.2342205680302",18/12/21 22:47:35
"3","95","339.5065720808867","285.3488642693246",18/12/21 22:47:35
"3","95","337.6153691899202","284.33069819662853",18/12/21 22:47:35
"3","95","336.0862353047898","283.5074590561394",18/12/21 22:47:35
"3","95","334.22176081115487","282.5036827390166",18/12/21 22:47:35
"3","95","332.04024210243927","281.32921946658",18/12/21 22:47:35
"1","30","330.7293749870743","280.75351180636153",18/12/21 22:47:35
"1","30","332.22834814573935","282.4102198807145",18/12/21 22:47:35
"1","30","333.6088609099297","283.9360021336925",18/12/21 22:47:35
"1","30","334.81928775461904","285.2738005561782",18/12/21 22:47:35
"1","30","334.2453535924784","285.94809108914876",18/12/21 22:47:35
"1","30","333.81681160164493","286.53185172620823",18/12/21 22:47:35
"1","30","332.3202742408795","286.71111629673084",18/12/21 22:47:35
"1","30","332.474589216903","287.5878657490401",18/12/21 22:47:35
"1","30","332.5606782346214","286.90891404033846",18/12/21 22:47:35
"1","30","333.011470564881","286.1592817044791",18/12/21 22:47:36
"1","30","334.4696173661714","286.48461184687307",18/12/21 22:47:36
"1","30","333.15613309165485","286.0096919405447",18/12/21 22:47:36
"1","30","332.3997258781794","285.43986946926753",18/12/21 22:47:36
"1","30","333.1664293664884","285.8288800834639",18/12/21 22:47:36
"1","30","333.8653776700786","284.17491441650105",18/12/21 22:47:36
"1","30","333.67870919959705","283.859940092937",18/12/21 22:47:36
"1","30","333.8262926151291","284.44692702250694",18/12/21 22:47:36
"1","30","333.08768440079115","286.4311918728387",18/12/21 22:47:36
"1","30","333.3747803561322","285.82991296451985",18/12/21 22:47:36
"1","30","332.7078378513805","285.30119477446095",18/12/21 22:47:36
"1","30","332.2087280353252","284.7583887836875",18/12/21 22:47:36
"1","30","333.9477114196127","286.2427736108947",18/12/21 22:47:36
"1","30","334.46364106393105","285.66929301571344",18/12/21 22:47:36
"1","30","333.16125748902647","284.83774226586365",18/12/21 22:47:36
"1","30","333.15755171159105","284.9250801054112",18/12/21 22:47:36
"1","30","334.23858931524774","284.36190442438954",18/12/21 22:47:36
"1","30","336.20442971364866","285.7379156552166",18/12/21 22:47:36
"1","30","337.06648359663825","285.2328238984286",18/12/21 22:47:36
"1","30","335.9454139507162","283.3488241016351",18/12/21 22:47:36
"1","30","335.91897089201484","282.9242012166493",18/12/21 22:47:36
"1","30","337.00202029549206","280.9222732969844",18/12/21 22:47:36
"1","30","336.56840259983136","281.26433459244214",18/12/21 22:47:36
"1","30","334.8498535092569","279.5358425479496",18/12/21 22:47:36
"1","30","336.1500628924002","280.7408541103002",18/12/21 22:47:36
"1","30","335.7203294334879","280.59248345078134",18/12/21 22:47:36
"1","30","335.0493261132178","281.43301245822664",18/12/21 22:47:36
"1","30","335.093259994397","283.8766921451487",18/12/21 22:47:36
"1","30","335.0160809080755","283.09606340788764",18/12/21 22:47:36
"1","30","333.07197447844396","284.5739816076657",18/12/21 22:47:36
"1","30","333.31115650141186","284.8171748144585",18/12/21 22:47:36
"1","30","333.71318335734077","284.54536673459324",18/12/21 22:47:36
"1","30","333.52622471163954","286.7199107089339",18/12/21 22:47:36
"1","30","332.8762453267029","284.583974337658",18/12/21 22:47:36
"1","30","333.0442238600541","284.79165951435436",18/12/21 22:47:36
"1","30","333.04512255894093","285.05250643459937",18/12/21 22:47:36
"1","30","334.243179675254","283.4369704158486",18/12/21 22:47:36
"1","30","334.70735065684556","283.5690890234356",18/12/21 22:47:36
"1","30","334.7795301450683","283.8424960834597",18/12/21 22:47:36
"1","30","333.5649010985414","282.31273940655166",18/12/21 22:47:36
"1","30","333.89309347707524","283.1690683738093",18/12/21 22:47:36
"1","30","334.61137201422827","282.1926344252762",18/12/21 22:47:36
"1","30","333.3472892285996","281.23703750602937",18/12/21 22:47:36
"1","30","333.4771491753829","281.1564989804088",18/12/21 22:47:36
"1","30","333.4485978447301","281.0277982782805",18/12/21 22:47:36
"1","30","334.66705639918064","279.04926453658146",18/12/21 22:47:36
"1","30","336.2504329685285","278.87019274874444",18/12/21 22:47:36
"1","30","335.1864274715541","277.7956952569745",18/12/21 22:47:36
"1","30","336.41921046424324","278.17207140219676",18/12/21 22:47:36
"1","30","337.26779398326175","276.8166452623307",18/12/21 22:47:36
"1","30","336.3262311441108","278.1222315309036",18/12/21 22:47:37
"1","30","334.0223956409542","277.21821308490644",18/12/21 22:47:37
"1","30","333.04409796521634","277.3408533160082",18/12/21 22:47:37
"1","30","334.4333754216168","276.1235469440393",18/12/21 22:47:37
"1","30","333.68882223424913","276.27307960894706",18/12/21 22:47:37
"1","30","333.10794440092644","276.49725612787256",18/12/21 22:47:37
"1","30","333.1338364558542","276.60671207903283",18/12/21 22:47:37
"1","30","334.10946448162684","276.37807137119887",18/12/21 22:47:37
"1","30","334.4377597623061","277.61426129531816",18/12/21 22:47:37
"1","30","334.4377597623061","277.61426129531816",18/12/21 22:47:37
"1","30","334.4377597623061","277.61426129531816",18/12/21 22:47:37
"1","30","334.4377597623061","277.61426129531816",18/12/21 22:47:37
"1","30","334.0881264117349","279.1424648099427",18/12/21 22:47:37
"1","30","333.66275660909577","281.0017028555875",18/12/21 22:47:37
"1","30","333.36193106005015","282.31657359257326",18/12/21 22:47:37
"1","30","332.9907509596339","283.93895524777884",18/12/21 22:47:37
"1","30","332.57281879244016","285.7656843219265",18/12/21 22:47:37
"1","30","332.0356510831953","288.1135769925473",18/12/21 22:47:37
"1","88","329.811167305453","287.89658528242217",18/12/21 22:47:37
"1","88","327.49758945578003","287.6211648372353",18/12/21 22:47:37
"1","88","325.71138369154284","287.4085255319052",18/12/21 22:47:37
"1","88","323.7077963125753","287.17000797868604",18/12/21 22:47:37
"1","88","322.0404483500571","286.9715181296485",18/12/21 22:47:37
"1","88","319.67638694464546","286.6900878571294",18/12/21 22:47:37
"1","88","317.9430000508642","286.48373638724746",18/12/21 22:47:37
"1","89","316.22239350054195","285.96593340983026",18/12/21 22:47:37
"1","46","314.90624771677477","285.2118247015073",18/12/21 22:47:37
"1","46","314.30788595214125","282.92658471630386",18/12/21 22:47:37
"1","46","315.63294405476165","281.56265418909675",18/12/21 22:47:37
"1","46","315.85720957370864","281.9469674606815",18/12/21 22:47:37
"1","46","316.0266736294824","281.85734028160886",18/12/21 22:47:37
"1","46","315.3748080878263","281.52538915022365",18/12/21 22:47:37
"1","46","315.9396494833517","281.09665188047984",18/12/21 22:47:37
"1","46","313.7356698936442","280.56390453278476",18/12/21 22:47:37
"1","46","313.4768540920283","279.5585684462686",18/12/21 22:47:37
"1","46","313.2963436197909","277.735020670788",18/12/21 22:47:37
"1","46","313.9262780596389","279.7154025449415",18/12/21 22:47:37
"1","46","314.3419767038215","278.36264629378957",18/12/21 22:47:37
"1","46","314.1613960185614","278.56049839908474",18/12/21 22:47:37
"1","46","313.95789457614","279.9075865615491",18/12/21 22:47:37
"1","46","313.4084553972045","279.4383140123686",18/12/21 22:47:37
"1","46","312.8424921956182","278.5452865011557",18/12/21 22:47:37
"1","46","311.8482056875589","278.0988374604314",18/12/21 22:47:37
"1","46","313.1714144188623","278.29125962492674",18/12/21 22:47:37
"1","46","312.99324331293633","280.3427093667664",18/12/21 22:47:37
"1","46","313.00071865036756","280.4366079890734",18/12/21 22:47:37
"1","46","314.87177552472855","279.8682895719091",18/12/21 22:47:37
"1","46","315.3425762343959","280.5672549811676",18/12/21 22:47:37
"1","46","315.1882124868066","280.0674794970439",18/12/21 22:47:37
"1","46","315.3372535796117","278.15643499353286",18/12/21 22:47:37
"1","46","315.64294790470194","280.1172883102842",18/12/21 22:47:38
"1","46","313.64145577401894","279.77435815965765",18/12/21 22:47:38
"1","46","314.50225790966977","279.2180248505191",18/12/21 22:47:38
"1","46","316.342080317308","280.0303524488166",18/12/21 22:47:38
"1","46","315.48921896231457","278.60647090046257",18/12/21 22:47:38
"1","46","315.519792376464","278.20023025152994",18/12/21 22:47:38
"1","46","315.0480319674958","278.6231875672211",18/12/21 22:47:38
"1","46","314.49459058994324","280.91331285266546",18/12/21 22:47:38
"1","46","314.4454133741551","280.82322518459665",18/12/21 22:47:38
"1","46","313.58244830084374","282.1017323369509",18/12/21 22:47:38
"1","46","314.71367207432513","281.25099375947406",18/12/21 22:47:38
"1","46","314.46668357489693","281.7008064889962",18/12/21 22:47:38
"1","46","314.1592120567728","281.40051957667305",18/12/21 22:47:38
"1","46","314.67032464138987","281.40715945442713",18/12/21 22:47:38
"1","46","315.57438437922997","283.4996363984452",18/12/21 22:47:38
"1","46","315.82418572325804","283.5581674286765",18/12/21 22:47:38
"1","46","313.4593639817178","283.1431887073311",18/12/21 22:47:38
"1","46","312.73124723755586","284.85202357754457",18/12/21 22:47:38
"1","46","312.19690474379394","284.7715764350855",18/12/21 22:47:38
"1","46","312.84154138591015","284.4569393772259",18/12/21 22:47:38
"1","46","312.3445832045736","284.53678511500124",18/12/21 22:47:38
"1","46","313.2778371514073","282.2875385109125",18/12/21 22:47:38
"1","46","313.855138382794","283.15205114136955",18/12/21 22:47:38
"1","46","313.4332869306719","282.7849354084004",18/12/21 22:47:38
"1","46","313.55370783887076","282.7683773704982",18/12/21 22:47:38
"1","46","314.736090786912","282.12032884437394",18/12/21 22:47:38
"1","46","314.55773344020724","282.2788110233473",18/12/21 22:47:38
"1","46","313.6125136087146","284.5378130487256",18/12/21 22:47:38
"1","46","315.58813908707367","284.0187086489917",18/12/21 22:47:38
"1","46","315.14748438627066","284.16678715680575",18/12/21 22:47:38
"1","46","316.37395856278965","283.88687856859485",18/12/21 22:47:38
"1","46","315.9992013099191","282.5143713108271",18/12/21 22:47:38
"1","46","314.175200031502","281.9019615083214",18/12/21 22:47:38
"1","46","314.3014182669897","282.5504526514499",18/12/21 22:47:38
"1","46","314.2936240896769","282.6673096138471",18/12/21 22:47:38
"1","46","312.8994320010811","284.7034595884004",18/12/21 22:47:38
"1","46","313.5283604669564","282.68945703102867",18/12/21 22:47:38
"1","46","313.20313371912226","283.2384180933321",18/12/21 22:47:38
"1","46","313.17670551651037","283.05614853543426",18/12/21 22:47:38
"1","46","312.0763594171318","281.1427085102085",18/12/21 22:47:38
"1","46","312.0246631036438","281.08309223465056",18/12/21 22:47:38
"1","46","312.77094585108824","281.679358947299",18/12/21 22:47:38
"1","46","312.23713003193456","281.9924560542086",18/12/21 22:47:38
"1","46","311.94135673387046","281.52959369749465",18/12/21 22:47:38
"1","46","313.0668871758808","281.54083105310815",18/12/21 22:47:38
"1","46","312.05122833054236","282.7913943097134",18/12/21 22:47:38
"1","46","313.91079579969556","283.4289592988264",18/12/21 22:47:38
"1","46","315.6338205853065","281.6338886709783",18/12/21 22:47:38
"1","46","315.8829189443059","282.9660173822099",18/12/21 22:47:38
"1","46","315.7524331540135","281.501595401475",18/12/21 22:47:38
"1","46","314.5713172926929","280.33240811120584",18/12/21 22:47:39
"1","46","315.1976566855389","281.56426810602784",18/12/21 22:47:39
"1","46","314.1284155742881","282.22463288205114",18/12/21 22:47:39
"1","46","314.5467551499519","282.5753261749981",18/12/21 22:47:39
"1","46","314.39411260513685","282.83580508012403",18/12/21 22:47:39
"1","46","315.8192382418217","281.86102754155405",18/12/21 22:47:39
"1","46","315.7647423219379","281.5903432073744",18/12/21 22:47:39
"1","46","314.1675625695823","279.7584675801468",18/12/21 22:47:39
"1","46","315.4732070845199","277.8096043514354",18/12/21 22:47:39
"1","46","315.0232642552719","278.57779748280115",18/12/21 22:47:39
"1","46","316.1338664907086","278.94552762046555",18/12/21 22:47:39
"1","46","316.2247503714827","279.21101713028236",18/12/21 22:47:39
"1","46","315.5021385573068","278.7994622578628",18/12/21 22:47:39
"1","46","315.9238159281924","280.8431768962432",18/12/21 22:47:39
"1","46","316.14001657512375","281.09344812117286",18/12/21 22:47:39
"1","46","314.7759296717915","280.18068814647734",18/12/21 22:47:39
"1","46","313.1363568772008","280.43391760942706",18/12/21 22:47:39
"1","46","314.87372785617134","280.28173913730024",18/12/21 22:47:39
"1","46","315.498365459385","280.08402497184477",18/12/21 22:47:39
"1","46","315.62188415100877","280.37940313639774",18/12/21 22:47:39
"1","46","315.7180765723324","280.68679442807866",18/12/21 22:47:39
"1","46","315.69149302946454","279.4974042271706",18/12/21 22:47:39
"1","46","314.6649790910521","278.6046542493053",18/12/21 22:47:39
"1","46","316.1812026004664","279.53974524938684",18/12/21 22:47:39
"1","46","316.32708562117574","277.764869744415",18/12/21 22:47:39
"1","46","316.48701966606137","277.7802397918622",18/12/21 22:47:39
"1","46","315.21634761408137","278.30618753222905",18/12/21 22:47:39
"1","46","315.48519264403023","278.0956327325271",18/12/21 22:47:39
"1","46","315.47759348003325","278.0003795749041",18/12/21 22:47:39
"1","46","315.67104266304443","278.1722227534044",18/12/21 22:47:39
"1","46","313.6916275694461","277.7483509879224",18/12/21 22:47:39
"1","46","312.79448362960045","279.63529819036785",18/12/21 22:47:39
"1","46","313.389699957861","279.38732011179604",18/12/21 22:47:39
"1","46","312.9056597015292","279.2663470798477",18/12/21 22:47:39
"1","46","313.0382787346296","281.51857080284015",18/12/21 22:47:39
"1","46","312.6591661215347","281.30338265444533",18/12/21 22:47:39
"1","46","313.12839862460066","280.6944956892653",18/12/21 22:47:39
"1","46","312.0290696070639","281.0337086903895",18/12/21 22:47:39
"1","46","311.96428368102073","281.0705372984214",18/12/21 22:47:39
"1","46","312.47514157865277","280.42141757828466",18/12/21 22:47:39
"1","46","312.67606722182774","280.5627499379802",18/12/21 22:47:39
"1","46","314.4584538068971","279.522473187865",18/12/21 22:47:39
"1","46","315.02603823365087","279.98178202475424",18/12/21 22:47:39
"1","46","314.2561989829444","279.20179291626334",18/12/21 22:47:39
"1","46","313.9870637995859","279.1230041668485",18/12/21 22:47:39
"1","46","313.65308720527946","280.7689558880623",18/12/21 22:47:39
"1","46","313.56321887798754","280.249837490026",18/12/21 22:47:39
"1","46","314.7080883031943","280.6300636200519",18/12/21 22:47:39
"1","46","314.7298420364681","280.47248864770705",18/12/21 22:47:39
"1","46","314.6036872349516","282.7209065049059",18/12/21 22:47:39
"1","46","315.1047727746574","283.8294015891817",18/12/21 22:47:40
"1","46","315.10999392933417","282.9114810586543",18/12/21 22:47:40
"1","46","315.68020134779135","282.14359780883257",18/12/21 22:47:40
"1","46","316.0204971656015","279.92519114033536",18/12/21 22:47:40
"1","46","316.27399345793805","280.68816873982917",18/12/21 22:47:40
"1","46","314.9572711805377","280.56040674646965",18/12/21 22:47:40
"1","46","313.39715317826443","281.00851630685287",18/12/21 22:47:40
"1","46","312.7576623765868","281.0063656786298",18/12/21 22:47:40
"1","46","312.14631387152104","281.367126943188",18/12/21 22:47:40
"1","46","312.5044294748964","283.050975901385",18/12/21 22:47:40
"1","46","312.7912838195228","284.2734512594215",18/12/21 22:47:40
"1","46","312.8297252402573","284.0805974821853",18/12/21 22:47:40
"1","46","312.6651798956952","284.45528712933066",18/12/21 22:47:40
"1","46","313.94075233455004","282.4861783928858",18/12/21 22:47:40
"1","46","312.1550467344879","281.9151722279054",18/12/21 22:47:40
"1","46","312.11031778565905","281.8580566187045",18/12/21 22:47:40
"1","46","312.10981795110456","281.85884409075237",18/12/21 22:47:40
"1","46","313.0400183240217","282.9796784475294",18/12/21 22:47:40
"1","46","313.366996393326","283.11365070137083",18/12/21 22:47:40
"1","46","312.2493858834452","284.186114606108",18/12/21 22:47:40
"1","46","312.4343194870106","284.1195623513799",18/12/21 22:47:40
"1","46","313.2525800183198","284.6564421516169",18/12/21 22:47:40
"1","46","313.37079156481394","284.7218999945942",18/12/21 22:47:40
"1","46","312.8910413949102","284.4153404646927",18/12/21 22:47:40
"1","46","312.6693700355391","284.15409497240944",18/12/21 22:47:40
"1","46","312.2602905419631","283.38092013942713",18/12/21 22:47:40
"1","46","312.6316552138281","281.81731310661456",18/12/21 22:47:40
"1","46","312.20763008896404","282.77845434350354",18/12/21 22:47:40
"1","46","312.4729949682073","282.9404827368115",18/12/21 22:47:40
"1","46","312.2124018283026","282.6731858540756",18/12/21 22:47:40
"1","46","313.835597721557","283.31471291508547",18/12/21 22:47:40
"1","46","312.717700571384","283.6135935129244",18/12/21 22:47:40
"1","46","313.4806300389397","283.5538414405388",18/12/21 22:47:40
"1","46","313.4764268318413","283.8372673597695",18/12/21 22:47:40
"1","46","312.6103040306479","281.9657363737716",18/12/21 22:47:40
"1","46","313.33908563940287","282.95071386192564",18/12/21 22:47:40
"1","46","314.3923336665902","283.10419392257256",18/12/21 22:47:40
"1","46","314.3923336665902","283.10419392257256",18/12/21 22:47:40
"1","46","314.50293259676357","283.2525297379024",18/12/21 22:47:40
"1","46","314.50293259676357","283.2525297379024",18/12/21 22:47:40
"1","46","316.1161793757517","281.4311906060224",18/12/21 22:47:40
"1","46","316.1161793757517","281.4311906060224",18/12/21 22:47:40
"1","46","314.58880051377747","279.21699888726596",18/12/21 22:47:40
"1","46","315.8273027656097","279.97867903915557",18/12/21 22:47:40
"1","46","315.8273027656097","279.97867903915557",18/12/21 22:47:40
"1","46","314.59490289970717","279.22547825493234",18/12/21 22:47:40
"1","46","314.59490289970717","279.22547825493234",18/12/21 22:47:40
"1","46","313.47435612567494","279.96367751907303",18/12/21 22:47:40
"1","46","313.40965627614406","279.21453395258027",18/12/21 22:47:40
"1","46","313.40965627614406","279.21453395258027",18/12/21 22:47:41
"1","46","313.8073073067057","277.8873870201645",18/12/21 22:47:41
"1","46","313.8073073067057","277.8873870201645",18/12/21 22:47:41
"1","46","311.9740589726481","277.97267012065373",18/12/21 22:47:41
"1","46","311.9740589726481","277.97267012065373",18/12/21 22:47:41
"1","46","313.4202804622479","278.95809230928944",18/12/21 22:47:41
"1","46","313.4202804622479","278.95809230928944",18/12/21 22:47:41
"1","46","312.4201116309823","277.9729861055149",18/12/21 22:47:41
"1","46","312.4201116309823","277.9729861055149",18/12/21 22:47:41
"1","46","312.79261543881887","279.25823551485723",18/12/21 22:47:41
"1","46","312.79261543881887","279.25823551485723",18/12/21 22:47:41
"1","46","312.4349266322715","280.0527533840729",18/12/21 22:47:41
"1","46","314.0761212182312","281.5956065090631",18/12/21 22:47:41
"1","46","314.0761212182312","281.5956065090631",18/12/21 22:47:41
"1","46","313.31904269846194","278.4481812333223",18/12/21 22:47:41
"1","46","313.31904269846194","278.4481812333223",18/12/21 22:47:41
"1","46","313.1681319240072","278.60117337734766",18/12/21 22:47:41
"1","46","313.1681319240072","278.60117337734766",18/12/21 22:47:41
"1","46","312.6720170397067","279.04675990672865",18/12/21 22:47:41
"1","46","312.2737549908977","281.00347108340776",18/12/21 22:47:41
"1","46","312.2737549908977","281.00347108340776",18/12/21 22:47:41
"1","46","311.84330692265826","281.1404007766443",18/12/21 22:47:41
"1","46","311.84330692265826","281.1404007766443",18/12/21 22:47:41
"1","46","312.4545927005418","279.8121461819896",18/12/21 22:47:41
"1","46","312.64690982510285","278.97702605613273",18/12/21 22:47:41
"1","46","312.4384997322765","279.18226140116366",18/12/21 22:47:41
"1","46","312.4384997322765","279.18226140116366",18/12/21 22:47:41
"1","46","313.6761427554109","278.02020514332287",18/12/21 22:47:41
"1","46","313.6761427554109","278.02020514332287",18/12/21 22:47:41
"1","46","314.52698032520607","279.04786415451946",18/12/21 22:47:41
"1","46","314.52698032520607","279.04786415451946",18/12/21 22:47:41
"1","46","314.8120863996577","279.26715212083604",18/12/21 22:47:41
"1","46","314.8120863996577","279.26715212083604",18/12/21 22:47:41
"1","46","315.7173496582779","278.29878944857785",18/12/21 22:47:41
"1","46","315.7173496582779","278.29878944857785",18/12/21 22:47:41
"1","46","315.29899363221995","278.3986076353201",18/12/21 22:47:41
"1","46","315.29899363221995","278.3986076353201",18/12/21 22:47:41
"1","46","312.1681354503676","278.0565210816409",18/12/21 22:47:41
"1","46","312.1681354503676","278.0565210816409",18/12/21 22:47:41
"1","46","313.65708026265855","278.4671246441055",18/12/21 22:47:41
"1","46","313.65708026265855","278.4671246441055",18/12/21 22:47:41
"1","46","314.3343101538772","277.6855907406474",18/12/21 22:47:41
"1","46","314.41455129556255","277.60026459738896",18/12/21 22:47:41
"1","46","314.41455129556255","277.60026459738896",18/12/21 22:47:41
"1","46","314.65252732415905","279.1068775097515",18/12/21 22:47:41
"1","46","314.66299400430324","279.16210484389865",18/12/21 22:47:41
"1","46","314.66299400430324","279.16210484389865",18/12/21 22:47:41
"1","46","313.7956171978444","279.8136186185634",18/12/21 22:47:41
"1","46","313.7956171978444","279.8136186185634",18/12/21 22:47:41
"1","46","315.2338637140623","279.3673751258897",18/12/21 22:47:41
"1","46","313.7445775248401","277.8217003041271",18/12/21 22:47:42
"1","46","313.7445775248401","277.8217003041271",18/12/21 22:47:42
"1","46","314.429236896392","279.0065740453524",18/12/21 22:47:42
"1","46","314.429236896392","279.0065740453524",18/12/21 22:47:42
"1","46","314.35589471793367","279.26922000243536",18/12/21 22:47:42
"1","46","314.35589471793367","279.26922000243536",18/12/21 22:47:42
"1","46","314.7464589819658","280.47093737362474",18/12/21 22:47:42
"1","46","314.7464589819658","280.47093737362474",18/12/21 22:47:42
"1","46","315.13581673943315","281.66894247507804",18/12/21 22:47:42
"1","88","316.3346828120325","285.3723741953253",18/12/21 22:47:42
"1","88","316.3346828120325","285.3723741953253",18/12/21 22:47:42
"1","88","316.8963071229607","287.28017571209085",18/12/21 22:47:42
"1","88","318.74205025996554","287.31368357925857",18/12/21 22:47:42
"1","88","318.74205025996554","287.31368357925857",18/12/21 22:47:42
"1","88","322.5258647395936","287.2397806111812",18/12/21 22:47:42
"1","88","322.5258647395936","287.2397806111812",18/12/21 22:47:42
"1","88","326.5598664020585","287.1609911521074",18/12/21 22:47:42
"1","88","326.5598664020585","287.1609911521074",18/12/21 22:47:42
"1","88","330.363445550392","287.08670215356045",18/12/21 22:47:42
"1","88","330.363445550392","287.08670215356045",18/12/21 22:47:42
"1","26","334.80210558022077","286.99985120499764",18/12/21 22:47:42
"1","26","336.624458284194","286.9641545539465",18/12/21 22:47:42
"1","26","336.624458284194","286.9641545539465",18/12/21 22:47:42
"1","26","339.7164259495101","286.90358840197746",18/12/21 22:47:42
"1","26","339.7164259495101","286.90358840197746",18/12/21 22:47:42
"1","30","342.1164861128409","286.9100081520233",18/12/21 22:47:42
"1","30","344.8932588147338","287.039208080316",18/12/21 22:47:42
"1","30","344.8932588147338","287.039208080316",18/12/21 22:47:42
"1","30","348.71985366554856","287.2172549834685",18/12/21 22:47:42
"1","26","350.0893586980157","287.2809764223427",18/12/21 22:47:42
"1","26","350.0893586980157","287.2809764223427",18/12/21 22:47:42
"1","26","350.2084012144086","287.2284801743052",18/12/21 22:47:42
"1","26","350.2084012144086","287.2284801743052",18/12/21 22:47:42
"1","26","349.49894538618616","288.02113539239286",18/12/21 22:47:42
"1","26","349.49894538618616","288.02113539239286",18/12/21 22:47:42
"1","26","350.32629585236947","288.1962092408439",18/12/21 22:47:42
"1","26","350.32629585236947","288.1962092408439",18/12/21 22:47:42
"1","26","350.27353255779735","288.37035301296373",18/12/21 22:47:42
"1","26","349.01548957129296","287.4724895520201",18/12/21 22:47:42
"1","26","349.01548957129296","287.4724895520201",18/12/21 22:47:42
"1","26","346.82832005474984","287.23972427270917",18/12/21 22:47:42
"1","26","346.82832005474984","287.23972427270917",18/12/21 22:47:42
"1","26","345.78453174976516","286.80199275924093",18/12/21 22:47:42
"1","26","345.78453174976516","286.80199275924093",18/12/21 22:47:42
"1","26","345.03627308048635","287.0375396239414",18/12/21 22:47:42
"1","26","345.03627308048635","287.0375396239414",18/12/21 22:47:42
"1","26","345.5484223978688","285.9078773108415",18/12/21 22:47:42
"1","26","344.08931643299775","287.1119300031685",18/12/21 22:47:42
"1","26","344.08931643299775","287.1119300031685",18/12/21 22:47:42
"1","26","344.60311144428124","287.3769667367277",18/12/21 22:47:42
"1","26","344.60311144428124","287.3769667367277",18/12/21 22:47:43
"1","26","346.4536295290322","286.803043976764",18/12/21 22:47:43
"1","26","345.46995998533635","287.96406602340807",18/12/21 22:47:43
"1","26","345.46995998533635","287.96406602340807",18/12/21 22:47:43
"1","26","345.5621362377766","288.0868572321361",18/12/21 22:47:43
"1","26","345.5621362377766","288.0868572321361",18/12/21 22:47:43
"1","26","344.60037590636426","286.4280464673796",18/12/21 22:47:43
"1","26","344.60037590636426","286.4280464673796",18/12/21 22:47:43
"1","26","343.3275968591869","286.8278159640125",18/12/21 22:47:43
"1","26","344.8339776573852","286.8278159640125",18/12/21 22:47:43
"1","26","344.5507997036078","287.9927846218235",18/12/21 22:47:43
"1","26","344.5788728730849","287.4808586821655",18/12/21 22:47:43
"1","26","344.5788728730849","287.4808586821655",18/12/21 22:47:43
"1","26","347.9127801104451","288.0755854900224",18/12/21 22:47:43
"1","26","348.92860008907945","286.76734338362024",18/12/21 22:47:43
"1","26","348.92860008907945","286.76734338362024",18/12/21 22:47:43
"1","26","348.47422092208535","285.97852877648035",18/12/21 22:47:43
"1","26","348.47422092208535","285.97852877648035",18/12/21 22:47:43
"1","26","346.69906412799713","287.44631118784736",18/12/21 22:47:43
"1","26","346.94064714324895","286.54214844705797",18/12/21 22:47:43
"1","26","346.94064714324895","285.666976605703",18/12/21 22:47:43
"1","26","348.6068577533562","285.666976605703",18/12/21 22:47:43
"1","26","348.938993440179","286.7155538311326",18/12/21 22:47:43
"1","26","348.753876690758","286.59761795056784",18/12/21 22:47:43
"1","26","348.753876690758","286.24094104868755",18/12/21 22:47:43
"1","26","348.59265763449963","286.24094104868755",18/12/21 22:47:43
"1","26","350.76192913789214","285.574636176435",18/12/21 22:47:43
"1","26","350.76192913789214","285.574636176435",18/12/21 22:47:43
"1","26","349.3844571935509","286.5237896423582",18/12/21 22:47:43
"1","26","349.3844571935509","286.5237896423582",18/12/21 22:47:43
"1","26","349.57632832643753","286.84341791016385",18/12/21 22:47:43
"1","26","349.57632832643753","286.84341791016385",18/12/21 22:47:43
"1","26","350.6319005743751","286.93232448317195",18/12/21 22:47:43
"1","26","350.6319005743751","286.93232448317195",18/12/21 22:47:43
"1","26","349.0582279153498","287.0807566330948",18/12/21 22:47:43
"1","26","349.0582279153498","287.0807566330948",18/12/21 22:47:43
"1","26","349.492653396012","287.24290362552125",18/12/21 22:47:43
"1","26","349.492653396012","287.24290362552125",18/12/21 22:47:43
"1","26","349.6532738717248","288.09971305355873",18/12/21 22:47:43
"1","26","349.9636059883276","288.09971305355873",18/12/21 22:47:43
"1","26","349.733450409567","288.4034593552291",18/12/21 22:47:43
"1","26","349.733450409567","288.4034593552291",18/12/21 22:47:43
"1","26","350.6671052396176","287.30885553883877",18/12/21 22:47:43
"1","26","350.6671052396176","287.30885553883877",18/12/21 22:47:43
"1","26","350.7084812628419","287.49685492299915",18/12/21 22:47:43
"1","26","349.30749951464685","287.96632125754394",18/12/21 22:47:43
"1","26","349.30749951464685","287.96632125754394",18/12/21 22:47:43
"1","26","348.33287919382826","288.36825780273256",18/12/21 22:47:43
"1","26","348.33287919382826","288.36825780273256",18/12/21 22:47:43
"1","26","349.0234308834943","287.6658798962246",18/12/21 22:47:43
"1","26","349.0234308834943","287.6658798962246",18/12/21 22:47:44
"1","26","348.6166127591052","288.0618256158043",18/12/21 22:47:44
"1","26","348.6166127591052","288.0618256158043",18/12/21 22:47:44
"1","26","345.1763817308698","288.1874307307332",18/12/21 22:47:44
"1","26","345.1763817308698","288.1874307307332",18/12/21 22:47:44
"1","26","344.67072092115234","288.1473200093365",18/12/21 22:47:44
"1","26","344.67072092115234","288.1473200093365",18/12/21 22:47:44
"1","26","346.044177560131","288.089041009132",18/12/21 22:47:44
"1","26","346.7856443526689","286.7801204260766",18/12/21 22:47:44
"1","26","344.7225899235241","287.55433565315536",18/12/21 22:47:44
"1","26","346.19770909247063","288.6007607896442",18/12/21 22:47:44
"1","26","346.0721992283933","288.14737771088227",18/12/21 22:47:44
"1","26","346.74446982377066","288.54065053094143",18/12/21 22:47:44
"1","26","346.74446982377066","287.09597743531",18/12/21 22:47:44
"1","26","347.95459079143296","286.3901534907196",18/12/21 22:47:44
"1","26","347.3040785377765","286.3901534907196",18/12/21 22:47:44
"1","26","346.1752924524483","285.9861115922076",18/12/21 22:47:44
"1","26","347.470194148068","286.52503280797",18/12/21 22:47:44
"1","26","345.54340662069336","286.52503280797",18/12/21 22:47:44
"1","26","345.9121341536612","287.2885711631564",18/12/21 22:47:44
"1","26","344.76659049811235","287.49135221087187",18/12/21 22:47:44
"1","26","344.76659049811235","287.49135221087187",18/12/21 22:47:44
"1","26","344.6903817668593","288.6167624456348",18/12/21 22:47:44
"1","26","344.6903817668593","288.6167624456348",18/12/21 22:47:44
"1","26","344.5062893798308","287.71140703215417",18/12/21 22:47:44
"1","26","343.1846857861036","287.8447847898234",18/12/21 22:47:44
"1","26","343.1846857861036","287.8447847898234",18/12/21 22:47:44
"1","26","341.8305403921449","287.0199438516643",18/12/21 22:47:44
"1","26","342.45714694895327","288.4062331078925",18/12/21 22:47:44
"1","26","342.45714694895327","288.4062331078925",18/12/21 22:47:44
"1","26","342.08212293952704","287.71121445882017",18/12/21 22:47:44
"1","26","342.08212293952704","287.71121445882017",18/12/21 22:47:44
"1","26","343.179829798104","287.2747871733404",18/12/21 22:47:44
"1","26","343.179829798104","287.2747871733404",18/12/21 22:47:44
"1","26","342.87801803420535","287.3993618305879",18/12/21 22:47:44
"1","26","342.87801803420535","287.3993618305879",18/12/21 22:47:44
"1","26","343.82222452216695","288.0609020947235",18/12/21 22:47:44
"1","26","344.43699883021816","286.5477854006701",18/12/21 22:47:44
"1","26","344.43699883021816","286.5477854006701",18/12/21 22:47:44
"1","26","346.2756688747862","285.64666988782494",18/12/21 22:47:44
"1","26","346.2756688747862","285.64666988782494",18/12/21 22:47:44
"1","26","345.0383154172982","285.9074168986958",18/12/21 22:47:44
"1","26","348.8593391002118","285.7118078780382",18/12/21 22:47:44
"1","26","348.8593391002118","285.7118078780382",18/12/21 22:47:44
"1","26","345.23583089171905","287.67101457160214",18/12/21 22:47:44
"1","26","345.23583089171905","287.67101457160214",18/12/21 22:47:44
"1","26","347.0018156716272","287.32573756958965",18/12/21 22:47:44
"1","26","345.1853709778783","286.1665306656664",18/12/21 22:47:44
"1","26","345.1853709778783","286.1665306656664",18/12/21 22:47:44
"1","26","347.03666507572285","285.90286477925576",18/12/21 22:47:45
"1","26","347.63886226126726","285.867584248716",18/12/21 22:47:45
"1","26","347.63886226126726","285.867584248716",18/12/21 22:47:45
"1","26","347.2556506367598","286.3533379698762",18/12/21 22:47:45
"1","26","347.2556506367598","286.3533379698762",18/12/21 22:47:45
"1","26","347.31344232698416","286.5759642368877",18/12/21 22:47:45
"1","26","347.25948978100456","286.7919308764871",18/12/21 22:47:45
"1","26","347.25948978100456","286.7919308764871",18/12/21 22:47:45
"1","26","349.005550701328","287.0039354902788",18/12/21 22:47:45
"1","26","349.005550701328","287.0039354902788",18/12/21 22:47:45
"1","26","348.28490620460667","286.5821594727585",18/12/21 22:47:45
"1","26","348.28490620460667","286.5821594727585",18/12/21 22:47:45
"1","26","346.15092947749736","285.89030535893073",18/12/21 22:47:45
"1","26","346.15092947749736","285.89030535893073",18/12/21 22:47:45
"1","26","345.9343406187481","286.02247744092455",18/12/21 22:47:45
"1","26","342.527009589513","285.6360506043628",18/12/21 22:47:45
"1","26","342.527009589513","285.6360506043628",18/12/21 22:47:45
"1","26","344.37936458292734","285.8836393599274",18/12/21 22:47:45
"1","26","344.54305170203827","285.96697930317504",18/12/21 22:47:45
"1","26","344.54305170203827","285.96697930317504",18/12/21 22:47:45
"1","26","343.32684003133454","288.3287974984658",18/12/21 22:47:45
"1","26","343.32684003133454","288.3287974984658",18/12/21 22:47:45
"1","26","345.7933929436346","287.2210426710921",18/12/21 22:47:45
"1","26","346.59392077751784","287.2672366654795",18/12/21 22:47:45
"1","26","346.59392077751784","287.2672366654795",18/12/21 22:47:45
"1","26","347.7928576857904","286.94910550164116",18/12/21 22:47:45
"1","26","347.6890087256802","285.42891888348015",18/12/21 22:47:45
"1","26","347.55603899058355","286.03738309346033",18/12/21 22:47:45
"1","26","347.55603899058355","286.03738309346033",18/12/21 22:47:45
"1","26","346.2767820607789","287.0842061178539",18/12/21 22:47:45
"1","26","346.2767820607789","287.0842061178539",18/12/21 22:47:45
"1","26","345.9265668997243","286.63011892559746",18/12/21 22:47:45
"1","26","345.9265668997243","286.63011892559746",18/12/21 22:47:45
"1","26","345.56724884260404","285.5083085296492",18/12/21 22:47:45
"1","26","346.7298512439589","287.6048585254992",18/12/21 22:47:45
"1","26","347.6766217492819","288.6890403550019",18/12/21 22:47:45
"1","26","347.6766217492819","288.6890403550019",18/12/21 22:47:45
"1","26","348.7671274658444","287.6665602511162",18/12/21 22:47:45
"1","26","348.7671274658444","287.6665602511162",18/12/21 22:47:45
"1","26","350.8365327018095","287.0638133012315",18/12/21 22:47:45
"1","26","351.3878208019941","285.7380447563722",18/12/21 22:47:45
"1","26","351.3878208019941","285.7380447563722",18/12/21 22:47:45
"1","26","351.4376908852544","285.86328157850437",18/12/21 22:47:45
"1","26","351.4376908852544","285.86328157850437",18/12/21 22:47:45
"1","26","351.49998362705963","286.6110349453587",18/12/21 22:47:45
"1","26","351.49998362705963","286.6110349453587",18/12/21 22:47:45
"1","26","350.51265968851743","287.91907840495554",18/12/21 22:47:45
"1","26","350.51265968851743","287.91907840495554",18/12/21 22:47:45
"1","26","351.017419554826","287.41257691070143",18/12/21 22:47:45
"1","26","349.44826033655477","287.63053514618554",18/12/21 22:47:45
"1","26","349.44826033655477","287.63053514618554",18/12/21 22:47:46
"1","26","349.4603768658992","285.9817711543859",18/12/21 22:47:46
"1","26","349.4603768658992","285.9817711543859",18/12/21 22:47:46
"1","26","347.25245525488356","286.19664329351394",18/12/21 22:47:46
"1","26","347.25245525488356","286.19664329351394",18/12/21 22:47:46
"1","26","347.42969447624426","286.64748915647664",18/12/21 22:47:46
"1","26","347.42969447624426","286.64748915647664",18/12/21 22:47:46
"1","26","349.2343441466179","288.03525518128447",18/12/21 22:47:46
"1","26","349.2343441466179","288.03525518128447",18/12/21 22:47:46
"1","26","350.5914889762518","286.6799257745025",18/12/21 22:47:46
"1","26","350.5914889762518","286.6799257745025",18/12/21 22:47:46
"1","26","351.08136549142597","287.8888922386252",18/12/21 22:47:46
"1","26","351.08136549142597","287.8888922386252",18/12/21 22:47:46
"1","26","350.52265729390933","288.0453649873012",18/12/21 22:47:46
"1","26","350.52265729390933","288.0453649873012",18/12/21 22:47:46
"1","26","349.8787412651419","288.41476131329046",18/12/21 22:47:46
"1","26","351.2370682410538","287.1100226029493",18/12/21 22:47:46
"1","26","351.2370682410538","287.1100226029493",18/12/21 22:47:46
"1","26","351.2385188824328","288.4038264560541",18/12/21 22:47:46
"1","26","348.929212766494","287.8121359522679",18/12/21 22:47:46
"1","26","348.929212766494","287.8121359522679",18/12/21 22:47:46
"1","26","349.29675300391744","285.9805173663375",18/12/21 22:47:46
"1","26","349.29675300391744","285.9805173663375",18/12/21 22:47:46
"1","26","348.54579117192003","286.03907924902035",18/12/21 22:47:46
"1","26","349.13239699746885","286.4414358301536",18/12/21 22:47:46
"1","26","349.13239699746885","286.4414358301536",18/12/21 22:47:46
"1","26","350.98463695465693","285.39258193426394",18/12/21 22:47:46
"1","26","350.98463695465693","285.39258193426394",18/12/21 22:47:46
"1","26","350.49604572415956","285.76060353955404",18/12/21 22:47:46
"1","26","349.8357228793043","285.3971109200305",18/12/21 22:47:46
"1","26","349.8357228793043","285.3971109200305",18/12/21 22:47:46
"1","26","349.5549766212779","285.61990363815977",18/12/21 22:47:46
"1","26","350.8082799489222","285.4308992255666",18/12/21 22:47:46
"1","26","350.8082799489222","285.4308992255666",18/12/21 22:47:46
"1","26","348.61183116462064","286.7121785521546",18/12/21 22:47:46
"1","26","349.9266527371881","286.6271694148216",18/12/21 22:47:46
"1","26","350.74785757741347","286.4524681302534",18/12/21 22:47:46
"1","26","350.74785757741347","286.4524681302534",18/12/21 22:47:46
"1","26","351.3742213420901","286.08831244422674",18/12/21 22:47:46
"1","26","351.3742213420901","286.08831244422674",18/12/21 22:47:46
"1","26","348.95591076535084","285.8931805113676",18/12/21 22:47:46
"1","26","348.95591076535084","285.8931805113676",18/12/21 22:47:46
"1","26","345.5413346537158","286.46307138612667",18/12/21 22:47:46
"1","26","345.5413346537158","286.46307138612667",18/12/21 22:47:46
"1","26","345.92612728217716","287.06888757623113",18/12/21 22:47:46
"1","26","348.03764132557785","286.35318243210565",18/12/21 22:47:46
"1","26","348.03764132557785","286.35318243210565",18/12/21 22:47:46
"1","26","350.6281063552917","286.8708056576516",18/12/21 22:47:46
"1","26","350.6281063552917","286.8708056576516",18/12/21 22:47:46
"1","26","349.44392267271","285.60220775339224",18/12/21 22:47:46
"1","26","349.7694061795854","285.80679695493825",18/12/21 22:47:47
"1","26","349.7694061795854","285.80679695493825",18/12/21 22:47:47
"1","26","348.4068700946938","286.79360758399525",18/12/21 22:47:47
"1","26","349.3206342745976","287.6406437970947",18/12/21 22:47:47
"1","26","349.3206342745976","287.6406437970947",18/12/21 22:47:47
"1","26","349.2359820715134","286.14330531259293",18/12/21 22:47:47
"1","26","349.2359820715134","286.14330531259293",18/12/21 22:47:47
"1","26","351.34159337390145","287.0098328323995",18/12/21 22:47:47
"1","26","351.34159337390145","287.0098328323995",18/12/21 22:47:47
"1","26","351.0857994040708","286.124515261542",18/12/21 22:47:47
"1","26","351.0857994040708","286.124515261542",18/12/21 22:47:47
"1","26","350.8884463113515","287.93858172552694",18/12/21 22:47:47
"1","26","350.8884463113515","287.93858172552694",18/12/21 22:47:47
"1","26","350.0652103840833","286.04004887278256",18/12/21 22:47:47
"1","26","350.0652103840833","286.04004887278256",18/12/21 22:47:47
"1","26","349.9180072947248","286.833845077814",18/12/21 22:47:47
"1","26","350.112744641921","286.7934792687641",18/12/21 22:47:47
"1","26","350.112744641921","286.7934792687641",18/12/21 22:47:47
"1","26","350.0069167084291","286.60124274887323",18/12/21 22:47:47
"1","26","350.0069167084291","286.60124274887323",18/12/21 22:47:47
"1","26","350.03113261564425","286.7414968921847",18/12/21 22:47:47
"1","26","348.5623046704535","287.87544971815413",18/12/21 22:47:47
"1","26","348.5623046704535","287.87544971815413",18/12/21 22:47:47
"1","26","349.51650452407955","287.1082667314672",18/12/21 22:47:47
"1","26","349.51650452407955","287.1082667314672",18/12/21 22:47:47
"1","26","350.15864778078463","285.98397139724716",18/12/21 22:47:47
"1","26","350.15864778078463","285.98397139724716",18/12/21 22:47:47
"1","26","350.71295500572575","287.0787579086403",18/12/21 22:47:47
"1","26","350.7281273450172","287.18556321606803",18/12/21 22:47:47
"1","26","350.7281273450172","287.18556321606803",18/12/21 22:47:47
"1","26","350.3224083668883","285.84576163067624",18/12/21 22:47:47
"1","26","350.3224083668883","285.84576163067624",18/12/21 22:47:47
"1","26","350.13829596881357","285.36156332185567",18/12/21 22:47:47
"1","26","348.0263320706655","285.37619651067047",18/12/21 22:47:47
"1","26","348.0263320706655","285.37619651067047",18/12/21 22:47:47
"1","26","345.7068974729658","286.0384075702467",18/12/21 22:47:47
"1","26","345.7068974729658","286.0384075702467",18/12/21 22:47:47
"1","26","344.9653580993214","286.30691502752995",18/12/21 22:47:47
"1","26","345.52533104814785","286.5811899611247",18/12/21 22:47:47
"1","26","345.52533104814785","286.5811899611247",18/12/21 22:47:47
"1","26","342.2561639716427","287.12531082283755",18/12/21 22:47:47
"1","26","344.63696215212633","287.4325062775599",18/12/21 22:47:47
"1","26","344.63696215212633","287.4325062775599",18/12/21 22:47:47
"1","26","344.09745016611566","287.497076520024",18/12/21 22:47:47
"1","26","344.09745016611566","287.497076520024",18/12/21 22:47:47
"1","26","345.0729016467178","286.4094658915508",18/12/21 22:47:47
"1","26","345.0729016467178","286.4094658915508",18/12/21 22:47:47
"1","26","346.1452835300421","287.9638667777053",18/12/21 22:47:47
"1","26","346.1452835300421","287.9638667777053",18/12/21 22:47:47
"1","26","346.01931857245626","286.93675621667927",18/12/21 22:47:47
"1","26","345.4991984241643","286.9786270352318",18/12/21 22:47:48
"1","26","345.4991984241643","286.9786270352318",18/12/21 22:47:48
"1","26","346.93053440649203","286.72147953718786",18/12/21 22:47:48
"1","26","346.93053440649203","286.72147953718786",18/12/21 22:47:48
"1","26","347.96914198205485","285.5044093235484",18/12/21 22:47:48
"1","26","349.1463360240014","288.3749285519968",18/12/21 22:47:48
"1","26","349.1463360240014","288.3749285519968",18/12/21 22:47:48
"1","26","349.690223860592","287.74906407249154",18/12/21 22:47:48
"1","26","348.96887919178005","287.4090396369139",18/12/21 22:47:48
"1","26","348.96887919178005","287.4090396369139",18/12/21 22:47:48
"1","26","348.4665440304141","287.9297050279745",18/12/21 22:47:48
"1","26","348.4665440304141","287.9297050279745",18/12/21 22:47:48
"1","26","348.9143433898627","287.6570789259852",18/12/21 22:47:48
"1","26","348.9143433898627","287.6570789259852",18/12/21 22:47:48
"1","26","350.3558107389549","287.50493147082244",18/12/21 22:47:48
"1","26","350.3558107389549","287.50493147082244",18/12/21 22:47:48
"1","26","349.79380510076265","285.99188028364813",18/12/21 22:47:48
"1","26","349.91115165372577","286.2285629383547",18/12/21 22:47:48
"1","26","349.91115165372577","286.2285629383547",18/12/21 22:47:48
"1","26","347.2408788031903","286.74818977751664",18/12/21 22:47:48
"1","26","347.2408788031903","286.74818977751664",18/12/21 22:47:48
"1","26","347.2758953461592","286.74881331131354",18/12/21 22:47:48
"1","26","347.2758953461592","286.74881331131354",18/12/21 22:47:48
"1","26","344.81164343009493","286.45654119353924",18/12/21 22:47:48
"1","26","344.81164343009493","286.45654119353924",18/12/21 22:47:48
"1","26","343.36501632065244","286.28496426743436",18/12/21 22:47:48
"1","88","340.3455773093551","286.2446381989616",18/12/21 22:47:48
"1","88","340.3455773093551","286.2446381989616",18/12/21 22:47:48
"1","88","336.6466782750751","287.0268920169811",18/12/21 22:47:48
"1","88","336.6466782750751","287.0268920169811",18/12/21 22:47:48
"1","88","334.01219796555046","287.58403949830563",18/12/21 22:47:48
"1","88","334.01219796555046","287.58403949830563",18/12/21 22:47:48
"1","88","330.7762847622965","287.39484025621135",18/12/21 22:47:48
"1","88","330.7762847622965","287.39484025621135",18/12/21 22:47:48
"1","88","329.3794584997246","286.7130944575187",18/12/21 22:47:48
"1","88","326.58634891327654","285.34986785098073",18/12/21 22:47:48
"1","88","326.58634891327654","285.34986785098073",18/12/21 22:47:48
"1","40","325.9931640775409","281.20353269759266",18/12/21 22:47:48
"1","40","325.9931640775409","281.20353269759266",18/12/21 22:47:48
"1","40","324.89225249280554","279.93525874226145",18/12/21 22:47:48
"1","40","324.89225249280554","279.93525874226145",18/12/21 22:47:48
"1","40","326.38980050190156","278.46794591164905",18/12/21 22:47:48
"1","40","326.38980050190156","278.46794591164905",18/12/21 22:47:48
"1","40","324.38260799125794","278.35086833102764",18/12/21 22:47:48
"1","40","324.38260799125794","278.35086833102764",18/12/21 22:47:48
"1","40","324.5599872314395","282.5645513204823",18/12/21 22:47:48
"1","40","324.5599872314395","282.5645513204823",18/12/21 22:47:48
"1","40","325.1775316711051","282.73604260328915",18/12/21 22:47:48
"1","40","325.1775316711051","282.73604260328915",18/12/21 22:47:48
"1","40","323.25643943757706","280.75469206446223",18/12/21 22:47:48
"1","40","323.25643943757706","280.75469206446223",18/12/21 22:47:49
"1","40","323.12433948625153","281.0398820231324",18/12/21 22:47:49
"1","40","323.12433948625153","281.0398820231324",18/12/21 22:47:49
"1","40","324.11876923201066","282.3728308184157",18/12/21 22:47:49
"1","40","324.11876923201066","282.3728308184157",18/12/21 22:47:49
"1","40","322.25141948685643","283.8940560840401",18/12/21 22:47:49
"1","40","325.57044604547184","283.9257652660886",18/12/21 22:47:49
"1","40","325.57044604547184","283.9257652660886",18/12/21 22:47:49
"1","40","325.73450986985887","284.21724541487646",18/12/21 22:47:49
"1","40","325.73450986985887","284.21724541487646",18/12/21 22:47:49
"1","40","323.863641028739","282.3394883750642",18/12/21 22:47:49
"1","40","323.863641028739","282.3394883750642",18/12/21 22:47:49
"1","40","321.9055609974096","280.81102432648066",18/12/21 22:47:49
"1","40","321.9055609974096","280.81102432648066",18/12/21 22:47:49
"1","40","323.5966741875704","279.9773114292881",18/12/21 22:47:49
"1","40","323.5966741875704","279.9773114292881",18/12/21 22:47:49
"1","40","323.6158264569726","282.30028083607664",18/12/21 22:47:49
"1","40","323.6158264569726","282.30028083607664",18/12/21 22:47:49
"1","40","322.78228907655296","282.91566477604925",18/12/21 22:47:49
"1","40","322.8213029498016","282.85589458501005",18/12/21 22:47:49
"1","40","322.8213029498016","282.85589458501005",18/12/21 22:47:49
"1","40","321.98726240927886","283.02976005276685",18/12/21 22:47:49
"1","40","321.88208224939507","283.0100907623123",18/12/21 22:47:49
"1","40","321.88208224939507","283.0100907623123",18/12/21 22:47:49
"1","40","325.1406314860412","279.8236024651357",18/12/21 22:47:49
"1","40","325.1406314860412","279.8236024651357",18/12/21 22:47:49
"1","40","324.1123893353357","281.91108281233767",18/12/21 22:47:49
"1","40","324.1123893353357","281.91108281233767",18/12/21 22:47:49
"1","40","324.252602963639","281.81657648115737",18/12/21 22:47:49
"1","40","323.646812495998","283.32838408981996",18/12/21 22:47:49
"1","40","323.80742390690733","284.1833019215128",18/12/21 22:47:49
"1","40","323.5941414298101","284.1833019215128",18/12/21 22:47:49
"1","40","324.26543456888317","282.80098825146945",18/12/21 22:47:49
"1","40","322.70304776375343","283.3678476171665",18/12/21 22:47:49
"1","40","322.4743986846909","282.838983826327",18/12/21 22:47:49
"1","40","322.3491665700358","282.8482705772849",18/12/21 22:47:49
"1","40","324.4654007147871","282.43653862522154",18/12/21 22:47:49
"1","40","324.4654007147871","282.43653862522154",18/12/21 22:47:49
"1","40","322.1469332340928","280.2565363935947",18/12/21 22:47:49
"1","40","322.1469332340928","280.2565363935947",18/12/21 22:47:49
"1","40","322.0984848876105","281.23672680161985",18/12/21 22:47:49
"1","40","322.0984848876105","281.23672680161985",18/12/21 22:47:49
"1","40","324.13556444740027","279.85621696203197",18/12/21 22:47:49
"1","40","322.07943430241977","278.7360102988171",18/12/21 22:47:49
"1","40","322.07943430241977","278.7360102988171",18/12/21 22:47:49
"1","40","322.5017455012291","278.1683874017755",18/12/21 22:47:49
"1","40","322.5017455012291","278.1683874017755",18/12/21 22:47:49
"1","40","324.19119338174175","279.4042967387958",18/12/21 22:47:49
"1","40","322.2527876367693","281.1560006442314",18/12/21 22:47:49
"1","40","322.2527876367693","281.1560006442314",18/12/21 22:47:49
"1","40","323.41708742652787","280.67752558023165",18/12/21 22:47:50
"1","40","322.49406301227555","281.5245577801157",18/12/21 22:47:50
"1","40","322.49406301227555","281.5245577801157",18/12/21 22:47:50
"1","40","324.17492204027315","283.33519900130835",18/12/21 22:47:50
"1","40","324.17492204027315","283.33519900130835",18/12/21 22:47:50
"1","88","326.56534871605544","285.56497677318714",18/12/21 22:47:50
"1","88","327.94395791534794","286.31081428968685",18/12/21 22:47:50
"1","88","329.4175227332287","287.1080234804666",18/12/21 22:47:50
"1","88","329.4175227332287","287.1080234804666",18/12/21 22:47:50
"1","26","333.52780481443","288.4807321975799",18/12/21 22:47:50
"1","26","333.52780481443","288.4807321975799",18/12/21 22:47:50
"1","26","337.1197500655425","288.39001296336295",18/12/21 22:47:50
"1","26","337.1197500655425","288.39001296336295",18/12/21 22:47:50
"1","26","340.6806779372146","288.3000771132773",18/12/21 22:47:50
"1","26","340.6806779372146","288.3000771132773",18/12/21 22:47:50
"1","26","342.66583268056405","287.38559186223233",18/12/21 22:47:50
"1","42","345.873633320255","284.7549558501518",18/12/21 22:47:50
"1","42","345.873633320255","284.7549558501518",18/12/21 22:47:50
"1","42","345.58121757357196","282.7879046037969",18/12/21 22:47:50
"1","42","345.4693598210227","282.03544877998297",18/12/21 22:47:50
"1","42","345.06252418347924","281.8603006426439",18/12/21 22:47:50
"1","42","345.06252418347924","281.8603006426439",18/12/21 22:47:50
"1","42","344.5352722587171","283.75368020013013",18/12/21 22:47:50
"1","42","344.5352722587171","283.75368020013013",18/12/21 22:47:50
"1","42","345.91852219677617","282.6165199910062",18/12/21 22:47:50
"1","42","345.91852219677617","282.6165199910062",18/12/21 22:47:50
"1","42","345.78009579458427","282.1264067763359",18/12/21 22:47:50
"1","42","345.78009579458427","282.1264067763359",18/12/21 22:47:50
"1","42","346.05496493369697","282.72120830273786",18/12/21 22:47:50
"1","42","345.5034473219161","282.76279894040925",18/12/21 22:47:50
"1","42","345.4666416006233","283.7613071632559",18/12/21 22:47:50
"1","42","345.4666416006233","283.7613071632559",18/12/21 22:47:50
"1","42","345.2703374820614","284.207823800978",18/12/21 22:47:50
"1","42","345.2703374820614","284.207823800978",18/12/21 22:47:50
"1","42","345.97639300882184","282.582491040322",18/12/21 22:47:50
"1","42","344.5940020573555","284.3627343206938",18/12/21 22:47:50
"1","42","344.873305615308","283.95639225634926",18/12/21 22:47:50
"1","42","345.3871712873719","284.2783867378286",18/12/21 22:47:50
"1","42","345.3871712873719","284.2783867378286",18/12/21 22:47:50
"1","42","343.9091468258458","284.7895227090881",18/12/21 22:47:50
"1","42","343.9091468258458","284.7895227090881",18/12/21 22:47:50
"1","42","343.70458502836345","283.5102411839457",18/12/21 22:47:50
"1","42","343.70458502836345","283.5102411839457",18/12/21 22:47:50
"1","42","345.6771557744606","280.25168348608247",18/12/21 22:47:50
"1","42","345.82870465328836","279.9425320750565",18/12/21 22:47:50
"1","42","345.80268047577596","280.5086563985289",18/12/21 22:47:50
"1","42","345.80268047577596","280.5086563985289",18/12/21 22:47:50
"1","42","346.48207403248136","280.0460526974212",18/12/21 22:47:50
"1","42","345.9961445155836","280.0460526974212",18/12/21 22:47:50
"1","42","344.9227732984342","280.5218747838783",18/12/21 22:47:51
"1","42","344.9227732984342","280.5218747838783",18/12/21 22:47:51
"1","42","345.4276492352008","281.33890791359994",18/12/21 22:47:51
"1","42","345.4276492352008","281.33890791359994",18/12/21 22:47:51
"1","42","345.153683442631","280.9466186633537",18/12/21 22:47:51
"1","42","346.35054166517216","283.3956205099038",18/12/21 22:47:51
"1","42","346.35054166517216","283.3956205099038",18/12/21 22:47:51
"1","42","344.5166460552403","284.1376809134516",18/12/21 22:47:51
"1","42","344.5166460552403","284.1376809134516",18/12/21 22:47:51
"1","42","343.66598309128807","284.35835780129213",18/12/21 22:47:51
"1","42","342.74936343885787","283.6541684196524",18/12/21 22:47:51
"1","42","342.74936343885787","283.6541684196524",18/12/21 22:47:51
"1","42","343.48395893361317","283.18437719653247",18/12/21 22:47:51
"1","42","344.81622363198125","283.88123795943704",18/12/21 22:47:51
"1","42","344.81622363198125","283.88123795943704",18/12/21 22:47:51
"1","42","342.7869427381946","283.57213261759813",18/12/21 22:47:51
"1","42","342.7869427381946","283.57213261759813",18/12/21 22:47:51
"1","42","342.8054684682429","282.84292629052317",18/12/21 22:47:51
"1","42","343.60471125385607","283.01359176381436",18/12/21 22:47:51
"1","42","343.60471125385607","283.01359176381436",18/12/21 22:47:51
"1","42","343.53584312207386","284.08430085391024",18/12/21 22:47:51
"1","42","343.53584312207386","284.08430085391024",18/12/21 22:47:51
"1","42","345.38717747338643","282.9365332714314",18/12/21 22:47:51
"1","42","345.38717747338643","282.9365332714314",18/12/21 22:47:51
"1","42","345.3598479817205","280.5073363434448",18/12/21 22:47:51
"1","42","345.3598479817205","280.5073363434448",18/12/21 22:47:51
"1","42","345.1999999707989","280.47650309293874",18/12/21 22:47:51
"1","42","343.49123946485776","281.4270199175825",18/12/21 22:47:51
"1","42","343.49123946485776","281.4270199175825",18/12/21 22:47:51
"1","42","344.1279441670329","279.49369301788676",18/12/21 22:47:51
"1","42","345.50960195652254","278.12698160281457",18/12/21 22:47:51
"1","42","345.50960195652254","278.12698160281457",18/12/21 22:47:51
"1","42","345.06045976791205","279.648567862708",18/12/21 22:47:51
"1","42","345.06045976791205","279.648567862708",18/12/21 22:47:51
"1","42","343.16022522766724","278.52719733747125",18/12/21 22:47:51
"1","42","343.0395271642304","278.54142411874193",18/12/21 22:47:51
"1","42","343.0395271642304","278.54142411874193",18/12/21 22:47:51
"1","42","344.4917005865933","279.62036924579445",18/12/21 22:47:51
"1","42","344.4917005865933","279.62036924579445",18/12/21 22:47:51
"1","42","345.7608828916231","280.54316254093044",18/12/21 22:47:51
"1","42","345.7608828916231","280.54316254093044",18/12/21 22:47:51
"1","42","343.8411121312863","278.4402716242647",18/12/21 22:47:51
"1","42","343.8411121312863","278.4402716242647",18/12/21 22:47:51
"1","42","345.96753213001114","278.83274562977755",18/12/21 22:47:51
"1","42","345.1824365884718","278.2804914681555",18/12/21 22:47:51
"1","42","345.1824365884718","278.2804914681555",18/12/21 22:47:51
"1","42","345.12744770366515","278.83177131506153",18/12/21 22:47:51
"1","42","345.12744770366515","278.83177131506153",18/12/21 22:47:51
"1","42","344.3643952205124","280.0629095409595",18/12/21 22:47:51
"1","42","342.2495453502355","282.23213982786393",18/12/21 22:47:51
"1","42","342.2495453502355","282.23213982786393",18/12/21 22:47:52
"1","42","343.24479517180504","279.8276122028369",18/12/21 22:47:52
"1","42","343.24479517180504","279.8276122028369",18/12/21 22:47:52
"1","42","343.277938715344","279.3529149892515",18/12/21 22:47:52
"1","42","343.277938715344","279.3529149892515",18/12/21 22:47:52
"1","42","344.4333308194863","280.60375003751807",18/12/21 22:47:52
"1","42","344.4333308194863","280.60375003751807",18/12/21 22:47:52
"1","42","344.75399873416103","279.9115835817395",18/12/21 22:47:52
"1","42","344.75399873416103","279.9115835817395",18/12/21 22:47:52
"1","42","344.44086049917524","279.2020297851873",18/12/21 22:47:52
"1","42","344.44086049917524","279.2020297851873",18/12/21 22:47:52
"1","42","344.58794404790825","280.4289746837473",18/12/21 22:47:52
"1","42","344.58794404790825","280.4289746837473",18/12/21 22:47:52
"1","42","343.96534062982414","281.1346638374474",18/12/21 22:47:52
"1","42","343.96534062982414","281.1346638374474",18/12/21 22:47:52
"1","42","343.39664154946087","279.9933514196874",18/12/21 22:47:52
"1","42","343.39664154946087","279.9933514196874",18/12/21 22:47:52
"1","42","345.25914028454645","279.99898566741336",18/12/21 22:47:52
"1","42","345.25914028454645","279.99898566741336",18/12/21 22:47:52
"1","42","345.2911049958395","279.9952278474909",18/12/21 22:47:52
"1","42","346.2956096562041","284.54341460502064",18/12/21 22:47:52
"1","42","346.2956096562041","284.54341460502064",18/12/21 22:47:52
"1","42","345.4896603931378","282.132529600475",18/12/21 22:47:52
"1","42","344.26718857905377","284.16782922652135",18/12/21 22:47:52
"1","42","344.26718857905377","284.16782922652135",18/12/21 22:47:52
"1","42","343.04290524124264","281.60436907755644",18/12/21 22:47:52
"1","42","343.04290524124264","281.60436907755644",18/12/21 22:47:52
"1","42","344.7665122486745","281.1506290856347",18/12/21 22:47:52
"1","42","344.7665122486745","281.1506290856347",18/12/21 22:47:52
"1","42","345.17355970907533","281.59789773350684",18/12/21 22:47:52
"1","42","345.17355970907533","281.59789773350684",18/12/21 22:47:52
"1","42","344.1478161410127","282.7460520534409",18/12/21 22:47:52
"1","42","344.1478161410127","282.7460520534409",18/12/21 22:47:52
"1","42","343.30511252840694","282.75123314470113",18/12/21 22:47:52
"1","42","343.30511252840694","282.75123314470113",18/12/21 22:47:52
"1","42","345.29413290963413","284.17991686602636",18/12/21 22:47:52
"1","42","344.15137419814295","283.989051880787",18/12/21 22:47:52
"1","42","344.15137419814295","283.989051880787",18/12/21 22:47:52
"1","42","344.05208263781134","282.43849180994613",18/12/21 22:47:52
"1","42","344.05208263781134","282.43849180994613",18/12/21 22:47:52
"1","42","346.2655194390385","282.84037135457663",18/12/21 22:47:52
"1","42","346.07124649477123","282.87425087314574",18/12/21 22:47:52
"1","42","346.07124649477123","282.87425087314574",18/12/21 22:47:52
"1","42","345.4067591589902","281.207129736969",18/12/21 22:47:52
"1","42","345.4067591589902","281.207129736969",18/12/21 22:47:52
"1","42","344.87026962941104","279.8807470562925",18/12/21 22:47:52
"1","42","344.87026962941104","279.8807470562925",18/12/21 22:47:52
"1","42","344.98834819983404","278.5308767997619",18/12/21 22:47:52
"1","42","344.98834819983404","278.5308767997619",18/12/21 22:47:52
"1","42","343.49757509429065","278.3724858923304",18/12/21 22:47:52
"1","42","344.94265417910896","279.22046507004205",18/12/21 22:47:53
"1","42","344.94265417910896","279.22046507004205",18/12/21 22:47:53
"1","42","345.1060603227532","278.70948067204563",18/12/21 22:47:53
"1","42","344.4769251676138","277.9064772084643",18/12/21 22:47:53
"1","42","344.4769251676138","277.9064772084643",18/12/21 22:47:53
"1","42","342.2036440302113","278.3897747222745",18/12/21 22:47:53
"1","42","342.2036440302113","278.3897747222745",18/12/21 22:47:53
"1","42","342.2669712156314","278.37655383007325",18/12/21 22:47:53
"1","42","343.51956144829194","280.0294165014674",18/12/21 22:47:53
"1","42","343.51956144829194","280.0294165014674",18/12/21 22:47:53
"1","42","343.27230431347584","280.0420848789989",18/12/21 22:47:53
"1","42","343.78474046167815","280.91390984080084",18/12/21 22:47:53
"1","42","346.16147745600523","278.8690610259135",18/12/21 22:47:53
"1","42","346.16147745600523","278.8690610259135",18/12/21 22:47:53
"1","42","344.3652777954221","278.19364620520093",18/12/21 22:47:53
"1","42","344.3652777954221","278.19364620520093",18/12/21 22:47:53
"1","42","344.365799209069","278.1914431765018",18/12/21 22:47:53
