108	OUTDOOR	diva.util.java2d.Polygon2D$Double[
]
116	318	diva.util.java2d.Polygon2D$Double[
	311.5, 277.525
	306.8333333333333, 277.525
	306.8333333333333, 284.85833333333335
	311.5, 284.85833333333335
]
117	322	diva.util.java2d.Polygon2D$Double[
	371.1666666666667, 285.35833333333335
	341.6666666666667, 285.35833333333335
	341.6666666666667, 288.69166666666666
	371.1666666666667, 288.69166666666666
]
119	306	diva.util.java2d.Polygon2D$Double[
	361.5, 289.19166666666666
	351.8333333333333, 289.19166666666666
	351.8333333333333, 296.525
	361.5, 296.525
]
122	310	diva.util.java2d.Polygon2D$Double[
	356.8333333333333, 277.525
	356.8333333333333, 284.85833333333335
	361.5, 284.85833333333335
	361.5, 277.525
]
126	312	diva.util.java2d.Polygon2D$Double[
	346.8333333333333, 277.525
	346.8333333333333, 284.85833333333335
	351.5, 284.85833333333335
	351.5, 277.525
]
130	308	diva.util.java2d.Polygon2D$Double[
	366.8333333333333, 277.525
	366.8333333333333, 284.85833333333335
	371.1666666666667, 284.85833333333335
	371.1666666666667, 277.525
]
132	316	diva.util.java2d.Polygon2D$Double[
	316.8333333333333, 277.525
	316.8333333333333, 284.85833333333335
	321.5, 284.85833333333335
	321.5, 277.525
]
136	304	diva.util.java2d.Polygon2D$Double[
	331.8333333333333, 289.19166666666666
	331.8333333333333, 296.525
	341.5, 296.525
	341.5, 289.19166666666666
]
140	314	diva.util.java2d.Polygon2D$Double[
	326.8333333333333, 277.525
	326.8333333333333, 284.85833333333335
	331.6666666666667, 284.85833333333335
	331.6666666666667, 277.525
]
143	305	diva.util.java2d.Polygon2D$Double[
	341.8333333333333, 289.19166666666666
	341.8333333333333, 296.525
	351.5, 296.525
	351.5, 289.19166666666666
]
152	307	diva.util.java2d.Polygon2D$Double[
	371.1666666666667, 289.19166666666666
	361.8333333333333, 289.19166666666666
	361.8333333333333, 296.525
	371.1666666666667, 296.525
]
113	303	diva.util.java2d.Polygon2D$Double[
	321.8333333333333, 289.19166666666666
	321.8333333333333, 296.525
	331.5, 296.525
	331.5, 289.19166666666666
]
156	315	diva.util.java2d.Polygon2D$Double[
	321.8333333333333, 277.525
	321.8333333333333, 284.85833333333335
	326.5, 284.85833333333335
	326.5, 277.525
]
167	311	diva.util.java2d.Polygon2D$Double[
	356.5, 277.525
	351.8333333333333, 277.525
	351.8333333333333, 284.85833333333335
	356.5, 284.85833333333335
]
169	302	diva.util.java2d.Polygon2D$Double[
	311.8333333333333, 289.19166666666666
	311.8333333333333, 296.525
	321.5, 296.525
	321.5, 289.19166666666666
]
181	309	diva.util.java2d.Polygon2D$Double[
	361.8333333333333, 277.525
	361.8333333333333, 284.85833333333335
	366.5, 284.85833333333335
	366.5, 277.525
]
185	319	diva.util.java2d.Polygon2D$Double[
	302.1666666666667, 277.525
	302.1666666666667, 284.85833333333335
	306.5, 284.85833333333335
	306.5, 277.525
]
188	320	diva.util.java2d.Polygon2D$Double[
	331.6666666666667, 285.35833333333335
	302.1666666666667, 285.35833333333335
	302.1666666666667, 288.69166666666666
	331.6666666666667, 288.69166666666666
]
190	321	diva.util.java2d.Polygon2D$Double[
	332.1666666666667, 288.69166666666666
	341.1666666666667, 288.69166666666666
	341.1666666666667, 274.19166666666666
	332.1666666666667, 274.19166666666666
]
191	317	diva.util.java2d.Polygon2D$Double[
	311.8333333333333, 277.525
	311.8333333333333, 284.85833333333335
	316.5, 284.85833333333335
	316.5, 277.525
]
192	313	diva.util.java2d.Polygon2D$Double[
	341.6666666666667, 277.525
	341.6666666666667, 284.85833333333335
	346.5, 284.85833333333335
	346.5, 277.525
]
193	301	diva.util.java2d.Polygon2D$Double[
	302.1666666666667, 289.19166666666666
	302.1666666666667, 296.525
	311.5, 296.525
	311.5, 289.19166666666666
]
109	OUTDOOR	diva.util.java2d.Polygon2D$Double[
]
118	401	diva.util.java2d.Polygon2D$Double[
	330.0, 294.8466666666667
	330.0, 298.69166666666666
	343.3333333333333, 298.69166666666666
	343.3333333333333, 294.8466666666667
]
155	403	diva.util.java2d.Polygon2D$Double[
	300.0, 275.35833333333335
	300.0, 278.73333333333335
	331.6666666666667, 278.73333333333335
	331.6666666666667, 275.35833333333335
]
164	402	diva.util.java2d.Polygon2D$Double[
	341.6666666666667, 295.31666666666666
	341.6666666666667, 298.69166666666666
	373.3333333333333, 298.69166666666666
	373.3333333333333, 295.31666666666666
]
110	OUTDOOR	diva.util.java2d.Polygon2D$Double[
]
124	214	diva.util.java2d.Polygon2D$Double[
	326.8333333333333, 277.525
	326.8333333333333, 284.85833333333335
	331.6666666666667, 284.85833333333335
	331.6666666666667, 277.525
]
128	208	diva.util.java2d.Polygon2D$Double[
	366.8333333333333, 277.525
	366.8333333333333, 284.85833333333335
	371.1666666666667, 284.85833333333335
	371.1666666666667, 277.525
]
133	209	diva.util.java2d.Polygon2D$Double[
	361.8333333333333, 277.525
	361.8333333333333, 284.85833333333335
	366.5, 284.85833333333335
	366.5, 277.525
]
137	221	diva.util.java2d.Polygon2D$Double[
	332.1666666666667, 288.69166666666666
	341.1666666666667, 288.69166666666666
	341.1666666666667, 274.19166666666666
	332.1666666666667, 274.19166666666666
]
138	219	diva.util.java2d.Polygon2D$Double[
	302.1666666666667, 277.525
	302.1666666666667, 284.85833333333335
	306.5, 284.85833333333335
	306.5, 277.525
]
139	201	diva.util.java2d.Polygon2D$Double[
	311.5, 289.19166666666666
	302.1666666666667, 289.19166666666666
	302.1666666666667, 296.525
	311.5, 296.525
]
141	205	diva.util.java2d.Polygon2D$Double[
	341.8333333333333, 289.19166666666666
	341.8333333333333, 296.525
	346.5, 296.525
	346.5, 289.19166666666666
]
147	210	diva.util.java2d.Polygon2D$Double[
	356.8333333333333, 277.525
	356.8333333333333, 284.85833333333335
	361.5, 284.85833333333335
	361.5, 277.525
]
151	215	diva.util.java2d.Polygon2D$Double[
	321.8333333333333, 277.525
	321.8333333333333, 284.85833333333335
	326.5, 284.85833333333335
	326.5, 277.525
]
153	203	diva.util.java2d.Polygon2D$Double[
	331.5, 289.19166666666666
	321.8333333333333, 289.19166666666666
	321.8333333333333, 296.525
	331.5, 296.525
]
123	220	diva.util.java2d.Polygon2D$Double[
	331.6666666666667, 285.35833333333335
	302.1666666666667, 285.35833333333335
	302.1666666666667, 288.69166666666666
	331.6666666666667, 288.69166666666666
]
159	218	diva.util.java2d.Polygon2D$Double[
	306.8333333333333, 277.525
	306.8333333333333, 284.85833333333335
	311.5, 284.85833333333335
	311.5, 277.525
]
161	213	diva.util.java2d.Polygon2D$Double[
	346.5, 277.525
	341.6666666666667, 277.525
	341.6666666666667, 284.85833333333335
	346.5, 284.85833333333335
]
162	207	diva.util.java2d.Polygon2D$Double[
	371.1666666666667, 289.19166666666666
	356.8333333333333, 289.19166666666666
	356.8333333333333, 296.525
	371.1666666666667, 296.525
]
163	217	diva.util.java2d.Polygon2D$Double[
	316.5, 277.525
	311.8333333333333, 277.525
	311.8333333333333, 284.85833333333335
	316.5, 284.85833333333335
]
165	202	diva.util.java2d.Polygon2D$Double[
	321.5, 289.19166666666666
	311.8333333333333, 289.19166666666666
	311.8333333333333, 296.525
	321.5, 296.525
]
168	204	diva.util.java2d.Polygon2D$Double[
	341.5, 289.19166666666666
	331.8333333333333, 289.19166666666666
	331.8333333333333, 296.525
	341.5, 296.525
]
177	206	diva.util.java2d.Polygon2D$Double[
	346.8333333333333, 289.19166666666666
	346.8333333333333, 296.525
	356.5, 296.525
	356.5, 289.19166666666666
]
183	212	diva.util.java2d.Polygon2D$Double[
	346.8333333333333, 277.525
	346.8333333333333, 284.85833333333335
	351.5, 284.85833333333335
	351.5, 277.525
]
194	216	diva.util.java2d.Polygon2D$Double[
	316.8333333333333, 277.525
	316.8333333333333, 284.85833333333335
	321.5, 284.85833333333335
	321.5, 277.525
]
154	222	diva.util.java2d.Polygon2D$Double[
	371.1666666666667, 285.35833333333335
	341.6666666666667, 285.35833333333335
	341.6666666666667, 288.69166666666666
	371.1666666666667, 288.69166666666666
]
176	211	diva.util.java2d.Polygon2D$Double[
	356.5, 277.525
	351.8333333333333, 277.525
	351.8333333333333, 284.85833333333335
	356.5, 284.85833333333335
]
111	OUTDOOR	diva.util.java2d.Polygon2D$Double[
]
114	107	diva.util.java2d.Polygon2D$Double[
	366.8333333333333, 277.525
	366.8333333333333, 284.85833333333335
	371.1666666666667, 284.85833333333335
	371.1666666666667, 277.525
]
120	112	diva.util.java2d.Polygon2D$Double[
	341.6666666666667, 277.525
	341.6666666666667, 284.85833333333335
	346.5, 284.85833333333335
	346.5, 277.525
]
121	108	diva.util.java2d.Polygon2D$Double[
	366.5, 277.525
	361.8333333333333, 277.525
	361.8333333333333, 284.85833333333335
	366.5, 284.85833333333335
]
129	104	diva.util.java2d.Polygon2D$Double[
	326.8333333333333, 289.19166666666666
	326.8333333333333, 296.525
	331.6666666666667, 296.525
	331.6666666666667, 289.19166666666666
]
135	111	diva.util.java2d.Polygon2D$Double[
	346.8333333333333, 277.525
	346.8333333333333, 284.85833333333335
	351.5, 284.85833333333335
	351.5, 277.525
]
144	101	diva.util.java2d.Polygon2D$Double[
	302.1666666666667, 296.525
	306.5, 296.525
	306.5, 289.19166666666666
	302.1666666666667, 289.19166666666666
]
146	114	diva.util.java2d.Polygon2D$Double[
	326.5, 277.525
	311.8333333333333, 277.525
	311.8333333333333, 284.85833333333335
	326.5, 284.85833333333335
]
150	102	diva.util.java2d.Polygon2D$Double[
	306.8333333333333, 296.525
	316.5, 296.525
	316.5, 289.19166666666666
	306.8333333333333, 289.19166666666666
]
158	116	diva.util.java2d.Polygon2D$Double[
	331.6666666666667, 285.35833333333335
	302.1666666666667, 285.35833333333335
	302.1666666666667, 288.69166666666666
	331.6666666666667, 288.69166666666666
]
160	117	diva.util.java2d.Polygon2D$Double[
	332.1666666666667, 299.85833333333335
	341.1666666666667, 299.85833333333335
	341.1666666666667, 274.19166666666666
	332.1666666666667, 274.19166666666666
]
166	115	diva.util.java2d.Polygon2D$Double[
	311.5, 277.525
	302.1666666666667, 277.525
	302.1666666666667, 284.85833333333335
	311.5, 284.85833333333335
]
170	103	diva.util.java2d.Polygon2D$Double[
	316.8333333333333, 289.19166666666666
	316.8333333333333, 296.525
	326.5, 296.525
	326.5, 289.19166666666666
]
171	109	diva.util.java2d.Polygon2D$Double[
	356.8333333333333, 277.525
	356.8333333333333, 284.85833333333335
	361.5, 284.85833333333335
	361.5, 277.525
]
172	106	diva.util.java2d.Polygon2D$Double[
	371.1666666666667, 289.19166666666666
	356.8333333333333, 289.19166666666666
	356.8333333333333, 296.525
	371.1666666666667, 296.525
]
179	105	diva.util.java2d.Polygon2D$Double[
	356.5, 289.19166666666666
	341.6666666666667, 289.19166666666666
	341.6666666666667, 296.525
	356.5, 296.525
]
180	118	diva.util.java2d.Polygon2D$Double[
	371.1666666666667, 285.35833333333335
	341.6666666666667, 285.35833333333335
	341.6666666666667, 288.69166666666666
	371.1666666666667, 288.69166666666666
]
182	113	diva.util.java2d.Polygon2D$Double[
	326.8333333333333, 277.525
	326.8333333333333, 284.85833333333335
	331.6666666666667, 284.85833333333335
	331.6666666666667, 277.525
]
189	110	diva.util.java2d.Polygon2D$Double[
	351.8333333333333, 277.525
	351.8333333333333, 284.85833333333335
	356.5, 284.85833333333335
	356.5, 277.525
]
112	OUTDOOR	diva.util.java2d.Polygon2D$Double[
]
115	012	diva.util.java2d.Polygon2D$Double[
	311.8333333333333, 277.525
	311.8333333333333, 284.85833333333335
	316.5, 284.85833333333335
	316.5, 277.525
]
125	002	diva.util.java2d.Polygon2D$Double[
	311.8333333333333, 289.19166666666666
	311.8333333333333, 296.525
	321.5, 296.525
	321.5, 289.19166666666666
]
127	003	diva.util.java2d.Polygon2D$Double[
	321.8333333333333, 289.19166666666666
	321.8333333333333, 296.525
	331.5, 296.525
	331.5, 289.19166666666666
]
131	013	diva.util.java2d.Polygon2D$Double[
	311.5, 277.525
	306.8333333333333, 277.525
	306.8333333333333, 284.85833333333335
	311.5, 284.85833333333335
]
134	001	diva.util.java2d.Polygon2D$Double[
	302.1666666666667, 289.19166666666666
	302.1666666666667, 296.525
	311.5, 296.525
	311.5, 289.19166666666666
]
142	017	diva.util.java2d.Polygon2D$Double[
	351.5, 285.35833333333335
	341.6666666666667, 285.35833333333335
	341.6666666666667, 288.69166666666666
	351.5, 288.69166666666666
]
145	005	diva.util.java2d.Polygon2D$Double[
	341.8333333333333, 289.19166666666666
	341.8333333333333, 296.525
	351.5, 296.525
	351.5, 289.19166666666666
]
148	007	diva.util.java2d.Polygon2D$Double[
	346.8333333333333, 277.525
	346.8333333333333, 284.85833333333335
	351.5, 284.85833333333335
	351.5, 277.525
]
149	004	diva.util.java2d.Polygon2D$Double[
	331.8333333333333, 289.19166666666666
	331.8333333333333, 296.525
	341.5, 296.525
	341.5, 289.19166666666666
]
157	016	diva.util.java2d.Polygon2D$Double[
	332.1666666666667, 288.69166666666666
	341.1666666666667, 288.69166666666666
	341.1666666666667, 274.19166666666666
	332.1666666666667, 274.19166666666666
]
173	011	diva.util.java2d.Polygon2D$Double[
	316.8333333333333, 277.525
	316.8333333333333, 284.85833333333335
	321.5, 284.85833333333335
	321.5, 277.525
]
174	015	diva.util.java2d.Polygon2D$Double[
	331.6666666666667, 285.35833333333335
	302.1666666666667, 285.35833333333335
	302.1666666666667, 288.69166666666666
	331.6666666666667, 288.69166666666666
]
175	008	diva.util.java2d.Polygon2D$Double[
	341.6666666666667, 277.525
	341.6666666666667, 284.85833333333335
	346.5, 284.85833333333335
	346.5, 277.525
]
178	006	diva.util.java2d.Polygon2D$Double[
	351.8333333333333, 277.525
	351.8333333333333, 296.525
	371.1666666666667, 296.525
	371.1666666666667, 277.525
]
184	014	diva.util.java2d.Polygon2D$Double[
	302.1666666666667, 277.525
	302.1666666666667, 284.85833333333335
	306.5, 284.85833333333335
	306.5, 277.525
]
186	010	diva.util.java2d.Polygon2D$Double[
	321.8333333333333, 277.525
	321.8333333333333, 284.85833333333335
	326.5, 284.85833333333335
	326.5, 277.525
]
187	009	diva.util.java2d.Polygon2D$Double[
	326.8333333333333, 277.525
	326.8333333333333, 284.85833333333335
	331.6666666666667, 284.85833333333335
	331.6666666666667, 277.525
]
